{
  "name": "+1 Armour Special Abilities",
  "description": "",
  "results": [
    {
      "_id": "JYZOpwmA02XbWblw",
      "flags": {},
      "type": 0,
      "text": "Benevolent",
      "weight": 6,
      "range": [1, 6],
      "drawn": false,
      "img": null,
      "documentCollection": "",
      "documentId": null
    },
    {
      "_id": "DWrfaz8Q5soC8YTl",
      "flags": {},
      "type": 0,
      "text": "Poison-resistant",
      "weight": 6,
      "range": [7, 12],
      "drawn": false,
      "img": null,
      "documentCollection": "",
      "documentId": null
    },
    {
      "_id": "ELueKvud7RcKelBA",
      "flags": {},
      "type": 0,
      "text": "Balanced",
      "weight": 6,
      "range": [13, 18],
      "drawn": false,
      "img": null,
      "documentCollection": "",
      "documentId": null
    },
    {
      "_id": "a9yAUxCwIIsQRTSi",
      "flags": {},
      "type": 0,
      "text": "Bitter",
      "weight": 6,
      "range": [19, 24],
      "drawn": false,
      "img": null,
      "documentCollection": "",
      "documentId": null
    },
    {
      "_id": "T4TrQsrSDlUBMcmJ",
      "flags": {},
      "type": 0,
      "text": "Bolstering",
      "weight": 6,
      "range": [25, 30],
      "drawn": false,
      "img": null,
      "documentCollection": "",
      "documentId": null
    },
    {
      "_id": "3BIWLF6vbgVRbeXM",
      "flags": {},
      "type": 0,
      "text": "Brawling",
      "weight": 6,
      "range": [31, 36],
      "drawn": false,
      "img": null,
      "documentCollection": "",
      "documentId": null
    },
    {
      "_id": "sV3dAGM3qaZxyTUV",
      "flags": {},
      "type": 0,
      "text": "Champion",
      "weight": 6,
      "range": [37, 42],
      "drawn": false,
      "img": null,
      "documentCollection": "",
      "documentId": null
    },
    {
      "_id": "uvik4VsAKIPLF3Z7",
      "flags": {},
      "type": 0,
      "text": "Dastard",
      "weight": 6,
      "range": [43, 48],
      "drawn": false,
      "img": null,
      "documentCollection": "",
      "documentId": null
    },
    {
      "_id": "kuk6ya1DHmRAuGXB",
      "flags": {},
      "type": 0,
      "text": "Deathless",
      "weight": 6,
      "range": [49, 54],
      "drawn": false,
      "img": null,
      "documentCollection": "",
      "documentId": null
    },
    {
      "_id": "gVqCFvZgVowX6yKR",
      "flags": {},
      "type": 0,
      "text": "Defiant",
      "weight": 6,
      "range": [55, 60],
      "drawn": false,
      "img": null,
      "documentCollection": "",
      "documentId": null
    },
    {
      "_id": "0DdZnepdJHkKvoI7",
      "flags": {},
      "type": 0,
      "text": "Light Forification",
      "weight": 6,
      "range": [61, 66],
      "drawn": false,
      "img": null,
      "documentCollection": "",
      "documentId": null
    },
    {
      "_id": "spKe3BROw7nIRpbO",
      "flags": {},
      "type": 0,
      "text": "Grinding",
      "weight": 5,
      "range": [67, 71],
      "drawn": false,
      "img": null,
      "documentCollection": "",
      "documentId": null
    },
    {
      "_id": "D4Xjyrmg7KKXfgsU",
      "flags": {},
      "type": 0,
      "text": "Impervious",
      "weight": 5,
      "range": [72, 76],
      "drawn": false,
      "img": null,
      "documentCollection": "",
      "documentId": null
    },
    {
      "_id": "PQIf7Mcx7w9Z7sPA",
      "flags": {},
      "type": 0,
      "text": "Mirrored",
      "weight": 6,
      "range": [77, 82],
      "drawn": false,
      "img": null,
      "documentCollection": "",
      "documentId": null
    },
    {
      "_id": "YfBpdoYPr3TBzdGS",
      "flags": {},
      "type": 0,
      "text": "Spell storing",
      "weight": 6,
      "range": [83, 88],
      "drawn": false,
      "img": null,
      "documentCollection": "",
      "documentId": null
    },
    {
      "_id": "69n2RSjuu0QalfL2",
      "flags": {},
      "type": 0,
      "text": "Stanching",
      "weight": 6,
      "range": [89, 94],
      "drawn": false,
      "img": null,
      "documentCollection": "",
      "documentId": null
    },
    {
      "_id": "WwR5kaidaXZWB6q5",
      "flags": {},
      "type": 0,
      "text": "Warding",
      "weight": 6,
      "range": [95, 100],
      "drawn": false,
      "img": null,
      "documentCollection": "",
      "documentId": null
    }
  ],
  "formula": "1d100",
  "replacement": true,
  "displayRoll": true,
  "_id": "T3CFLxbmJCKB33Fq",
  "img": "icons/svg/d20-grey.svg",
  "sort": 0
}
