{
  "name": "+2 Shield Special Abilities",
  "description": "",
  "results": [
    {
      "_id": "PsCQ76gWCxQSWkJV",
      "flags": {},
      "type": 0,
      "text": "Rallying",
      "img": "icons/svg/d20-black.svg",
      "weight": 15,
      "range": [1, 15],
      "drawn": false,
      "documentId": null,
      "documentCollection": ""
    },
    {
      "_id": "0tYR3xQFIv1ZWkyD",
      "flags": {},
      "type": 0,
      "text": "Wyrmsbreath",
      "img": "icons/svg/d20-black.svg",
      "weight": 15,
      "range": [16, 30],
      "drawn": false,
      "documentId": null,
      "documentCollection": ""
    },
    {
      "_id": "uoZtkvneTH3U9CaX",
      "flags": {},
      "type": 0,
      "text": "Animated",
      "img": "icons/svg/d20-black.svg",
      "weight": 20,
      "range": [31, 50],
      "drawn": false,
      "documentId": null,
      "documentCollection": ""
    },
    {
      "_id": "yJanXVVKMKj5evsL",
      "flags": {},
      "type": 0,
      "text": "Arrow Deflection",
      "img": "icons/svg/d20-black.svg",
      "weight": 17,
      "range": [51, 67],
      "drawn": false,
      "documentId": null,
      "documentCollection": ""
    },
    {
      "_id": "ivPdI02SWjpyMKL3",
      "flags": {},
      "type": 0,
      "text": "Merging",
      "img": "icons/svg/d20-black.svg",
      "weight": 15,
      "range": [68, 82],
      "drawn": false,
      "documentId": null,
      "documentCollection": ""
    },
    {
      "_id": "yXbJbUwns5YGgx1B",
      "flags": {},
      "type": 0,
      "text": "Spell Resistance (13)",
      "img": "icons/svg/d20-black.svg",
      "weight": 18,
      "range": [83, 100],
      "drawn": false,
      "documentId": null,
      "documentCollection": ""
    }
  ],
  "formula": "1d100",
  "replacement": true,
  "displayRoll": true,
  "_id": "oTf08HGIdHbf3gQP",
  "img": "icons/svg/d20-grey.svg",
  "sort": 0
}
