{
  "name": "+3 Armour Special Abilities",
  "description": "",
  "results": [
    {
      "_id": "mQDe8QwRtcabxVVR",
      "flags": {},
      "type": 0,
      "text": "Adhesive",
      "weight": 8,
      "range": [1, 8],
      "drawn": false,
      "img": null,
      "documentCollection": "",
      "documentId": null
    },
    {
      "_id": "IVbkBs9svPhh76ou",
      "flags": {},
      "type": 0,
      "text": "Hosteling",
      "weight": 9,
      "range": [9, 17],
      "drawn": false,
      "img": null,
      "documentCollection": "",
      "documentId": null
    },
    {
      "_id": "dJxihx3rhORzJ7yl",
      "flags": {},
      "type": 0,
      "text": "Radiant",
      "weight": 9,
      "range": [18, 26],
      "drawn": false,
      "img": null,
      "documentCollection": "",
      "documentId": null
    },
    {
      "_id": "lkVQ5sHMeLqqj1mD",
      "flags": {},
      "type": 0,
      "text": "Delving",
      "weight": 10,
      "range": [27, 36],
      "drawn": false,
      "img": null,
      "documentCollection": "",
      "documentId": null
    },
    {
      "_id": "JkJQqts5SOjZd9A9",
      "flags": {},
      "type": 0,
      "text": "Putrid",
      "weight": 9,
      "range": [37, 45],
      "drawn": false,
      "img": null,
      "documentCollection": "",
      "documentId": null
    },
    {
      "_id": "BVwK3LrN5NVecbuO",
      "flags": {},
      "type": 0,
      "text": "Moderate Fortification",
      "weight": 10,
      "range": [46, 55],
      "drawn": false,
      "img": null,
      "documentCollection": "",
      "documentId": null
    },
    {
      "_id": "yncddxztIcCGyo6q",
      "flags": {},
      "type": 0,
      "text": "Ghost touch",
      "weight": 10,
      "range": [56, 65],
      "drawn": false,
      "img": null,
      "documentCollection": "",
      "documentId": null
    },
    {
      "_id": "erML8rBKnBEl3ozw",
      "flags": {},
      "type": 0,
      "text": "Invulnerability",
      "weight": 9,
      "range": [66, 74],
      "drawn": false,
      "img": null,
      "documentCollection": "",
      "documentId": null
    },
    {
      "_id": "kk9lnMqBmIh2bEkh",
      "flags": {},
      "type": 0,
      "text": "Spell Resistance (15)",
      "weight": 10,
      "range": [75, 84],
      "drawn": false,
      "img": null,
      "documentCollection": "",
      "documentId": null
    },
    {
      "_id": "6empTz6Fm1cOmDhV",
      "flags": {},
      "type": 0,
      "text": "Titanic",
      "weight": 8,
      "range": [85, 92],
      "drawn": false,
      "img": null,
      "documentCollection": "",
      "documentId": null
    },
    {
      "_id": "bpkd3i5z7yFsYZ50",
      "flags": {},
      "type": 0,
      "text": "Wild",
      "weight": 8,
      "range": [93, 100],
      "drawn": false,
      "img": null,
      "documentCollection": "",
      "documentId": null
    }
  ],
  "formula": "1d100",
  "replacement": true,
  "displayRoll": true,
  "_id": "qYIEE5rBdKRQsnVt",
  "img": "icons/svg/d20-grey.svg",
  "sort": 0
}
