{
  "name": "+5 Armour Special Abilities",
  "description": "",
  "results": [
    {
      "_id": "ZdbUuKkJFrgdmR3S",
      "flags": {},
      "type": 0,
      "text": "Righteous",
      "weight": 8,
      "range": [1, 8],
      "drawn": false,
      "img": null,
      "documentCollection": "",
      "documentId": null
    },
    {
      "_id": "rgOqniv8Ostqko9N",
      "flags": {},
      "type": 0,
      "text": "Unbound",
      "weight": 7,
      "range": [9, 15],
      "drawn": false,
      "img": null,
      "documentCollection": "",
      "documentId": null
    },
    {
      "_id": "LgSjdzprAMAje6Bx",
      "flags": {},
      "type": 0,
      "text": "Unrighteous",
      "weight": 8,
      "range": [16, 23],
      "drawn": false,
      "img": null,
      "documentCollection": "",
      "documentId": null
    },
    {
      "_id": "xVvdlcl0xdhDmV29",
      "flags": {},
      "type": 0,
      "text": "Vigilant",
      "weight": 7,
      "range": [24, 30],
      "drawn": false,
      "img": null,
      "documentCollection": "",
      "documentId": null
    },
    {
      "_id": "tAA3oAhMCROTnOpg",
      "flags": {},
      "type": 0,
      "text": "Determination",
      "weight": 7,
      "range": [31, 37],
      "drawn": false,
      "img": null,
      "documentCollection": "",
      "documentId": null
    },
    {
      "_id": "qfU6MdtPyNXSXiwW",
      "flags": {},
      "type": 0,
      "text": "Greater Shadow",
      "weight": 8,
      "range": [38, 45],
      "drawn": false,
      "img": null,
      "documentCollection": "",
      "documentId": null
    },
    {
      "_id": "zfQgrzSNW6i1EXHi",
      "flags": {},
      "type": 0,
      "text": "Greater Slick",
      "weight": 8,
      "range": [46, 53],
      "drawn": false,
      "img": null,
      "documentCollection": "",
      "documentId": null
    },
    {
      "_id": "27rv72cdCGsdZ6Hg",
      "flags": {},
      "type": 0,
      "text": "Imrproved Energy Resistance",
      "weight": 8,
      "range": [54, 61],
      "drawn": false,
      "img": null,
      "documentCollection": "",
      "documentId": null
    },
    {
      "_id": "A59V2awKJ6ZjQjVq",
      "flags": {},
      "type": 0,
      "text": "Etherealness",
      "weight": 8,
      "range": [62, 69],
      "drawn": false,
      "img": null,
      "documentCollection": "",
      "documentId": null
    },
    {
      "_id": "9HtywYpnjTLA90y7",
      "flags": {},
      "type": 0,
      "text": "Undead Controlling",
      "weight": 7,
      "range": [70, 76],
      "drawn": false,
      "img": null,
      "documentCollection": "",
      "documentId": null
    },
    {
      "_id": "1IaUGP8zfG8MMiWa",
      "flags": {},
      "type": 0,
      "text": "Greater Energy resistance",
      "weight": 8,
      "range": [77, 84],
      "drawn": false,
      "img": null,
      "documentCollection": "",
      "documentId": null
    },
    {
      "_id": "DtDPvsTcp7lhpVD0",
      "flags": {},
      "type": 0,
      "text": "Heavy Fortification",
      "weight": 8,
      "range": [85, 92],
      "drawn": false,
      "img": null,
      "documentCollection": "",
      "documentId": null
    },
    {
      "_id": "XWx58iM2FDeg0BIa",
      "flags": {},
      "type": 0,
      "text": "Spell Resistance (19)",
      "weight": 8,
      "range": [93, 100],
      "drawn": false,
      "img": null,
      "documentCollection": "",
      "documentId": null
    }
  ],
  "formula": "1d100",
  "replacement": true,
  "displayRoll": true,
  "_id": "hIuANPsNhZCC6vGk",
  "img": "icons/svg/d20-grey.svg",
  "sort": 0
}
