{
  "name": "Greater Major Belt",
  "description": "",
  "results": [
    {
      "_id": "Tef1qrD2RNxrDc0o",
      "flags": {},
      "type": 0,
      "text": "Belt of Stoneskin",
      "weight": 25,
      "range": [1, 25],
      "drawn": false,
      "img": null,
      "documentCollection": "",
      "documentId": null
    },
    {
      "_id": "hp9dsxkZoqQ2WoyC",
      "flags": {},
      "type": 0,
      "text": "Belt of Physical Perfection +4",
      "weight": 30,
      "range": [26, 55],
      "drawn": false,
      "img": null,
      "documentCollection": "",
      "documentId": null
    },
    {
      "_id": "Bo2rGL3bTFCZKck3",
      "flags": {},
      "type": 0,
      "text": "Belt of Physical Might +6",
      "weight": 20,
      "range": [56, 75],
      "drawn": false,
      "img": null,
      "documentCollection": "",
      "documentId": null
    },
    {
      "_id": "c8DuQpEZAU7Bf7Fb",
      "flags": {},
      "type": 0,
      "text": "Shadowform Belt",
      "weight": 15,
      "range": [76, 90],
      "drawn": false,
      "img": null,
      "documentCollection": "",
      "documentId": null
    },
    {
      "_id": "SfmML2CkrBHcNAjc",
      "flags": {},
      "type": 0,
      "text": "Belt of Physical Perfection +6",
      "weight": 10,
      "range": [91, 100],
      "drawn": false,
      "img": null,
      "documentCollection": "",
      "documentId": null
    }
  ],
  "formula": "1d100",
  "replacement": true,
  "displayRoll": true,
  "_id": "4QbAuNnheK3S8yhF",
  "img": "icons/svg/d20-grey.svg",
  "sort": 0
}
