{
  "name": "Greater Medium Eye",
  "description": "",
  "results": [
    {
      "_id": "04memsujK5tntJkV",
      "flags": {},
      "type": 0,
      "text": "Darklands Goggles",
      "weight": 21,
      "range": [1, 21],
      "drawn": false,
      "img": null,
      "documentCollection": "",
      "documentId": null
    },
    {
      "_id": "ri488jrHUHJaYb3E",
      "flags": {},
      "type": 0,
      "text": "Sniper Goggles",
      "weight": 19,
      "range": [22, 40],
      "drawn": false,
      "img": null,
      "documentCollection": "",
      "documentId": null
    },
    {
      "_id": "DEJz62sDStfX9SKJ",
      "flags": {},
      "type": 0,
      "text": "Rainbow Lenses",
      "weight": 18,
      "range": [41, 58],
      "drawn": false,
      "img": null,
      "documentCollection": "",
      "documentId": null
    },
    {
      "_id": "D03Ms8G11ZbJj54V",
      "flags": {},
      "type": 0,
      "text": "Annihilation Spectacles",
      "weight": 19,
      "range": [59, 77],
      "drawn": false,
      "img": null,
      "documentCollection": "",
      "documentId": null
    },
    {
      "_id": "XV1d4is26bIZ8Oxk",
      "flags": {},
      "type": 0,
      "text": "Eyes of Doom",
      "weight": 23,
      "range": [78, 100],
      "drawn": false,
      "img": null,
      "documentCollection": "",
      "documentId": null
    }
  ],
  "formula": "1d100",
  "replacement": true,
  "displayRoll": true,
  "_id": "Tr7BaN1xMliEd7I3",
  "img": "icons/svg/d20-grey.svg",
  "sort": 0
}
