{
  "_id": "96VCxXugdDntfujz",
  "name": "Greater Medium Magic Items",
  "description": "",
  "results": [
    {
      "_id": "G7cr9fnI7FvccaUF",
      "flags": {},
      "type": 2,
      "text": "Greater Medium Armour and Shields",
      "img": "icons/svg/d20-black.svg",
      "weight": 10,
      "range": [1, 10],
      "drawn": false,
      "documentCollection": "lf1.ultimate-equipment",
      "documentId": "33moztV07eYH49Kj"
    },
    {
      "_id": "UUzBILwaECO0WYoz",
      "flags": {},
      "type": 2,
      "text": "Greater Medium Weapon",
      "img": "icons/svg/d20-black.svg",
      "weight": 10,
      "range": [11, 20],
      "drawn": false,
      "documentCollection": "lf1.ultimate-equipment",
      "documentId": "qrNomo1XETstmGXN"
    },
    {
      "_id": "cb0uza8gqhQwLgPT",
      "flags": {},
      "type": 2,
      "text": "Uncommon Level 2 Potions and Oils",
      "img": "icons/svg/d20-black.svg",
      "weight": 5,
      "range": [21, 25],
      "drawn": false,
      "documentCollection": "lf1.ultimate-equipment",
      "documentId": "Ko7Qy2TzaofOunkI"
    },
    {
      "_id": "YHirITua4tSdV3RH",
      "flags": {},
      "type": 2,
      "text": "Uncommon Level 3 Potions and Oils",
      "img": "icons/svg/d20-black.svg",
      "weight": 5,
      "range": [26, 30],
      "drawn": false,
      "documentCollection": "lf1.ultimate-equipment",
      "documentId": "syOK3i5SVcAKvYuC"
    },
    {
      "_id": "VbuER5eJYQnIYjzw",
      "flags": {},
      "type": 2,
      "text": "Greater Medium Ring",
      "img": "icons/svg/d20-black.svg",
      "weight": 10,
      "range": [31, 40],
      "drawn": false,
      "documentCollection": "lf1.ultimate-equipment",
      "documentId": "oi89OBTO8p4JGduA"
    },
    {
      "_id": "n41cUmqky7dgYupe",
      "flags": {},
      "type": 2,
      "text": "Greater Medium Rods",
      "img": "icons/svg/d20-black.svg",
      "weight": 6,
      "range": [41, 46],
      "drawn": false,
      "documentCollection": "lf1.ultimate-equipment",
      "documentId": "zJ3iW30IzIVL55TJ"
    },
    {
      "_id": "LN178m6dr7Cu79Iq",
      "flags": {},
      "type": 2,
      "text": "Metamagic Rods +1 Level",
      "img": "icons/svg/d20-black.svg",
      "weight": 3,
      "range": [47, 49],
      "drawn": false,
      "documentCollection": "lf1.ultimate-equipment",
      "documentId": "h9UWUgzqrUn5XTMO"
    },
    {
      "_id": "J0z3FI3ErQffSF6Y",
      "flags": {},
      "type": 2,
      "text": "Greater Medium Arcane Scrolls",
      "img": "icons/svg/d20-black.svg",
      "weight": 5,
      "range": [50, 54],
      "drawn": false,
      "documentCollection": "lf1.ultimate-equipment",
      "documentId": "oAwUOm0PTpnVEBo2"
    },
    {
      "_id": "deKK89YWEMjyPIm0",
      "flags": {},
      "type": 2,
      "text": "Greater Medium Divine Scrolls",
      "img": "icons/svg/d20-black.svg",
      "weight": 5,
      "range": [55, 59],
      "drawn": false,
      "documentCollection": "lf1.ultimate-equipment",
      "documentId": "d7skvTUpsb9tpEg5"
    },
    {
      "_id": "CN8xN260LbBf2SgK",
      "flags": {},
      "type": 2,
      "text": "Greater Medium Staff",
      "img": "icons/svg/d20-black.svg",
      "weight": 3,
      "range": [60, 62],
      "drawn": false,
      "documentCollection": "lf1.ultimate-equipment",
      "documentId": "IgCCQBQKWsqRHdzc"
    },
    {
      "_id": "s4HSTiRHzAorn0EB",
      "flags": {},
      "type": 2,
      "text": "Common Level 2 Wands",
      "img": "icons/svg/d20-black.svg",
      "weight": 4,
      "range": [63, 66],
      "drawn": false,
      "documentCollection": "lf1.ultimate-equipment",
      "documentId": "qeC9fgOka2MItT2A"
    },
    {
      "_id": "bpVGp4AXwLre07tg",
      "flags": {},
      "type": 2,
      "text": "Uncommon Level 2 Wands",
      "img": "icons/svg/d20-black.svg",
      "weight": 3,
      "range": [67, 69],
      "drawn": false,
      "documentCollection": "lf1.ultimate-equipment",
      "documentId": "visy19CsXY2jpABp"
    },
    {
      "_id": "Iw1EkkYwPe2S29ym",
      "flags": {},
      "type": 2,
      "text": "Common Level 3 Wands",
      "img": "icons/svg/d20-black.svg",
      "weight": 4,
      "range": [70, 73],
      "drawn": false,
      "documentCollection": "lf1.ultimate-equipment",
      "documentId": "dB3WvGIjmNmuI0kP"
    },
    {
      "_id": "zDknTMDw5NtIQxzs",
      "flags": {},
      "type": 2,
      "text": "Uncommon Level 3 Wands",
      "img": "icons/svg/d20-black.svg",
      "weight": 3,
      "range": [74, 76],
      "drawn": false,
      "documentCollection": "lf1.ultimate-equipment",
      "documentId": "tQ3dzkGqsrzhzHKl"
    },
    {
      "_id": "NoIwrQeEYhOjduqF",
      "flags": {},
      "type": 2,
      "text": "Greater Medium Belt",
      "img": "icons/svg/d20-black.svg",
      "weight": 2,
      "range": [77, 78],
      "drawn": false,
      "documentCollection": "lf1.ultimate-equipment",
      "documentId": "L8ljyr7e3776Cndn"
    },
    {
      "_id": "RPUQbdm9pLpzJ585",
      "flags": {},
      "type": 2,
      "text": "Greater Medium Body",
      "img": "icons/svg/d20-black.svg",
      "weight": 2,
      "range": [79, 80],
      "drawn": false,
      "documentCollection": "lf1.ultimate-equipment",
      "documentId": "2CgrvHFVDX416H3Z"
    },
    {
      "_id": "YxBNOoYVVYwreBdT",
      "flags": {},
      "type": 2,
      "text": "Greater Medium Chest",
      "img": "icons/svg/d20-black.svg",
      "weight": 2,
      "range": [81, 82],
      "drawn": false,
      "documentCollection": "lf1.ultimate-equipment",
      "documentId": "YIIbCw05vQw7rBpu"
    },
    {
      "_id": "1xblpZwJ40xiycwg",
      "flags": {},
      "type": 2,
      "text": "Greater Medium Eye",
      "img": "icons/svg/d20-black.svg",
      "weight": 2,
      "range": [83, 84],
      "drawn": false,
      "documentCollection": "lf1.ultimate-equipment",
      "documentId": "Tr7BaN1xMliEd7I3"
    },
    {
      "_id": "57DJhpgyWKd0Os3t",
      "flags": {},
      "type": 2,
      "text": "Greater Medium Feet",
      "img": "icons/svg/d20-black.svg",
      "weight": 2,
      "range": [85, 86],
      "drawn": false,
      "documentCollection": "lf1.ultimate-equipment",
      "documentId": "ugUepReDkcqrlpI8"
    },
    {
      "_id": "pHCdY5FxJVKaS7Xd",
      "flags": {},
      "type": 2,
      "text": "Greater Medium Hand",
      "img": "icons/svg/d20-black.svg",
      "weight": 2,
      "range": [87, 88],
      "drawn": false,
      "documentCollection": "lf1.ultimate-equipment",
      "documentId": "ARrMW8q5hUBEeovQ"
    },
    {
      "_id": "Z6DOYWFu48bd7wyN",
      "flags": {},
      "type": 2,
      "text": "Greater Medium Head",
      "img": "icons/svg/d20-black.svg",
      "weight": 2,
      "range": [89, 90],
      "drawn": false,
      "documentCollection": "lf1.ultimate-equipment",
      "documentId": "IFLfKfodblA7qcb5"
    },
    {
      "_id": "9wT6T3138MArqDpB",
      "flags": {},
      "type": 2,
      "text": "Greater Medium Headband",
      "img": "icons/svg/d20-black.svg",
      "weight": 2,
      "range": [91, 92],
      "drawn": false,
      "documentCollection": "lf1.ultimate-equipment",
      "documentId": "aEDH6KSDkboMpbbR"
    },
    {
      "_id": "tEgOuVnF9TIvUZxP",
      "flags": {},
      "type": 2,
      "text": "Greater Medium Neck",
      "img": "icons/svg/d20-black.svg",
      "weight": 2,
      "range": [93, 94],
      "drawn": false,
      "documentCollection": "lf1.ultimate-equipment",
      "documentId": "X91BN1ZSwPsyddNs"
    },
    {
      "_id": "HuCPUZG0vXR43qPA",
      "flags": {},
      "type": 2,
      "text": "Greater Medium Shoulders",
      "img": "icons/svg/d20-black.svg",
      "weight": 2,
      "range": [95, 96],
      "drawn": false,
      "documentCollection": "lf1.ultimate-equipment",
      "documentId": "SR7qzLBqsXrygABO"
    },
    {
      "_id": "Dk3iXclr7ZpgtYAJ",
      "flags": {},
      "type": 2,
      "text": "Greater Medium Wrists",
      "img": "icons/svg/d20-black.svg",
      "weight": 2,
      "range": [97, 98],
      "drawn": false,
      "documentCollection": "lf1.ultimate-equipment",
      "documentId": "vcrKX0t1wTTVqNpd"
    },
    {
      "_id": "PdbVyEHFoU2Hg4A5",
      "flags": {},
      "type": 2,
      "text": "Greater Medium Slotless",
      "img": "icons/svg/d20-black.svg",
      "weight": 2,
      "range": [99, 100],
      "drawn": false,
      "documentCollection": "lf1.ultimate-equipment",
      "documentId": "Q5GC7sPGTSV48YVq"
    }
  ],
  "formula": "1d100",
  "replacement": true,
  "displayRoll": true,
  "img": "icons/svg/d20-grey.svg",
  "sort": 0
}
