{
  "name": "Greater Medium Shoulders",
  "description": "",
  "results": [
    {
      "_id": "vTT4YE0ilv9ok73r",
      "flags": {},
      "type": 0,
      "text": "Stole of Justice",
      "weight": 12,
      "range": [1, 12],
      "drawn": false,
      "img": null,
      "documentCollection": "",
      "documentId": null
    },
    {
      "_id": "pXX26eyUWOC7BfiI",
      "flags": {},
      "type": 0,
      "text": "Jellyfish Cape",
      "weight": 12,
      "range": [13, 24],
      "drawn": false,
      "img": null,
      "documentCollection": "",
      "documentId": null
    },
    {
      "_id": "QsBG64AojkfTe1Yp",
      "flags": {},
      "type": 0,
      "text": "Cloak of the Diplomat",
      "weight": 8,
      "range": [25, 32],
      "drawn": false,
      "img": null,
      "documentCollection": "",
      "documentId": null
    },
    {
      "_id": "vnkrcovrsPQ4XIBl",
      "flags": {},
      "type": 0,
      "text": "Slashing Cloak",
      "weight": 12,
      "range": [33, 44],
      "drawn": false,
      "img": null,
      "documentCollection": "",
      "documentId": null
    },
    {
      "_id": "XAmuDrryIDoPUpTJ",
      "flags": {},
      "type": 0,
      "text": "Stone Cloak, Major",
      "weight": 12,
      "range": [45, 56],
      "drawn": false,
      "img": null,
      "documentCollection": "",
      "documentId": null
    },
    {
      "_id": "VNqHate9YKvSvhQu",
      "flags": {},
      "type": 0,
      "text": "Cloak of Displacement, Minor",
      "weight": 12,
      "range": [57, 68],
      "drawn": false,
      "img": null,
      "documentCollection": "",
      "documentId": null
    },
    {
      "_id": "EHvJ6HYR4Fu8bS9y",
      "flags": {},
      "type": 0,
      "text": "Cloak of Resistance +5",
      "weight": 20,
      "range": [69, 88],
      "drawn": false,
      "img": null,
      "documentCollection": "",
      "documentId": null
    },
    {
      "_id": "4CDQlc81MvhDPmWc",
      "flags": {},
      "type": 0,
      "text": "Cloak of the Bat",
      "weight": 12,
      "range": [89, 100],
      "drawn": false,
      "img": null,
      "documentCollection": "",
      "documentId": null
    }
  ],
  "formula": "1d100",
  "replacement": true,
  "displayRoll": true,
  "_id": "SR7qzLBqsXrygABO",
  "img": "icons/svg/d20-grey.svg",
  "sort": 0
}
