{
  "name": "Greater Major Feet",
  "description": "",
  "results": [
    {
      "_id": "YRaqqiqLyrBLoEEk",
      "flags": {},
      "type": 0,
      "text": "Slippers of the Triton",
      "weight": 40,
      "range": [1, 40],
      "drawn": false,
      "img": null,
      "documentCollection": "",
      "documentId": null
    },
    {
      "_id": "WEklJ25ENT599vZg",
      "flags": {},
      "type": 0,
      "text": "Horseshoes of Crushing Blows +4",
      "weight": 30,
      "range": [41, 70],
      "drawn": false,
      "img": null,
      "documentCollection": "",
      "documentId": null
    },
    {
      "_id": "1nLVoe4BFfCjfXyu",
      "flags": {},
      "type": 0,
      "text": "Horseshoes of Crushing Blows +5",
      "weight": 30,
      "range": [71, 100],
      "drawn": false,
      "img": null,
      "documentCollection": "",
      "documentId": null
    }
  ],
  "formula": "1d100",
  "replacement": true,
  "displayRoll": true,
  "_id": "RJmlEE2UIfxmUcGQ",
  "img": "icons/svg/d20-grey.svg",
  "sort": 0
}
