{
  "name": "Greater Major Ring",
  "description": "",
  "results": [
    {
      "_id": "DZb28UDGVtobV4XC",
      "flags": {},
      "type": 0,
      "text": "Ring of Friend Shield",
      "weight": 6,
      "range": [1, 6],
      "drawn": false,
      "img": null,
      "documentCollection": "",
      "documentId": null
    },
    {
      "_id": "KwzsCw0NOyj6Tftp",
      "flags": {},
      "type": 0,
      "text": "Ring of Protection +5",
      "weight": 12,
      "range": [7, 18],
      "drawn": false,
      "img": null,
      "documentCollection": "",
      "documentId": null
    },
    {
      "_id": "hhdoX2Jwl0j1caDz",
      "flags": {},
      "type": 0,
      "text": "Ring of Shooting Stars",
      "weight": 9,
      "range": [19, 27],
      "drawn": false,
      "img": null,
      "documentCollection": "",
      "documentId": null
    },
    {
      "_id": "ZsvmcTwTnEpmoo1g",
      "flags": {},
      "type": 0,
      "text": "Ring of Spell Storing",
      "weight": 10,
      "range": [28, 37],
      "drawn": false,
      "img": null,
      "documentCollection": "",
      "documentId": null
    },
    {
      "_id": "PLiazCoqaUdyEU0y",
      "flags": {},
      "type": 0,
      "text": "Ring of Continuation",
      "weight": 6,
      "range": [38, 43],
      "drawn": false,
      "img": null,
      "documentCollection": "",
      "documentId": null
    },
    {
      "_id": "Y4Id4fG3b69ToC2E",
      "flags": {},
      "type": 0,
      "text": "Ring of Inner Fortitude, Greater",
      "weight": 5,
      "range": [44, 48],
      "drawn": false,
      "img": null,
      "documentCollection": "",
      "documentId": null
    },
    {
      "_id": "YAArTccKSlPDJMOA",
      "flags": {},
      "type": 0,
      "text": "Ring of Wizardry III",
      "weight": 9,
      "range": [49, 57],
      "drawn": false,
      "img": null,
      "documentCollection": "",
      "documentId": null
    },
    {
      "_id": "zVVbqdruO0RDVbMH",
      "flags": {},
      "type": 0,
      "text": "Spiritualist Rings",
      "weight": 6,
      "range": [58, 63],
      "drawn": false,
      "img": null,
      "documentCollection": "",
      "documentId": null
    },
    {
      "_id": "pXYXRawfdNuLTcCP",
      "flags": {},
      "type": 0,
      "text": "Ring of Telekinesis",
      "weight": 8,
      "range": [64, 71],
      "drawn": false,
      "img": null,
      "documentCollection": "",
      "documentId": null
    },
    {
      "_id": "X7Sw0Q96sxYaDgaQ",
      "flags": {},
      "type": 0,
      "text": "Ring of Regeneration",
      "weight": 5,
      "range": [72, 76],
      "drawn": false,
      "img": null,
      "documentCollection": "",
      "documentId": null
    },
    {
      "_id": "1CXZQ4vs2FV2xgOi",
      "flags": {},
      "type": 0,
      "text": "Ring of Spell Turning",
      "weight": 6,
      "range": [77, 82],
      "drawn": false,
      "img": null,
      "documentCollection": "",
      "documentId": null
    },
    {
      "_id": "UDj5xsJ6aLztMleX",
      "flags": {},
      "type": 0,
      "text": "Ring of Wizardry IV",
      "weight": 4,
      "range": [83, 86],
      "drawn": false,
      "img": null,
      "documentCollection": "",
      "documentId": null
    },
    {
      "_id": "Sr5e9I7FUqYJ7G2C",
      "flags": {},
      "type": 0,
      "text": "Ring of Three Wishes",
      "weight": 4,
      "range": [87, 90],
      "drawn": false,
      "img": null,
      "documentCollection": "",
      "documentId": null
    },
    {
      "_id": "H1sEpVTgwkMuTiA6",
      "flags": {},
      "type": 0,
      "text": "Ring of Djinni Calling",
      "weight": 3,
      "range": [91, 93],
      "drawn": false,
      "img": null,
      "documentCollection": "",
      "documentId": null
    },
    {
      "_id": "KBMY3KPGmQnnxLeq",
      "flags": {},
      "type": 0,
      "text": "Ring of Elemental Command (Water)",
      "weight": 4,
      "range": [94, 97],
      "drawn": false,
      "img": null,
      "documentCollection": "",
      "documentId": null
    },
    {
      "_id": "wVMiUhaEwRRR9eXt",
      "flags": {},
      "type": 0,
      "text": "Ring of Spell Storing, Major",
      "weight": 3,
      "range": [98, 100],
      "drawn": false,
      "img": null,
      "documentCollection": "",
      "documentId": null
    }
  ],
  "formula": "1d100",
  "replacement": true,
  "displayRoll": true,
  "_id": "O6XO8AWN9qww0v0M",
  "img": "icons/svg/d20-grey.svg",
  "sort": 0
}
