{
  "name": "Lesser Medium Head",
  "description": "",
  "results": [
    {
      "_id": "jQkarL8JyArSXEqo",
      "flags": {},
      "type": 0,
      "text": "Helm of the Mammoth Lord",
      "weight": 16,
      "range": [1, 16],
      "drawn": false,
      "img": null,
      "documentCollection": "",
      "documentId": null
    },
    {
      "_id": "NIwKQroyWHcIZUf4",
      "flags": {},
      "type": 0,
      "text": "Veil of Fleeting Glances",
      "weight": 14,
      "range": [17, 30],
      "drawn": false,
      "img": null,
      "documentCollection": "",
      "documentId": null
    },
    {
      "_id": "UfuQxAqo9EorRYWu",
      "flags": {},
      "type": 0,
      "text": "Mask of a Thousand Tomes",
      "weight": 16,
      "range": [31, 46],
      "drawn": false,
      "img": null,
      "documentCollection": "",
      "documentId": null
    },
    {
      "_id": "StuY5Ni2IsiwRtTC",
      "flags": {},
      "type": 0,
      "text": "Medusa Mask",
      "weight": 17,
      "range": [47, 63],
      "drawn": false,
      "img": null,
      "documentCollection": "",
      "documentId": null
    },
    {
      "_id": "TorDueo6qSLt0AaN",
      "flags": {},
      "type": 0,
      "text": "Cap of the Free Thinker",
      "weight": 17,
      "range": [64, 80],
      "drawn": false,
      "img": null,
      "documentCollection": "",
      "documentId": null
    },
    {
      "_id": "V2GFElCfct6vGqgW",
      "flags": {},
      "type": 0,
      "text": "Halo of Inner Calm",
      "weight": 20,
      "range": [81, 100],
      "drawn": false,
      "img": null,
      "documentCollection": "",
      "documentId": null
    }
  ],
  "formula": "1d100",
  "replacement": true,
  "displayRoll": true,
  "_id": "ipxIniLVjR6V3baD",
  "img": "icons/svg/d20-grey.svg",
  "sort": 0
}
