{
  "name": "Lesser Major Shoulders",
  "description": "",
  "results": [
    {
      "_id": "xfF2SmKgZwZgaIQL",
      "flags": {},
      "type": 0,
      "text": "Highwayman's Cape",
      "weight": 40,
      "range": [1, 40],
      "drawn": false,
      "img": null,
      "documentCollection": "",
      "documentId": null
    },
    {
      "_id": "AveYiGpfvpDv8KgO",
      "flags": {},
      "type": 0,
      "text": "Juggernaut's Pauldrons",
      "weight": 20,
      "range": [41, 60],
      "drawn": false,
      "img": null,
      "documentCollection": "",
      "documentId": null
    },
    {
      "_id": "jamfodulciNOYOIb",
      "flags": {},
      "type": 0,
      "text": "Charlatan's Cape",
      "weight": 40,
      "range": [61, 100],
      "drawn": false,
      "img": null,
      "documentCollection": "",
      "documentId": null
    }
  ],
  "formula": "1d100",
  "replacement": true,
  "displayRoll": true,
  "_id": "yiO4RuVs9hMgPd8E",
  "img": "icons/svg/d20-grey.svg",
  "sort": 0
}
