{
  "name": "Lesser Major Head",
  "description": "",
  "results": [
    {
      "_id": "gsqMmEPc28DzUkCR",
      "flags": {},
      "type": 0,
      "text": "Iron Circlet of Guarded Souls",
      "weight": 14,
      "range": [1, 14],
      "drawn": false,
      "img": null,
      "documentCollection": "",
      "documentId": null
    },
    {
      "_id": "mEMQGjTgGbxTIvU9",
      "flags": {},
      "type": 0,
      "text": "Laurel of Command",
      "weight": 15,
      "range": [15, 29],
      "drawn": false,
      "img": null,
      "documentCollection": "",
      "documentId": null
    },
    {
      "_id": "J400iYkMZGy832nW",
      "flags": {},
      "type": 0,
      "text": "Mask of Giants, Lesser",
      "weight": 16,
      "range": [30, 45],
      "drawn": false,
      "img": null,
      "documentCollection": "",
      "documentId": null
    },
    {
      "_id": "U6wGIwDJKtw2ZcXj",
      "flags": {},
      "type": 0,
      "text": "Steel-Mind Cap",
      "weight": 16,
      "range": [46, 61],
      "drawn": false,
      "img": null,
      "documentCollection": "",
      "documentId": null
    },
    {
      "_id": "lPP8EpMbwpwFg5MF",
      "flags": {},
      "type": 0,
      "text": "Stormlord's Helm",
      "weight": 17,
      "range": [62, 78],
      "drawn": false,
      "img": null,
      "documentCollection": "",
      "documentId": null
    },
    {
      "_id": "5prpQWEF4jEmxGnl",
      "flags": {},
      "type": 0,
      "text": "Helm of Brilliance, Lesser",
      "weight": 22,
      "range": [79, 100],
      "drawn": false,
      "img": null,
      "documentCollection": "",
      "documentId": null
    }
  ],
  "formula": "1d100",
  "replacement": true,
  "displayRoll": true,
  "_id": "BwN5gvs2HY3xnM9O",
  "img": "icons/svg/d20-grey.svg",
  "sort": 0
}
