{
  "name": "Lesser Medium Staff",
  "description": "",
  "results": [
    {
      "_id": "gtBR1rNUUBALbR8d",
      "flags": {},
      "type": 0,
      "text": "Staff of Blessed Relief",
      "weight": 10,
      "range": [1, 10],
      "drawn": false,
      "img": null,
      "documentCollection": "",
      "documentId": null
    },
    {
      "_id": "DDVmnwRgkf3m7QsC",
      "flags": {},
      "type": 0,
      "text": "Staff of Minor Arcana",
      "weight": 10,
      "range": [11, 20],
      "drawn": false,
      "img": null,
      "documentCollection": "",
      "documentId": null
    },
    {
      "_id": "TXmmKVLFl4nciKLt",
      "flags": {},
      "type": 0,
      "text": "Staff of Tricks",
      "weight": 10,
      "range": [21, 30],
      "drawn": false,
      "img": null,
      "documentCollection": "",
      "documentId": null
    },
    {
      "_id": "iZ2xjUeOhJRUPptP",
      "flags": {},
      "type": 0,
      "text": "Staff of the Scout",
      "weight": 14,
      "range": [31, 44],
      "drawn": false,
      "img": null,
      "documentCollection": "",
      "documentId": null
    },
    {
      "_id": "O0WLtNeduIPxw6Ql",
      "flags": {},
      "type": 0,
      "text": "Staff of Eidolons",
      "weight": 10,
      "range": [45, 54],
      "drawn": false,
      "img": null,
      "documentCollection": "",
      "documentId": null
    },
    {
      "_id": "B13uYLDC5uuJ0KRn",
      "flags": {},
      "type": 0,
      "text": "Staff of Accompaniment",
      "weight": 13,
      "range": [55, 67],
      "drawn": false,
      "img": null,
      "documentCollection": "",
      "documentId": null
    },
    {
      "_id": "zVhEY7ReSWTWgipR",
      "flags": {},
      "type": 0,
      "text": "Staff of Understanding",
      "weight": 17,
      "range": [68, 84],
      "drawn": false,
      "img": null,
      "documentCollection": "",
      "documentId": null
    },
    {
      "_id": "PWxKsrAMaFCNQH7H",
      "flags": {},
      "type": 0,
      "text": "Staff of Charming",
      "weight": 16,
      "range": [85, 100],
      "drawn": false,
      "img": null,
      "documentCollection": "",
      "documentId": null
    }
  ],
  "formula": "1d100",
  "replacement": true,
  "displayRoll": true,
  "_id": "xeIR3IRHlQ7O5ABU",
  "img": "icons/svg/d20-grey.svg",
  "sort": 0
}
