{
  "name": "Lesser Minor Specific Shields",
  "description": "",
  "results": [
    {
      "_id": "0U1b2Iq9g7ADZdDy",
      "flags": {},
      "type": 0,
      "text": "Living Steel Heavy Shield",
      "weight": 20,
      "range": [1, 20],
      "drawn": false,
      "img": null,
      "documentCollection": "",
      "documentId": null
    },
    {
      "_id": "UsA12fFmLM0Ri9FS",
      "flags": {},
      "type": 0,
      "text": "Darkwood Buckler",
      "weight": 25,
      "range": [21, 45],
      "drawn": false,
      "img": null,
      "documentCollection": "",
      "documentId": null
    },
    {
      "_id": "KedVODKOUm4XvpjL",
      "flags": {},
      "type": 0,
      "text": "Darkwood Shield",
      "weight": 25,
      "range": [46, 70],
      "drawn": false,
      "img": null,
      "documentCollection": "",
      "documentId": null
    },
    {
      "_id": "FrWl9UwctriI6XNH",
      "flags": {},
      "type": 0,
      "text": "Mithral Heavy Shield",
      "weight": 30,
      "range": [71, 100],
      "drawn": false,
      "img": null,
      "documentCollection": "",
      "documentId": null
    }
  ],
  "formula": "1d100",
  "replacement": true,
  "displayRoll": true,
  "_id": "J5n0yVFYPHRSgi7O",
  "img": "icons/svg/d20-grey.svg",
  "sort": 0
}
