{
  "_id": "HzkcAbeidUj1QJxe",
  "name": "Lesser Minor Magic Item",
  "description": "",
  "results": [
    {
      "_id": "pQNaC3ft9tI17p9E",
      "flags": {},
      "type": 2,
      "text": "Lesser Minor Armour and Shields",
      "img": "icons/svg/d20-black.svg",
      "weight": 4,
      "range": [1, 4],
      "drawn": false,
      "documentCollection": "lf1.ultimate-equipment",
      "documentId": "bKerxjBSTif4QCuL"
    },
    {
      "_id": "uZHHBJcoX0Txe24Z",
      "flags": {},
      "type": 2,
      "text": "Lesser Minor Weapon",
      "img": "icons/svg/d20-black.svg",
      "weight": 5,
      "range": [5, 9],
      "drawn": false,
      "documentCollection": "lf1.ultimate-equipment",
      "documentId": "GwJr1v7M6hkIlYHR"
    },
    {
      "_id": "2MlJDaIAB2ra8SLa",
      "flags": {},
      "type": 2,
      "text": "Common Level 1 Potions and Oils",
      "img": "icons/svg/d20-black.svg",
      "weight": 23,
      "range": [10, 32],
      "drawn": false,
      "documentCollection": "lf1.ultimate-equipment",
      "documentId": "iZ6RDY3vBx0QF5fg"
    },
    {
      "_id": "0zuYjLT72xx0mnm6",
      "flags": {},
      "type": 2,
      "text": "Common Level 2 Potions and Oils",
      "img": "icons/svg/d20-black.svg",
      "weight": 12,
      "range": [33, 44],
      "drawn": false,
      "documentCollection": "lf1.ultimate-equipment",
      "documentId": "Eo22ZRkZ7filHo8R"
    },
    {
      "_id": "FWm8Ioyi2h4pQD3h",
      "flags": {},
      "type": 2,
      "text": "Lesser Minor Ring",
      "img": "icons/svg/d20-black.svg",
      "weight": 2,
      "range": [45, 46],
      "drawn": false,
      "documentCollection": "lf1.ultimate-equipment",
      "documentId": "mtc2lFS6DclN7t1O"
    },
    {
      "_id": "ZeTyeL1dfoqbG55i",
      "flags": {},
      "type": 2,
      "text": "Lesser Minor Divine Scrolls",
      "img": "icons/svg/d20-black.svg",
      "weight": 17,
      "range": [47, 63],
      "drawn": false,
      "documentCollection": "lf1.ultimate-equipment",
      "documentId": "k4AfGCVMTYYjWiyO"
    },
    {
      "_id": "STXKafukDpvIr59v",
      "flags": {},
      "type": 2,
      "text": "Lesser Minor Arcane Scrolls",
      "img": "icons/svg/d20-black.svg",
      "weight": 16,
      "range": [64, 79],
      "drawn": false,
      "documentCollection": "lf1.ultimate-equipment",
      "documentId": "yJNbRspBHxlzcc1g"
    },
    {
      "_id": "Kx24VZMvO9Ut0oak",
      "flags": {},
      "type": 2,
      "text": "Common Level 0 Wands",
      "img": "icons/svg/d20-black.svg",
      "weight": 3,
      "range": [80, 82],
      "drawn": false,
      "documentCollection": "lf1.ultimate-equipment",
      "documentId": "TeMae6GRt7G53JVJ"
    },
    {
      "_id": "X5pgVRJLiPskAyc5",
      "flags": {},
      "type": 2,
      "text": "Uncommon Level 0 Wands",
      "img": "icons/svg/d20-black.svg",
      "weight": 1,
      "range": [83, 83],
      "drawn": false,
      "documentCollection": "lf1.ultimate-equipment",
      "documentId": "VKYvNo9t1wQ3pCEk"
    },
    {
      "_id": "eCBvczwecfSs1E6l",
      "flags": {},
      "type": 2,
      "text": "Common Level 1 Wands",
      "img": "icons/svg/d20-black.svg",
      "weight": 4,
      "range": [84, 87],
      "drawn": false,
      "documentCollection": "lf1.ultimate-equipment",
      "documentId": "Kxtzw02nxm5GWPb9"
    },
    {
      "_id": "5ih5tsbs7pvDryGN",
      "flags": {},
      "type": 2,
      "text": "Uncommon Level 1 Wands",
      "img": "icons/svg/d20-black.svg",
      "weight": 1,
      "range": [88, 88],
      "drawn": false,
      "documentCollection": "lf1.ultimate-equipment",
      "documentId": "2UQtiEKX67vy7gUT"
    },
    {
      "_id": "wRma0PI57MIfvz8c",
      "flags": {},
      "type": 2,
      "text": "Lesser Minor Belt",
      "img": "icons/svg/d20-black.svg",
      "weight": 1,
      "range": [89, 89],
      "drawn": false,
      "documentCollection": "lf1.ultimate-equipment",
      "documentId": "OykbRGmw7MFG7rz5"
    },
    {
      "_id": "hGRBMVD8cOgHiaIJ",
      "flags": {},
      "type": 2,
      "text": "Lesser Minor Body",
      "img": "icons/svg/d20-black.svg",
      "weight": 1,
      "range": [90, 90],
      "drawn": false,
      "documentCollection": "lf1.ultimate-equipment",
      "documentId": "PMtNVoVaICF8hgaf"
    },
    {
      "_id": "QcLieMNB4lF4FiSj",
      "flags": {},
      "type": 2,
      "text": "Lesser Minor Chest",
      "img": "icons/svg/d20-black.svg",
      "weight": 1,
      "range": [91, 91],
      "drawn": false,
      "documentCollection": "lf1.ultimate-equipment",
      "documentId": "y4QypsUdTk0Htxrm"
    },
    {
      "_id": "oe2xzw2oNHkucFCs",
      "flags": {},
      "type": 2,
      "text": "Lesser Minor Eye",
      "img": "icons/svg/d20-black.svg",
      "weight": 1,
      "range": [92, 92],
      "drawn": false,
      "documentCollection": "lf1.ultimate-equipment",
      "documentId": "RdtqAAJ7ixYDJye6"
    },
    {
      "_id": "kw3TBH2PHH32Oloe",
      "flags": {},
      "type": 2,
      "text": "Lesser Minor Feet",
      "img": "icons/svg/d20-black.svg",
      "weight": 1,
      "range": [93, 93],
      "drawn": false,
      "documentCollection": "lf1.ultimate-equipment",
      "documentId": "GhK94oQ7mfioCSaI"
    },
    {
      "_id": "MPUGQfgGzP7guatu",
      "flags": {},
      "type": 2,
      "text": "Lesser Minor Hand",
      "img": "icons/svg/d20-black.svg",
      "weight": 1,
      "range": [94, 94],
      "drawn": false,
      "documentCollection": "lf1.ultimate-equipment",
      "documentId": "VsbyBT2yivoR6Y3b"
    },
    {
      "_id": "9LtIaEAOb7MByiBm",
      "flags": {},
      "type": 2,
      "text": "Lesser Minor Head",
      "img": "icons/svg/d20-black.svg",
      "weight": 1,
      "range": [95, 95],
      "drawn": false,
      "documentCollection": "lf1.ultimate-equipment",
      "documentId": "LvKuz05kWDHLR58s"
    },
    {
      "_id": "ldLIYYmqZmUo5EyO",
      "flags": {},
      "type": 2,
      "text": "Lesser Minor Headband",
      "img": "icons/svg/d20-black.svg",
      "weight": 1,
      "range": [96, 96],
      "drawn": false,
      "documentCollection": "lf1.ultimate-equipment",
      "documentId": "Cy27XqT2f0MclQ0P"
    },
    {
      "_id": "ox9xVPEoBI6FGPWY",
      "flags": {},
      "type": 2,
      "text": "Lesser Minor Neck",
      "img": "icons/svg/d20-black.svg",
      "weight": 1,
      "range": [97, 97],
      "drawn": false,
      "documentCollection": "lf1.ultimate-equipment",
      "documentId": "F7Ktrb2HmQonmhhC"
    },
    {
      "_id": "5RkCepz0KeSlggrN",
      "flags": {},
      "type": 2,
      "text": "Lesser Minor Shoulders",
      "img": "icons/svg/d20-black.svg",
      "weight": 1,
      "range": [98, 98],
      "drawn": false,
      "documentCollection": "lf1.ultimate-equipment",
      "documentId": "MrpqT5oFVRYyf9F0"
    },
    {
      "_id": "T99IeS2E0u0H6Q2j",
      "flags": {},
      "type": 2,
      "text": "Lesser Minor Wrists",
      "img": "icons/svg/d20-black.svg",
      "weight": 1,
      "range": [99, 99],
      "drawn": false,
      "documentCollection": "lf1.ultimate-equipment",
      "documentId": "ei8SMUzDblJDh5qO"
    },
    {
      "_id": "WKXxxPrEwjcC2f9e",
      "flags": {},
      "type": 2,
      "text": "Lesser Minor Slotless",
      "img": "icons/svg/d20-black.svg",
      "weight": 1,
      "range": [100, 100],
      "drawn": false,
      "documentCollection": "lf1.ultimate-equipment",
      "documentId": "bree7h1g8RFS7SAD"
    }
  ],
  "formula": "1d100",
  "replacement": true,
  "displayRoll": true,
  "img": "icons/svg/d20-grey.svg",
  "sort": 0
}
