{
  "name": "Lesser Minor Chest",
  "description": "",
  "results": [
    {
      "_id": "whCuGnWltF4BQOoi",
      "flags": {},
      "type": 0,
      "text": "Bandages of Rapid Recovery",
      "weight": 15,
      "range": [1, 15],
      "drawn": false,
      "img": null,
      "documentCollection": "",
      "documentId": null
    },
    {
      "_id": "v67jpqAjSQGFc4hK",
      "flags": {},
      "type": 0,
      "text": "Quick Runner's Shirt",
      "weight": 15,
      "range": [16, 30],
      "drawn": false,
      "img": null,
      "documentCollection": "",
      "documentId": null
    },
    {
      "_id": "EHXkNaZDPsfp1EhG",
      "flags": {},
      "type": 0,
      "text": "Endless Bandolier",
      "weight": 20,
      "range": [31, 50],
      "drawn": false,
      "img": null,
      "documentCollection": "",
      "documentId": null
    },
    {
      "_id": "7Ia5663WjMcBLjzE",
      "flags": {},
      "type": 0,
      "text": "All Tools Vest",
      "weight": 25,
      "range": [51, 75],
      "drawn": false,
      "img": null,
      "documentCollection": "",
      "documentId": null
    },
    {
      "_id": "PCdlzznqpiSOOqBm",
      "flags": {},
      "type": 0,
      "text": "Vest of Surgery",
      "weight": 25,
      "range": [76, 100],
      "drawn": false,
      "img": null,
      "documentCollection": "",
      "documentId": null
    }
  ],
  "formula": "1d100",
  "replacement": true,
  "displayRoll": true,
  "_id": "y4QypsUdTk0Htxrm",
  "img": "icons/svg/d20-grey.svg",
  "sort": 0
}
