{
  "_id": "6n8ZEZaiwRPzQ0p4",
  "name": "Lesser Medium Divine Scrolls",
  "description": "",
  "results": [
    {
      "_id": "uwQc7yolwwfWhKKW",
      "flags": {},
      "type": 2,
      "text": "Common Level 2 Divine Scrolls",
      "img": "icons/svg/d20-black.svg",
      "weight": 10,
      "range": [1, 10],
      "drawn": false,
      "documentCollection": "lf1.ultimate-equipment",
      "documentId": "4K2GxrliYpHJs3tT"
    },
    {
      "_id": "ZcrmPfmdxTiL3KLR",
      "flags": {},
      "type": 2,
      "text": "Common Level 3 Divine Scrolls",
      "img": "icons/svg/d20-black.svg",
      "weight": 45,
      "range": [11, 55],
      "drawn": false,
      "documentCollection": "lf1.ultimate-equipment",
      "documentId": "haj5Z1NTEPbRQWtH"
    },
    {
      "_id": "yHbwbazCdZpUqMbM",
      "flags": {},
      "type": 2,
      "text": "Common Level 4 Divine Scrolls",
      "weight": 45,
      "range": [56, 100],
      "drawn": false,
      "documentCollection": "lf1.ultimate-equipment",
      "documentId": "RNrVll5rxHRbCQR3",
      "img": null
    }
  ],
  "formula": "1d100",
  "replacement": true,
  "displayRoll": true,
  "img": "icons/svg/d20-grey.svg",
  "sort": 0
}
