{
  "name": "Uncommon Level 4 Arcane Scrolls",
  "description": "",
  "results": [
    {
      "_id": "soSK1m2dlBSyJBLG",
      "flags": {},
      "type": 0,
      "text": "Scroll of Acid Pit",
      "img": "icons/svg/d20-black.svg",
      "weight": 2,
      "range": [1, 2],
      "drawn": false,
      "documentId": null,
      "documentCollection": ""
    },
    {
      "_id": "iEeMV01DFmKkFCdC",
      "flags": {},
      "type": 0,
      "text": "Scroll of Arcane Eye",
      "img": "icons/svg/d20-black.svg",
      "weight": 4,
      "range": [3, 6],
      "drawn": false,
      "documentId": null,
      "documentCollection": ""
    },
    {
      "_id": "m2f5Zg3hq0PE66kb",
      "flags": {},
      "type": 0,
      "text": "Scroll of Ball Lightning",
      "img": "icons/svg/d20-black.svg",
      "weight": 4,
      "range": [7, 10],
      "drawn": false,
      "documentId": null,
      "documentCollection": ""
    },
    {
      "_id": "CcHUFdQPrR2eJWe0",
      "flags": {},
      "type": 0,
      "text": "Scroll of Contagion",
      "img": "icons/svg/d20-black.svg",
      "weight": 3,
      "range": [11, 13],
      "drawn": false,
      "documentId": null,
      "documentCollection": ""
    },
    {
      "_id": "viRYrZtG1poy487y",
      "flags": {},
      "type": 0,
      "text": "Scroll of Darkvision, Greater",
      "img": "icons/svg/d20-black.svg",
      "weight": 4,
      "range": [14, 17],
      "drawn": false,
      "documentId": null,
      "documentCollection": ""
    },
    {
      "_id": "2SC5FTHZEXmm5GiU",
      "flags": {},
      "type": 0,
      "text": "Scroll of Detect Scrying",
      "img": "icons/svg/d20-black.svg",
      "weight": 2,
      "range": [18, 19],
      "drawn": false,
      "documentId": null,
      "documentCollection": ""
    },
    {
      "_id": "hk7APg6MCSLQ9tGS",
      "flags": {},
      "type": 0,
      "text": "Scroll of Dragon's Breath",
      "img": "icons/svg/d20-black.svg",
      "weight": 4,
      "range": [20, 23],
      "drawn": false,
      "documentId": null,
      "documentCollection": ""
    },
    {
      "_id": "2ovjTeZnPARZYIjj",
      "flags": {},
      "type": 0,
      "text": "Scroll of False Life, Greater",
      "img": "icons/svg/d20-black.svg",
      "weight": 5,
      "range": [24, 28],
      "drawn": false,
      "documentId": null,
      "documentCollection": ""
    },
    {
      "_id": "ShtCmy3Jr93bsUA7",
      "flags": {},
      "type": 0,
      "text": "Scroll of Firefall",
      "img": "icons/svg/d20-black.svg",
      "weight": 4,
      "range": [29, 32],
      "drawn": false,
      "documentId": null,
      "documentCollection": ""
    },
    {
      "_id": "V7q890SLqfcpPhzP",
      "flags": {},
      "type": 0,
      "text": "Scroll of Geas, Lesser",
      "img": "icons/svg/d20-black.svg",
      "weight": 3,
      "range": [33, 35],
      "drawn": false,
      "documentId": null,
      "documentCollection": ""
    },
    {
      "_id": "EuBCj227Hcf4mEAS",
      "flags": {},
      "type": 0,
      "text": "Scroll of Ghost Wolf",
      "img": "icons/svg/d20-black.svg",
      "weight": 4,
      "range": [36, 39],
      "drawn": false,
      "documentId": null,
      "documentCollection": ""
    },
    {
      "_id": "iyzBOTWf8fMFGK4h",
      "flags": {},
      "type": 0,
      "text": "Scroll of Hallucinatory Terrain",
      "img": "icons/svg/d20-black.svg",
      "weight": 2,
      "range": [40, 41],
      "drawn": false,
      "documentId": null,
      "documentCollection": ""
    },
    {
      "_id": "UGjsgch0fpQpzVSa",
      "flags": {},
      "type": 0,
      "text": "Scroll of Illusory Wall",
      "img": "icons/svg/d20-black.svg",
      "weight": 2,
      "range": [42, 43],
      "drawn": false,
      "documentId": null,
      "documentCollection": ""
    },
    {
      "_id": "Qc92DOtzuVUntd7j",
      "flags": {},
      "type": 0,
      "text": "Scroll of Locate Creature",
      "img": "icons/svg/d20-black.svg",
      "weight": 3,
      "range": [44, 46],
      "drawn": false,
      "documentId": null,
      "documentCollection": ""
    },
    {
      "_id": "M0HPIAlof2OQCbow",
      "flags": {},
      "type": 0,
      "text": "Scroll of Minor Creation",
      "img": "icons/svg/d20-black.svg",
      "weight": 4,
      "range": [47, 50],
      "drawn": false,
      "documentId": null,
      "documentCollection": ""
    },
    {
      "_id": "VOGWPkOqbQfSY4x2",
      "flags": {},
      "type": 0,
      "text": "Scroll of Monstrous Physique II",
      "img": "icons/svg/d20-black.svg",
      "weight": 4,
      "range": [51, 54],
      "drawn": false,
      "documentId": null,
      "documentCollection": ""
    },
    {
      "_id": "lGyyjTxftxVkGegI",
      "flags": {},
      "type": 0,
      "text": "Scroll of Obsidian Flow",
      "img": "icons/svg/d20-black.svg",
      "weight": 3,
      "range": [55, 57],
      "drawn": false,
      "documentId": null,
      "documentCollection": ""
    },
    {
      "_id": "dTLPUMav0Ixq8drX",
      "flags": {},
      "type": 0,
      "text": "Scroll of Phantom Chariot",
      "img": "icons/svg/d20-black.svg",
      "weight": 2,
      "range": [58, 59],
      "drawn": false,
      "documentId": null,
      "documentCollection": ""
    },
    {
      "_id": "Ieyk59ekWEhFreDU",
      "flags": {},
      "type": 0,
      "text": "Scroll of Rainbow Pattern",
      "img": "icons/svg/d20-black.svg",
      "weight": 3,
      "range": [60, 62],
      "drawn": false,
      "documentId": null,
      "documentCollection": ""
    },
    {
      "_id": "i6Q7HitJDgvTNPv6",
      "flags": {},
      "type": 0,
      "text": "Scroll of Reduce Person, Mass",
      "img": "icons/svg/d20-black.svg",
      "weight": 2,
      "range": [63, 64],
      "drawn": false,
      "documentId": null,
      "documentCollection": ""
    },
    {
      "_id": "bbNJauOKSi9QHUvz",
      "flags": {},
      "type": 0,
      "text": "Scroll of Remove Curse",
      "img": "icons/svg/d20-black.svg",
      "weight": 4,
      "range": [65, 68],
      "drawn": false,
      "documentId": null,
      "documentCollection": ""
    },
    {
      "_id": "kLbvOt1Em7JlkbU7",
      "flags": {},
      "type": 0,
      "text": "Scroll of Secure Shelter",
      "img": "icons/svg/d20-black.svg",
      "weight": 3,
      "range": [69, 71],
      "drawn": false,
      "documentId": null,
      "documentCollection": ""
    },
    {
      "_id": "ceZ1hN6FNmg9NpFA",
      "flags": {},
      "type": 0,
      "text": "Scroll of Shadow Projection",
      "img": "icons/svg/d20-black.svg",
      "weight": 3,
      "range": [72, 74],
      "drawn": false,
      "documentId": null,
      "documentCollection": ""
    },
    {
      "_id": "O1WqYVBFl4oJ3cFd",
      "flags": {},
      "type": 0,
      "text": "Scroll of Shocking Image",
      "img": "icons/svg/d20-black.svg",
      "weight": 5,
      "range": [75, 79],
      "drawn": false,
      "documentId": null,
      "documentCollection": ""
    },
    {
      "_id": "5qwK8It94bV70zo5",
      "flags": {},
      "type": 0,
      "text": "Scroll of Telekinetic Charge",
      "img": "icons/svg/d20-black.svg",
      "weight": 4,
      "range": [80, 83],
      "drawn": false,
      "documentId": null,
      "documentCollection": ""
    },
    {
      "_id": "lLkfsCXL9aLD7R3A",
      "flags": {},
      "type": 0,
      "text": "Scroll of True Form",
      "img": "icons/svg/d20-black.svg",
      "weight": 2,
      "range": [84, 85],
      "drawn": false,
      "documentId": null,
      "documentCollection": ""
    },
    {
      "_id": "81YU2IUPCOSNeetC",
      "flags": {},
      "type": 0,
      "text": "Scroll of Vermin Shape I",
      "img": "icons/svg/d20-black.svg",
      "weight": 4,
      "range": [86, 89],
      "drawn": false,
      "documentId": null,
      "documentCollection": ""
    },
    {
      "_id": "hUFnfDAyKBh7cuXL",
      "flags": {},
      "type": 0,
      "text": "Scroll of Volcanic Storm",
      "img": "icons/svg/d20-black.svg",
      "weight": 5,
      "range": [90, 94],
      "drawn": false,
      "documentId": null,
      "documentCollection": ""
    },
    {
      "_id": "WL0S7eMjBC1A3IxH",
      "flags": {},
      "type": 0,
      "text": "Scroll of Wandering Star Motes",
      "img": "icons/svg/d20-black.svg",
      "weight": 3,
      "range": [95, 97],
      "drawn": false,
      "documentId": null,
      "documentCollection": ""
    },
    {
      "_id": "caHcipU9bV8Mh3qw",
      "flags": {},
      "type": 0,
      "text": "Scroll of Fire Trap",
      "img": "icons/svg/d20-black.svg",
      "weight": 2,
      "range": [98, 99],
      "drawn": false,
      "documentId": null,
      "documentCollection": ""
    },
    {
      "_id": "3NKur73yqO48eO4w",
      "flags": {},
      "type": 0,
      "text": "Scroll of Mnemonic Enhancer",
      "img": "icons/svg/d20-black.svg",
      "weight": 1,
      "range": [100, 100],
      "drawn": false,
      "documentId": null,
      "documentCollection": ""
    }
  ],
  "formula": "1d100",
  "replacement": true,
  "displayRoll": true,
  "_id": "DuDxURHlWK4ZXxxx",
  "img": "icons/svg/d20-grey.svg",
  "sort": 0
}
