{
  "name": "Uncommon Level 2 Arcane Scrolls",
  "description": "",
  "results": [
    {
      "_id": "iRDE96hRc6dv7r9t",
      "flags": {},
      "type": 0,
      "text": "Scroll of Bestow Weapon Proficiency",
      "img": "icons/svg/d20-black.svg",
      "weight": 3,
      "range": [1, 3],
      "drawn": false,
      "documentId": null,
      "documentCollection": ""
    },
    {
      "_id": "HhDZoRgaEeCi1GeP",
      "flags": {},
      "type": 0,
      "text": "Scroll of Blindness/Deafness",
      "img": "icons/svg/d20-black.svg",
      "weight": 3,
      "range": [4, 6],
      "drawn": false,
      "documentId": null,
      "documentCollection": ""
    },
    {
      "_id": "PQeeiEqEeEfK3DvC",
      "flags": {},
      "type": 0,
      "text": "Scroll of Burning Gaze",
      "img": "icons/svg/d20-black.svg",
      "weight": 3,
      "range": [7, 9],
      "drawn": false,
      "documentId": null,
      "documentCollection": ""
    },
    {
      "_id": "EiQKaNjAlld0jqwJ",
      "flags": {},
      "type": 0,
      "text": "Scroll of Certain Grip",
      "img": "icons/svg/d20-black.svg",
      "weight": 3,
      "range": [10, 12],
      "drawn": false,
      "documentId": null,
      "documentCollection": ""
    },
    {
      "_id": "OQ2VeAgJNqbyPJ6p",
      "flags": {},
      "type": 0,
      "text": "Scroll of Command Undead",
      "img": "icons/svg/d20-black.svg",
      "weight": 2,
      "range": [13, 14],
      "drawn": false,
      "documentId": null,
      "documentCollection": ""
    },
    {
      "_id": "5gfKmb3QFbM9rEfp",
      "flags": {},
      "type": 0,
      "text": "Scroll of Create Pit",
      "img": "icons/svg/d20-black.svg",
      "weight": 2,
      "range": [15, 16],
      "drawn": false,
      "documentId": null,
      "documentCollection": ""
    },
    {
      "_id": "l1nh9T8A4L9LvtD4",
      "flags": {},
      "type": 0,
      "text": "Scroll of Daze Monster",
      "img": "icons/svg/d20-black.svg",
      "weight": 4,
      "range": [17, 20],
      "drawn": false,
      "documentId": null,
      "documentCollection": ""
    },
    {
      "_id": "enZr1z6QOsXvIccF",
      "flags": {},
      "type": 0,
      "text": "Scroll of Detect Thoughts",
      "img": "icons/svg/d20-black.svg",
      "weight": 3,
      "range": [21, 23],
      "drawn": false,
      "documentId": null,
      "documentCollection": ""
    },
    {
      "_id": "CciSH8U3DE7CeNDp",
      "flags": {},
      "type": 0,
      "text": "Scroll of Disguise Other",
      "img": "icons/svg/d20-black.svg",
      "weight": 4,
      "range": [24, 27],
      "drawn": false,
      "documentId": null,
      "documentCollection": ""
    },
    {
      "_id": "QgnV4H1iHmsBYHBo",
      "flags": {},
      "type": 0,
      "text": "Scroll of Elemental Touch",
      "img": "icons/svg/d20-black.svg",
      "weight": 4,
      "range": [28, 31],
      "drawn": false,
      "documentId": null,
      "documentCollection": ""
    },
    {
      "_id": "OUhPLvJTTxoxw4Wa",
      "flags": {},
      "type": 0,
      "text": "Scroll of Fire Breath",
      "img": "icons/svg/d20-black.svg",
      "weight": 3,
      "range": [32, 34],
      "drawn": false,
      "documentId": null,
      "documentCollection": ""
    },
    {
      "_id": "cB2SycFhikuoJb4P",
      "flags": {},
      "type": 0,
      "text": "Scroll of Fog Cloud",
      "img": "icons/svg/d20-black.svg",
      "weight": 4,
      "range": [35, 38],
      "drawn": false,
      "documentId": null,
      "documentCollection": ""
    },
    {
      "_id": "BpckxZ6pl1R0UdKy",
      "flags": {},
      "type": 0,
      "text": "Scroll of Ghoul Touch",
      "img": "icons/svg/d20-black.svg",
      "weight": 2,
      "range": [39, 40],
      "drawn": false,
      "documentId": null,
      "documentCollection": ""
    },
    {
      "_id": "Eg4SseiaRAjve4U2",
      "flags": {},
      "type": 0,
      "text": "Scroll of Glide",
      "img": "icons/svg/d20-black.svg",
      "weight": 1,
      "range": [41, 41],
      "drawn": false,
      "documentId": null,
      "documentCollection": ""
    },
    {
      "_id": "9TitGvVTR6LM1nxZ",
      "flags": {},
      "type": 0,
      "text": "Scroll of Gust of Wind",
      "img": "icons/svg/d20-black.svg",
      "weight": 3,
      "range": [42, 44],
      "drawn": false,
      "documentId": null,
      "documentCollection": ""
    },
    {
      "_id": "00EbU62ODUBJV6Mz",
      "flags": {},
      "type": 0,
      "text": "Scroll of Haunting Mists",
      "img": "icons/svg/d20-black.svg",
      "weight": 3,
      "range": [45, 47],
      "drawn": false,
      "documentId": null,
      "documentCollection": ""
    },
    {
      "_id": "46Gejr0TQWikpuwp",
      "flags": {},
      "type": 0,
      "text": "Scroll of Hideous Laughter",
      "img": "icons/svg/d20-black.svg",
      "weight": 4,
      "range": [48, 51],
      "drawn": false,
      "documentId": null,
      "documentCollection": ""
    },
    {
      "_id": "LdeL6CWoYuEcz3A4",
      "flags": {},
      "type": 0,
      "text": "Scroll of Hypnotic Pattern",
      "img": "icons/svg/d20-black.svg",
      "weight": 3,
      "range": [52, 54],
      "drawn": false,
      "documentId": null,
      "documentCollection": ""
    },
    {
      "_id": "1GVv7CGNz3FckIhN",
      "flags": {},
      "type": 0,
      "text": "Scroll of Locate Object",
      "img": "icons/svg/d20-black.svg",
      "weight": 3,
      "range": [55, 57],
      "drawn": false,
      "documentId": null,
      "documentCollection": ""
    },
    {
      "_id": "7rLVdNGlJ6DHO88y",
      "flags": {},
      "type": 0,
      "text": "Scroll of Make Whole",
      "img": "icons/svg/d20-black.svg",
      "weight": 3,
      "range": [58, 60],
      "drawn": false,
      "documentId": null,
      "documentCollection": ""
    },
    {
      "_id": "gRj2fTVzKWYQMuUG",
      "flags": {},
      "type": 0,
      "text": "Scroll of Misdirection",
      "img": "icons/svg/d20-black.svg",
      "weight": 2,
      "range": [61, 62],
      "drawn": false,
      "documentId": null,
      "documentCollection": ""
    },
    {
      "_id": "W5nimT9uIaS8jbWn",
      "flags": {},
      "type": 0,
      "text": "Scroll of Obscure Object",
      "img": "icons/svg/d20-black.svg",
      "weight": 1,
      "range": [63, 63],
      "drawn": false,
      "documentId": null,
      "documentCollection": ""
    },
    {
      "_id": "8myy6kqFEEuIll8w",
      "flags": {},
      "type": 0,
      "text": "Scroll of Pernicious Poison",
      "img": "icons/svg/d20-black.svg",
      "weight": 2,
      "range": [64, 65],
      "drawn": false,
      "documentId": null,
      "documentCollection": ""
    },
    {
      "_id": "5A6xNXPY1j0XX59v",
      "flags": {},
      "type": 0,
      "text": "Scroll of Protection From Arrows",
      "img": "icons/svg/d20-black.svg",
      "weight": 2,
      "range": [66, 67],
      "drawn": false,
      "documentId": null,
      "documentCollection": ""
    },
    {
      "_id": "pooUXUz05YEJByo7",
      "flags": {},
      "type": 0,
      "text": "Scroll of Pyrotechnics",
      "img": "icons/svg/d20-black.svg",
      "weight": 3,
      "range": [68, 70],
      "drawn": false,
      "documentId": null,
      "documentCollection": ""
    },
    {
      "_id": "416xbzSl0SfaldKw",
      "flags": {},
      "type": 0,
      "text": "Scroll of Returning Weapon",
      "img": "icons/svg/d20-black.svg",
      "weight": 3,
      "range": [71, 73],
      "drawn": false,
      "documentId": null,
      "documentCollection": ""
    },
    {
      "_id": "oWQIiG3oyJv6EChn",
      "flags": {},
      "type": 0,
      "text": "Scroll of Scare",
      "img": "icons/svg/d20-black.svg",
      "weight": 4,
      "range": [74, 77],
      "drawn": false,
      "documentId": null,
      "documentCollection": ""
    },
    {
      "_id": "WXt2x6lZiMpVq2jO",
      "flags": {},
      "type": 0,
      "text": "Scroll of Shadow Anchor",
      "img": "icons/svg/d20-black.svg",
      "weight": 3,
      "range": [78, 80],
      "drawn": false,
      "documentId": null,
      "documentCollection": ""
    },
    {
      "_id": "Ipto0TNi34rRqjSB",
      "flags": {},
      "type": 0,
      "text": "Scroll of Share Memory",
      "img": "icons/svg/d20-black.svg",
      "weight": 3,
      "range": [81, 83],
      "drawn": false,
      "documentId": null,
      "documentCollection": ""
    },
    {
      "_id": "5ZTyCEpYdNwLK4Kq",
      "flags": {},
      "type": 0,
      "text": "Scroll of Slipstream",
      "img": "icons/svg/d20-black.svg",
      "weight": 2,
      "range": [84, 85],
      "drawn": false,
      "documentId": null,
      "documentCollection": ""
    },
    {
      "_id": "FLOyXhtlleFRvzMm",
      "flags": {},
      "type": 0,
      "text": "Scroll of Spectral Hand",
      "img": "icons/svg/d20-black.svg",
      "weight": 3,
      "range": [86, 88],
      "drawn": false,
      "documentId": null,
      "documentCollection": ""
    },
    {
      "_id": "PNU5rMwcnDL5xK2S",
      "flags": {},
      "type": 0,
      "text": "Scroll of Spontaneous Immolation",
      "img": "icons/svg/d20-black.svg",
      "weight": 2,
      "range": [89, 90],
      "drawn": false,
      "documentId": null,
      "documentCollection": ""
    },
    {
      "_id": "BxR2pT8rW3clpOYp",
      "flags": {},
      "type": 0,
      "text": "Scroll of Touch of Idiocy",
      "img": "icons/svg/d20-black.svg",
      "weight": 3,
      "range": [91, 93],
      "drawn": false,
      "documentId": null,
      "documentCollection": ""
    },
    {
      "_id": "4C5rzd17VOmu6zEr",
      "flags": {},
      "type": 0,
      "text": "Scroll of Unshakable Chill",
      "img": "icons/svg/d20-black.svg",
      "weight": 1,
      "range": [94, 94],
      "drawn": false,
      "documentId": null,
      "documentCollection": ""
    },
    {
      "_id": "0p15cKMuo6wKgEWr",
      "flags": {},
      "type": 0,
      "text": "Scroll of Magic Mouth",
      "img": "icons/svg/d20-black.svg",
      "weight": 2,
      "range": [95, 96],
      "drawn": false,
      "documentId": null,
      "documentCollection": ""
    },
    {
      "_id": "ebCVDGIKFwiA5xlC",
      "flags": {},
      "type": 0,
      "text": "Scroll of Arcane Lock",
      "img": "icons/svg/d20-black.svg",
      "weight": 1,
      "range": [97, 97],
      "drawn": false,
      "documentId": null,
      "documentCollection": ""
    },
    {
      "_id": "73LjRArMmTUPRzCE",
      "flags": {},
      "type": 0,
      "text": "Scroll of Continual Flame",
      "img": "icons/svg/d20-black.svg",
      "weight": 2,
      "range": [98, 99],
      "drawn": false,
      "documentId": null,
      "documentCollection": ""
    },
    {
      "_id": "QUmWETVxSrPVZUHq",
      "flags": {},
      "type": 0,
      "text": "Scroll of Phantom Trap",
      "img": "icons/svg/d20-black.svg",
      "weight": 1,
      "range": [100, 100],
      "drawn": false,
      "documentId": null,
      "documentCollection": ""
    }
  ],
  "formula": "1d100",
  "replacement": true,
  "displayRoll": true,
  "_id": "mnM454JYhYVCNRPw",
  "img": "icons/svg/d20-grey.svg",
  "sort": 0
}
