{
  "name": "Uncommon Level 2 Potions and Oils",
  "description": "",
  "results": [
    {
      "_id": "zY6s2lryS3hltES3",
      "flags": {},
      "type": 0,
      "text": "Potion of Ablative Barrier",
      "img": "icons/svg/d20-black.svg",
      "weight": 6,
      "range": [102, 107],
      "drawn": false,
      "documentId": null,
      "documentCollection": ""
    },
    {
      "_id": "L5KTVU078eDwUMHR",
      "flags": {},
      "type": 0,
      "text": "Potion of Acute Senses",
      "img": "icons/svg/d20-black.svg",
      "weight": 8,
      "range": [108, 115],
      "drawn": false,
      "documentId": null,
      "documentCollection": ""
    },
    {
      "_id": "1ibW1f1WKr7z02bW",
      "flags": {},
      "type": 0,
      "text": "Potion of Arcane Lock",
      "img": "icons/svg/d20-black.svg",
      "weight": 5,
      "range": [116, 120],
      "drawn": false,
      "documentId": null,
      "documentCollection": ""
    },
    {
      "_id": "rOHcPDbuRdsgPJ69",
      "flags": {},
      "type": 0,
      "text": "Potion of Bullet Shield",
      "img": "icons/svg/d20-black.svg",
      "weight": 5,
      "range": [121, 125],
      "drawn": false,
      "documentId": null,
      "documentCollection": ""
    },
    {
      "_id": "8knDYfxJlzpFzHya",
      "flags": {},
      "type": 0,
      "text": "Potion of Certain Grip",
      "img": "icons/svg/d20-black.svg",
      "weight": 6,
      "range": [126, 131],
      "drawn": false,
      "documentId": null,
      "documentCollection": ""
    },
    {
      "_id": "wDUZXG7V3UA3fdvV",
      "flags": {},
      "type": 0,
      "text": "Potion of Continual Flame",
      "img": "icons/svg/d20-black.svg",
      "weight": 5,
      "range": [132, 136],
      "drawn": false,
      "documentId": null,
      "documentCollection": ""
    },
    {
      "_id": "6HZVPFquzpmC7DON",
      "flags": {},
      "type": 0,
      "text": "Potion of Corruption Resistance",
      "img": "icons/svg/d20-black.svg",
      "weight": 5,
      "range": [137, 141],
      "drawn": false,
      "documentId": null,
      "documentCollection": ""
    },
    {
      "_id": "dFboKghqpuofXTcm",
      "flags": {},
      "type": 0,
      "text": "Potion of Disguise Other",
      "img": "icons/svg/d20-black.svg",
      "weight": 8,
      "range": [142, 149],
      "drawn": false,
      "documentId": null,
      "documentCollection": ""
    },
    {
      "_id": "BKfsZN3ZyzjiHHMX",
      "flags": {},
      "type": 0,
      "text": "Potion of Gentle Repose",
      "img": "icons/svg/d20-black.svg",
      "weight": 8,
      "range": [150, 157],
      "drawn": false,
      "documentId": null,
      "documentCollection": ""
    },
    {
      "_id": "GOK5xVF0pJ35Ub13",
      "flags": {},
      "type": 0,
      "text": "Potion of Make Whole",
      "img": "icons/svg/d20-black.svg",
      "weight": 5,
      "range": [158, 162],
      "drawn": false,
      "documentId": null,
      "documentCollection": ""
    },
    {
      "_id": "jVEd9ToNFwsUr61z",
      "flags": {},
      "type": 0,
      "text": "Potion of Obscure Object",
      "img": "icons/svg/d20-black.svg",
      "weight": 6,
      "range": [163, 168],
      "drawn": false,
      "documentId": null,
      "documentCollection": ""
    },
    {
      "_id": "RZXEDx3J3QSlpOLf",
      "flags": {},
      "type": 0,
      "text": "Potion of Reduce Animal",
      "img": "icons/svg/d20-black.svg",
      "weight": 5,
      "range": [169, 173],
      "drawn": false,
      "documentId": null,
      "documentCollection": ""
    },
    {
      "_id": "8XchESsoD6v2Lp7c",
      "flags": {},
      "type": 0,
      "text": "Potion of Rope Trick",
      "img": "icons/svg/d20-black.svg",
      "weight": 4,
      "range": [174, 177],
      "drawn": false,
      "documentId": null,
      "documentCollection": ""
    },
    {
      "_id": "8hqHuSyxehsJmCM7",
      "flags": {},
      "type": 0,
      "text": "Potion of Slipstream",
      "img": "icons/svg/d20-black.svg",
      "weight": 6,
      "range": [178, 183],
      "drawn": false,
      "documentId": null,
      "documentCollection": ""
    },
    {
      "_id": "plc1ZsDSEJJ5adjc",
      "flags": {},
      "type": 0,
      "text": "Potion of Status",
      "img": "icons/svg/d20-black.svg",
      "weight": 8,
      "range": [184, 191],
      "drawn": false,
      "documentId": null,
      "documentCollection": ""
    },
    {
      "_id": "bKHWPvcrosZWKz45",
      "flags": {},
      "type": 0,
      "text": "Potion of Warp Wood",
      "img": "icons/svg/d20-black.svg",
      "weight": 5,
      "range": [192, 196],
      "drawn": false,
      "documentId": null,
      "documentCollection": ""
    },
    {
      "_id": "XZYN1a9aS3yzP4dv",
      "flags": {},
      "type": 0,
      "text": "Potion of Wood Shape",
      "img": "icons/svg/d20-black.svg",
      "weight": 5,
      "range": [197, 201],
      "drawn": false,
      "documentId": null,
      "documentCollection": ""
    }
  ],
  "formula": "1d201",
  "replacement": true,
  "displayRoll": true,
  "_id": "Ko7Qy2TzaofOunkI",
  "img": "icons/svg/d20-grey.svg",
  "sort": 0
}
