{
  "_id": "9d4JuiQocfhoMewg",
  "name": "Silken Ceremonial",
  "type": "equipment",
  "img": "systems/lf1/icons/items/armor/silken-ceremonial.png",
  "system": {
    "description": {
      "value": "<p>Used for ceremonial displays or occasionally worn (albeit with no additional benefit) over heavier armor, these robes consist of several layers of cloth and an outer layer of silk intricately woven with gold brocade designs and covered with metal studs.</p>"
    },
    "weight": {
      "value": 4
    },
    "price": 30,
    "hp": {
      "max": 5,
      "value": 5
    },
    "baseTypes": ["Silken Ceremonial"],
    "armor": {
      "value": 1
    },
    "slot": "armor"
  }
}
