{
  "_id": "0EZPEkeiIiU2ZkBh",
  "name": "Advanced (Quick)",
  "type": "feat",
  "img": "systems/lf1/icons/skills/violet_07.jpg",
  "system": {
    "description": {
      "value": "<p><b>Acquired/Inherited Template</b> Acquired<br><b>Simple Template</b> Yes<br><b>Usable with Summons</b> No<p>Creatures with the advanced template are fiercer and more powerful than their ordinary cousins.<p><b>Quick Rules</b>: +2 on all rolls (including damage rolls) and special ability DCs; +4 to AC and CMD; +2 hp/HD.<p><b>Rebuild Rules</b>: <b>AC</b> increase natural armor by +2; <b>Ability Scores</b> +4 to all ability scores (except Int scores of 2 or less).</p>"
    },
    "changes": [
      {
        "_id": "a6zrvg6a",
        "formula": "2",
        "subTarget": "attack",
        "modifier": "untyped"
      },
      {
        "_id": "hm9l51ql",
        "formula": "2",
        "subTarget": "damage",
        "modifier": "untyped"
      },
      {
        "_id": "q7a4j6ty",
        "formula": "2",
        "subTarget": "allSavingThrows",
        "modifier": "untyped"
      },
      {
        "_id": "wfk7ommm",
        "formula": "2",
        "subTarget": "skills",
        "modifier": "untyped"
      },
      {
        "_id": "szl2ybmw",
        "formula": "2",
        "subTarget": "allChecks",
        "modifier": "untyped"
      },
      {
        "_id": "ngn45chi",
        "formula": "2",
        "subTarget": "cmb",
        "modifier": "untyped"
      },
      {
        "_id": "dt624sxt",
        "formula": "2",
        "subTarget": "init",
        "modifier": "untyped"
      },
      {
        "_id": "fanw1vex",
        "formula": "4",
        "subTarget": "nac",
        "modifier": "untyped"
      },
      {
        "_id": "iespqmig",
        "formula": "4",
        "subTarget": "cmd",
        "modifier": "untyped"
      },
      {
        "_id": "rdnbl17l",
        "formula": "2 * @attributes.hd.total",
        "subTarget": "mhp",
        "modifier": "untyped"
      }
    ],
    "subType": "template",
    "crOffset": "1"
  }
}
