{
  "_id": "8wcgAdUOucEtYJcD",
  "name": "Dark",
  "type": "feat",
  "img": "systems/lf1/icons/skills/violet_07.jpg",
  "system": {
    "description": {
      "value": "<p><b>Acquired/Inherited Template</b> Acquired<br><b>Simple Template</b> Yes<br><b>Usable with Summons</b> Yes - Requires the feat Versatile Summon Monster<p>Dark creatures are native denizens of the Plane of Shadow, and generally have a dark gray or deep purple coloration. This template can be applied only to a non-outsider that has none of the following subtypes: air, cold, earth, fire, or water. A dark creature’s CR increases by 1 only if the base creature has 5 or more HD.<p><b>Rebuild Rules:</b> Senses gain darkvision 60 ft. and low-light vision; Defensive Abilities gains DR and resistance to cold and electricity based on its Hit Dice, as noted on the table below; SR gains SR equal to its new CR + 5.</p>\n<hr>\n<table>\n<tbody>\n<tr>\n<td><b>Hit Dice</b></td>\n<td><b>DR</b></td>\n<td><b>Resist Cold and Electricity</b></td>\n</tr>\n<tr>\n<td>1-4</td>\n<td>-</td>\n<td>5</td>\n</tr>\n<tr>\n<td>5-10</td>\n<td>5/Magic</td>\n<td>10</td>\n</tr>\n<tr>\n<td>11+</td>\n<td>10/magic</td>\n<td>15</td>\n</tr>\n</tbody>\n</table>"
    },
    "subType": "template",
    "crOffset": "@attributes.hd.total >= 5 ? 1 : 0"
  }
}
