{
  "_id": "Wnb8EezV7vfJMJjh",
  "name": "Dark Ice (3.5)",
  "type": "feat",
  "img": "systems/lf1/icons/skills/violet_07.jpg",
  "system": {
    "description": {
      "value": "<p><b>Acquired/Inherited Template</b> Acquired<br><b>Simple Template</b> No<br><b>Usable with Summons</b> No<p>Under the influence of the cold rider, the frigid clutch of winter’s malice entered the hearts of Syntira’s fey and transformed them to ice. Now, empowered by the cold hate of the Witch Queen, her former companions are ready to exact a brutal vengeance against the people of Falcon’s Hollow.<p>“Dark ice creature” is an acquired template that can be added to any fey without the fire subtype (hereafter referred to as the base creature). A dark ice creature uses all of the base creature’s statistics except as noted here.<p><b>Size and Type:</b> The creature’s type is unchanged, but it gains the cold subtype. Its size is unchanged.<p><b>AC:</b> A dark ice creature’s natural armor bonus improves by +4, as a layer of thick permafrost toughens its now leathery skin and coats its body with a thin but durable shell of ice.<p><b>Defensive Abilities:</b> A dark ice creature retains the base creature’s defensive abilities and gains the following.<p><em>Fast Healing (Su): </em>As long as a dark ice creature is in contact with ice or snow it heals 3 hit points per round.<p><em>Immunity to Cold (Ex):</em> A dark ice creature is immune to cold.<p><b>Weaknesses:</b> A dark ice creature retains the base creature’s weaknesses and gains the following.<p><em>Fire vulnerability (Ex)</em> A dark ice creature takes 1-1/2 times as much damage from fire.<p><b>Attack:</b> A dark ice creature grows jagged oversized icicle talons in place of fingers, paws, or hooves, and it gains two vicious claw attacks if it did not already have them.<p><b>Damage:</b> Use the damage below or the base creature’s claw damage, whichever is better.</p>\n<hr>\n<table>\n<tbody>\n<tr>\n<td><b>Size</b></td>\n<td><b>Claw Damage</b></td>\n</tr>\n<tr>\n<td>Fine</td>\n<td>1</td>\n</tr>\n<tr>\n<td>Diminutive</td>\n<td>1d2</td>\n</tr>\n<tr>\n<td>Tiny</td>\n<td>1d3</td>\n</tr>\n<tr>\n<td>Small</td>\n<td>1d4</td>\n</tr>\n<tr>\n<td>Medium</td>\n<td>1d6</td>\n</tr>\n<tr>\n<td>Large</td>\n<td>1d8</td>\n</tr>\n<tr>\n<td>Huge</td>\n<td>2d6</td>\n</tr>\n<tr>\n<td>Gargantuan</td>\n<td>3d6</td>\n</tr>\n<tr>\n<td>Colossal</td>\n<td>4d6</td>\n</tr>\n</tbody>\n</table>\n<hr>\n<p><b>Special Attacks:</b> A dark ice creature retains the base creature’s special attacks and gains the ones listed below:<p><em>Frigid Touch (Su)</em> Once per day, a dark ice creature may make a touch attack against a foe to deal 1d6 points of Dexterity damage by freezing its blood in its veins and numbing its bones.<p><em>Frosty Grasp (Su)</em> A dark ice creature’s natural attacks, as well as any weapons it wields, deal an additional 1d6 points of cold damage.<p><b>Abilities:</b> A dark ice creature’s ability scores are modified as follows: Str +2, Con +2.<p><b>Environment:</b> Any cold.<p><b>Challenge Rating:</b> As base creature +1.<p><b>Alignment:</b> Always evil (any).</p>"
    },
    "changes": [
      {
        "_id": "7k95ilqm",
        "formula": "4",
        "subTarget": "nac",
        "modifier": "untyped"
      },
      {
        "_id": "b11v7dan",
        "formula": "2",
        "subTarget": "str",
        "modifier": "untyped"
      },
      {
        "_id": "sm6tzums",
        "formula": "2",
        "subTarget": "con",
        "modifier": "untyped"
      }
    ],
    "subType": "template",
    "crOffset": "1"
  }
}
