{
  "_id": "bBZEesM8WLIGPhKw",
  "name": "Giant (Quick)",
  "type": "feat",
  "img": "systems/lf1/icons/skills/violet_07.jpg",
  "system": {
    "description": {
      "value": "<p><b>Acquired/Inherited Template</b> Acquired<br><b>Simple Template</b> Yes<br><b>Usable with Summons</b> No<p>Creatures with the giant template are larger and stronger than their normal-sized kin. This template cannot be applied to creatures that are Colossal.<p><b>Quick Rules:</b> +2 to all rolls based on Str or Con, +2 hp/ HD, –1 penalty on all rolls based on Dex.<p><b>Rebuild Rules</b>: Size increase by one category; AC increase natural armor by +3; Attacks increase dice rolled by 1 step; Ability Scores +4 size bonus to Str and Con, –2 Dex.</p>"
    },
    "changes": [
      {
        "_id": "qxkfuu5q",
        "formula": "2 * @attributes.hd.total",
        "subTarget": "mhp",
        "modifier": "untyped"
      },
      {
        "_id": "9i8nuhea",
        "formula": "2",
        "subTarget": "mattack",
        "modifier": "untyped"
      },
      {
        "_id": "j71rtfd6",
        "formula": "2",
        "subTarget": "wdamage",
        "modifier": "untyped"
      },
      {
        "_id": "57nhhdor",
        "formula": "2",
        "subTarget": "strSkills",
        "modifier": "untyped"
      },
      {
        "_id": "12rizvbj",
        "formula": "2",
        "subTarget": "strChecks",
        "modifier": "untyped"
      },
      {
        "_id": "ez6le8xi",
        "formula": "2",
        "subTarget": "fort",
        "modifier": "untyped"
      },
      {
        "_id": "p5hqrcg9",
        "formula": "2",
        "subTarget": "conSkills",
        "modifier": "untyped"
      },
      {
        "_id": "u5aufd41",
        "formula": "2",
        "subTarget": "conChecks",
        "modifier": "untyped"
      },
      {
        "_id": "z6gzyn3g",
        "formula": "-1",
        "subTarget": "ref",
        "modifier": "untyped"
      },
      {
        "_id": "dpwp7xwy",
        "formula": "-1",
        "subTarget": "dexSkills",
        "modifier": "untyped"
      },
      {
        "_id": "07utsybe",
        "formula": "-1",
        "subTarget": "dexChecks",
        "modifier": "untyped"
      }
    ],
    "subType": "template",
    "crOffset": "1"
  }
}
