{
  "_id": "dxZIW17lbOVHmIuK",
  "name": "Prophecy-Addled Creature",
  "type": "feat",
  "img": "systems/lf1/icons/skills/violet_07.jpg",
  "system": {
    "description": {
      "value": "<p><b>Acquired/Inherited Template</b> Acquired<br><b>Simple Template</b> No<br><b>Usable with Summons</b> No<p>Prophecy-addled creatures receive powerful oracular insights, but they cannot easily distinguish between these flashes of mystical insight and reality. A prophecy-addled creature’s quick and rebuild rules are the same.<p><b>Rebuild Rules:</b> </p>\n<p><b>AC</b> increase insight bonus by +2;</p>\n<p><b>Saves</b> +2 insight bonus on Fortitude and Reflex saves, –4 penalty on saves against confusion effects;</p>\n<p><b>Special Qualities</b> If the creature has flash of brutality, flash of insight, or another special quality that allows it to reroll a d20 roll a certain number of times each day, it can use that ability two additional times each day. If not, the creature gains the following special quality.</p>\n<p><em>Prophetic Insight (Su): </em>Three times per day as an immediate action, the prophecy-addled creature can reroll any one d20 roll that it has just made before the results of the roll are revealed. It must take the result of the reroll, even if it’s worse than the original rol</p>"
    },
    "changes": [
      {
        "_id": "7w2pq7l8",
        "formula": "2",
        "subTarget": "fort",
        "modifier": "untyped"
      },
      {
        "_id": "vnh91iii",
        "formula": "2",
        "subTarget": "ref",
        "modifier": "untyped"
      }
    ],
    "subType": "template",
    "crOffset": "1"
  }
}
