{
  "_id": "3snzuCXL24e4aiOC",
  "name": "Ranger (DEX)",
  "type": "feat",
  "img": "systems/lf1/icons/skills/violet_07.jpg",
  "system": {
    "description": {
      "value": "<p><b>Acquired/Inherited Template</b> Acquired<br><b>Simple Template</b> Yes<br><b>Usable with Summons</b> No<p>A ranger creature gains a favored enemy. It also gains a basic combat style, tracking, and some defensive abilities. A ranger creature's CR increases by 2 if the creature has 10 or more HD.<p><b>Quick Rules:</b> Choose either Str or Dex. The creature gains +2 on all rolls based on the chosen ability score (and +2 to AC if Dex is chosen). The creature gains either Point Blank Shot or Two-Weapon Fighting as a bonus feat (if the creature has 10 or more HD, choose two more bonus feats from the lists in combat style† class feature—from archery if the creature took Point-Blank Shot, or from two-weapon combat if the creature took Two-Weapon Fighting). The creature also gains favored enemy† (choosing only one favored enemy; the favored enemy bonus increases by 2 at 5 HD and every 5 HD thereafter, to a maximum of +10 at 20 HD). Lastly, the creature gains track† (and evasion† if the creature has 10 or more HD).<p><b>Rebuild Rules:</b></p>\n<p><b>Defensive Abilities</b> evasion (if the creature has 10 or more HD); Special Attacks favored enemy (choosing only one favored enemy; the favored enemy bonus increases by 2 at 5 HD and every 5 HD thereafter, to a maximum of +10 at 20 HD);</p>\n<p><b>Special Qualities</b> track;</p>\n<p><b>Ability Scores</b> +4 Strength or Dexterity;</p>\n<p><b>Feats</b> either Point-Blank Shot or Two-Weapon Fighting as a bonus feat (if the creature has 10 or more HD, choose two more bonus feats from the lists in the combat style ranger class feature—either from archery if the creature took Point-Blank Shot, or from two-weapon combat if the creature took Two-Weapon Fighting).</p>"
    },
    "changes": [
      {
        "_id": "tgbuw61g",
        "formula": "4",
        "subTarget": "dex",
        "modifier": "untyped"
      }
    ],
    "subType": "template",
    "crOffset": "@attributes.hd.total >= 10 ? 2 : 1"
  }
}
