{
  "_id": "yvYkW2QIxFIvStcu",
  "name": "Shadow Creature",
  "type": "feat",
  "img": "systems/lf1/icons/skills/violet_07.jpg",
  "system": {
    "description": {
      "value": "<p><b>Acquired/Inherited Template</b> Inherited<br><b>Simple Template</b> No<br><b>Usable with Summons</b> Yes<p>Creatures with the shadow creature template dwell on the Shadow Plane, only rarely venturing onto other, brighter planes, and can be summoned by shadow callers. A shadow creature's CR increases by +1. A shadow creature's quick and rebuild rules are the same.<p><b>Rebuild Rules:</b></p>\n<p><b>Senses</b> gains darkvision 60 ft. and low-light vision;</p>\n<p><b>Defensive Abilities</b> gains energy resistance and DR as noted on the table below; SR gains SR equal to new CR + 6;</p>\n<p><b>Special Abilities</b> <em>Shadow Blend (Su) </em>In any condition of illumination other than bright light, a shadow creature blends into the shadows, giving it concealment (20% miss chance). A shadow creature can suspend or resume this ability as a free action.</p>\n<hr>\n<table>\n<tbody>\n<tr>\n<td><b>Hit Dice</b></td>\n<td><b>Resist Cold and Electricity</b></td>\n<td><b>DR</b></td>\n</tr>\n<tr>\n<td>1–4</td>\n<td>5</td>\n<td>—</td>\n</tr>\n<tr>\n<td>5–10</td>\n<td>10</td>\n<td>5/magic</td>\n</tr>\n<tr>\n<td>11+</td>\n<td>15</td>\n<td>10/magic</td>\n</tr>\n</tbody>\n</table>"
    },
    "subType": "template",
    "crOffset": "1"
  }
}
