{
  "_id": "TpzJ6KRAGlpGvPNx",
  "name": "Sorcerer",
  "type": "feat",
  "img": "systems/lf1/icons/skills/violet_07.jpg",
  "system": {
    "description": {
      "value": "<p><b>Acquired/Inherited Template</b> Acquired<br><b>Simple Template</b> Yes<br><b>Usable with Summons</b> No<p>Sorcerer creatures can use a variety of powerful spells and abilities to devastate their foes. Select a sorcerer creature's bloodline when the template is added. A sorcerer creature's CR increases by 2 if the creature has 8 or more HD, and it increases by 3 if the creature has 14 or more HD.<p><b>Quick Rules:</b> +2 on all rolls based on Cha; gains the bloodline arcana and bloodline powers of its chosen bloodline (using its HD – 2 as its sorcerer level to determine the effect and DC [minimum 1]); can cast a small number of sorcerer spells (see the Sorcerer Spells Known table below) using its HD as its CL and gaining two spell slots for every level of spells known.<p><b>Rebuild Rules:</b></p>\n<p><b>Special Attacks</b> bloodline arcana, bloodline powers (using its HD – 2 as its sorcerer level to determine the effect and DC [minimum 1]);</p>\n<p><b>Sorcerer Spells</b> can cast a small number of sorcerer spells (see the Sorcerer Spells Known table below) using its HD as its CL and gaining two spell slots for every spell level known;</p>\n<p><b>Ability Scores</b> +4 Charisma.</p>\n<p><b>Sorcerer Spells Known</b></p>\n<hr>\n<table>\n<tbody>\n<tr>\n<td><b>HD</b></td>\n<td><b>0</b></td>\n<td><b>1</b></td>\n<td><b>2</b></td>\n<td><b>3</b></td>\n<td><b>4</b></td>\n<td><b>5</b></td>\n<td><b>6</b></td>\n<td><b>7</b></td>\n<td><b>8</b></td>\n<td><b>9</b></td>\n</tr>\n<tr>\n<td>1-4</td>\n<td>2</td>\n<td>1</td>\n<td>—</td>\n<td>—</td>\n<td>—</td>\n<td>—</td>\n<td>—</td>\n<td>—</td>\n<td>—</td>\n<td>—</td>\n</tr>\n<tr>\n<td>5-7</td>\n<td>2</td>\n<td>2</td>\n<td>1</td>\n<td>—</td>\n<td>—</td>\n<td>—</td>\n<td>—</td>\n<td>—</td>\n<td>—</td>\n<td>—</td>\n</tr>\n<tr>\n<td>8-10</td>\n<td>‡</td>\n<td>2</td>\n<td>2</td>\n<td>1</td>\n<td>—</td>\n<td>—</td>\n<td>—</td>\n<td>—</td>\n<td>—</td>\n<td>—</td>\n</tr>\n<tr>\n<td>11-13</td>\n<td>‡</td>\n<td>‡</td>\n<td>2</td>\n<td>2</td>\n<td>1</td>\n<td>—</td>\n<td>—</td>\n<td>—</td>\n<td>—</td>\n<td>—</td>\n</tr>\n<tr>\n<td>14--16</td>\n<td>‡</td>\n<td>‡</td>\n<td>‡</td>\n<td>2</td>\n<td>2</td>\n<td>1</td>\n<td>—</td>\n<td>—</td>\n<td>—</td>\n<td>—</td>\n</tr>\n<tr>\n<td>17-19</td>\n<td>‡</td>\n<td>‡</td>\n<td>‡</td>\n<td>‡</td>\n<td>2</td>\n<td>2</td>\n<td>1</td>\n<td>—</td>\n<td>—</td>\n<td>—</td>\n</tr>\n<tr>\n<td>20-22</td>\n<td>‡</td>\n<td>‡</td>\n<td>‡</td>\n<td>‡</td>\n<td>‡</td>\n<td>2</td>\n<td>2</td>\n<td>1</td>\n<td>—</td>\n<td>—</td>\n</tr>\n<tr>\n<td>23-25</td>\n<td>‡</td>\n<td>‡</td>\n<td>‡</td>\n<td>‡</td>\n<td>‡</td>\n<td>‡</td>\n<td>2</td>\n<td>2</td>\n<td>1</td>\n<td>—</td>\n</tr>\n<tr>\n<td>26+</td>\n<td>‡</td>\n<td>‡</td>\n<td>‡</td>\n<td>‡</td>\n<td>‡</td>\n<td>‡</td>\n<td>‡</td>\n<td>2</td>\n<td>2</td>\n<td>1</td>\n</tr>\n</tbody>\n</table>"
    },
    "changes": [
      {
        "_id": "d6fn89ev",
        "formula": "4",
        "subTarget": "cha",
        "modifier": "untyped"
      }
    ],
    "subType": "template",
    "crOffset": "(@attributes hd. total >= 14) ? 3 : ((@attributes.hd.total > 7 && @attributes.hd.total < 14) ? 2 : 1)"
  }
}
