{
  "_id": "nLoeB640GSsAUWYm",
  "name": "Zombie",
  "type": "feat",
  "img": "systems/lf1/icons/skills/violet_07.jpg",
  "system": {
    "description": {
      "value": "<p><b>Acquired/Inherited Template</b> Acquired<br><b>Simple Template</b> No<br><b>Usable with Summons</b> No<p>Zombies are the animated corpses of dead creatures, forced into foul unlife via necromantic magic like animate dead. While the most commonly encountered zombies are slow and tough, others possess a variety of traits, allowing them to spread disease or move with increased speed.<p>Zombies are unthinking automatons, and can do little more than follow orders. When left unattended, zombies tend to mill about in search of living creatures to slaughter and devour. Zombies attack until destroyed, having no regard for their own safety.<p>Although capable of following orders, zombies are more often unleashed into an area with no command other than to kill living creatures. As a result, zombies are often encountered in packs, wandering around places the living frequent, looking for victims. Most zombies are created using animate dead. Such zombies are always of the standard type, unless the creator also casts haste or remove paralysis to create fast zombies, or contagion to create plague zombies.<p>“Zombie” is an acquired template that can be added to any corporeal creature (other than an undead), referred to hereafter as the base creature.<p><b>Challenge Rating:</b> This depends on the creature's new total number of Hit Dice, as follows:</p>\n<hr>\n<table>\n<tbody>\n<tr>\n<td><b>HD</b></td>\n<td><b>CR</b></td>\n<td><b>XP</b></td>\n</tr>\n<tr>\n<td>1/2</td>\n<td>1/8</td>\n<td>50</td>\n</tr>\n<tr>\n<td>1</td>\n<td>1/4</td>\n<td>100</td>\n</tr>\n<tr>\n<td>2</td>\n<td>1/2</td>\n<td>200</td>\n</tr>\n<tr>\n<td>3–4</td>\n<td>1</td>\n<td>400</td>\n</tr>\n<tr>\n<td>5–6</td>\n<td>2</td>\n<td>600</td>\n</tr>\n<tr>\n<td>7–8</td>\n<td>3</td>\n<td>800</td>\n</tr>\n<tr>\n<td>9–10</td>\n<td>4</td>\n<td>1,200</td>\n</tr>\n<tr>\n<td>11–12</td>\n<td>5</td>\n<td>1,600</td>\n</tr>\n<tr>\n<td>13–16</td>\n<td>6</td>\n<td>2,400</td>\n</tr>\n<tr>\n<td>17–20</td>\n<td>7</td>\n<td>3,200</td>\n</tr>\n<tr>\n<td>21–24</td>\n<td>8</td>\n<td>4,800</td>\n</tr>\n<tr>\n<td>25–28</td>\n<td>9</td>\n<td>6,400</td>\n</tr>\n</tbody>\n</table>\n<p><br><b>Alignment:</b> Always neutral evil.<p><b>Type:</b> The creature's type changes to undead. It retains any subtype except for alignment subtypes (such as good) and subtypes that indicate kind. It does not gain the augmented subtype. It uses all the base creature's statistics and special abilities except as noted here.<p><b>Armor Class:</b> Natural armor is based on the zombie's size:</p>\n<hr>\n<table>\n<tbody>\n<tr>\n<td><b>Zombie Size</b></td>\n<td><b>Natural Armor Bonus</b></td>\n</tr>\n<tr>\n<td>Tiny or smaller</td>\n<td>+0</td>\n</tr>\n<tr>\n<td>Small</td>\n<td>+1</td>\n</tr>\n<tr>\n<td>Medium</td>\n<td>+2</td>\n</tr>\n<tr>\n<td>Large</td>\n<td>+3</td>\n</tr>\n<tr>\n<td>Huge</td>\n<td>+4</td>\n</tr>\n<tr>\n<td>Gargantuan</td>\n<td>+7</td>\n</tr>\n<tr>\n<td>Colossal</td>\n<td>+11</td>\n</tr>\n</tbody>\n</table>\n<p><br><b>Hit Dice:</b> Drop HD gained from class levels (minimum of 1) and change racial HD to d8s. Zombies gain a number of additional HD as noted on the following table.</p>\n<hr>\n<table>\n<tbody>\n<tr>\n<td><b>Zombie Size</b></td>\n<td><b>Bonus Hit Dice</b></td>\n</tr>\n<tr>\n<td>Tiny or smaller</td>\n<td>—</td>\n</tr>\n<tr>\n<td>Small or Medium</td>\n<td>+1 HD</td>\n</tr>\n<tr>\n<td>Large</td>\n<td>+2 HD</td>\n</tr>\n<tr>\n<td>Huge</td>\n<td>+4 HD</td>\n</tr>\n<tr>\n<td>Gargantuan</td>\n<td>+6 HD</td>\n</tr>\n<tr>\n<td>Colossal</td>\n<td>+10 HD</td>\n</tr>\n</tbody>\n</table>\n<p><br>Zombies use their Charisma modifiers to determine bonus hit points (instead of Constitution).<p><b>Saves:</b> Base save bonuses are Fort +1/3 HD, Ref +1/3 HD, and Will +1/2 HD + 2.<p><b>Defensive Abilities:</b> Zombies lose their defensive abilities and gain all of the qualities and immunities granted by the undead type. Zombies gain DR 5/slashing.<p><b>Speed:</b> Winged zombies can still fly, but maneuverability drops to clumsy. If the base creature flew magically, so can the zombie. Retain all other movement types.<p><b>Attacks:</b> A zombie retains all the natural weapons, manufactured weapon attacks, and weapon proficiencies of the base creature. It also gains a slam attack that deals damage based on the zombie's size, but as if it were one size category larger than its actual size (see Natural Attacks).<p><b>Special Attacks:</b> A zombie retains none of the base creature's special attacks.<p><b>Abilities:</b> Str +2, Dex –2. A zombie has no Con or Int score, and its Wis and Cha become 10.<p><b>BAB:</b> A zombie's base attack is equal to 3/4 its Hit Dice.<p><b>Skills:</b> A zombie has no skill ranks.<p><b>Feats:</b> A zombie loses all feats possessed by the base creature, and does not gain feats as its Hit Dice increase, but it does gain Toughness as a bonus feat.<p><b>Special Qualities:</b> A zombie loses most special qualities of the base creature. It retains any extraordinary special qualities that improve its melee or ranged attacks. A zombie gains the following special quality.<p><em>Staggered (Ex): </em>Zombies have poor reflexes and can only perform a single move action or standard action each round. A zombie can move up to its speed and attack in the same round as a charge action.</p>"
    },
    "changes": [
      {
        "_id": "qgxsgf0e",
        "formula": "2",
        "subTarget": "str",
        "modifier": "untyped"
      },
      {
        "_id": "r572xpwj",
        "formula": "-2",
        "subTarget": "dex",
        "modifier": "untyped"
      }
    ],
    "subType": "template"
  }
}
