{
  "_id": "FszchlqR39lnNduC",
  "name": "Armor Proficiency, Light",
  "type": "feat",
  "img": "systems/lf1/icons/feats/armor-proficiency-light.png",
  "system": {
    "description": {
      "value": "<em>You are skilled at wearing light armor.</em><p><b>Benefits</b><br>When you wear a type of armor with which you are proficient, the armor check penalty for that armor applies only to Dexterity- and Strength-based skill checks.<p><b>Normal</b><br>A character who is wearing armor with which he is not proficient applies its armor check penalty to attack rolls and to all skill checks that involve moving.<p><b>Special</b><br>All characters except monks, sorcerers, and wizards automatically have Light Armor Proficiency as a bonus feat. They need not select it."
    },
    "tags": ["PFS", "Combat"],
    "tag": "feat_armorProficiencyLight",
    "useCustomTag": true,
    "armorProf": {
      "value": ["lgt"]
    }
  }
}
