{
  "_id": "lRWXptGqGabk1vfH",
  "name": "Critical Mastery",
  "type": "feat",
  "img": "systems/lf1/icons/feats/critical-mastery.jpg",
  "system": {
    "description": {
      "value": "<em>Your critical hits cause two additional effects.</em><p><b>Prerequisites</b><br>Critical Focus, any two critical feats, 14th-level fighter.<p><b>Benefits</b><br>When you score a critical hit, you can apply the effects of two critical feats in addition to the damage dealt.<p><b>Normal</b><br>You can only apply the effects of one critical feat to a given critical hit in addition to the damage dealt."
    },
    "tags": ["PFS", "Combat", "Critical"],
    "contextNotes": [
      {
        "subTarget": "effect",
        "text": "Critical Mastery: apply to effects to your critical hits."
      }
    ],
    "tag": "feat_criticalMastery",
    "useCustomTag": true
  }
}
