{
  "_id": "JreaiTHdyWFNj3Tb",
  "name": "Dodge",
  "type": "feat",
  "img": "systems/lf1/icons/feats/dodge.jpg",
  "system": {
    "description": {
      "value": "<i>Your training and reflexes allow you to react swiftly to avoid an opponents' attacks.</i>\n<p><b>Prerequisites</b></p>\n<p>Dex 13.</p>\n<p><b>Benefits</b></p>\n<p>You gain a +1 dodge bonus to your AC. A condition that makes you lose your Dex bonus to AC also makes you lose the benefits of this feat.</p>"
    },
    "tags": ["Combat", "Defensive"],
    "changes": [
      {
        "_id": "9onhsept",
        "formula": "1",
        "subTarget": "ac",
        "modifier": "dodge"
      }
    ],
    "tag": "feat_dodge",
    "useCustomTag": true
  }
}
