{
  "_id": "f5rgOsdDlseGr4o5",
  "name": "Elemental Channel",
  "type": "feat",
  "img": "systems/lf1/icons/feats/elemental-channel.jpg",
  "system": {
    "description": {
      "value": "<p><em>Choose one elemental subtype, such as air, earth, fire, or water. You can channel your divine energy to harm or heal outsiders that possess your chosen elemental subtype.</em><p><b>Prerequisites</b><br>Channel energy class feature.<p><b>Benefits</b><br>Instead of its normal effect, you can choose to have your ability to channel energy heal or harm outsiders of your chosen elemental subtype. You must make this choice each time you channel energy. If you choose to heal or harm creatures of your elemental subtype, your channel energy has no affect on other creatures. The amount of damage healed or dealt and the DC to halve the damage is otherwise unchanged.<p><b>Special</b><br>You can gain this feat multiple times. Its effects do not stack. Each time you take this feat, it applies to a new elemental subtype.</p>\n<p><b>Usage</b>: link this feat to Channel Energy charges. Change damage type to negative if you channel negative energy. Copy this feature and change Action Type to Healing if you plan to heal.</p>"
    },
    "tags": ["PFS", "Channeling"],
    "actions": [
      {
        "_id": "cj2zso1zrq7o3dkv",
        "name": "Use",
        "img": "systems/lf1/icons/feats/elemental-channel.jpg",
        "activation": {
          "type": "standard",
          "unchained": {
            "cost": 2,
            "type": "action"
          }
        },
        "duration": {
          "units": "inst"
        },
        "target": {
          "value": "Outsiders of chosen elemental subtype"
        },
        "range": {
          "value": "30",
          "units": "ft",
          "maxIncrements": "1"
        },
        "measureTemplate": {
          "type": "circle"
        },
        "actionType": "save",
        "damage": {
          "parts": [
            {
              "formula": "(ceil(@classes.cleric.level / 2))d6",
              "type": {
                "values": ["positive"],
                "custom": ""
              }
            }
          ]
        },
        "save": {
          "dc": "10 + floor(@classes.cleric.level / 2) + @abilities.cha.mod",
          "type": "will",
          "description": "Will halves damage"
        }
      }
    ],
    "tag": "feat_elementalChannel",
    "useCustomTag": true
  }
}
