{
  "_id": "PGTjF7uoFx7wP1WO",
  "name": "Extra Ki",
  "type": "feat",
  "img": "systems/lf1/icons/feats/extra-ki.jpg",
  "system": {
    "description": {
      "value": "<p><em>You can use your ki pool more times per day than most.</em><p><b>Prerequisites</b><br>Ki pool class feature.<p><b>Benefits</b><br>Your ki pool increases by 2.<p><b>Special</b><br>You can gain Extra Ki multiple times. Its effects stack.</p>\n<p><b>Usage</b>: add additional charges to Ki Pool feature Maximum Usage Formula manually.</p>"
    },
    "tags": ["PFS", "General"],
    "tag": "feat_extraKi",
    "useCustomTag": true
  }
}
