{
  "_id": "6yGoL82RidBHmXPb",
  "name": "Extra Performance",
  "type": "feat",
  "img": "systems/lf1/icons/feats/extra-performance.png",
  "system": {
    "description": {
      "value": "<p><em>You can use your bardic performance ability more often than normal.</em><p><b>Prerequisites</b><br>Bardic performance class feature.<p><b>Benefits</b><br>You can use bardic performance for 6 additional rounds per day.<p><b>Special</b><br>You can gain Extra Performance multiple times. Its effects stack.</p>\n<p><b>Usage</b>: add additional charges to Performance feature Maximum Usage Formula manually.</p>"
    },
    "tags": ["PFS", "General"],
    "tag": "feat_extraPerformance",
    "useCustomTag": true
  }
}
