{
  "_id": "BkKYCzEGNTzZRiTz",
  "name": "Fleet",
  "type": "feat",
  "img": "systems/lf1/icons/feats/fleet.png",
  "system": {
    "description": {
      "value": "<i>You are faster than most.</i>\n<p><b>Benefits</b></p>\n<p>While you are wearing light or no armor, your base speed increases by 5 feet. You lose the benefits of this feat if you carry a medium or heavy load.</p>\n<p><b>Special</b></p>\n<p>You can take this feat multiple times. The effects stack.</p>"
    },
    "tags": ["General", "Movement"],
    "changes": [
      {
        "_id": "y4qckv6r",
        "formula": "(@armor.type < 2 && @attributes.encumbrance.level < 1) ? 5 : 0",
        "subTarget": "landSpeed",
        "modifier": "base"
      }
    ],
    "tag": "feat_fleet",
    "useCustomTag": true
  }
}
