{
  "_id": "1AY9Xjbg109TsnVl",
  "name": "Greater Disarm",
  "type": "feat",
  "img": "systems/lf1/icons/feats/greater-disarm.jpg",
  "system": {
    "description": {
      "value": "<i>You can knock weapons far from an enemy's grasp.</i>\n<p><b>Prerequisites</b></p>\n<p>Combat Expertise, Improved Disarm, base attack bonus +6, Int 13.</p>\n<p><b>Benefits</b></p>\n<p>You receive a +2 bonus on checks made to disarm a foe. This bonus stacks with the bonus granted by Improved Disarm. Whenever you successfully disarm an opponent, the weapon lands 15 feet away from its previous wielder, in a random direction.</p>\n<p><b>Normal</b></p>\n<p>Disarmed weapons and gear land at the feet of the disarmed creature.</p>"
    },
    "tags": ["Combat", "Combat Maneuver", "Offensive"],
    "tag": "feat_greaterDisarm",
    "useCustomTag": true
  }
}
