{
  "_id": "tocde3sKG1O3GKgd",
  "name": "Improved Feint",
  "type": "feat",
  "img": "systems/lf1/icons/feats/improved-feint.jpg",
  "system": {
    "description": {
      "value": "<i>You are skilled at fooling your opponents in combat.</i>\n<p><b>Prerequisites</b></p>\n<p>Int 13, Combat Expertise.</p>\n<p><b>Benefits</b></p>\n<p>You can make a Bluff check to feint in combat as a move action.</p>\n<p><b>Normal</b></p>\n<p>Feinting in combat is a standard action.</p>"
    },
    "tags": ["Combat", "Combat Maneuver", "Offensive"],
    "tag": "feat_improvedFeint",
    "useCustomTag": true
  }
}
