{
  "_id": "3fNdl7eIUJ5d5fwg",
  "name": "Improved Two-Weapon Fighting",
  "type": "feat",
  "img": "systems/lf1/icons/feats/improved-two-weapon-fighting.jpg",
  "system": {
    "description": {
      "value": "<i>You are skilled at fighting with two weapons.</i>\n<p><b>Prerequisites</b></p>\n<p>Dex 17, Two-Weapon Fighting, base attack bonus +6.</p>\n<p><b>Benefits</b></p>\n<p>In addition to the standard single extra attack you get with an off-hand weapon, you get a second attack with it, albeit at a -5 penalty.</p>\n<p><b>Normal</b></p>\n<p>Without this feat, you can only get a single extra attack with an off-hand weapon.</p>"
    },
    "tags": ["Combat", "Weapon", "Two Weapons", "Offensive"],
    "tag": "feat_improvedTwoweaponFighting",
    "useCustomTag": true
  }
}
