{
  "_id": "0spsP9ylE3goD3jc",
  "name": "Mounted Combat",
  "type": "feat",
  "img": "systems/lf1/icons/feats/mounted-combat.png",
  "system": {
    "description": {
      "value": "<i>You are adept at guiding your mount through combat.</i>\n<p><b>Prerequisites</b></p>\n<p>Ride 1 rank.</p>\n<p><b>Benefits</b></p>\n<p>Once per round when your mount is hit in combat, you may attempt a Ride check (as an immediate action) to negate the hit. The hit is negated if your Ride check result is greater than the opponent's attack roll.</p>"
    },
    "tags": ["Combat", "Defensive", "Mount"],
    "tag": "feat_mountedCombat",
    "useCustomTag": true
  }
}
