{
  "_id": "VMVAqGze4cs3naya",
  "name": "Nimble Moves",
  "type": "feat",
  "img": "systems/lf1/icons/feats/nimble-moves.png",
  "system": {
    "description": {
      "value": "<i>You can move across a single obstacle with ease.</i>\n<p><b>Prerequisites</b></p>\n<p>Dex 13.</p>\n<p><b>Benefits</b></p>\n<p>Whenever you move, you may move through 5 feet of difficult terrain each round as if it were normal terrain. This feat allows you to take a 5-foot step into difficult terrain.</p>"
    },
    "tags": ["General", "Movement"],
    "tag": "feat_nimbleMoves",
    "useCustomTag": true
  }
}
