{
  "_id": "TGmNCGtnHf0icozK",
  "name": "Penetrating Strike",
  "type": "feat",
  "img": "systems/lf1/icons/feats/penetrating-strike.jpg",
  "system": {
    "description": {
      "value": "<i>Your attacks are capable of penetrating the defenses of some creatures.</i>\n<p><b>Prerequisites</b></p>\n<p>Weapon Focus, base attack bonus +1, 12th-level fighter, proficiency with weapon.</p>\n<p><b>Benefits</b></p>\n<p>Your attacks with weapons selected with Weapon Focus ignore up to 5 points of damage reduction. This feat does not apply to damage reduction without a type (such as DR 10/ — ).</p>"
    },
    "tags": ["Combat", "Offensive"],
    "tag": "feat_penetratingStrike",
    "useCustomTag": true
  }
}
