{
  "_id": "NABgOSBRECIREaha",
  "name": "Rapid Shot",
  "type": "feat",
  "img": "systems/lf1/icons/feats/rapid-shot.jpg",
  "system": {
    "description": {
      "value": "<i>You can make an additional ranged attack.</i>\n<p><b>Prerequisites</b></p>\n<p>Dex 13, Point-Blank Shot.</p>\n<p><b>Benefits</b></p>\n<p>When making a full-attack action with a ranged weapon, you can fire one additional time this round. All of your attack rolls take a -2 penalty when using Rapid Shot.</p>"
    },
    "tags": ["Combat", "Ranged", "Weapon", "Offensive"],
    "tag": "feat_rapidShot",
    "useCustomTag": true
  }
}
