{
  "_id": "2YuxcUNFMPNBpekG",
  "name": "Silent Spell",
  "type": "feat",
  "img": "systems/lf1/icons/feats/silent-spell.jpg",
  "system": {
    "description": {
      "value": "<i>You can cast your spells without making any sound.</i>\n<p><b>Benefits</b></p>\n<p>A silent spell can be cast with no verbal components. Spells without verbal components are not affected. A silent spell uses up a spell slot one level higher than the spell's actual level.</p>\n<p><b>Special</b></p>\n<p>Bard spells cannot be enhanced by this feat.</p>"
    },
    "tags": ["Metamagic", "Magic"],
    "tag": "feat_silentSpell",
    "useCustomTag": true
  }
}
