{
  "_id": "ubx4PIbRqmVT93Ds",
  "name": "Gathlain",
  "type": "race",
  "img": "systems/lf1/icons/spells/vines-acid-1.jpg",
  "system": {
    "description": {
      "value": "<h2>Standard Racial Traits</h2><ul><li><strong>Ability Score Modifiers</strong>: Gathlains are quick, with dynamic and engaging personalities, but are rather fragile. They gain a +2 bonus to <em>Dexterity</em> and <em>Charisma</em> but suffer a –2 penalty to <em>Constitution</em>.</li><li><strong>Type</strong>: Gathlains are <em>Fey</em>.</li><li><strong>Size</strong>: Gathlains are <em>Small</em> and gain a +1 <em>size bonus</em> to their AC, a +1 <em>size bonus</em> on <em>attack rolls</em>, a –1 penalty on <em>combat maneuver</em> checks and to <em>CMD</em>, a +2 bonus on <em>Fly</em> checks, and a +4 <em>size bonus</em> on <em>Stealth</em> checks.</li><li><strong>Base Speed</strong>: Gathlains have a base speed of 30 feet and a fly speed of 40 feet (poor maneuverability).</li><li><strong>Languages</strong>: Gathlains speak Common and Sylvan. A gathlain with a high <em>Intelligence</em> score can choose from the following languages: Draconic, Elven, Goblin, Halfling, and Orc.</li></ul><h3>Defense Racial Traits</h3><ul><li><strong>Natural Armor</strong>: Gathlains have a +1 <em>natural armor bonus</em>.</li></ul><h3>Magical Racial Traits</h3><ul><li><strong>Spell-Like Abilities</strong>: 1/day—@Compendium[lf1.spells.2nn2tshkn4p7k25l]{entangle},@Compendium[lf1.spells.bf2lu50t56iswz18]{feather step} (<em>caster level</em> equals the gathlain's character level).</li></ul><h3>Senses Racial Traits</h3><ul><li><strong>Low-Light Vision</strong>: Gathlains can see twice as far as <em>humans</em> in dim light.</li></ul>"
    },
    "tags": ["Rare"],
    "changes": [
      {
        "_id": "lmeggrmg",
        "formula": "2",
        "subTarget": "dex",
        "modifier": "racial",
        "priority": null
      },
      {
        "_id": "x2jolwqk",
        "formula": "2",
        "subTarget": "cha",
        "modifier": "racial",
        "priority": null
      },
      {
        "_id": "kytmbrx4",
        "formula": "-2",
        "subTarget": "con",
        "modifier": "racial",
        "priority": null
      },
      {
        "_id": "0zt5u7mb",
        "formula": "1",
        "subTarget": "nac",
        "modifier": "base",
        "priority": null
      }
    ],
    "languages": {
      "value": ["common", "sylvan"]
    },
    "creatureType": "fey",
    "classSkills": {
      "fly": true
    }
  }
}
