{
  "_id": "6Dqqpyf2XpSsWYH8",
  "name": "Aasen Mortar",
  "type": "weapon",
  "img": "icons/weapons/artillery/cannon-banded.webp",
  "system": {
    "description": {
      "value": "<p><b>Source</b> <em>Pathfinder #71: Rasputin Must Die! pg. 64</em></p>\n<h3>Statistics</h3><p><b>Damage</b> 6d6 ; <b>Critical</b> x3; <b>Range</b> 200 ft. (50 ft. min.); <b>Type</b> B, P, and S</p>\n<p><b>Misfire</b> 1; <b>Crew</b> 1; <b>Aim</b> 0; <b>Load</b> 1</p>\n<p><b>Category</b> Siege; <b>Proficiency</b> Exotic</p>\n<h3>Description</h3>\n<p>The Aasen mortar is an indirect-fire advanced siege firearm, consisting of a heavy steel barrel, a loading mechanism, and a folding bipod stand, and is used to launch explosives to penetrate enemy defensive lines.</p>\n<p>Aiming the mortar is part of the standard action required to fire it. Reloading the mortar is a full-round action, and the user loads a grenade-like projectile into the breech of the weapon's steel barrel, along with a blank rifle round that propels the bomb when triggered. The weapon uses indirect fire to lob bombs in slow-moving, high arcs, and the user targets a specific square.</p>\n<p>Rules for indirect-fire siege weapons are found on page 160 of Ultimate Combat. Mortars can also be fired as direct-fire siege engines. When used for direct fire, they take a -4 penalty on attack rolls and their range increment is halved, but they do not have a minimum range. After the point of impact is determined, the shell explodes and deals 6d6 points of bludgeoning, piercing, and slashing damage to all creatures in a 30-foot radius (Reflex DC 20 for half ).</p>\n<p>An Aasen mortar has hardness 10 and 35 hit points; it fires special, finned fragmentation bombs that cost 10 gp each and weigh 4 pounds each. These bombs usually arrive on the battlefront in wooden cases containing 6 mortars each.</p>"
    },
    "tags": ["Modern Firearm"],
    "weight": {
      "value": 50
    },
    "price": 500,
    "hardness": 10,
    "actions": [
      {
        "_id": "0rvo9axdjskf59wv",
        "name": "Attack",
        "img": "icons/weapons/artillery/cannon-banded.webp",
        "activation": {
          "type": "attack"
        },
        "duration": {
          "units": "inst"
        },
        "range": {
          "value": "200",
          "units": "ft",
          "maxIncrements": 10,
          "minValue": "50",
          "minUnits": "ft"
        },
        "actionType": "rwak",
        "damage": {
          "parts": [
            {
              "formula": "sizeRoll(6, 6, @size)",
              "type": {
                "values": ["slashing"],
                "custom": ""
              }
            }
          ]
        },
        "formulaicAttacks": {
          "count": {
            "formula": "min(3, ceil(@attributes.bab.total / 5) - 1)"
          },
          "bonus": {
            "formula": "@formulaicAttack * -5"
          }
        },
        "ability": {
          "attack": "dex",
          "critMult": 3
        }
      }
    ],
    "tag": "aasenMortar",
    "baseTypes": ["Aasen Mortar"],
    "weaponGroups": {
      "value": ["firearms"]
    },
    "subType": "exotic",
    "weaponSubtype": "ranged"
  }
}
