{
  "_id": "nsUPYzbxo7c3YvXy",
  "name": "Ballista Net",
  "type": "loot",
  "img": "icons/tools/fishing/net-gold.webp",
  "system": {
    "description": {
      "value": "<p><b>Source</b> <em>Dragonslayer's Handbook pg. 27</em></p><h3>Description</h3><p>This ballista bolt is specially equipped with a net which unfurls  as the bolt flies toward its target. Unlike a standard ballista bolt,  a ballista net requires only a touch attack to hit. If a ballista  net hits, it deals no damage, but causes the target to become  entangled. An entangled creature takes a -2 penalty on attack  rolls and a -4 penalty to Dexterity, can move at only half speed,  and cannot charge or run.</p>"
    },
    "weight": {
      "value": 150
    },
    "price": 75,
    "equipped": false,
    "hp": {
      "max": 1,
      "value": 1
    },
    "hardness": 5,
    "tag": "ballistaNet",
    "subType": "ammo"
  }
}
