{
  "_id": "84twkW8rwnUEX4EY",
  "name": "Barbed Bolt",
  "type": "loot",
  "img": "systems/lf1/icons/items/weapons/bolt.PNG",
  "system": {
    "description": {
      "value": "<p><b>Source</b> <em>Ranged Tactics Toolbox pg. 19</em></p>\n<h3>Statistics</h3>\n<h3>Description</h3>\n<p>The head of a barbed arrow resembles that of a harpoon.</p>\n<p>When a barbed arrow is attached to a length of silk rope and fired from a bow, the arrow's range increment is reduced to 30 feet, but it gains the <b>grapple special weapon quality</b> (<em>Pathfinder RPG Ultimate Equipment</em> 22).</p>\n<p>Barbed bolts exist for crossbows.</p>"
    },
    "tags": ["PFS"],
    "weight": {
      "value": 0.15
    },
    "price": 0.1,
    "equipped": false,
    "hp": {
      "max": 1,
      "value": 1
    },
    "hardness": 5,
    "unidentified": {
      "price": 0.1
    },
    "subType": "ammo",
    "extraType": "bolt"
  }
}
