{
  "_id": "pRzR6YPVwzDi0JwP",
  "name": "Battle Poi",
  "type": "weapon",
  "img": "systems/lf1/icons/items/weapons/battle-poi.png",
  "system": {
    "description": {
      "value": "<p><b>Source</b> <em>Adventurer's Armory pg. 2</em>, <em>Legacy of Fire Player's Guide pg. 22</em></p><h3>Statistics</h3><p><b>Damage</b> 1d3 fire (small), 1d4 fire (medium); <b>Critical</b> x2; <b>Range</b> -; <b>Type</b> fire</p><p><b>Weapon Groups</b> Flails</p><h3>Description</h3><p>This pair of arm-length chains has handles at one end and heavy fuel-soaked torch heads at the other. The weight of the poi is insufficient to deal physical damage, but the burning fuel deals fire damage. If you are proficient in battle poi, you are treated as if you have the Two-Weapon Fighting feat for the purposes of making poi attacks. Poi can be extinguished by spending a full round action smothering them in sand or submerging them in water.</p>"
    },
    "tags": ["PFS"],
    "weight": {
      "value": 2
    },
    "price": 5,
    "hp": {
      "max": 2,
      "value": 2
    },
    "hardness": 10,
    "actions": [
      {
        "_id": "00zq688dr8nprn2b",
        "name": "Attack",
        "img": "systems/lf1/icons/items/weapons/battle-poi.png",
        "activation": {
          "type": "attack"
        },
        "duration": {
          "units": "inst"
        },
        "range": {
          "value": "0",
          "units": "melee"
        },
        "actionType": "mwak",
        "damage": {
          "parts": [
            {
              "formula": "sizeRoll(1, 4, @size)",
              "type": {
                "values": ["fire"],
                "custom": ""
              }
            }
          ]
        },
        "formulaicAttacks": {
          "count": {
            "formula": "min(3, ceil(@attributes.bab.total / 5) - 1)"
          },
          "bonus": {
            "formula": "@formulaicAttack * -5"
          }
        },
        "ability": {
          "attack": "str",
          "damage": "str"
        }
      }
    ],
    "tag": "battlePoi",
    "baseTypes": ["Battle Poi"],
    "weaponGroups": {
      "value": ["flails"]
    },
    "subType": "exotic"
  }
}
