{
  "_id": "PnCZEHzxpiz8NRSH",
  "name": "Blunderbuss",
  "type": "weapon",
  "img": "icons/weapons/guns/gun-wood.webp",
  "system": {
    "description": {
      "value": "<p><b>Source</b> <em>Ultimate Equipment pg. 43</em>, <em>Ultimate Combat pg. 137</em></p>\n<h3>Statistics</h3><p><b>Damage</b> 1d6 (small), 1d8 (medium); <b>Critical</b> x2; <b>Range</b> special; <b>Type</b> B and P</p>\n<p><b>Misfire</b> 1-2 (10 ft.); <b>Capacity</b> 1</p>\n<h3>Description</h3>\n<p>This weapon fires pellets or a bullet from its trumpet-shaped barrel, making it an effective fowling weapon or closefighting personal defense weapon. The blunderbuss fires in a 15-foot cone when firing pellets, and has a 10-foot range increment when firing a bullet. A blunderbuss uses a bullet or pellets and a single dose of black powder or a single alchemical cartridge as ammunition.</p>"
    },
    "tags": ["PFS", "Early Firearm"],
    "weight": {
      "value": 8
    },
    "price": 2000,
    "hardness": 10,
    "actions": [
      {
        "_id": "jph5llro47mqoq8c",
        "name": "Attack",
        "img": "icons/weapons/guns/gun-wood.webp",
        "activation": {
          "type": "attack"
        },
        "duration": {
          "units": "inst"
        },
        "range": {
          "value": "10",
          "units": "ft",
          "maxIncrements": 10
        },
        "actionType": "rwak",
        "damage": {
          "parts": [
            {
              "formula": "sizeRoll(1, 8, @size)",
              "type": {
                "values": ["bludgeoning", "piercing"],
                "custom": ""
              }
            }
          ]
        },
        "formulaicAttacks": {
          "count": {
            "formula": "min(3, ceil(@attributes.bab.total / 5) - 1)"
          },
          "bonus": {
            "formula": "@formulaicAttack * -5"
          }
        },
        "ability": {
          "attack": "dex",
          "damageMult": 1.5
        },
        "usesAmmo": true
      }
    ],
    "tag": "blunderbuss",
    "held": "2h",
    "baseTypes": ["Blunderbuss"],
    "weaponGroups": {
      "value": ["firearms"]
    },
    "subType": "exotic",
    "weaponSubtype": "ranged",
    "properties": {
      "sct": true
    },
    "ammoType": "gunBullet"
  }
}
