{
  "_id": "KkLxcudnFBKuK7JI",
  "name": "Boarding Axe",
  "type": "weapon",
  "img": "systems/lf1/icons/items/weapons/boarding-axe.PNG",
  "system": {
    "description": {
      "value": "<p><b>Source</b> <em>Adventurer's Armory 2 pg. 8</em>, <em>Pirates of the Inner Sea pg. 19</em>, <em>Skull and Shackles Player's Guide pg. 6</em></p><h3>Statistics</h3><p><b>Damage</b> 1d4 (small), 1d6 (medium); <b>Critical</b> x3; <b>Range</b> -; <b>Type</b> P or S</p><p><b>Weapon Groups</b> Axes</p><h3>Description</h3><p>A boarding axe is similar to a handaxe, but features a spike that allows the weapon to do either slashing or piercing damage. When in hand, a boarding axe grants a +2 circumstance bonus on Climb checks to scale wooden or other penetrable surfaces, such as ice.</p>"
    },
    "weight": {
      "value": 3
    },
    "price": 6,
    "hp": {
      "max": 2,
      "value": 2
    },
    "hardness": 10,
    "actions": [
      {
        "_id": "84tedp19yjn6lixb",
        "name": "Attack",
        "img": "systems/lf1/icons/items/weapons/boarding-axe.PNG",
        "activation": {
          "type": "attack"
        },
        "duration": {
          "units": "inst"
        },
        "range": {
          "value": "0",
          "units": "melee"
        },
        "actionType": "mwak",
        "damage": {
          "parts": [
            {
              "formula": "sizeRoll(1, 6, @size)",
              "type": {
                "values": ["piercing", "slashing"],
                "custom": ""
              }
            }
          ]
        },
        "formulaicAttacks": {
          "count": {
            "formula": "min(3, ceil(@attributes.bab.total / 5) - 1)"
          },
          "bonus": {
            "formula": "@formulaicAttack * -5"
          }
        },
        "ability": {
          "attack": "str",
          "damage": "str",
          "critMult": 3
        }
      }
    ],
    "tag": "boardingAxe",
    "baseTypes": ["Boarding Axe"],
    "weaponGroups": {
      "value": ["axes"]
    },
    "subType": "martial"
  }
}
