{
  "_id": "Q0lPhlUtRuqoWfyI",
  "name": "Boomerang",
  "type": "weapon",
  "img": "systems/lf1/icons/items/weapons/boomerang.png",
  "system": {
    "description": {
      "value": "<p><b>Source</b> <em>Ranged Tactics Toolbox pg. 33</em>, <em>Adventurer's Armory pg. 2</em>, <em>Advanced Player's Guide pg. 176</em>, <em>Ultimate Equipment pg. 21</em></p><h3>Statistics</h3><p><b>Damage</b> 1d4 (small), 1d6 (medium); <b>Critical</b> x2; <b>Range</b> 30 ft.; <b>Type</b> B</p><p><b>Weapon Groups</b> Thrown</p><h3>Description</h3><p>The boomerang is primarily a hunting tool, but it is not uncommon for these versatile thrown weapons to be carried into battle. A boomerang is made of wood and is flat, with a long haft, a pronounced forward curve, and a sharp backward bend at the head. A hunting boomerang does not fly in a returning path.</p>"
    },
    "tags": ["PFS"],
    "weight": {
      "value": 3
    },
    "price": 3,
    "hp": {
      "max": 5,
      "value": 5
    },
    "hardness": 5,
    "actions": [
      {
        "_id": "7gwjczho0xdejc3r",
        "name": "Attack",
        "img": "systems/lf1/icons/items/weapons/boomerang.png",
        "activation": {
          "type": "attack"
        },
        "duration": {
          "units": "inst"
        },
        "range": {
          "value": "30",
          "units": "ft"
        },
        "actionType": "rwak",
        "damage": {
          "parts": [
            {
              "formula": "sizeRoll(1, 6, @size)",
              "type": {
                "values": ["bludgeoning"],
                "custom": ""
              }
            }
          ]
        },
        "formulaicAttacks": {
          "count": {
            "formula": "min(3, ceil(@attributes.bab.total / 5) - 1)"
          },
          "bonus": {
            "formula": "@formulaicAttack * -5"
          }
        },
        "ability": {
          "attack": "dex",
          "damage": "str"
        }
      }
    ],
    "tag": "boomerang",
    "baseTypes": ["Boomerang"],
    "weaponGroups": {
      "value": ["thrown"]
    },
    "subType": "exotic",
    "weaponSubtype": "ranged",
    "properties": {
      "spc": true
    }
  }
}
