{
  "_id": "1KIIeEf7TlYtLclG",
  "name": "Cat-o'-Nine-Tails",
  "type": "weapon",
  "img": "systems/lf1/icons/items/weapons/cat-o-nine-tails.png",
  "system": {
    "description": {
      "value": "<p><b>Source</b> <em>Adventurer's Armory 2 pg. 8</em>, <em>Pirates of the Inner Sea pg. 19</em>, <em>Skull and Shackles Player's Guide pg. 6</em></p><h3>Statistics</h3><p><b>Damage</b> 1d3 (small), 1d4 (medium); <b>Critical</b> x2; <b>Range</b> -; <b>Type</b> S</p><p><b>Weapon Groups</b> Flails</p><h3>Description</h3><p>This short whip is made of nine knotted thongs about 3 feet in length. A cat-o'-nine-tails deals no damage to any creature with an armor bonus of +1 or higher or a natural armor bonus of +3 or higher.</p>"
    },
    "weight": {
      "value": 1
    },
    "price": 1,
    "hp": {
      "max": 2,
      "value": 2
    },
    "hardness": 10,
    "actions": [
      {
        "_id": "8xs2ofakx0k596px",
        "name": "Attack",
        "img": "systems/lf1/icons/items/weapons/cat-o-nine-tails.png",
        "activation": {
          "type": "attack"
        },
        "duration": {
          "units": "inst"
        },
        "range": {
          "value": "0",
          "units": "melee"
        },
        "actionType": "mwak",
        "damage": {
          "parts": [
            {
              "formula": "sizeRoll(1, 4, @size)",
              "type": {
                "values": ["slashing"],
                "custom": ""
              }
            }
          ]
        },
        "formulaicAttacks": {
          "count": {
            "formula": "min(3, ceil(@attributes.bab.total / 5) - 1)"
          },
          "bonus": {
            "formula": "@formulaicAttack * -5"
          }
        },
        "ability": {
          "attack": "str",
          "damage": "str"
        }
      }
    ],
    "baseTypes": ["Cat-o'-Nine-Tails"],
    "weaponGroups": {
      "value": ["flails"]
    },
    "subType": "martial",
    "properties": {
      "dis": true,
      "nnl": true
    }
  }
}
