{
  "_id": "sSvnAbXKDOSrMvGc",
  "name": "Cestus",
  "type": "weapon",
  "img": "systems/lf1/icons/items/weapons/cestus.png",
  "system": {
    "description": {
      "value": "<p><b>Source</b> <em>Ultimate Equipment pg. 17</em>, <em>Adventurer's Armory pg. 3</em>, <em>Advanced Player's Guide pg. 176</em></p><h3>Statistics</h3><p><b>Damage</b> 1d3 (small), 1d4 (medium); <b>Critical</b> 19-20/x2; <b>Range</b> -; <b>Type</b> B or P</p><p><b>Weapon Groups</b> Close; Monk</p><h3>Description</h3><p>The cestus is a glove of leather or thick cloth that covers the wielder from mid-finger to mid-forearm. The close combat weapon is reinforced with metal plates over the fingers and often lined with wicked spikes along the backs of the hands and wrists. While wearing a cestus, you are considered armed and your unarmed attacks deal lethal damage. If you are proficient with a cestus, you can have your unarmed strikes deal bludgeoning or piercing damage. Monks are proficient with the cestus. When using a cestus, your fingers are mostly exposed, allowing you to wield or carry items in that hand, but the constriction of the weapon at your knuckles gives you a -2 penalty on all precision-based tasks involving that hand (such as opening locks). A cestus can't be disarmed.</p>"
    },
    "tags": ["PFS"],
    "weight": {
      "value": 1
    },
    "price": 5,
    "hp": {
      "max": 2,
      "value": 2
    },
    "hardness": 10,
    "actions": [
      {
        "_id": "n4b4pwbmy5ncp0km",
        "name": "Attack",
        "img": "systems/lf1/icons/items/weapons/cestus.png",
        "activation": {
          "type": "attack"
        },
        "duration": {
          "units": "inst"
        },
        "range": {
          "value": "0",
          "units": "melee"
        },
        "actionType": "mwak",
        "damage": {
          "parts": [
            {
              "formula": "sizeRoll(1, 4, @size)",
              "type": {
                "values": ["bludgeoning", "piercing"],
                "custom": ""
              }
            }
          ]
        },
        "formulaicAttacks": {
          "count": {
            "formula": "min(3, ceil(@attributes.bab.total / 5) - 1)"
          },
          "bonus": {
            "formula": "@formulaicAttack * -5"
          }
        },
        "ability": {
          "attack": "str",
          "damage": "str",
          "critRange": 19
        }
      }
    ],
    "tag": "cestus",
    "baseTypes": ["Cestus"],
    "weaponGroups": {
      "value": ["close", "monk"]
    },
    "properties": {
      "mnk": true,
      "spc": true
    }
  }
}
