{
  "_id": "RYGdmT9D0wqFL8F3",
  "name": "Colossal Ram",
  "type": "weapon",
  "img": "systems/lf1/icons/items/weapons/dwarven-sphinx-hammer.PNG",
  "system": {
    "description": {
      "value": "<p><b>Source</b> <em>Ultimate Combat pg. 166</em></p><h3>Statistics</h3><p><b>Damage</b> 10d6; <b>Critical</b> x3; <b>Range</b> -; <b>Type</b> B</p><p><b>Crew</b> 40; <b>Aim</b> 0; <b>Load</b> 0; <b>Speed</b> 15 ft.</p><p><b>Category</b> Close Assault; <b>Proficiency</b> Siege Engine</p><h3>Description</h3>"
    },
    "price": 5000,
    "hardness": 10,
    "actions": [
      {
        "_id": "ipdweogg4bbx139p",
        "name": "Attack",
        "img": "systems/lf1/icons/items/weapons/dwarven-sphinx-hammer.PNG",
        "activation": {
          "type": "attack"
        },
        "duration": {
          "units": "inst"
        },
        "range": {
          "value": "0",
          "units": "melee"
        },
        "actionType": "mwak",
        "damage": {
          "parts": [
            {
              "formula": "sizeRoll(10, 6, @size)",
              "type": {
                "values": ["bludgeoning"],
                "custom": ""
              }
            }
          ]
        },
        "formulaicAttacks": {
          "count": {
            "formula": "min(3, ceil(@attributes.bab.total / 5) - 1)"
          },
          "bonus": {
            "formula": "@formulaicAttack * -5"
          }
        },
        "ability": {
          "attack": "str",
          "damage": "str",
          "critRange": "",
          "critMult": "3"
        }
      }
    ],
    "tag": "colossalRam",
    "baseTypes": ["Ram"],
    "subType": "misc",
    "weaponSubtype": "other"
  }
}
