{
  "_id": "fOSuWwRSZLTrROch",
  "name": "Dagger",
  "type": "weapon",
  "img": "systems/lf1/icons/items/weapons/dagger.PNG",
  "system": {
    "description": {
      "value": "<p><b>Source</b> <em>Ultimate Equipment pg. 17</em>, <em>PRPG Core Rulebook pg. 142</em></p><h3>Statistics</h3><p><b>Damage</b> 1d3 (small), 1d4 (medium); <b>Critical</b> 19-20/x2; <b>Range</b> 10 ft.; <b>Type</b> P or S</p><p><b>Weapon Groups</b> Blades, Light; Thrown; Tribal</p><h3>Description</h3><p>A dagger is a fighting knife. Its blade is usually less than 1 foot long, and can be curved or straight, with one edge or two. Dagger designs vary widely, and can have many different names (such as a thrusting dagger being called a \"dirk\"). You get a +2 bonus on Sleight of Hand skill checks made to conceal a dagger on your body.</p>"
    },
    "tags": ["PFS"],
    "weight": {
      "value": 1
    },
    "price": 2,
    "hp": {
      "max": 2,
      "value": 2
    },
    "hardness": 10,
    "actions": [
      {
        "_id": "3d5k15aepyp5sclw",
        "name": "Attack",
        "img": "systems/lf1/icons/items/weapons/dagger.PNG",
        "activation": {
          "type": "attack"
        },
        "duration": {
          "units": "inst"
        },
        "range": {
          "value": "10",
          "units": "melee"
        },
        "actionType": "mwak",
        "damage": {
          "parts": [
            {
              "formula": "sizeRoll(1, 4, @size)",
              "type": {
                "values": ["piercing", "slashing"],
                "custom": ""
              }
            }
          ]
        },
        "formulaicAttacks": {
          "count": {
            "formula": "min(3, ceil(@attributes.bab.total / 5) - 1)"
          },
          "bonus": {
            "formula": "@formulaicAttack * -5"
          }
        },
        "ability": {
          "attack": "str",
          "damage": "str",
          "critRange": 19
        }
      }
    ],
    "tag": "dagger",
    "baseTypes": ["Dagger"],
    "weaponGroups": {
      "value": ["bladesLight", "thrown", "tribal"]
    }
  }
}
