{
  "_id": "DGp5B70pcMEfcnqx",
  "name": "Dan Bong",
  "type": "weapon",
  "img": "systems/lf1/icons/items/weapons/blowgun.PNG",
  "system": {
    "description": {
      "value": "<p><b>Source</b> <em>Ultimate Equipment pg. 20</em>, <em>Ultimate Combat pg. 130</em></p><h3>Statistics</h3><p><b>Damage</b> 1d2 (small), 1d3 (medium); <b>Critical</b> 19-20/x2; <b>Range</b> 10 ft.; <b>Type</b> B</p><p><b>Weapon Groups</b> Close; Monk</p><h3>Description</h3><p>These short, blunt sticks are held in the hands to enhance unarmed martial techniques and secured by a cord looped over the thumb. They provide the wielder with the ability to lock an opponent and target pressure points, granting you a +2 bonus on combat maneuver checks to grapple.</p>"
    },
    "tags": ["PFS"],
    "price": 0.1,
    "hp": {
      "max": 2,
      "value": 2
    },
    "hardness": 10,
    "actions": [
      {
        "_id": "275gqs6cmlr44ken",
        "name": "Attack",
        "img": "systems/lf1/icons/items/weapons/blowgun.PNG",
        "activation": {
          "type": "attack"
        },
        "duration": {
          "units": "inst"
        },
        "range": {
          "value": "10",
          "units": "melee"
        },
        "actionType": "mwak",
        "damage": {
          "parts": [
            {
              "formula": "sizeRoll(1, 3, @size)",
              "type": {
                "values": ["bludgeoning"],
                "custom": ""
              }
            }
          ]
        },
        "formulaicAttacks": {
          "count": {
            "formula": "min(3, ceil(@attributes.bab.total / 5) - 1)"
          },
          "bonus": {
            "formula": "@formulaicAttack * -5"
          }
        },
        "ability": {
          "attack": "str",
          "damage": "str",
          "critRange": 19
        }
      }
    ],
    "tag": "danBong",
    "baseTypes": ["Dan Bong"],
    "weaponGroups": {
      "value": ["close", "monk"]
    },
    "subType": "exotic",
    "properties": {
      "blc": true,
      "mnk": true,
      "spc": true
    }
  }
}
