{
  "_id": "3ymi1TiBmp2nTbxj",
  "name": "Double-Barreled Pistol",
  "type": "weapon",
  "img": "icons/weapons/guns/gun-double-barrel.webp",
  "system": {
    "description": {
      "value": "<p><b>Source</b> <em>Ultimate Equipment pg. 43</em>, <em>Ultimate Combat pg. 139</em></p>\n<h3>Statistics</h3><p><b>Damage</b> 1d6 (small), 1d8 (medium); <b>Critical</b> x4; <b>Range</b> 20 ft.; <b>Type</b> B and P</p>\n<p><b>Misfire</b> 1-2 (5 ft.); <b>Capacity</b> 2</p>\n<h3>Description</h3>\n<p>This pistol has two parallel barrels; each barrel can be fired independently as a separate action, or both can be shot at once with the same action.</p>\n<p>If both barrels are shot at once, they must both target the same creature or object, and the pistol becomes wildly inaccurate, imposing a -4 penalty on each shot.</p>"
    },
    "tags": ["PFS", "Early Firearm"],
    "weight": {
      "value": 5
    },
    "price": 1750,
    "hardness": 10,
    "actions": [
      {
        "_id": "ezwf4zg3d8lg04co",
        "name": "Attack",
        "img": "icons/weapons/guns/gun-double-barrel.webp",
        "activation": {
          "type": "attack"
        },
        "duration": {
          "units": "inst"
        },
        "range": {
          "value": "20",
          "units": "ft",
          "maxIncrements": 10
        },
        "actionType": "rwak",
        "damage": {
          "parts": [
            {
              "formula": "sizeRoll(1, 8, @size)",
              "type": {
                "values": ["bludgeoning", "piercing"],
                "custom": ""
              }
            }
          ]
        },
        "formulaicAttacks": {
          "count": {
            "formula": "min(3, ceil(@attributes.bab.total / 5) - 1)"
          },
          "bonus": {
            "formula": "@formulaicAttack * -5"
          },
          "label": ""
        },
        "ability": {
          "attack": "dex",
          "critMult": 4
        },
        "usesAmmo": true
      }
    ],
    "tag": "doublebarreledPistol",
    "baseTypes": ["Double-Barreled Pistol"],
    "weaponGroups": {
      "value": ["firearms"]
    },
    "subType": "exotic",
    "weaponSubtype": "ranged",
    "ammoType": "gunBullet"
  }
}
