{
  "_id": "cKJ0wG42qRrrJJeI",
  "name": "Dueling Sword",
  "type": "weapon",
  "img": "systems/lf1/icons/items/weapons/sword-dueling.png",
  "system": {
    "description": {
      "value": "<p><em>These slightly curved swords measure just over 3 feet in length.</em></p>\n<p>An <em>dueling sword</em> can be used as a martial weapon (in which case it functions as a @Compendium[lf1.weapons-and-ammo.zWRlna42PMJVX6un]{longsword}), but if you have the feat @Compendium[lf1.feats.BJBC4lbo7xGWPsKJ]{Exotic Weapon Proficiency (dueling sword)}, you can use the @Compendium[lf1.feats.vWiTqHC4Y3Xn1Pme]{Weapon Finesse} feat to apply your <em>Dexterity</em> modifier instead of your <em>Strength</em> modifier to <em>attack rolls</em> with a <em>dueling sword</em> sized for you, even though it isn't a light weapon. You can also wield a <em>dueling sword</em> in two hands to apply 1-1/2 times your <em>Strength</em> bonus to damage rolls.</p>"
    },
    "weight": {
      "value": 3
    },
    "price": 20,
    "hp": {
      "max": 5,
      "value": 5
    },
    "hardness": 10,
    "actions": [
      {
        "_id": "8qctu0vskqck35o6",
        "name": "Attack",
        "img": "systems/lf1/icons/items/weapons/sword-dueling.png",
        "activation": {
          "type": "attack"
        },
        "duration": {
          "units": "inst"
        },
        "range": {
          "units": "melee"
        },
        "actionType": "mwak",
        "damage": {
          "parts": [
            {
              "formula": "sizeRoll(1, 8, @size)",
              "type": {
                "values": ["slashing"],
                "custom": ""
              }
            }
          ]
        },
        "formulaicAttacks": {
          "count": {
            "formula": "min(3, ceil(@attributes.bab.total / 5) - 1)"
          },
          "bonus": {
            "formula": "@formulaicAttack * -5"
          }
        },
        "ability": {
          "attack": "str",
          "damage": "str",
          "critRange": "19",
          "critMult": "2"
        }
      }
    ],
    "baseTypes": ["Dueling Sword", "Longsword"],
    "weaponGroups": {
      "value": ["bladesHeavy"]
    },
    "subType": "exotic",
    "weaponSubtype": "1h"
  }
}
