{
  "_id": "x1nte1KpHWKsDlww",
  "name": "Dwarven Chain-Flail",
  "type": "weapon",
  "img": "systems/lf1/icons/items/weapons/dwarven-dorn-dergar.png",
  "system": {
    "description": {
      "value": "<p><em>This 10-foot-long chain is weighted at the end by a ball of solid iron the size of a large fist.</em></p>\n<p>By adjusting the slack of the chain, the weapon can be used either with or without reach. Changing between using it as a normal weapon and a reach weapon is a <em>move action</em>.</p>"
    },
    "tags": ["Dwarven"],
    "weight": {
      "value": 15
    },
    "price": 50,
    "hardness": 10,
    "actions": [
      {
        "_id": "3s819odpl93wr6fz",
        "name": "Attack",
        "img": "systems/lf1/icons/items/weapons/dwarven-dorn-dergar.png",
        "activation": {
          "type": "attack"
        },
        "duration": {
          "units": "inst"
        },
        "range": {
          "units": "melee"
        },
        "actionType": "mwak",
        "damage": {
          "parts": [
            {
              "formula": "sizeRoll(1, 10, @size)",
              "type": {
                "values": ["bludgeoning"],
                "custom": ""
              }
            }
          ]
        },
        "formulaicAttacks": {
          "count": {
            "formula": "min(3, ceil(@attributes.bab.total / 5) - 1)"
          },
          "bonus": {
            "formula": "@formulaicAttack * -5"
          }
        },
        "ability": {
          "attack": "str",
          "damage": "str",
          "damageMult": 1.5,
          "critRange": "20",
          "critMult": "2"
        }
      }
    ],
    "held": "2h",
    "baseTypes": ["Dwarven Chain-Flail"],
    "subType": "exotic",
    "weaponSubtype": "2h"
  }
}
