{
  "_id": "bTmiY6Bkj2kSPUKV",
  "name": "Dwarven Sphinx Hammer",
  "type": "weapon",
  "img": "systems/lf1/icons/items/weapons/dwarven-sphinx-hammer.PNG",
  "system": {
    "description": {
      "value": "<p><b>Source</b> <em>Heroes from the Fringe pg. 8</em></p><h3>Statistics</h3><p><b>Damage</b> 1d8 (small), 1d10 (medium); <b>Critical</b> x3; <b>Range</b> 20 ft.; <b>Type</b> B</p><p><b>Weapon Groups</b> Hammers; Thrown</p><h3>Description</h3><p>The dwarven sphinx hammer is a long-handled hammer with a striking head that is artfully designed to look like a ram-headed criosphinx. Most commonly found among the Pahmet, the dwarven sphinx hammer is balanced for use as both a melee weapon and a thrown weapon.</p>"
    },
    "tags": ["Dwarven"],
    "weight": {
      "value": 8
    },
    "price": 45,
    "hardness": 10,
    "actions": [
      {
        "_id": "m50ds28lnooa637f",
        "name": "Attack",
        "img": "systems/lf1/icons/items/weapons/dwarven-sphinx-hammer.PNG",
        "activation": {
          "type": "attack"
        },
        "duration": {
          "units": "inst"
        },
        "range": {
          "value": "20",
          "units": "melee"
        },
        "actionType": "mwak",
        "damage": {
          "parts": [
            {
              "formula": "sizeRoll(1, 10, @size)",
              "type": {
                "values": ["bludgeoning"],
                "custom": ""
              }
            }
          ]
        },
        "formulaicAttacks": {
          "count": {
            "formula": "min(3, ceil(@attributes.bab.total / 5) - 1)"
          },
          "bonus": {
            "formula": "@formulaicAttack * -5"
          }
        },
        "ability": {
          "attack": "str",
          "damage": "str",
          "damageMult": 1.5,
          "critMult": 3
        }
      }
    ],
    "tag": "dwarvenSphinxHammer",
    "held": "2h",
    "baseTypes": ["Dwarven Sphinx Hammer"],
    "weaponGroups": {
      "value": ["hammers", "thrown"]
    },
    "subType": "exotic",
    "weaponSubtype": "2h"
  }
}
