{
  "_id": "NVmHsonsX3jF4ZUi",
  "name": "Dwarven Waraxe",
  "type": "weapon",
  "img": "systems/lf1/icons/items/weapons/waraxe-dwarven.PNG",
  "system": {
    "description": {
      "value": "<p><b>Source</b> <em>Ultimate Equipment pg. 20</em>, <em>PRPG Core Rulebook pg. 143</em></p><h3>Statistics</h3><p><b>Damage</b> 1d8 (small), 1d10 (medium); <b>Critical</b> x3; <b>Range</b> -; <b>Type</b> S</p><p><b>Weapon Groups</b> Axes</p><h3>Description</h3><p>A dwarven waraxe has a large, ornate head mounted on a thick handle, making it too large to use in one hand without special training; thus, it is an exotic weapon. A Medium character can use a dwarven waraxe two-handed as a martial weapon, or a Large creature can use it one-handed in the same way. A dwarf treats a dwarven waraxe as a martial weapon even when using it in one hand.</p>"
    },
    "tags": ["PFS", "Dwarven"],
    "weight": {
      "value": 8
    },
    "price": 30,
    "hp": {
      "max": 5,
      "value": 5
    },
    "hardness": 10,
    "actions": [
      {
        "_id": "i0rattqq74qrwat5",
        "name": "Attack",
        "img": "systems/lf1/icons/items/weapons/waraxe-dwarven.PNG",
        "activation": {
          "type": "attack"
        },
        "duration": {
          "units": "inst"
        },
        "range": {
          "value": "0",
          "units": "melee"
        },
        "actionType": "mwak",
        "damage": {
          "parts": [
            {
              "formula": "sizeRoll(1, 10, @size)",
              "type": {
                "values": ["slashing"],
                "custom": ""
              }
            }
          ]
        },
        "formulaicAttacks": {
          "count": {
            "formula": "min(3, ceil(@attributes.bab.total / 5) - 1)"
          },
          "bonus": {
            "formula": "@formulaicAttack * -5"
          }
        },
        "ability": {
          "attack": "str",
          "damage": "str",
          "critMult": 3
        }
      }
    ],
    "tag": "dwarvenWaraxe",
    "baseTypes": ["Dwarven Waraxe"],
    "weaponGroups": {
      "value": ["axes"]
    },
    "subType": "exotic",
    "weaponSubtype": "1h"
  }
}
