{
  "_id": "aji2yHRoqFAHHfm6",
  "name": "Dwarven Urgrosh",
  "type": "weapon",
  "img": "systems/lf1/icons/items/weapons/dwarven-urgrosh.PNG",
  "system": {
    "description": {
      "value": "<p><b>Source</b> <em>Ultimate Equipment pg. 20</em>, <em>PRPG Core Rulebook pg. 143</em></p><h3>Statistics</h3><p><b>Damage</b> 1d6/1d4 (small), 1d8/1d6 (medium); <b>Critical</b> x3; <b>Range</b> -; <b>Type</b> P or S</p><p><b>Weapon Groups</b> Double</p><h3>Description</h3><p>A dwarven urgrosh is a double weapon- an axe head and a spear point on opposite ends of a long haft. The urgrosh's axe head is a slashing weapon that deals 1d8 points of damage. Its spear head is a piercing weapon that deals 1d6 points of damage. You can use either head as the primary weapon; the other becomes the off-hand weapon. If you use an urgrosh against a charging character, the spear head is the part of the weapon that deals damage. Dwarves treat dwarven urgroshes as martial weapons.</p>"
    },
    "tags": ["PFS", "Dwarven"],
    "weight": {
      "value": 12
    },
    "price": 50,
    "hardness": 10,
    "actions": [
      {
        "_id": "90nl31kraar7k5bh",
        "name": "Attack",
        "img": "systems/lf1/icons/items/weapons/dwarven-urgrosh.PNG",
        "activation": {
          "type": "attack"
        },
        "duration": {
          "units": "inst"
        },
        "range": {
          "value": "0",
          "units": "melee"
        },
        "actionType": "mwak",
        "damage": {
          "parts": [
            {
              "formula": "sizeRoll(1, 8, @size)",
              "type": {
                "values": ["piercing", "slashing"],
                "custom": ""
              }
            }
          ]
        },
        "formulaicAttacks": {
          "count": {
            "formula": "min(3, ceil(@attributes.bab.total / 5) - 1)"
          },
          "bonus": {
            "formula": "@formulaicAttack * -5"
          }
        },
        "ability": {
          "attack": "str",
          "damage": "str",
          "damageMult": 1.5,
          "critMult": 3
        }
      }
    ],
    "tag": "dwarvenUrgrosh",
    "held": "2h",
    "baseTypes": ["Dwarven Urgrosh"],
    "weaponGroups": {
      "value": ["double"]
    },
    "subType": "exotic",
    "weaponSubtype": "2h",
    "properties": {
      "brc": true,
      "dbl": true
    }
  }
}
