{
  "_id": "M5hGOEmDx7iVwqFx",
  "name": "Dwarven Ram Hammer",
  "type": "weapon",
  "img": "systems/lf1/icons/items/weapons/ram-hammer-dwarven.PNG",
  "system": {
    "description": {
      "value": "<p><b>Source</b> <em>Heroes from the Fringe pg. 8</em></p><h3>Statistics</h3><p><b>Damage</b> 1d6 (small), 1d8 (medium); <b>Critical</b> x3; <b>Range</b> 10 ft.; <b>Type</b> B</p><p><b>Weapon Groups</b> Hammers; Thrown</p><h3>Description</h3><p>The dwarven ram hammer is designed to be thrown or used in melee, with a long leather strap that is wrapped around the wrist when used to deliver blows in close combat but unfurled to aid in swinging the weapon when the hammer is thrown.</p>"
    },
    "tags": ["Dwarven"],
    "weight": {
      "value": 5
    },
    "price": 25,
    "hp": {
      "max": 5,
      "value": 5
    },
    "hardness": 10,
    "actions": [
      {
        "_id": "8mso5cg33zo2axlo",
        "name": "Attack",
        "img": "systems/lf1/icons/items/weapons/ram-hammer-dwarven.PNG",
        "activation": {
          "type": "attack"
        },
        "duration": {
          "units": "inst"
        },
        "range": {
          "value": "10",
          "units": "melee"
        },
        "actionType": "mwak",
        "damage": {
          "parts": [
            {
              "formula": "sizeRoll(1, 8, @size)",
              "type": {
                "values": ["bludgeoning"],
                "custom": ""
              }
            }
          ]
        },
        "formulaicAttacks": {
          "count": {
            "formula": "min(3, ceil(@attributes.bab.total / 5) - 1)"
          },
          "bonus": {
            "formula": "@formulaicAttack * -5"
          }
        },
        "ability": {
          "attack": "str",
          "damage": "str",
          "critMult": 3
        }
      }
    ],
    "tag": "dwarvenRamHammer",
    "baseTypes": ["Dwarven Ram Hammer"],
    "weaponGroups": {
      "value": ["hammers", "thrown"]
    },
    "subType": "exotic",
    "weaponSubtype": "1h"
  }
}
