{
  "_id": "kTiSd8vO1cPMxXWo",
  "name": "Dwarven Double Waraxe",
  "type": "weapon",
  "img": "systems/lf1/icons/items/weapons/waraxe-dwarven-double.png",
  "system": {
    "description": {
      "value": "<p><b>Source</b> <em>Advanced Race Guide pg. 17</em></p><h3>Statistics</h3><p><b>Damage</b> 1d8 (small), 1d10 (medium); <b>Critical</b> x3; <b>Range</b> -; <b>Type</b> S</p><h3>Description</h3><p>This hefty waraxe is similar to the common dwarven waraxe, but its recurved blade spans forward and back from its head like a deadly butterfly. A dwarven double waraxe grants a +1 bonus on all attack rolls after the first when using Cleave or Great Cleave.</p>"
    },
    "tags": ["PFS", "Dwarven"],
    "weight": {
      "value": 12
    },
    "price": 60,
    "hp": {
      "max": 5,
      "value": 5
    },
    "hardness": 10,
    "actions": [
      {
        "_id": "ubl0aque4zljid2i",
        "name": "Attack",
        "img": "systems/lf1/icons/items/weapons/waraxe-dwarven-double.png",
        "activation": {
          "type": "attack"
        },
        "duration": {
          "units": "inst"
        },
        "range": {
          "value": "0",
          "units": "melee"
        },
        "actionType": "mwak",
        "damage": {
          "parts": [
            {
              "formula": "sizeRoll(1, 10, @size)",
              "type": {
                "values": ["slashing"],
                "custom": ""
              }
            }
          ]
        },
        "formulaicAttacks": {
          "count": {
            "formula": "min(3, ceil(@attributes.bab.total / 5) - 1)"
          },
          "bonus": {
            "formula": "@formulaicAttack * -5"
          }
        },
        "ability": {
          "attack": "str",
          "damage": "str",
          "critMult": 3
        }
      }
    ],
    "tag": "dwarvenDoubleWaraxe",
    "baseTypes": ["Dwarven Double Waraxe"],
    "weaponGroups": {
      "value": ["axes", "double"]
    },
    "subType": "exotic",
    "weaponSubtype": "1h",
    "properties": {
      "spc": true
    }
  }
}
