{
  "_id": "17BtK9QpY1MNixVt",
  "name": "Dye Arrow",
  "type": "loot",
  "img": "systems/lf1/icons/items/weapons/arrow-special.PNG",
  "system": {
    "description": {
      "value": "<p><b>Source</b> <em>Alchemy Manual pg. 21</em>, <em>Elves of Golarion pg. 22</em><h3>Statistics</h3><p><b>Category</b> Alchemical Weapons</p>\n<h3>Description</h3>\n<p>This arrow ends in a crystalline bubble filled with a viscous alchemical dyeing agent.</p>\n<p>Firing a dye arrow is a ranged touch attack; a creature struck by a dye arrow takes no damage but is splashed with enough black, blue, green, or red marker dye (<em>Pathfinder RPG Ultimate Equipment </em>104) to coat about 1 square foot.</p>\n<p>The stain caused by marker dye cannot be washed off except with magic for the first 72 hours, but fades completely after 2 weeks.</p>\n<h3>Alchemical Recipe</h3>\n<p><b>Recipe</b> (1 cold iron + 1 phosphorus)/earth; <b>Craft</b> 25<br><b>Time</b> 10 minutes; <b>Tools</b> -; <b>Type</b> alchemical weapon</p>"
    },
    "weight": {
      "value": 4
    },
    "price": 1,
    "equipped": false,
    "hp": {
      "max": 1,
      "value": 1
    },
    "hardness": 5,
    "tag": "dyeArrow",
    "subType": "ammo",
    "extraType": "arrow"
  }
}
