{
  "_id": "tJ6SgELD1EMxgwE6",
  "name": "Flambard",
  "type": "weapon",
  "img": "systems/lf1/icons/items/weapons/flambard.PNG",
  "system": {
    "description": {
      "value": "<p><b>Source</b> <em>Adventurer's Armory pg. 3</em></p><h3>Statistics</h3><p><b>Damage</b> 1d8 (small), 1d10 (medium); <b>Critical</b> 19-20/x2; <b>Range</b> -; <b>Type</b> S</p><p><b>Weapon Groups</b> Blades, Heavy</p><h3>Description</h3><p>This two-handed sword has a wavy blade that is especially useful for cutting through wooden weapons. If you are proficient with this weapon, you gain a +4 bonus on any sunder attempts made against weapons with a wooden haft; otherwise you may use this sword as a bastard sword.</p>"
    },
    "tags": ["PFS"],
    "weight": {
      "value": 6
    },
    "price": 50,
    "hardness": 10,
    "actions": [
      {
        "_id": "0ucp7lpd8t6ijm1r",
        "name": "Attack",
        "img": "systems/lf1/icons/items/weapons/flambard.PNG",
        "activation": {
          "type": "attack"
        },
        "duration": {
          "units": "inst"
        },
        "range": {
          "value": "0",
          "units": "melee"
        },
        "actionType": "mwak",
        "damage": {
          "parts": [
            {
              "formula": "sizeRoll(1, 10, @size)",
              "type": {
                "values": ["slashing"],
                "custom": ""
              }
            }
          ]
        },
        "formulaicAttacks": {
          "count": {
            "formula": "min(3, ceil(@attributes.bab.total / 5) - 1)"
          },
          "bonus": {
            "formula": "@formulaicAttack * -5"
          }
        },
        "ability": {
          "attack": "str",
          "damage": "str",
          "damageMult": 1.5,
          "critRange": 19
        }
      }
    ],
    "tag": "flambard",
    "held": "2h",
    "baseTypes": ["Flambard"],
    "weaponGroups": {
      "value": ["bladesHeavy"]
    },
    "subType": "exotic",
    "weaponSubtype": "2h",
    "properties": {
      "snd": true
    }
  }
}
