{
  "_id": "GydLTGUvuK9zzQbm",
  "name": "Flask Thrower",
  "type": "weapon",
  "img": "systems/lf1/icons/items/weapons/flask-thrower.png",
  "system": {
    "description": {
      "value": "<p><b>Source</b> <em>Adventurer's Armory 2 pg. 8</em>, <em>Gnomes of Golarion pg. 22</em></p><h3>Statistics</h3><p><b>Damage</b> - (small), - (medium); <b>Critical</b> -; <b>Range</b> 20 ft.; <b>Type</b> -</p><p><b>Weapon Groups</b> Thrown</p><h3>Description</h3><p>This staff has a cradle at the end, designed to hold alchemical weapons such as acid. A flask thrower significantly extends the range of thrown substances that deal splash damage, such as acid, alchemist's fire, or holy water, as well as that of tools such as tanglefoot bags, thunderstones, or caltrops.</p>"
    },
    "tags": ["PFS"],
    "weight": {
      "value": 4
    },
    "price": 25,
    "hp": {
      "max": 5,
      "value": 5
    },
    "hardness": 5,
    "actions": [
      {
        "_id": "ugob87eyjtdzsaby",
        "name": "Attack",
        "img": "systems/lf1/icons/items/weapons/flask-thrower.png",
        "activation": {
          "type": "attack"
        },
        "duration": {
          "units": "inst"
        },
        "range": {
          "value": "20",
          "units": "ft"
        },
        "actionType": "rwak",
        "formulaicAttacks": {
          "count": {
            "formula": "min(3, ceil(@attributes.bab.total / 5) - 1)"
          },
          "bonus": {
            "formula": "@formulaicAttack * -5"
          }
        },
        "ability": {
          "attack": "dex",
          "critMult": 0
        }
      }
    ],
    "tag": "flaskThrower",
    "baseTypes": ["Flask Thrower"],
    "weaponGroups": {
      "value": ["thrown"]
    },
    "subType": "exotic",
    "weaponSubtype": "ranged",
    "properties": {
      "spc": true
    }
  }
}
