{
  "_id": "LLxwE2hkeMFFGUHz",
  "name": "Flickmace",
  "type": "weapon",
  "img": "systems/lf1/icons/items/weapons/flickmace.png",
  "system": {
    "description": {
      "value": "<p>The innovation behind a flick-mace, which has an ordinary mace head, lies within its spring-loaded haft and protruding handles. When the mace is compressed, removing the handles instantly springs the mace to its full size. While it is extended, a quick flick of the wrist allows the weapon to be compressed.</p>"
    },
    "weight": {
      "value": 10
    },
    "price": 20,
    "hp": {
      "max": 5,
      "value": 5
    },
    "hardness": 5,
    "actions": [
      {
        "_id": "3jo44stmodcdo0ks",
        "name": "Attack",
        "img": "systems/lf1/icons/items/weapons/flickmace.png",
        "activation": {
          "type": "attack"
        },
        "duration": {
          "units": "inst"
        },
        "range": {
          "units": "reach"
        },
        "actionType": "mwak",
        "damage": {
          "parts": [
            {
              "formula": "sizeRoll(1, 8, @size)",
              "type": {
                "values": ["bludgeoning"],
                "custom": ""
              }
            }
          ]
        },
        "formulaicAttacks": {
          "count": {
            "formula": "min(3, ceil(@attributes.bab.total / 5) - 1)"
          },
          "bonus": {
            "formula": "@formulaicAttack * -5"
          }
        },
        "ability": {
          "attack": "str",
          "damage": "str"
        }
      }
    ],
    "baseTypes": ["Flickmace"],
    "weaponGroups": {
      "value": ["flails"]
    },
    "subType": "exotic",
    "weaponSubtype": "1h"
  }
}
