{
  "_id": "aOdrdreTnUg36jrP",
  "name": "Flying Talon",
  "type": "weapon",
  "img": "systems/lf1/icons/items/weapons/flying-talon.png",
  "system": {
    "description": {
      "value": "<p><b>Source</b> <em>Adventurer's Armory 2 pg. 8</em></p><h3>Statistics</h3><p><b>Damage</b> 1d3 (small), 1d4 (medium); <b>Critical</b> x2; <b>Range</b> -; <b>Type</b> P or S</p><p><b>Weapon Groups</b> Flails</p><h3>Description</h3><p>This weapon consists of a three-pronged, barbed hook attached to a length of chain. Due to the weapon's unwieldiness, you cannot make attacks of opportunity with a flying talon and do not threaten any squares with it.</p>"
    },
    "tags": ["PFS"],
    "weight": {
      "value": 5
    },
    "price": 15,
    "hp": {
      "max": 2,
      "value": 2
    },
    "hardness": 10,
    "actions": [
      {
        "_id": "cc9ud7pjwjt1gh2l",
        "name": "Attack",
        "img": "systems/lf1/icons/items/weapons/flying-talon.png",
        "activation": {
          "type": "attack"
        },
        "duration": {
          "units": "inst"
        },
        "range": {
          "value": "0",
          "units": "melee"
        },
        "actionType": "mwak",
        "damage": {
          "parts": [
            {
              "formula": "sizeRoll(1, 4, @size)",
              "type": {
                "values": ["piercing", "slashing"],
                "custom": ""
              }
            }
          ]
        },
        "formulaicAttacks": {
          "count": {
            "formula": "min(3, ceil(@attributes.bab.total / 5) - 1)"
          },
          "bonus": {
            "formula": "@formulaicAttack * -5"
          }
        },
        "ability": {
          "attack": "str",
          "damage": "str"
        }
      }
    ],
    "tag": "flyingTalon",
    "baseTypes": ["Flying Talon"],
    "weaponGroups": {
      "value": ["flails"]
    },
    "subType": "exotic",
    "properties": {
      "dis": true,
      "rch": true,
      "trp": true,
      "spc": true
    }
  }
}
