{
  "_id": "t5h6nBc1BuN8Eh5d",
  "name": "Gastraphetes",
  "type": "weapon",
  "img": "systems/lf1/icons/items/weapons/crossbow-double.PNG",
  "system": {
    "description": {
      "value": "<p><b>Source</b> <em>Distant Shores pg. 12</em></p><h3>Statistics</h3><p><b>Damage</b> 1d10 (small), 1d12 (medium); <b>Critical</b> 19-20/x2; <b>Range</b> 120 ft.; <b>Type</b> P</p><h3>Description</h3><p>The gastraphetes, sometimes called a \"belly bow,\" is an oversized crossbow reloaded by pressing one end against the ground, the other against one's abdomen, and locking the string in place through ratchet action. Reloading takes a full-round action, uses two hands, and requires that the wielder be standing. Wielding a gastraphetes requires two hands, and due to the weapon's bulk, firing it while standing without support (such as a wall, a window, or a stand) imposes a -4 penalty on attack rolls; you take no penalty for firing a gastraphetes while prone. A Large or larger creature can use a gastraphetes one size smaller than itself without any support, but takes the normal penalty for firing an inappropriately sized weapon.</p>"
    },
    "weight": {
      "value": 12
    },
    "price": 65,
    "hp": {
      "max": 5,
      "value": 5
    },
    "hardness": 5,
    "actions": [
      {
        "_id": "yuqp9hwpzxjtw6j5",
        "name": "Attack",
        "img": "systems/lf1/icons/items/weapons/crossbow-double.PNG",
        "activation": {
          "type": "attack"
        },
        "duration": {
          "units": "inst"
        },
        "range": {
          "value": "120",
          "units": "ft"
        },
        "actionType": "rwak",
        "damage": {
          "parts": [
            {
              "formula": "sizeRoll(1, 12, @size)",
              "type": {
                "values": ["piercing"],
                "custom": ""
              }
            }
          ]
        },
        "formulaicAttacks": {
          "count": {
            "formula": "min(3, ceil(@attributes.bab.total / 5) - 1)"
          },
          "bonus": {
            "formula": "@formulaicAttack * -5"
          }
        },
        "ability": {
          "attack": "dex",
          "damage": "str",
          "critRange": 19
        },
        "usesAmmo": true
      }
    ],
    "tag": "gastraphetes",
    "baseTypes": ["Gastraphetes"],
    "weaponGroups": {
      "value": ["crossbows"]
    },
    "subType": "martial",
    "weaponSubtype": "ranged",
    "ammoType": "bolt"
  }
}
