{
  "_id": "ULs1jzXVbMt9magg",
  "name": "Glaive-Guisarme",
  "type": "weapon",
  "img": "systems/lf1/icons/items/weapons/glaive-guisarme.png",
  "system": {
    "description": {
      "value": "<p><b>Source</b> <em>Ultimate Equipment pg. 18</em>, <em>Adventurer's Armory pg. 3</em>, <em>Advanced Player's Guide pg. 178</em></p><h3>Statistics</h3><p><b>Damage</b> 1d8 (small), 1d10 (medium); <b>Critical</b> x3; <b>Range</b> -; <b>Type</b> S</p><p><b>Weapon Groups</b> Polearms</p><h3>Description</h3><p>This polearm combines the blade of a glaive with a wicked hook. A mounted opponent hit by a glaive-guisarme takes a -2 penalty on her Ride check to stay mounted.</p>"
    },
    "tags": ["PFS"],
    "weight": {
      "value": 10
    },
    "price": 12,
    "hardness": 10,
    "actions": [
      {
        "_id": "y8gw0q0wy9ycw1dc",
        "name": "Attack",
        "img": "systems/lf1/icons/items/weapons/glaive-guisarme.png",
        "activation": {
          "type": "attack"
        },
        "duration": {
          "units": "inst"
        },
        "range": {
          "value": "0",
          "units": "reach"
        },
        "actionType": "mwak",
        "damage": {
          "parts": [
            {
              "formula": "sizeRoll(1, 10, @size)",
              "type": {
                "values": ["slashing"],
                "custom": ""
              }
            }
          ]
        },
        "formulaicAttacks": {
          "count": {
            "formula": "min(3, ceil(@attributes.bab.total / 5) - 1)"
          },
          "bonus": {
            "formula": "@formulaicAttack * -5"
          }
        },
        "ability": {
          "attack": "str",
          "damage": "str",
          "damageMult": 1.5,
          "critMult": 3
        }
      }
    ],
    "tag": "glaiveguisarme",
    "held": "2h",
    "baseTypes": ["Glaive-Guisarme"],
    "weaponGroups": {
      "value": ["polearms"]
    },
    "subType": "martial",
    "weaponSubtype": "2h",
    "properties": {
      "brc": true,
      "rch": true,
      "spc": true
    }
  }
}
