{
  "_id": "JKPD38M3uQJI1Ccu",
  "name": "Gnome Battle Ladder",
  "type": "weapon",
  "img": "systems/lf1/icons/items/weapons/gnome-battle-ladder.png",
  "system": {
    "description": {
      "value": "<p><b>Source</b> <em>Adventurer's Armory 2 pg. 8</em>, <em>Gnomes of Golarion pg. 22</em></p><h3>Statistics</h3><p><b>Damage</b> 1d4/1d4 (small), 1d6/1d6 (medium); <b>Critical</b> x2; <b>Range</b> -; <b>Type</b> B</p><p><b>Weapon Groups</b> Double</p><h3>Description</h3><p>Gnomes use these narrow, reinforced, 4-foot ladders as weapons. Fighting with a battle ladder is like fighting with a quarterstaff, except that the spaces in the ladder can be used to entangle limbs, granting the ladder the trip weapon feature.</p>"
    },
    "tags": ["PFS", "Gnomish"],
    "weight": {
      "value": 8
    },
    "price": 20,
    "hardness": 10,
    "actions": [
      {
        "_id": "jv2yz98zvk99upnj",
        "name": "Attack",
        "img": "systems/lf1/icons/items/weapons/gnome-battle-ladder.png",
        "activation": {
          "type": "attack"
        },
        "duration": {
          "units": "inst"
        },
        "range": {
          "value": "0",
          "units": "melee"
        },
        "actionType": "mwak",
        "damage": {
          "parts": [
            {
              "formula": "sizeRoll(1, 6, @size)",
              "type": {
                "values": ["bludgeoning"],
                "custom": ""
              }
            }
          ]
        },
        "formulaicAttacks": {
          "count": {
            "formula": "min(3, ceil(@attributes.bab.total / 5) - 1)"
          },
          "bonus": {
            "formula": "@formulaicAttack * -5"
          }
        },
        "ability": {
          "attack": "str",
          "damage": "str",
          "damageMult": 1.5
        }
      }
    ],
    "tag": "gnomeBattleLadder",
    "held": "2h",
    "baseTypes": ["Gnome Battle Ladder"],
    "weaponGroups": {
      "value": ["double"]
    },
    "subType": "exotic",
    "weaponSubtype": "2h",
    "properties": {
      "dbl": true,
      "trp": true,
      "spc": true
    }
  }
}
