{
  "_id": "PMH2RqF2x1X4Baoj",
  "name": "Halfling Stitched Sling",
  "type": "weapon",
  "img": "systems/lf1/icons/items/weapons/sling.png",
  "system": {
    "description": {
      "value": "<p><b>Source</b> <em>Halflings of Golarion pg. 22</em></p><h3>Statistics</h3><p><b>Damage</b> 1d4 (small), 1d6 (medium); <b>Critical</b> x2; <b>Range</b> -; <b>Type</b> B</p><h3>Description</h3><p>Technically not a unique kind of weapon, a stitched sling is a sling, staff sling, or double sling whose cup is sewn closed around the ammunition, creating a weak sort of light flail. The ammunition sewn into the sling is irrelevant to the type and amount of damage it causes. A stitched sling cannot be used to fire ammunition unless the thread or cord holding the cup closed is cut open (a full-round action that provokes attacks of opportunity).</p>"
    },
    "tags": ["PFS", "Halfling"],
    "weight": {
      "value": 1
    },
    "hp": {
      "max": 5,
      "value": 5
    },
    "hardness": 5,
    "actions": [
      {
        "_id": "vk6lcbd9kwtzk2ac",
        "name": "Attack",
        "img": "systems/lf1/icons/items/weapons/sling.png",
        "activation": {
          "type": "attack"
        },
        "duration": {
          "units": "inst"
        },
        "range": {
          "value": "0",
          "units": "ft"
        },
        "actionType": "rwak",
        "damage": {
          "parts": [
            {
              "formula": "sizeRoll(1, 6, @size)",
              "type": {
                "values": ["bludgeoning"],
                "custom": ""
              }
            }
          ]
        },
        "formulaicAttacks": {
          "count": {
            "formula": "min(3, ceil(@attributes.bab.total / 5) - 1)"
          },
          "bonus": {
            "formula": "@formulaicAttack * -5"
          },
          "label": ""
        },
        "ability": {
          "attack": "dex",
          "damage": "str"
        },
        "usesAmmo": true
      }
    ],
    "tag": "halflingStitchedSling",
    "baseTypes": ["Halfling Stitched Sling"],
    "subType": "exotic",
    "weaponSubtype": "ranged",
    "properties": {
      "dis": true,
      "trp": true
    },
    "ammoType": "slingBullet"
  }
}
