{
  "_id": "ZBnZt4RlEg7ckoKE",
  "name": "Halfling Sling Staff",
  "type": "weapon",
  "img": "systems/lf1/icons/items/weapons/sling-staff.png",
  "system": {
    "description": {
      "value": "<p><b>Source</b> <em>Ranged Tactics Toolbox pg. 33</em>, <em>PRPG Core Rulebook pg. 143</em>, <em>Ultimate Equipment pg. 21</em></p><h3>Statistics</h3><p><b>Damage</b> 1d6 (small), 1d8 (medium); <b>Critical</b> x3; <b>Range</b> 80 ft.; <b>Type</b> B</p><p><b>Weapon Groups</b> Thrown</p><h3>Description</h3><p>Made from a specially designed sling attached to a short club, a halfling sling staff can be used by a proficient wielder to devastating effect. Your Strength modifier applies to damage rolls when you use a halfling sling staff, just as it does for thrown weapons. You can fire, but not load, a halfling sling staff with one hand. Loading a halfling sling staff is a move action that requires two hands and provokes attacks of opportunity.</p><p>A halfling sling staff fires bullets. You can hurl ordinary stones with a halfling sling staff, but stones are not as dense or as round as bullets. Thus, such an attack deals damage as if the weapon were designed for a creature one size category smaller than you and you take a -1 penalty on attack rolls.</p><p>A halfling sling staff can be used as a simple weapon that deals bludgeoning damage equal to that of a club of its size. Halflings treat halfling sling staves as martial weapons.</p>"
    },
    "tags": ["PFS", "Halfling"],
    "weight": {
      "value": 3
    },
    "price": 20,
    "hp": {
      "max": 5,
      "value": 5
    },
    "hardness": 5,
    "actions": [
      {
        "_id": "b9hja4xi59mv7qo2",
        "name": "Attack",
        "img": "systems/lf1/icons/items/weapons/sling-staff.png",
        "activation": {
          "type": "attack"
        },
        "duration": {
          "units": "inst"
        },
        "range": {
          "value": "80",
          "units": "ft"
        },
        "actionType": "rwak",
        "damage": {
          "parts": [
            {
              "formula": "sizeRoll(1, 8, @size)",
              "type": {
                "values": ["bludgeoning"],
                "custom": ""
              }
            }
          ]
        },
        "formulaicAttacks": {
          "count": {
            "formula": "min(3, ceil(@attributes.bab.total / 5) - 1)"
          },
          "bonus": {
            "formula": "@formulaicAttack * -5"
          },
          "label": ""
        },
        "ability": {
          "attack": "dex",
          "damage": "str",
          "critMult": 3
        },
        "usesAmmo": true
      }
    ],
    "tag": "halflingSlingStaff",
    "baseTypes": ["Halfling Sling Staff"],
    "weaponGroups": {
      "value": ["thrown"]
    },
    "subType": "exotic",
    "weaponSubtype": "ranged",
    "ammoType": "slingBullet"
  }
}
