{
  "_id": "Zx6upAcTI1Fac2Hk",
  "name": "Heavy Wooden Shield",
  "type": "weapon",
  "img": "systems/lf1/icons/items/armor/shield-heavy-wood.png",
  "system": {
    "description": {
      "value": "<p>You can bash an opponent with a shield, using it as an off-hand weapon. Used this way, a shield is a martial bludgeoning weapon. If you use your shield as a weapon, you lose its AC bonus until your next turn. An enhancement bonus on a shield does not improve the effectiveness of a shield bash made with it, but the shield can be made into a magic weapon in its own right.</p>"
    },
    "weight": {
      "value": 10
    },
    "price": 7,
    "hp": {
      "max": 15,
      "value": 15
    },
    "hardness": 5,
    "actions": [
      {
        "_id": "x2rp4bpte661gn27",
        "name": "Attack",
        "img": "systems/lf1/icons/items/armor/shield-heavy-wood.png",
        "activation": {
          "type": "attack"
        },
        "duration": {
          "units": "inst"
        },
        "range": {
          "units": "melee"
        },
        "actionType": "mwak",
        "damage": {
          "parts": [
            {
              "formula": "sizeRoll(1, 4, @size)",
              "type": {
                "values": ["bludgeoning"],
                "custom": ""
              }
            }
          ]
        },
        "formulaicAttacks": {
          "count": {
            "formula": "min(3, ceil(@attributes.bab.total / 5) - 1)"
          },
          "bonus": {
            "formula": "@formulaicAttack * -5"
          }
        },
        "ability": {
          "attack": "str",
          "damage": "str",
          "critRange": "20",
          "critMult": "2"
        }
      }
    ],
    "baseTypes": ["Heavy Wooden Shield"],
    "subType": "martial",
    "weaponSubtype": "1h"
  }
}
