{
  "_id": "TnlmmOvNB0gAy4LS",
  "name": "Incendiary Arrow",
  "type": "loot",
  "img": "systems/lf1/icons/items/weapons/arrow-special.PNG",
  "system": {
    "description": {
      "value": "<p><b>Source</b> <em>Ranged Tactics Toolbox pg. 19</em></p>\n<h3>Statistics</h3>\n<h3>Description</h3>\n<p>A metal cage behind this arrow's point contains flammable material. You take a <b>-1 penalty on attack rolls</b> when firing incendiary arrows. You can light up to six incendiary arrows as a full-round action (a standard action if you use a tindertwig) that provokes attacks of opportunity.</p>\n<p>Once lit, the arrow burns for 2 rounds. A lit incendiary arrow deals an additional <b>1 point of fire damage</b>. On a critical hit, the target must succeed at a DC 15 Reflex save or catch fire.</p>\n<p>Incendiary bolts exist for crossbows.</p>"
    },
    "tags": ["PFS"],
    "quantity": 20,
    "weight": {
      "value": 0.15
    },
    "price": 0.5,
    "equipped": false,
    "hp": {
      "max": 1,
      "value": 1
    },
    "hardness": 5,
    "tag": "incendiaryArrow",
    "subType": "ammo",
    "extraType": "arrow"
  }
}
