{
  "_id": "6Lr8eHIz8IpatgO0",
  "name": "Kobold Tail Attachment (Razored)",
  "type": "weapon",
  "img": "systems/lf1/icons/items/weapons/kobold-tail-attachment.png",
  "system": {
    "description": {
      "value": "<p><b>Source</b> <em>Advanced Race Guide pg. 135</em></p><h3>Statistics</h3><p><b>Damage</b> 1d6 (small), 1d8 (medium); <b>Critical</b> 19-20/x2; <b>Range</b> -; <b>Type</b> S</p><p><b>Category</b> Light; <b>Proficiency</b> Special</p><h3>Description</h3><p>A kobold with the Tail Terror feat (see below) can slip this device over the tip of his tail to augment his natural attack. Each tail attachment provides just enough weight, balance, and striking power to increase the damage of his tail slap. It takes a full-round action to slip on a kobold tail attachment, and the kobold gains a +4 bonus against disarm attempts made to remove his tail attachment.</p><p>While a kobold is wearing a kobold tail attachment, the attack deals the tail attachment damage, and some attachments gain a special feature. Tail attachments are light weapons and can be improved by feats that can improve weapon attacks (such as Weapon Focus and Weapon Specialization). All kobold tail attachments make up a kobold tail attachment weapon group that can be improved by the fighter's weapon training class ability. Tail attachments can be constructed of special material and made into masterwork or magic items. There are five types of common tail attachments.</p><p><em>Long Lash</em>: This slender cord has tiny bits of glass and stone embedded in its length.</p><p><em>Pounder</em>: This squat ball is made from some sort of dull metal.</p><p><em>Razored</em>: This metal wedge has a prickly edge on one of its sides.</p><p><em>Spiked</em>: This narrow spike tapers to a sharp point.</p><p><em>Sweeper</em>: When properly used, this sharply curved piece of metal can knock opponents off their feet. Unlike most trip weapons, you cannot drop it if you are tripped during your own trip attempt.</p>"
    },
    "weight": {
      "value": 2
    },
    "price": 3,
    "hp": {
      "max": 2,
      "value": 2
    },
    "hardness": 10,
    "actions": [
      {
        "_id": "lf2eithubn82mue5",
        "name": "Attack",
        "img": "systems/lf1/icons/items/weapons/kobold-tail-attachment.png",
        "activation": {
          "type": "attack"
        },
        "duration": {
          "units": "inst"
        },
        "range": {
          "value": "0",
          "units": "melee"
        },
        "actionType": "mwak",
        "damage": {
          "parts": [
            {
              "formula": "sizeRoll(1, 8, @size)",
              "type": {
                "values": ["slashing"],
                "custom": ""
              }
            }
          ]
        },
        "formulaicAttacks": {
          "count": {
            "formula": "min(3, ceil(@attributes.bab.total / 5) - 1)"
          },
          "bonus": {
            "formula": "@formulaicAttack * -5"
          }
        },
        "ability": {
          "attack": "str",
          "damage": "str",
          "critRange": 19
        }
      }
    ],
    "tag": "koboldTailAttachmentRazored",
    "baseTypes": ["Kobold Tail Attachment (Razored)"],
    "subType": "exotic"
  }
}
