{
  "_id": "P1zlk4ivL3jjyvp2",
  "name": "Lasso",
  "type": "weapon",
  "img": "systems/lf1/icons/items/weapons/lasso.png",
  "system": {
    "description": {
      "value": "<p><b>Source</b> <em>Ranged Tactics Toolbox pg. 33</em>, <em>Adventurer's Armory pg. 3</em>, <em>Advanced Player's Guide pg. 178</em>, <em>Ultimate Equipment pg. 21</em></p><h3>Statistics</h3><p><b>Damage</b> - (small), - (medium); <b>Critical</b> -; <b>Range</b> -; <b>Type</b> -</p><p><b>Weapon Groups</b> Thrown</p><h3>Description</h3><p>This thrown weapon is a length of rope with a simple open knot on one end that allows you entangle a foe like you would using a net. The DC to cast a spell while entangled with a lasso is 10 + the spell level being cast. An entangled creature can slip free with a successful DC 15 Escape Artist check as a full-round action. The lasso has 2 hit points and AC 10, and requires a DC 23 Strength check to break it. On a successful hit, the lasso tightens; to use it again you must spend a standard action sliding the knot to enlarge the loop.</p>"
    },
    "tags": ["PFS"],
    "weight": {
      "value": 5
    },
    "price": 0.1,
    "hp": {
      "max": 5,
      "value": 5
    },
    "hardness": 5,
    "actions": [
      {
        "_id": "hag0ii35yc9dsb3g",
        "name": "Attack",
        "img": "systems/lf1/icons/items/weapons/lasso.png",
        "activation": {
          "type": "attack"
        },
        "duration": {
          "units": "inst"
        },
        "range": {
          "value": "0",
          "units": "ft"
        },
        "actionType": "rwak",
        "damage": {
          "parts": [
            {
              "formula": "NULL",
              "type": {
                "values": ["untyped"],
                "custom": ""
              }
            }
          ]
        },
        "formulaicAttacks": {
          "count": {
            "formula": "min(3, ceil(@attributes.bab.total / 5) - 1)"
          },
          "bonus": {
            "formula": "@formulaicAttack * -5"
          }
        },
        "ability": {
          "attack": "dex",
          "damage": "str",
          "critMult": 0
        }
      }
    ],
    "tag": "lasso",
    "baseTypes": ["Lasso"],
    "weaponGroups": {
      "value": ["thrown"]
    },
    "subType": "exotic",
    "weaponSubtype": "ranged",
    "properties": {
      "spc": true
    }
  }
}
