{
  "_id": "RWbjRwSPsuPAUDhw",
  "name": "Light Crossbow",
  "type": "weapon",
  "img": "systems/lf1/icons/items/weapons/crossbow-light.PNG",
  "system": {
    "description": {
      "value": "<p><b>Source</b> <em>Ranged Tactics Toolbox pg. 0</em>, <em>PRPG Core Rulebook pg. 142</em>, <em>Ultimate Equipment pg. 17</em></p><h3>Statistics</h3><p><b>Damage</b> 1d6 (small), 1d8 (medium); <b>Critical</b> 19-20/x2; <b>Range</b> 80 ft.; <b>Type</b> P</p><p><b>Weapon Groups</b> Crossbows</p><h3>Description</h3><p>You draw a light crossbow back by pulling a lever. Loading a light crossbow is a move action that provokes attacks of opportunity. A light crossbow fires crossbow bolts.</p><p>Normally, operating a light crossbow requires two hands. However, you can shoot, but not load, a light crossbow with one hand at a -2 penalty on attack rolls. You can shoot a light crossbow with each hand, but you take a penalty on attack rolls as if attacking with two light weapons. This penalty is cumulative with the penalty for one-handed firing.</p>"
    },
    "tags": ["PFS"],
    "weight": {
      "value": 4
    },
    "price": 35,
    "hp": {
      "max": 5,
      "value": 5
    },
    "hardness": 5,
    "actions": [
      {
        "_id": "3qt3osag8ctlzjve",
        "name": "Attack",
        "img": "systems/lf1/icons/items/weapons/crossbow-light.PNG",
        "activation": {
          "type": "attack"
        },
        "duration": {
          "units": "inst"
        },
        "range": {
          "value": "80",
          "units": "ft"
        },
        "actionType": "rwak",
        "damage": {
          "parts": [
            {
              "formula": "sizeRoll(1, 8, @size)",
              "type": {
                "values": ["piercing"],
                "custom": ""
              }
            }
          ]
        },
        "formulaicAttacks": {
          "count": {
            "formula": "min(3, ceil(@attributes.bab.total / 5) - 1)"
          },
          "bonus": {
            "formula": "@formulaicAttack * -5"
          },
          "label": ""
        },
        "ability": {
          "attack": "dex",
          "critRange": 19
        },
        "usesAmmo": true
      }
    ],
    "tag": "lightCrossbow",
    "baseTypes": ["Light Crossbow"],
    "weaponGroups": {
      "value": ["crossbows"]
    },
    "weaponSubtype": "ranged",
    "ammoType": "bolt"
  }
}
