{
  "_id": "Dwk80eD0rB93lPnN",
  "name": "Light Hammer",
  "type": "weapon",
  "img": "systems/lf1/icons/items/weapons/hammer-light.PNG",
  "system": {
    "description": {
      "value": "<p><b>Source</b> <em>Ultimate Equipment pg. 18</em>, <em>PRPG Core Rulebook pg. 142</em></p><h3>Statistics</h3><p><b>Damage</b> 1d3 (small), 1d4 (medium); <b>Critical</b> x2; <b>Range</b> 20 ft.; <b>Type</b> B</p><p><b>Weapon Groups</b> Hammers; Thrown</p><h3>Description</h3><p>A lighter version of a warhammer, this weapon usually has a sleek metal head with one striking surface.</p>"
    },
    "tags": ["PFS"],
    "weight": {
      "value": 2
    },
    "price": 1,
    "hp": {
      "max": 2,
      "value": 2
    },
    "hardness": 10,
    "actions": [
      {
        "_id": "pjd0b7ma1ybkmq89",
        "name": "Attack",
        "img": "systems/lf1/icons/items/weapons/hammer-light.PNG",
        "activation": {
          "type": "attack"
        },
        "duration": {
          "units": "inst"
        },
        "range": {
          "value": "20",
          "units": "melee"
        },
        "actionType": "mwak",
        "damage": {
          "parts": [
            {
              "formula": "sizeRoll(1, 4, @size)",
              "type": {
                "values": ["bludgeoning"],
                "custom": ""
              }
            }
          ]
        },
        "formulaicAttacks": {
          "count": {
            "formula": "min(3, ceil(@attributes.bab.total / 5) - 1)"
          },
          "bonus": {
            "formula": "@formulaicAttack * -5"
          }
        },
        "ability": {
          "attack": "str",
          "damage": "str"
        }
      }
    ],
    "tag": "lightHammer",
    "baseTypes": ["Light Hammer"],
    "weaponGroups": {
      "value": ["hammers", "thrown"]
    },
    "subType": "martial"
  }
}
