{
  "_id": "BcY8IkVwo2hXC6ND",
  "name": "Light Flail",
  "type": "weapon",
  "img": "systems/lf1/icons/items/weapons/flail-light.PNG",
  "system": {
    "description": {
      "value": "<p><b>Source</b> <em>Ultimate Equipment pg. 18</em>, <em>PRPG Core Rulebook pg. 142</em></p><h3>Statistics</h3><p><b>Damage</b> 1d6 (small), 1d8 (medium); <b>Critical</b> x2; <b>Range</b> -; <b>Type</b> B</p><p><b>Weapon Groups</b> Flails</p><h3>Description</h3><p>A light flail consists of a weighted striking end connected to a handle by a sturdy chain. Though often imagined as a ball, sometimes spiked like the head of a morningstar, the head of a light flail can actually take many different shapes, such as short bars. Military flails are sturdier evolutions of agricultural flails, which are used for threshing-beating stacks of grains to separate the useful grains from their husks.</p>"
    },
    "tags": ["PFS"],
    "weight": {
      "value": 5
    },
    "price": 8,
    "hp": {
      "max": 5,
      "value": 5
    },
    "hardness": 10,
    "actions": [
      {
        "_id": "m60q0ncozi76ggnr",
        "name": "Attack",
        "img": "systems/lf1/icons/items/weapons/flail-light.PNG",
        "activation": {
          "type": "attack"
        },
        "duration": {
          "units": "inst"
        },
        "range": {
          "value": "0",
          "units": "melee"
        },
        "actionType": "mwak",
        "damage": {
          "parts": [
            {
              "formula": "sizeRoll(1, 8, @size)",
              "type": {
                "values": ["bludgeoning"],
                "custom": ""
              }
            }
          ]
        },
        "formulaicAttacks": {
          "count": {
            "formula": "min(3, ceil(@attributes.bab.total / 5) - 1)"
          },
          "bonus": {
            "formula": "@formulaicAttack * -5"
          }
        },
        "ability": {
          "attack": "str",
          "damage": "str"
        }
      }
    ],
    "tag": "lightFlail",
    "baseTypes": ["Light Flail"],
    "weaponGroups": {
      "value": ["flails"]
    },
    "subType": "martial",
    "weaponSubtype": "1h",
    "properties": {
      "dis": true,
      "trp": true
    }
  }
}
