{
  "_id": "A7H1FjMo0jGDY3dB",
  "name": "Machete",
  "type": "weapon",
  "img": "systems/lf1/icons/items/weapons/machete.PNG",
  "system": {
    "description": {
      "value": "<p><b>Source</b> <em>Melee Tactics Toolbox pg. 19</em></p><h3>Statistics</h3><p><b>Damage</b> 1d4 (small), 1d6 (medium); <b>Critical</b> 19-20/x2; <b>Range</b> -; <b>Type</b> S</p><p><b>Weapon Groups</b> Blades, Light</p><h3>Description</h3><p>This tool is a wide, single-edged blade about 2 feet in length. Most often used to hack through dense vegetation, it works equally well as a weapon. A character proficient with a machete gains a +1 circumstance bonus on Survival checks to get along in the wild.</p>"
    },
    "tags": ["PFS"],
    "weight": {
      "value": 2
    },
    "price": 10,
    "hp": {
      "max": 2,
      "value": 2
    },
    "hardness": 10,
    "actions": [
      {
        "_id": "mf0bs92ttdtccwn8",
        "name": "Attack",
        "img": "systems/lf1/icons/items/weapons/machete.PNG",
        "activation": {
          "type": "attack"
        },
        "duration": {
          "units": "inst"
        },
        "range": {
          "value": "0",
          "units": "melee"
        },
        "actionType": "mwak",
        "damage": {
          "parts": [
            {
              "formula": "sizeRoll(1, 6, @size)",
              "type": {
                "values": ["slashing"],
                "custom": ""
              }
            }
          ]
        },
        "formulaicAttacks": {
          "count": {
            "formula": "min(3, ceil(@attributes.bab.total / 5) - 1)"
          },
          "bonus": {
            "formula": "@formulaicAttack * -5"
          }
        },
        "ability": {
          "attack": "str",
          "damage": "str",
          "critRange": 19
        }
      }
    ],
    "tag": "machete",
    "baseTypes": ["Machete"],
    "weaponGroups": {
      "value": ["bladesLight"]
    },
    "subType": "martial"
  }
}
