{
  "_id": "1qsCQ6TiPgSsNPFj",
  "name": "Maxim M1910 Machine Gun",
  "type": "weapon",
  "img": "icons/weapons/guns/rifle-brown.webp",
  "system": {
    "description": {
      "value": "<p><b>Source</b> <em>Pathfinder #71: Rasputin Must Die! pg. 64</em></p>\n<h3>Statistics</h3><p><b>Damage</b> 2d8 (medium); <b>Critical</b> x4; <b>Range</b> 120 ft.; <b>Type</b> B and P</p>\n<p><b>Misfire</b> 1-2; <b>Capacity</b> 250</p>\n<h3>Description</h3>\n<p>This heavy machine gun uses 7.62 54mmR ammunition in 250-round belts. Although a single person can fire a Maxim, it typically has a two-person crew: the gunner, and a loader who assists with feeding the ammunition belt into the weapon.</p>\n<p>As a full-round action, the loader can use a special aid another action to grant the gunner a +2 bonus on his next attack roll. Because of its size and heavy weight, a Maxim is often either mounted on a wheeled chassis with a gun shield for trench defensive use, or on the back of a horse-drawn wagon called a tachanka (see page 67).</p>\n<p>Assuming a user can even lift the weapon, firing a Maxim M1910 machine gun that is not mounted imparts a -4 penalty on attack rolls and the recoil knocks the wielder prone. The Maxim M1910 is automatic-fire only.</p>\n<p>The armored shield provides cover when firing the weapon from the prone position.</p>"
    },
    "tags": ["Modern Firearm"],
    "weight": {
      "value": 140
    },
    "price": 1500,
    "hardness": 10,
    "actions": [
      {
        "_id": "0xyv722kkwjp0r3o",
        "name": "Attack",
        "img": "icons/weapons/guns/rifle-brown.webp",
        "activation": {
          "type": "attack"
        },
        "duration": {
          "units": "inst"
        },
        "range": {
          "value": "120",
          "units": "ft",
          "maxIncrements": 10
        },
        "actionType": "rwak",
        "damage": {
          "parts": [
            {
              "formula": "sizeRoll(2, 8, @size)",
              "type": {
                "values": ["bludgeoning", "piercing"],
                "custom": ""
              }
            }
          ]
        },
        "formulaicAttacks": {
          "count": {
            "formula": "min(3, ceil(@attributes.bab.total / 5) - 1)"
          },
          "bonus": {
            "formula": "@formulaicAttack * -5"
          }
        },
        "ability": {
          "attack": "dex",
          "damageMult": 1.5,
          "critMult": 4
        }
      }
    ],
    "tag": "maximM1910MachineGun",
    "held": "2h",
    "baseTypes": ["Maxim M1910 Machine Gun"],
    "weaponGroups": {
      "value": ["firearms"]
    },
    "subType": "exotic",
    "weaponSubtype": "ranged",
    "properties": {
      "ato": true
    }
  }
}
