{
  "_id": "otf7OZQZhkAWoUR4",
  "name": "Meteor Hammer",
  "type": "weapon",
  "img": "icons/weapons/thrown/bolas-steel.webp",
  "system": {
    "description": {
      "value": "<p><b>Source</b> <em>Ultimate Equipment pg. 21</em>, <em>Legacy of Fire Player's Guide pg. 22</em>, <em>Adventurer's Armory pg. 4</em>, <em>Ultimate Combat pg. 132</em></p><h3>Statistics</h3><p><b>Damage</b> 1d6 (small), 1d8 (medium); <b>Critical</b> x2; <b>Range</b> -; <b>Type</b> B</p><p><b>Weapon Groups</b> Flails</p><h3>Description</h3><p>This weapon consists of one or two spherical weights attached by a 10-foot chain. You whirl the weights and wrap them around an opponent's body. If you succeed at a trip attempt with a meteor hammer, you can drag your opponent 5 feet closer to you rather than knocking her prone. You may use this weapon in two different ways: In meteor mode you use it as a double weapon, while in fortress mode you cannot use it as a double weapon but gain reach and a +1 shield bonus to AC. Switching between these two modes is a free action decided at the start of your turn.</p>"
    },
    "tags": ["PFS"],
    "weight": {
      "value": 10
    },
    "price": 10,
    "hardness": 10,
    "actions": [
      {
        "_id": "p84ox3gyzzrfqch1",
        "name": "Attack",
        "img": "icons/weapons/thrown/bolas-steel.webp",
        "activation": {
          "type": "attack"
        },
        "duration": {
          "units": "inst"
        },
        "range": {
          "value": "0",
          "units": "reach"
        },
        "actionType": "mwak",
        "damage": {
          "parts": [
            {
              "formula": "sizeRoll(1, 8, @size)",
              "type": {
                "values": ["bludgeoning"],
                "custom": ""
              }
            }
          ]
        },
        "formulaicAttacks": {
          "count": {
            "formula": "min(3, ceil(@attributes.bab.total / 5) - 1)"
          },
          "bonus": {
            "formula": "@formulaicAttack * -5"
          }
        },
        "ability": {
          "attack": "str",
          "damage": "str",
          "damageMult": 1.5
        }
      }
    ],
    "tag": "meteorHammer",
    "held": "2h",
    "baseTypes": ["Meteor Hammer"],
    "weaponGroups": {
      "value": ["flails"]
    },
    "subType": "exotic",
    "weaponSubtype": "2h",
    "properties": {
      "rch": true,
      "trp": true
    }
  }
}
