{
  "_id": "6dixCIl251JU2pJH",
  "name": "Nagant M1895 Revolver",
  "type": "weapon",
  "img": "icons/weapons/guns/gun-pistol-brass.webp",
  "system": {
    "description": {
      "value": "<p><b>Source</b> <em>Pathfinder #71: Rasputin Must Die! pg. 64</em></p><h3>Statistics</h3><p><b>Damage</b> 1d8 (medium); <b>Critical</b> x4; <b>Range</b> 80 ft.; <b>Type</b> B and P</p><p><b>Misfire</b> 1; <b>Capacity</b> 7</p><h3>Description</h3><p>This  firearm is identical in operation  to the advanced firearms revolver  (<em>Ultimate Combat</em> 139), though it  has a capacity of 7 instead of 6.</p>"
    },
    "tags": ["Modern Firearm"],
    "weight": {
      "value": 4
    },
    "price": 400,
    "hardness": 10,
    "actions": [
      {
        "_id": "9h1aer0gs8qzd958",
        "name": "Attack",
        "img": "icons/weapons/guns/gun-pistol-brass.webp",
        "activation": {
          "type": "attack"
        },
        "duration": {
          "units": "inst"
        },
        "range": {
          "value": "80",
          "units": "melee"
        },
        "actionType": "mwak",
        "damage": {
          "parts": [
            {
              "formula": "sizeRoll(1, 8, @size)",
              "type": {
                "values": ["bludgeoning", "piercing"],
                "custom": ""
              }
            }
          ]
        },
        "formulaicAttacks": {
          "count": {
            "formula": "min(3, ceil(@attributes.bab.total / 5) - 1)"
          },
          "bonus": {
            "formula": "@formulaicAttack * -5"
          }
        },
        "ability": {
          "attack": "str",
          "damage": "str",
          "critRange": "",
          "critMult": "4"
        }
      }
    ],
    "tag": "nagantM1895Revolver",
    "baseTypes": ["Nagant M1895 Revolver"],
    "weaponGroups": {
      "value": ["firearms"]
    },
    "subType": "exotic",
    "weaponSubtype": "ranged"
  }
}
