{
  "_id": "Q5VvVqVzUQQtGyNK",
  "name": "Nine-Ring Broadsword",
  "type": "weapon",
  "img": "systems/lf1/icons/items/weapons/broken-back-seax.png",
  "system": {
    "description": {
      "value": "<p><b>Source</b> <em>Ultimate Equipment pg. 18</em>, <em>Ultimate Combat pg. 130</em></p><h3>Statistics</h3><p><b>Damage</b> 1d6 (small), 1d8 (medium); <b>Critical</b> x3; <b>Range</b> -; <b>Type</b> S</p><p><b>Weapon Groups</b> Blades, Heavy; Monk</p><h3>Description</h3><p>This broad-bladed weapon has nine heavy rings threaded through its spine, providing additional weight to add to the force of its impressive chopping power.</p>"
    },
    "tags": ["PFS"],
    "weight": {
      "value": 4
    },
    "price": 15,
    "hp": {
      "max": 5,
      "value": 5
    },
    "hardness": 10,
    "actions": [
      {
        "_id": "o4xfgaz0upn392ap",
        "name": "Attack",
        "img": "systems/lf1/icons/items/weapons/broken-back-seax.png",
        "activation": {
          "type": "attack"
        },
        "duration": {
          "units": "inst"
        },
        "range": {
          "value": "0",
          "units": "melee"
        },
        "actionType": "mwak",
        "damage": {
          "parts": [
            {
              "formula": "sizeRoll(1, 8, @size)",
              "type": {
                "values": ["slashing"],
                "custom": ""
              }
            }
          ]
        },
        "formulaicAttacks": {
          "count": {
            "formula": "min(3, ceil(@attributes.bab.total / 5) - 1)"
          },
          "bonus": {
            "formula": "@formulaicAttack * -5"
          }
        },
        "ability": {
          "attack": "str",
          "damage": "str",
          "critMult": 3
        }
      }
    ],
    "tag": "nineringBroadsword",
    "baseTypes": ["Nine-Ring Broadsword"],
    "weaponGroups": {
      "value": ["bladesHeavy", "monk"]
    },
    "subType": "martial",
    "weaponSubtype": "1h",
    "properties": {
      "mnk": true
    }
  }
}
