{
  "_id": "4SXdTVk6mXoxoJFR",
  "name": "Nine-Section Whip",
  "type": "weapon",
  "img": "systems/lf1/icons/items/weapons/whip.png",
  "system": {
    "description": {
      "value": "<p><b>Source</b> <em>Ultimate Equipment pg. 20</em>, <em>Ultimate Combat pg. 133</em></p><h3>Statistics</h3><p><b>Damage</b> 1d6 (small), 1d8 (medium); <b>Critical</b> 19-20/x2; <b>Range</b> -; <b>Type</b> B</p><p><b>Weapon Groups</b> Flails; Monk</p><h3>Description</h3><p>The nine-section whip consists of steel bars linked together. The final bar is a 6-inch weighted spike. This weapon can be wielded as a single-handed weapon, a two-handed weapon, or in pairs. Nine-section whips often have colored cloth flags attached to the ends to make them easier to control.</p>"
    },
    "tags": ["PFS"],
    "weight": {
      "value": 3
    },
    "price": 8,
    "hp": {
      "max": 5,
      "value": 5
    },
    "hardness": 10,
    "actions": [
      {
        "_id": "qx12agx7fzhsu7rt",
        "name": "Attack",
        "img": "systems/lf1/icons/items/weapons/whip.png",
        "activation": {
          "type": "attack"
        },
        "duration": {
          "units": "inst"
        },
        "range": {
          "value": "0",
          "units": "melee"
        },
        "actionType": "mwak",
        "damage": {
          "parts": [
            {
              "formula": "sizeRoll(1, 8, @size)",
              "type": {
                "values": ["bludgeoning"],
                "custom": ""
              }
            }
          ]
        },
        "formulaicAttacks": {
          "count": {
            "formula": "min(3, ceil(@attributes.bab.total / 5) - 1)"
          },
          "bonus": {
            "formula": "@formulaicAttack * -5"
          }
        },
        "ability": {
          "attack": "str",
          "damage": "str",
          "critRange": 19
        }
      }
    ],
    "tag": "ninesectionWhip",
    "baseTypes": ["Nine-Section Whip"],
    "weaponGroups": {
      "value": ["flails", "monk"]
    },
    "subType": "exotic",
    "weaponSubtype": "1h",
    "properties": {
      "blc": true,
      "dst": true,
      "mnk": true,
      "trp": true
    }
  }
}
