{
  "_id": "cF6y7ikfa8mSiIcE",
  "name": "Orc Skull Ram",
  "type": "weapon",
  "img": "systems/lf1/icons/items/weapons/orc-skull-ram.png",
  "system": {
    "description": {
      "value": "<p><b>Source</b> <em>Melee Tactics Toolbox pg. 19</em></p><h3>Statistics</h3><p><b>Damage</b> 1d8 (small), 1d10 (medium); <b>Critical</b> x3; <b>Range</b> -; <b>Type</b> B</p><p><b>Weapon Groups</b> Spears</p><h3>Description</h3><p>This weapon consists of a wooden log with a shoulder strap to carry some of the weight. The name comes from the orc tradition of making the ram's head out of a large skull. On a successful critical hit with a skull ram, you can attempt a combat maneuver check to bull rush your opponent as a free action.</p>"
    },
    "tags": ["PFS", "Orcish"],
    "weight": {
      "value": 20
    },
    "price": 15,
    "hardness": 10,
    "actions": [
      {
        "_id": "ais88yii3zunvcnb",
        "name": "Attack",
        "img": "systems/lf1/icons/items/weapons/orc-skull-ram.png",
        "activation": {
          "type": "attack"
        },
        "duration": {
          "units": "inst"
        },
        "range": {
          "value": "0",
          "units": "reach"
        },
        "actionType": "mwak",
        "damage": {
          "parts": [
            {
              "formula": "sizeRoll(1, 10, @size)",
              "type": {
                "values": ["bludgeoning"],
                "custom": ""
              }
            }
          ]
        },
        "formulaicAttacks": {
          "count": {
            "formula": "min(3, ceil(@attributes.bab.total / 5) - 1)"
          },
          "bonus": {
            "formula": "@formulaicAttack * -5"
          }
        },
        "ability": {
          "attack": "str",
          "damage": "str",
          "damageMult": 1.5,
          "critMult": 3
        }
      }
    ],
    "tag": "orcSkullRam",
    "held": "2h",
    "baseTypes": ["Orc Skull Ram"],
    "weaponGroups": {
      "value": ["spears"]
    },
    "subType": "exotic",
    "weaponSubtype": "2h",
    "properties": {
      "rch": true
    }
  }
}
