{
  "_id": "RRh1u2ccgLv1ynu8",
  "name": "Pistol",
  "type": "weapon",
  "img": "icons/weapons/guns/gun-pistol-wood.webp",
  "system": {
    "description": {
      "value": "<p><b>Source</b> <em>Ultimate Equipment pg. 43</em>, <em>Ultimate Combat pg. 138</em></p>\n<h3>Statistics</h3><p><b>Damage</b> 1d6 (small), 1d8 (medium); <b>Critical</b> x4; <b>Range</b> 20 ft.; <b>Type</b> B and P</p>\n<p><b>Misfire</b> 1 (5 ft.); <b>Capacity</b> 1</p>\n<h3>Description</h3>\n<p>The basic single-shot pistol is one of the most common firearms, although in most campaigns it is still rare enough to be an object of envy or curiosity to most. As such, it can take a variety of different forms, from wildly ornate masterpieces in the shape of fire-breathing dragons to the more common woodhandled pistols, or nothing more than a simple metal tube with a triggering device.</p>\n<p>A pistol uses either a bullet and 1 dose of black powder or a single alchemical cartridge as ammunition.</p>"
    },
    "tags": ["PFS", "Early Firearm"],
    "weight": {
      "value": 4
    },
    "price": 1000,
    "hardness": 10,
    "actions": [
      {
        "_id": "gsuiamhmn4tcj08d",
        "name": "Attack",
        "img": "icons/weapons/guns/gun-pistol-wood.webp",
        "activation": {
          "type": "attack"
        },
        "duration": {
          "units": "inst"
        },
        "range": {
          "value": "20",
          "units": "ft",
          "maxIncrements": 10
        },
        "actionType": "rwak",
        "damage": {
          "parts": [
            {
              "formula": "sizeRoll(1, 8, @size)",
              "type": {
                "values": ["bludgeoning", "piercing"],
                "custom": ""
              }
            }
          ]
        },
        "formulaicAttacks": {
          "count": {
            "formula": "min(3, ceil(@attributes.bab.total / 5) - 1)"
          },
          "bonus": {
            "formula": "@formulaicAttack * -5"
          },
          "label": ""
        },
        "ability": {
          "attack": "dex",
          "critMult": 4
        },
        "usesAmmo": true
      }
    ],
    "tag": "pistol",
    "baseTypes": ["Pistol"],
    "weaponGroups": {
      "value": ["firearms"]
    },
    "subType": "exotic",
    "weaponSubtype": "ranged",
    "ammoType": "gunBullet"
  }
}
