{
  "_id": "9meWuDhxKqBDil51",
  "name": "Poisoned Sand Tube",
  "type": "weapon",
  "img": "systems/lf1/icons/items/weapons/blowgun.PNG",
  "system": {
    "description": {
      "value": "<p><b>Source</b> <em>Ranged Tactics Toolbox pg. 0</em>, <em>Ultimate Combat pg. 133</em>, <em>Ultimate Equipment pg. 19</em></p><h3>Statistics</h3><p><b>Damage</b> special (small), special (medium); <b>Critical</b> -; <b>Range</b> -; <b>Type</b> -</p><p><b>Weapon Groups</b> Thrown</p><h3>Description</h3><p>Resembling a slim scroll case made of bamboo or metal, this tube is filled with fine sand that is soaked or coated with inhaled or contact poison. When loaded with 3 doses of these types of poison, you can blow into the tube to disperse the poisoned sand into your enemies' faces in a 15-foot cone. Each creature in the cone is affected as if afflicted with 1 dose of the poison. Even when loaded with unpoisoned sand, the tube lets loose a powerful irritant, and an opponent struck must succeed at a DC 12 Fortitude saving throw or be dazzled for 1 round. Once expended, the tube must be repacked before it can be used again. Repacking a tube requires a full-round action, or a standard action if you have the Rapid Reload feat.</p>"
    },
    "tags": ["PFS"],
    "weight": {
      "value": 1
    },
    "price": 1,
    "hp": {
      "max": 5,
      "value": 5
    },
    "hardness": 5,
    "actions": [
      {
        "_id": "xmgzzurict914bso",
        "name": "Attack",
        "img": "systems/lf1/icons/items/weapons/blowgun.PNG",
        "activation": {
          "type": "attack"
        },
        "duration": {
          "units": "inst"
        },
        "range": {
          "value": "0",
          "units": "ft"
        },
        "actionType": "rwak",
        "damage": {
          "parts": [
            {
              "formula": "NULL",
              "type": {
                "values": ["untyped"],
                "custom": ""
              }
            }
          ]
        },
        "formulaicAttacks": {
          "count": {
            "formula": "min(3, ceil(@attributes.bab.total / 5) - 1)"
          },
          "bonus": {
            "formula": "@formulaicAttack * -5"
          }
        },
        "ability": {
          "attack": "dex",
          "damage": "str",
          "critMult": 0
        }
      }
    ],
    "tag": "poisonedSandTube",
    "baseTypes": ["Poisoned Sand Tube"],
    "weaponGroups": {
      "value": ["thrown"]
    },
    "subType": "martial",
    "weaponSubtype": "ranged",
    "properties": {
      "spc": true
    }
  }
}
