{
  "_id": "6jcpvbj0JtD3PMc1",
  "name": "Repeating Hand Crossbow",
  "type": "weapon",
  "img": "systems/lf1/icons/items/weapons/crossbow-repeating.PNG",
  "system": {
    "description": {
      "value": "<p><b>Source</b> <em>Ranged Tactics Toolbox pg. 33</em>, <em>Ultimate Equipment pg. 21</em></p><h3>Statistics</h3><p><b>Damage</b> 1d3 (small), 1d4 (medium); <b>Critical</b> 19-20/x2; <b>Range</b> 30 ft.; <b>Type</b> P</p><p><b>Weapon Groups</b> Crossbows</p><h3>Description</h3><p>This weapon functions identically to a repeating heavy crossbow, except its damage, critical, and range values are equivalent to those of a hand crossbow instead.</p>"
    },
    "tags": ["PFS"],
    "weight": {
      "value": 4
    },
    "price": 800,
    "hp": {
      "max": 5,
      "value": 5
    },
    "hardness": 5,
    "actions": [
      {
        "_id": "b2ymegmgwpg9df1j",
        "name": "Attack",
        "img": "systems/lf1/icons/items/weapons/crossbow-repeating.PNG",
        "activation": {
          "type": "attack"
        },
        "duration": {
          "units": "inst"
        },
        "range": {
          "value": "30",
          "units": "ft"
        },
        "actionType": "rwak",
        "damage": {
          "parts": [
            {
              "formula": "sizeRoll(1, 4, @size)",
              "type": {
                "values": ["piercing"],
                "custom": ""
              }
            }
          ]
        },
        "formulaicAttacks": {
          "count": {
            "formula": "min(3, ceil(@attributes.bab.total / 5) - 1)"
          },
          "bonus": {
            "formula": "@formulaicAttack * -5"
          },
          "label": ""
        },
        "ability": {
          "attack": "dex",
          "critRange": 19
        },
        "usesAmmo": true
      }
    ],
    "tag": "repeatingHandCrossbow",
    "baseTypes": ["Repeating Hand Crossbow"],
    "weaponGroups": {
      "value": ["crossbows"]
    },
    "subType": "exotic",
    "weaponSubtype": "ranged",
    "ammoType": "repeatingBolt"
  }
}
