{
  "_id": "b05rtRtGyH7s4F67",
  "name": "Sawtoothed Sabre",
  "type": "weapon",
  "img": "systems/lf1/icons/items/weapons/sabre-sawtooth.png",
  "system": {
    "description": {
      "value": "<p><b>Source</b> <em>Adventurer's Guide pg. 158</em>, <em>Curse of the Crimson Throne Player's Guide pg. 13</em>, <em>Pathfinder Campaign Setting pg. 209</em>, <em>Inner Sea World Guide pg. 290</em>, <em>Adventurer's Armory pg. 33</em>, <em>Ultimate Equipment pg. 20</em></p><h3>Statistics</h3><p><b>Damage</b> 1d6 (small), 1d8 (medium); <b>Critical</b> 19-20/x2; <b>Range</b> -; <b>Type</b> S</p><p><b>Weapon Groups</b> Blades, Heavy; Blades, Light</p><h3>Description</h3><p>Crafted to evoke the barbed talons of the Mantis God himself, a sawtooth sabre may be used as a Martial Weapon (in which case it functions identically to a longsword). If you have the Exotic Weapon Proficiency (sawtooth sabre) feat, for the purpose of two-weapon fighting you can treat it as a light melee weapon; for all other purposes, it is a one-handed melee weapon.</p>"
    },
    "tags": ["PFS"],
    "weight": {
      "value": 2
    },
    "price": 35,
    "hp": {
      "max": 5,
      "value": 5
    },
    "hardness": 10,
    "actions": [
      {
        "_id": "0l783edf0moj560w",
        "name": "Attack",
        "img": "systems/lf1/icons/items/weapons/sabre-sawtooth.png",
        "activation": {
          "type": "attack"
        },
        "duration": {
          "units": "inst"
        },
        "range": {
          "value": "0",
          "units": "melee"
        },
        "actionType": "mwak",
        "damage": {
          "parts": [
            {
              "formula": "sizeRoll(1, 8, @size)",
              "type": {
                "values": ["slashing"],
                "custom": ""
              }
            }
          ]
        },
        "formulaicAttacks": {
          "count": {
            "formula": "min(3, ceil(@attributes.bab.total / 5) - 1)"
          },
          "bonus": {
            "formula": "@formulaicAttack * -5"
          }
        },
        "ability": {
          "attack": "str",
          "damage": "str",
          "critRange": "19",
          "critMult": "2"
        }
      }
    ],
    "baseTypes": ["Sawtoothed Sabre"],
    "weaponGroups": {
      "value": ["bladesHeavy", "bladesLight"]
    },
    "subType": "exotic",
    "weaponSubtype": "1h",
    "properties": {
      "spc": true
    }
  }
}
