{
  "_id": "YLHECG6xMoqBUpmN",
  "name": "Shang Gou",
  "type": "weapon",
  "img": "systems/lf1/icons/items/weapons/gandasa.png",
  "system": {
    "description": {
      "value": "<p><b>Source</b> <em>Ultimate Equipment pg. 18</em>, <em>Ultimate Combat pg. 134</em></p><h3>Statistics</h3><p><b>Damage</b> 1d3 (small), 1d4 (medium); <b>Critical</b> x2; <b>Range</b> -; <b>Type</b> S</p><p><b>Weapon Groups</b> Monk</p><h3>Description</h3><p>Forged in pairs, these solid metal blades end in curved hooks, while the hand guards are hammered into outward-facing spiked crescents. Both the crescent and the tip of the hilt are sharpened for combat. They can be wielded as single weapons or with two-weapon fighting styles. These weapons gain the disarm special feature when they are used individually. A pair of shang gou can also be formed into a single one-handed weapon to gain the trip special feature.</p>"
    },
    "tags": ["PFS"],
    "weight": {
      "value": 1
    },
    "price": 6,
    "hp": {
      "max": 2,
      "value": 2
    },
    "hardness": 10,
    "actions": [
      {
        "_id": "ia8leuonqnwz2g51",
        "name": "Attack",
        "img": "systems/lf1/icons/items/weapons/gandasa.png",
        "activation": {
          "type": "attack"
        },
        "duration": {
          "units": "inst"
        },
        "range": {
          "value": "0",
          "units": "melee"
        },
        "actionType": "mwak",
        "damage": {
          "parts": [
            {
              "formula": "sizeRoll(1, 4, @size)",
              "type": {
                "values": ["slashing"],
                "custom": ""
              }
            }
          ]
        },
        "formulaicAttacks": {
          "count": {
            "formula": "min(3, ceil(@attributes.bab.total / 5) - 1)"
          },
          "bonus": {
            "formula": "@formulaicAttack * -5"
          }
        },
        "ability": {
          "attack": "str",
          "damage": "str"
        }
      }
    ],
    "tag": "shangGou",
    "baseTypes": ["Shang Gou"],
    "weaponGroups": {
      "value": ["monk"]
    },
    "subType": "martial",
    "properties": {
      "mnk": true,
      "dis": true,
      "trp": true
    }
  }
}
