{
  "_id": "EVWH7YBTHWhorKm5",
  "name": "Smoke Shot (Siege)",
  "type": "loot",
  "img": "systems/lf1/icons/items/potions/magic-yellow.jpg",
  "system": {
    "description": {
      "value": "<p><b>Source</b> <em>Ultimate Combat pg. 164</em></p>\n<h3>Statistics</h3><p><b>Category</b> Ammunition; <b>Proficiency</b> Siege Engine</p>\n<h3>Description</h3>\n<p>This hard ceramic sphere contains two alchemical substances separated by a thin barrier, much like a smoke pellet in larger form, usable by cannons and fiend's mouth cannons.</p>\n<p>When it hits the targeting space, it deals <b>2d6 points of damage</b> to any creature in that space, and the substances mingle and then create an area of foul but harmless yellow smoke radiating 30 feet from the target square.</p>\n<p>Treat the effect as a @Compendium[lf1.spells.g33euis7yi9pwddy]{Fog Cloud} spell.</p>\n<h3>Mishap</h3>\n<p>On a siege engine mishap, the ammunition explodes before it is launched. Its effect is centered on one of the spaces of the siege engine (crew leader's choice).</p>"
    },
    "weight": {
      "value": 200
    },
    "price": 250,
    "equipped": false,
    "hp": {
      "max": 1,
      "value": 1
    },
    "hardness": 5,
    "tag": "smokeShotSiege"
  }
}
