{
  "_id": "epvu8cJJt1Q3i5T3",
  "name": "Smoke Bullet",
  "type": "loot",
  "img": "icons/weapons/ammunition/arrow-broadhead-green.webp",
  "system": {
    "description": {
      "value": "<p><b>Source</b> <em>Pathfinder Campaign Setting pg. 211</em></p><h3><Statistics</h3><p><b>Weight</b> -</p><h3>Description</h3><p>These sling stones require only a touch attack to succeed. When they strike a target, they burst, releasing a cloud of noxious gas that requires the creature struck to attempt a DC 13 Fortitude save. If the save fails, the target is nauseated for 2 rounds. A smoke bullets costs 100 gp.</p>"
    },
    "tags": ["D&D 3.5"],
    "quantity": 10,
    "price": 10,
    "equipped": false,
    "hp": {
      "max": 1,
      "value": 1
    },
    "hardness": 5,
    "unidentified": {
      "price": 0.5
    },
    "tag": "smokeBullet",
    "subType": "ammo",
    "extraType": "arrow"
  }
}
