{
  "_id": "Q17sFaNmXr2habPl",
  "name": "Smoke Arrow",
  "type": "loot",
  "img": "systems/lf1/icons/items/weapons/arrow-special.PNG",
  "system": {
    "description": {
      "value": "<p><b>Source</b> <em>Ultimate Equipment pg. 22</em>, <em>Advanced Player's Guide pg. 176</em></p>\n<h3>Description</h3>\n<p>This arrow is actually a specially-shaped smokestick that can be fired from a bow.</p>\n<p>It trails smoke as it flies, and creates a <b>5-foot cube of smoke</b> where it strikes. It otherwise functions like a normal arrow in terms of damage, range, and so on.</p>"
    },
    "tags": ["PFS"],
    "price": 10,
    "equipped": false,
    "hp": {
      "max": 1,
      "value": 1
    },
    "hardness": 5,
    "tag": "smokeArrow",
    "subType": "ammo",
    "extraType": "arrow"
  }
}
