{
  "_id": "s0LFk8Jk5CsgOj7V",
  "name": "Spear",
  "type": "weapon",
  "img": "systems/lf1/icons/items/weapons/spear.png",
  "system": {
    "description": {
      "value": "<p><b>Source</b> <em>Ultimate Equipment pg. 17</em>, <em>PRPG Core Rulebook pg. 142</em></p><h3>Statistics</h3><p><b>Damage</b> 1d6 (small), 1d8 (medium); <b>Critical</b> x3; <b>Range</b> 20 ft.; <b>Type</b> P</p><p><b>Weapon Groups</b> Spears; Thrown; Tribal</p><h3>Description</h3><p>A spear is 5 feet in length and can be thrown.</p>"
    },
    "tags": ["PFS"],
    "weight": {
      "value": 6
    },
    "price": 2,
    "hardness": 5,
    "actions": [
      {
        "_id": "af1masr66zv64208",
        "name": "Attack",
        "img": "systems/lf1/icons/items/weapons/spear.png",
        "activation": {
          "type": "attack"
        },
        "duration": {
          "units": "inst"
        },
        "range": {
          "value": "20",
          "units": "melee"
        },
        "actionType": "mwak",
        "damage": {
          "parts": [
            {
              "formula": "sizeRoll(1, 8, @size)",
              "type": {
                "values": ["piercing"],
                "custom": ""
              }
            }
          ]
        },
        "formulaicAttacks": {
          "count": {
            "formula": "min(3, ceil(@attributes.bab.total / 5) - 1)"
          },
          "bonus": {
            "formula": "@formulaicAttack * -5"
          }
        },
        "ability": {
          "attack": "str",
          "damage": "str",
          "damageMult": 1.5,
          "critMult": 3
        }
      }
    ],
    "tag": "spear",
    "held": "2h",
    "baseTypes": ["Spear"],
    "weaponGroups": {
      "value": ["spears", "thrown", "tribal"]
    },
    "weaponSubtype": "2h",
    "properties": {
      "brc": true
    }
  }
}
