{
  "_id": "4AigxbQi8bkvouCm",
  "name": "Stitched Sling",
  "type": "weapon",
  "img": "systems/lf1/icons/items/weapons/sling-stitched.png",
  "system": {
    "description": {
      "value": "<p><em>Technically not a unique kind of weapon, a stitched sling is a sling, staff sling, or double sling whose cup is sewn closed around the ammunition, creating a weak sort of light flail.</em></p>\n<p>The ammunition sewn into the sling is irrelevant to the type and amount of damage it causes. A stitched sling cannot be used to fire ammunition unless the thread or cord holding the cup closed is cut open (a <em>full-round action</em> that provokes <em>attacks of opportunity</em>).</p>"
    },
    "weight": {
      "value": 1
    },
    "hp": {
      "max": 5,
      "value": 5
    },
    "hardness": 5,
    "actions": [
      {
        "_id": "6wqk9lzgi7yfgq1l",
        "name": "Attack",
        "img": "systems/lf1/icons/items/weapons/sling-stitched.png",
        "activation": {
          "type": "attack"
        },
        "duration": {
          "units": "inst"
        },
        "range": {
          "units": "ft",
          "maxIncrements": 10
        },
        "actionType": "rwak",
        "damage": {
          "parts": [
            {
              "formula": "sizeRoll(1, 6, @size)",
              "type": {
                "values": ["bludgeoning"],
                "custom": ""
              }
            }
          ]
        },
        "formulaicAttacks": {
          "count": {
            "formula": "min(3, ceil(@attributes.bab.total / 5) - 1)"
          },
          "bonus": {
            "formula": "@formulaicAttack * -5"
          },
          "label": ""
        },
        "ability": {
          "attack": "dex",
          "damage": "str"
        }
      }
    ],
    "baseTypes": ["Stitched Sling"],
    "subType": "exotic",
    "weaponSubtype": "ranged"
  }
}
