{
  "_id": "4gTggKvYq8jePFNq",
  "name": "Terbutje",
  "type": "weapon",
  "img": "systems/lf1/icons/items/weapons/terbutje.PNG",
  "system": {
    "description": {
      "value": "<p><b>Source</b> <em>Ultimate Equipment pg. 18</em>, <em>Adventurer's Armory pg. 5</em></p><h3>Statistics</h3><p><b>Damage</b> 1d6 (small), 1d8 (medium); <b>Critical</b> 19-20/x2; <b>Range</b> -; <b>Type</b> S</p><p><b>Weapon Groups</b> Blades, Heavy</p><h3>Description</h3><p>This Stone Age weapon, also called a macuahuitl, is made from a length of tempered wood. It has bits of shark teeth, obsidian, glass, or similar materials studded all along its length.</p>"
    },
    "tags": ["PFS"],
    "weight": {
      "value": 2
    },
    "price": 5,
    "hp": {
      "max": 5,
      "value": 5
    },
    "hardness": 10,
    "actions": [
      {
        "_id": "tvfz4fpyt5u9goze",
        "name": "Attack",
        "img": "systems/lf1/icons/items/weapons/terbutje.PNG",
        "activation": {
          "type": "attack"
        },
        "duration": {
          "units": "inst"
        },
        "range": {
          "value": "0",
          "units": "melee"
        },
        "actionType": "mwak",
        "damage": {
          "parts": [
            {
              "formula": "sizeRoll(1, 8, @size)",
              "type": {
                "values": ["slashing"],
                "custom": ""
              }
            }
          ]
        },
        "formulaicAttacks": {
          "count": {
            "formula": "min(3, ceil(@attributes.bab.total / 5) - 1)"
          },
          "bonus": {
            "formula": "@formulaicAttack * -5"
          }
        },
        "ability": {
          "attack": "str",
          "damage": "str",
          "critRange": 19
        }
      }
    ],
    "tag": "terbutje",
    "baseTypes": ["Terbutje"],
    "weaponGroups": {
      "value": ["bladesHeavy"]
    },
    "subType": "martial",
    "weaponSubtype": "1h",
    "properties": {
      "frg": true
    }
  }
}
