{
  "_id": "xAxgFvkpvTgGRHZY",
  "name": "Thorn Arrow",
  "type": "loot",
  "img": "icons/weapons/ammunition/arrows-broadhead-white.webp",
  "system": {
    "description": {
      "value": "<p><b>Source</b> <em>Conquest of Bloodsworn Vale pg. 31</em></p><h3>Description</h3><p>These small arrows are tipped with a wicked rose thorn and fletched with lacquered rose petals.</p>"
    },
    "tags": ["D&D 3.5"],
    "quantity": 20,
    "weight": {
      "value": 0.1
    },
    "price": 0.05,
    "equipped": false,
    "hp": {
      "max": 1,
      "value": 1
    },
    "hardness": 5,
    "tag": "thorns20",
    "subType": "ammo",
    "extraType": "arrow"
  }
}
