{
  "_id": "UkKkbJb1HrKfkEP2",
  "name": "Trip Arrow",
  "type": "loot",
  "img": "systems/lf1/icons/items/weapons/arrow-special.PNG",
  "system": {
    "description": {
      "value": "<p><b>Source</b> <em>Alchemy Manual pg. 21</em>, <em>Elves of Golarion pg. 23</em><h3>Statistics</h3><p><b>Category</b> Alchemical Weapons</p>\n<h3>Description</h3>\n<p>This squat arrow has a large, bulbous metal tip that expands and flattens in flight. If you hit a creature with a trip arrow, the arrow deals no damage but <b>performs a trip combat maneuver</b> against the target with a <b>CMB of +5</b>.</p>\n<p>For the purpose of determining Combat Maneuver Bonuses or penalties based on size, the arrow is treated as if it were the size of the creature it was designed for.</p>\n<h3>Alchemical Recipe</h3>\n<p><b>Recipe</b> (20 cold iron + 15 magnesium + 20 myrrh)/earth; <b>Craft</b> 25<br><b>Time</b> 10 minutes; <b>Tools</b> -; <b>Type</b> alchemical weapon</p>"
    },
    "price": 25,
    "equipped": false,
    "hp": {
      "max": 1,
      "value": 1
    },
    "hardness": 5,
    "unidentified": {
      "price": 25
    },
    "tag": "tripArrow",
    "subType": "ammo",
    "extraType": "arrow"
  }
}
