{
  "_id": "pCFqtR5WrJmeZnDF",
  "name": "Warhammer",
  "type": "weapon",
  "img": "systems/lf1/icons/items/weapons/warhammer.png",
  "system": {
    "description": {
      "value": "<p><b>Source</b> <em>Ultimate Equipment pg. 18</em>, <em>PRPG Core Rulebook pg. 142</em></p><h3>Statistics</h3><p><b>Damage</b> 1d6 (small), 1d8 (medium); <b>Critical</b> x3; <b>Range</b> -; <b>Type</b> B</p><p><b>Weapon Groups</b> Hammers</p><h3>Description</h3><p>This weapon consists of a wooden haft and a heavy, metal head. The head may be single (like a carpenter's hammer) or double (like a sledgehammer). The haft is long enough that you may wield it one- or two-handed. Though heavy and relatively slow to wield, warhammers are capable of delivering immense blows, crushing armor and flesh alike.</p>"
    },
    "tags": ["PFS"],
    "weight": {
      "value": 5
    },
    "price": 12,
    "hp": {
      "max": 5,
      "value": 5
    },
    "hardness": 10,
    "actions": [
      {
        "_id": "sc0l1rnnsr44o6a5",
        "name": "Attack",
        "img": "systems/lf1/icons/items/weapons/warhammer.png",
        "activation": {
          "type": "attack"
        },
        "duration": {
          "units": "inst"
        },
        "range": {
          "value": "0",
          "units": "melee"
        },
        "actionType": "mwak",
        "damage": {
          "parts": [
            {
              "formula": "sizeRoll(1, 8, @size)",
              "type": {
                "values": ["bludgeoning"],
                "custom": ""
              }
            }
          ]
        },
        "formulaicAttacks": {
          "count": {
            "formula": "min(3, ceil(@attributes.bab.total / 5) - 1)"
          },
          "bonus": {
            "formula": "@formulaicAttack * -5"
          }
        },
        "ability": {
          "attack": "str",
          "damage": "str",
          "critMult": 3
        }
      }
    ],
    "tag": "warhammer",
    "baseTypes": ["Warhammer"],
    "weaponGroups": {
      "value": ["hammers"]
    },
    "subType": "martial",
    "weaponSubtype": "1h"
  }
}
