{
  "_id": "lPysXmaoVEP6zB1L",
  "name": "Wrist Launcher",
  "type": "weapon",
  "img": "systems/lf1/icons/items/weapons/wrist-launcher.PNG",
  "system": {
    "description": {
      "value": "<p><b>Source</b> <em>Ultimate Intrigue pg. 232</em></p><h3>Statistics</h3><p><b>Damage</b> - (small), - (medium); <b>Critical</b> -; <b>Range</b> 20 ft.; <b>Type</b> P</p><h3>Description</h3><p>This slender tube is strapped to one forearm and designed to be concealed beneath the sleeve, where the wielder can fire a featherweight dart with a twist of the wrist. The launcher functions by means of a tightly compressed spring, and must be reloaded and re-cocked with a separate ramrod as a full-round action. After firing, the wearer can attempt a Sleight of Hand check opposed by opponents' Perception checks to keep the wrist launcher concealed. If you are proficient with hand crossbows, you are also proficient with wrist launchers.</p>"
    },
    "weight": {
      "value": 1
    },
    "price": 200,
    "hp": {
      "max": 5,
      "value": 5
    },
    "hardness": 5,
    "actions": [
      {
        "_id": "w79vsh70gc8g3qxx",
        "name": "Attack",
        "img": "systems/lf1/icons/items/weapons/wrist-launcher.PNG",
        "activation": {
          "type": "attack"
        },
        "duration": {
          "units": "inst"
        },
        "range": {
          "value": "20",
          "units": "ft"
        },
        "actionType": "rwak",
        "formulaicAttacks": {
          "count": {
            "formula": "min(3, ceil(@attributes.bab.total / 5) - 1)"
          },
          "bonus": {
            "formula": "@formulaicAttack * -5"
          }
        },
        "ability": {
          "attack": "dex",
          "critMult": 0
        }
      }
    ],
    "tag": "wristLauncher",
    "baseTypes": ["Wrist Launcher"],
    "subType": "exotic",
    "weaponSubtype": "ranged"
  }
}
