{
  "_id": "dhloqorqrxaqghis",
  "name": "Abacus",
  "type": "loot",
  "img": "icons/tools/hand/ruler-steel-grey.webp",
  "system": {
    "description": {
      "value": "<p><b>Price</b> 2 gp; <b>Weight</b> 2 lbs.</p>\n<p>This device helps you perform mathematical calculations.</p>"
    },
    "weight": {
      "value": 2
    },
    "price": 2,
    "equipped": false,
    "subType": "gear"
  }
}
