{
  "_id": "rulcpiknrssjxesk",
  "name": "Ale, Luglurch",
  "type": "loot",
  "img": "systems/lf1/icons/items/inventory/dice.jpg",
  "system": {
    "description": {
      "value": "<h4>Ale, Luglurch</h4>\n<p class=\"source\"><b>Source</b> <em>PPC:Halflings</em></p>\n<p>Most races find this pale and frothy beer too salty to swallow, but <em>halflings</em> simply consider it an acquired taste. Drinking three or more cups of Luglurch in a 1-minute span gives a <em>halfling</em> a -2 penalty on <em>Perception</em> checks and a +1 bonus on <em>Reflex</em> saves and <em>Acrobatics</em> checks for 10 minutes.</p>\n<p><b>Note</b>: Non-<em>halflings</em> do not receive any bonuses from this drink.</p>"
    },
    "equipped": false,
    "subType": "gear"
  }
}
