{
  "_id": "lmkfribudweixchx",
  "name": "Ambrosia",
  "type": "loot",
  "img": "systems/lf1/icons/items/inventory/dice.jpg",
  "system": {
    "description": {
      "value": "<p class=\"source\"><b>Source</b> <em>PZO1121</em></p>\n<p>Upon consumption, this heavenly elixir, brewed from holy water and blessed herbs, grants a +2 <em>sacred bonus</em> on saving throws against negative energy, <em>energy drain</em>, and death effects for 1 hour, including saves to remove <em>negative levels</em>. Ambrosia affects <em>undead</em> and evil <em>outsiders</em> as holy water.</p>"
    },
    "weight": {
      "value": 1
    },
    "price": 100,
    "equipped": false,
    "subType": "gear"
  }
}
