{
  "_id": "dSU0Qz05SN6KRBEK",
  "name": "Amulet of Natural Armor +3",
  "type": "equipment",
  "img": "systems/lf1/icons/items/jewelry/pendant-green.jpg",
  "system": {
    "description": {
      "value": "<p>This amulet, usually containing some type of magically preserved monster hide or other natural armor—such as bone, horn, carapace, or beast scales—toughens the wearer’s body and flesh, giving him an <em>enhancement bonus</em> to his <em>natural armor</em> from +1 to +5, depending on the kind of amulet.</p>"
    },
    "price": 18000,
    "size": "fine",
    "resizing": true,
    "unidentified": {
      "name": "Amulet"
    },
    "cl": 9,
    "aura": {
      "school": "trs"
    },
    "changes": [
      {
        "_id": "q4yqxtv0",
        "formula": "3",
        "subTarget": "nac",
        "modifier": "enh"
      }
    ],
    "subType": "wondrous",
    "armor": {
      "dex": ""
    },
    "slot": "neck"
  }
}
