{
  "_id": "SMafawGRCZxdUjgR",
  "name": "Bachelor snuff",
  "type": "loot",
  "img": "icons/commodities/materials/bowl-powder-grey.webp",
  "system": {
    "description": {
      "value": "<p>Source <a href=\"http://paizo.com/store/downloads/pathfinder/pathfinderCompanion/pathfinderRPG/v5748btpy8dmf\">Adventurer's Armory pg. 19</a><br>Price 1 gp; Weight —<br>Category Black Market</p>\n<h3>Description</h3>\n<p>If inhaled through the nose, this sootysmelling golden powder renders humanoid males temporarily sterile without otherwise affecting their performance. A dose typically lasts 1–3 days. Long-term users of bachelor snuff tend to develop a slight, but still noticeable, gilded tinge to their teeth and nails.</p>"
    },
    "price": 1,
    "equipped": false,
    "subType": "gear"
  }
}
