{
  "_id": "qdyvrjjqsrjhgway",
  "name": "Barbarian Chew",
  "type": "loot",
  "img": "icons/commodities/flowers/buds-red.webp",
  "system": {
    "description": {
      "value": "<p class=\"source\"><b>Source</b> <em>PZO9410</em></p>\n<p>This bitter red chew comes from dried leaves of a stunted bush found in northern climates. It stains the teeth dark crimson but also increases the duration of <em>barbarian</em> <em>rage</em> entered into during the next hour by 1 round.</p>"
    },
    "price": 1,
    "equipped": false,
    "subType": "gear"
  }
}
