{
  "_id": "odkdxsxfhzpdrweb",
  "name": "Barrel",
  "type": "loot",
  "img": "systems/lf1/icons/items/inventory/barrel.jpg",
  "system": {
    "description": {
      "value": "<p class=\"source\"><b>Source</b> <em>PZO1110</em></p>\n<p>A common barrel is constructed of wood with metal ring reinforcements and holds 10 cubic ft. or 650 lb. of materials. A barrel filled with liquid holds about 75 gallons.</p>\n<p><b>Empty Weight</b>: 30 lb.; <b>Capacity</b>: 10 cubic ft./650 lb.</p>"
    },
    "weight": {
      "value": 30
    },
    "price": 2,
    "equipped": false,
    "subType": "gear"
  }
}
