{
  "_id": "6JNWUofyniDkjhjk",
  "name": "Belt of Incredible Dexterity +4",
  "type": "equipment",
  "img": "systems/lf1/icons/items/equipment/belt-girdle.jpg",
  "system": {
    "description": {
      "value": "<p>This belt has a large silver buckle, usually depicting the image of a tiger.</p>\n<p>The belt grants the wearer an <em>enhancement bonus</em> to <em>Dexterity</em> of +2, +4, or +6. Treat this as a temporary ability bonus for the first 24 hours the belt is worn.</p>",
      "unidentified": "<p>This belt has a large silver buckle depicting the image of a tiger.</p>"
    },
    "weight": {
      "value": 1
    },
    "price": 16000,
    "resizing": true,
    "unidentified": {
      "name": "Belt"
    },
    "cl": 8,
    "aura": {
      "school": "trs"
    },
    "changes": [
      {
        "_id": "zbu38u1s",
        "formula": "4",
        "subTarget": "dex",
        "modifier": "enh"
      }
    ],
    "subType": "wondrous",
    "slot": "belt"
  }
}
