{
  "_id": "xqitaldtgoukvjbd",
  "name": "Block And Tackle",
  "type": "loot",
  "img": "systems/lf1/icons/items/inventory/hook-hand.jpg",
  "system": {
    "description": {
      "value": "<p><b>Price</b> 5 gp; <b>Weight</b> 5 lbs.</p>\n<p>Whether it is used to hoist treasure from a pit or move supplies, a simple block-and-tackle pulley, when it is properly secured, adds a +5 circumstance bonus on Strength checks to lift heavy objects. Securing the pulley requires 1 minute.</p>"
    },
    "weight": {
      "value": 5
    },
    "price": 5,
    "equipped": false,
    "subType": "gear"
  }
}
