{
  "_id": "bosoyirljrelcyuc",
  "name": "Blue Book",
  "type": "loot",
  "img": "systems/lf1/icons/items/inventory/tool-hook.jpg",
  "system": {
    "description": {
      "value": "<p><b>Blue Book</b> This book details the seedier entertainment establishments in one major city. It contains the names of brothels, burlesque houses, and gambling halls in that city. By consulting the book for 1 hour, for the next 24 hours you gain a +2 circumstance bonus on <em>Knowledge</em> (local), Bluff, and Diplomacy checks to gather or use information in that city. At the GM's discretion, you can use it in settlements near that city for a +1 bonus. <b>Price</b> 5 gp; <b>Weight</b> 1 lb.</p>"
    },
    "weight": {
      "value": 1
    },
    "price": 5,
    "equipped": false,
    "subType": "gear"
  }
}
