{
  "_id": "kedpoijexuzmffkp",
  "name": "Boline",
  "type": "loot",
  "img": "icons/weapons/daggers/dagger-jagged-handguard-black.webp",
  "system": {
    "description": {
      "value": "<p class=\"source\"><b>Source</b>: <em>PZO9481</em></p>\n<p><b>Price</b> 10 gp; <b>Weight</b> 2 lbs.</p>\n<p>Bolines are hook-shaped knives commonly used by herbalists and spellcasters to harvest ingredients for their craft. A boline's blade is typically 5 inches long, and is too small and irregular to use as a weapon. You can use a boline to finely slice the herbs in a <em>healer's kit</em>, so you can treat <em>deadly</em> wounds with only a single use from a <em>healer's kit</em> rather than two uses.</p>"
    },
    "weight": {
      "value": 2
    },
    "price": 10,
    "equipped": false,
    "subType": "gear"
  }
}
