{
  "_id": "yjmepzuljtnyhmak",
  "name": "Bottle",
  "type": "loot",
  "img": "systems/lf1/icons/items/inventory/bottle-empty.jpg",
  "system": {
    "description": {
      "value": "<p><b>Price</b> 2 gp; <b>Weight</b> 1 lb.</p>\n<p>This glass bottle holds about a pint and includes a cork.</p>"
    },
    "weight": {
      "value": 1
    },
    "price": 2,
    "equipped": false,
    "subType": "gear"
  }
}
