{
  "_id": "sqzkfzxohtxixble",
  "name": "Brimstone/Sulfur",
  "type": "loot",
  "img": "systems/lf1/icons/items/inventory/dice.jpg",
  "system": {
    "description": {
      "value": "<p class=\"source\"><b>Source</b> <em>PZO9445</em></p>\n<p><b>Price</b> 5 sp; <b>Weight</b> -</p>\n<p>Brimstone, also called sulfur, has a distinctive odor and caustic properties.</p>\n<p>Alchemical Power Component</p>\n<p><b>Doses</b> 2 (1 gp); <b>Spells</b> acid descriptor</p>\n<p>Spells with the [acid] descriptor deal +1 acid damage.</p>"
    },
    "price": 0.5,
    "equipped": false,
    "subType": "gear"
  }
}
