{
  "_id": "q8UJF3P0VkZLVyeD",
  "name": "Cards",
  "type": "loot",
  "img": "icons/sundries/gaming/playing-cards.webp",
  "system": {
    "description": {
      "value": "<p>Source <a href=\"http://paizo.com/products/btpy8tmc?Pathfinder-Roleplaying-Game-Ultimate-Equipment\">Ultimate Equipment pg. 92</a><br>Price 1 sp–100 gp; Weight 1 lb.<br>Category Entertainment</p>\n<h3>Description</h3>\n<p>Playing cards range from block-printed symbols on thick paper to elaborate, hand-painted works of art on waxed vellum, ivory, wood, or even metal.</p>"
    },
    "weight": {
      "value": 1
    },
    "price": 0.1,
    "equipped": false,
    "subType": "gear"
  }
}
