{
  "_id": "ovvprupomwvehnnw",
  "name": "Chalkboard",
  "type": "loot",
  "img": "systems/lf1/icons/items/inventory/plate-blue.jpg",
  "system": {
    "description": {
      "value": "<p class=\"source\"><b>Source</b> <em>PZO1115</em></p>\n<p><b>Price</b> 1 gp; <b>Weight</b> 2 lbs.</p>\n<p>A wooden frame approximately the same size as a large book surrounds this thinly sliced piece of polished black stone. Rubbing a simple damp cloth over the slate erases anything scribed with chalk on its surface.</p>"
    },
    "weight": {
      "value": 2
    },
    "price": 1,
    "equipped": false,
    "subType": "gear"
  }
}
