{
  "_id": "sprhkusuzsqujlqk",
  "name": "Charcoal",
  "type": "loot",
  "img": "systems/lf1/icons/items/inventory/ore-silver.jpg",
  "system": {
    "description": {
      "value": "<p class=\"source\"><b>Source</b> SoS</p>\n<p>Sticks of charcoal are useful for marking floors and walls, writing on paper or parchment, and making rubbings of engravings or other markings. In a pinch, they can even be burned to stay warm. A good quality rubbing generally takes 1 minute per sheet of paper.</p>"
    },
    "price": 0.01,
    "equipped": false,
    "subType": "gear"
  }
}
