{
  "_id": "PIbBQB3Ijy20VkcZ",
  "name": "Cloak of Resistance +2",
  "type": "equipment",
  "img": "systems/lf1/icons/items/equipment/cloak-plain.jpg",
  "system": {
    "description": {
      "value": "<p>This garment offers magic protection in the form of a +1 to +5 <em>resistance bonus</em> on all saving throws (<em>Fortitude</em>, <em>Reflex</em>, and <em>Will</em>).</p>"
    },
    "weight": {
      "value": 1
    },
    "price": 4000,
    "resizing": true,
    "unidentified": {
      "name": "Cloak"
    },
    "cl": 6,
    "aura": {
      "school": "abj"
    },
    "changes": [
      {
        "_id": "i6qgu955",
        "formula": "2",
        "subTarget": "allSavingThrows",
        "modifier": "resist"
      }
    ],
    "tag": "cloakOfResistance2",
    "subType": "wondrous",
    "slot": "shoulders"
  }
}
