{
  "_id": "sauykqffbjdjooko",
  "name": "Coffin",
  "type": "loot",
  "img": "systems/lf1/icons/items/inventory/dice.jpg",
  "system": {
    "description": {
      "value": "<table>\n<thead>\n<tr>\n<th>Type</th>\n<th>Price</th>\n<th>Weight</th>\n</tr>\n</thead>\n<tbody>\n<tr>\n<td>Common</td>\n<td>10 gp</td>\n<td>30 lbs.</td>\n</tr>\n<tr>\n<td>Ornate</td>\n<td>100 gp</td>\n<td>50 lbs.</td>\n</tr>\n</tbody>\n</table>\n<p>A plain coffin is made of simple wood and has a loose, flat lid that can be nailed onto it. Ornate coffins are favored by aristocratic families for displaying their dead, and include upholstered cloth liners and a hinged lid.</p>"
    },
    "equipped": false,
    "subType": "gear"
  }
}
