{
  "_id": "mwnptfrbjpbafgiq",
  "name": "Dancer's Garb, Silver",
  "type": "loot",
  "img": "icons/equipment/chest/vest-leather-pink.webp",
  "system": {
    "description": {
      "value": "<p class=\"source\"><b>Source</b> <em>PPZO94102</em></p>\n<p><b>Price</b> 200 gp; <b>Weight</b> 5 lbs.</p>\n<p>In addition to granting the same bonus on <em>Perform</em> (dance) checks as regular dancer's garb, silver dancer's garb is considered a silver instrument for silver balladeer <em>bards</em>.</p>\n<p>Silver dancer's garb can be made of sunsilver (see below); sunsilver dancer's garb costs an additional 3,000 gp and grants the same benefits as armor made of sunsilver. As with the bonus on <em>Perform</em> (dance) checks, this benefit functions only when no other armor or concealing clothing is worn.</p>"
    },
    "weight": {
      "value": 5
    },
    "price": 200,
    "equipped": false,
    "subType": "gear"
  }
}
