{
  "_id": "UGXnzXJCs1DhuB43",
  "name": "Drill",
  "type": "loot",
  "img": "icons/tools/hand/drill-steel-brown-grey.webp",
  "system": {
    "description": {
      "value": "<p>Source <a href=\"http://paizo.com/products/btpy8tmc?Pathfinder-Roleplaying-Game-Ultimate-Equipment\">Ultimate Equipment pg. 56</a>, <a href=\"http://paizo.com/pathfinderRPG/v5748btpy8fo1\">Advanced Player's Guide pg. 184</a>, <a href=\"http://paizo.com/store/downloads/pathfinder/pathfinderCompanion/pathfinderRPG/v5748btpy8dmf\">Adventurer's Armory pg. 19</a><br>Price 5 sp; Weight 1 lb.<br>Category Adventuring Gear</p>\n<h3>Description</h3>\n<p>A drill can create a 1-inch-diameter hole in stone, wood, or metal as a standard action. Harder materials wear down or break the drill more quickly. Hearing the sound of drilling requires a DC 15 Perception check.</p>"
    },
    "weight": {
      "value": 1
    },
    "price": 0.5,
    "equipped": false,
    "subType": "gear"
  }
}
