{
  "_id": "9bGfJ3KE5ns1yYob",
  "name": "Dung grenade",
  "type": "loot",
  "img": "systems/lf1/icons/items/potions/magic-red.jpg",
  "system": {
    "description": {
      "value": "<p>Source <a href=\"http://paizo.com/products/btpy9s2i?Pathfinder-Player-Companion-Antiheros-Handbook\">Antihero's Handbook pg. 28</a><br>Price 100 gp; Weight 1 lb.<br>Category Alchemical Weapons</p>\n<h3>Description</h3>\n<p>The casing of this modified fuse grenadeUE is partially filled with animal dung or guano. You can throw a dung grenade as a splash weapon with a range increment of 10 feet. Any creature directly hit by a dung grenade or in its splash radius takes 1d6 points of fire damage and is covered with the grenade’s malodorous contents, becoming sickened for 1d4 rounds. A target can attempt a DC 15 Reflex saving throw to halve the damage and the duration of the sickened condition. Crafting a dung grenade requires a successful DC 25 Craft (alchemy) check.</p>\n<h3>Construction</h3>\n<p>Craft (Alchemy) DC 25</p>"
    },
    "weight": {
      "value": 1
    },
    "price": 100,
    "equipped": false,
    "subType": "gear"
  }
}
