{
  "_id": "zJmuPPbcTHCDKTfj",
  "name": "Ear trumpet",
  "type": "loot",
  "img": "icons/tools/instruments/megaphone.webp",
  "system": {
    "description": {
      "value": "<p>Source <a href=\"http://paizo.com/products/btpy8tmc?Pathfinder-Roleplaying-Game-Ultimate-Equipment\">Ultimate Equipment pg. 56</a><br>Price 5 gp; Weight 2 lbs.<br>Category Adventuring Gear</p>\n<h3>Description</h3>\n<p>By holding this specially crafted ear trumpet to your ear and placing the other end against a door or wall, you reduce the DC penalty for listening through a door or wall by 5.</p>"
    },
    "weight": {
      "value": 2
    },
    "price": 5,
    "equipped": false,
    "subType": "gear"
  }
}
