{
  "_id": "vqwyugaticvrbzhn",
  "name": "Garlic",
  "type": "loot",
  "img": "icons/commodities/flowers/lily-white.webp",
  "system": {
    "description": {
      "value": "<p class=\"source\"><b>Source</b> <em>PZO9410</em></p>\n<p>These pungent white cloves serve as food and medicine and play a role in many traditional cleansing rituals. It is well established that <em>vampires</em> cannot abide the presence of garlic (<em>vampires</em> cannot tolerate the strong odor of garlic and will not enter an area laced with it.)</p>"
    },
    "weight": {
      "value": 1
    },
    "price": 0.1,
    "equipped": false,
    "subType": "gear"
  }
}
