{
  "_id": "WWej7rMLpLLCHtJv",
  "name": "Headband of Vast Intelligence +6",
  "type": "equipment",
  "img": "systems/lf1/icons/items/equipment/belt-gems.jpg",
  "system": {
    "description": {
      "value": "<p>This intricate gold headband is decorated with several small blue and deep purple gemstones.</p>\n<p>The headband grants the wearer an <em>enhancement bonus</em> to <em>Intelligence</em> of +2, +4, or +6. Treat this as a temporary ability bonus for the first 24 hours the headband is worn. A headband of vast intelligence has one skill associated with it per +2 bonus it grants. After being worn for 24 hours, the headband grants a number of skill ranks in those skills equal to the wearer’s total <em>Hit Dice</em>. These ranks do not stack with the ranks a creature already possesses. These skills are chosen when the headband is created. If no skill is listed, the headband is assumed to grant skill ranks in randomly determined <em>Knowledge</em> skills.</p>",
      "unidentified": "<p>This intricate gold headband is decorated with several small blue and deep purple gemstones.</p>"
    },
    "weight": {
      "value": 1
    },
    "price": 36000,
    "resizing": true,
    "unidentified": {
      "name": "Headband"
    },
    "cl": 8,
    "aura": {
      "school": "trs"
    },
    "changes": [
      {
        "_id": "dzmxiaiz",
        "formula": "6",
        "subTarget": "int",
        "modifier": "enh"
      }
    ],
    "subType": "wondrous",
    "slot": "headband"
  }
}
