{
  "_id": "mahdmunqdfvksoos",
  "name": "Hobgoblin War Draught",
  "type": "loot",
  "img": "systems/lf1/icons/items/potions/major-red.jpg",
  "system": {
    "description": {
      "value": "<p class=\"source\"><b>Source</b> <em>PZO1121</em></p>\n<p>This drink is a foul-smelling alchemical blend of raw alcohol, mashed grubs, and medicinal mushrooms. A hobgoblin under the effects of hobgoblin war draught ignores all penalties resulting from the <em>fatigued</em> and <em>shaken</em> conditions for 10 minutes, after which he must succeed at a DC 15 <em>Fortitude</em> save or be <em>sickened</em> for 1 hour. Anyone lacking the <em>goblinoid</em> subtype who drinks hobgoblin war draught must immediately make a DC 15 <em>Fortitude</em> save or be <em>sickened</em> for 1 hour; success means the drinker ignores all penalties resulting from the <em>fatigued</em> and <em>shaken</em> conditions for 1 minute, after which he is <em>sickened</em> for 10 minutes. Hobgoblin war draught has no effect on creatures that are immune to <em>poison</em>.</p>\n<p><b>Create</b>: <em>Craft</em> (alchemy) DC 20* (15 for hobgoblins)</p>"
    },
    "weight": {
      "value": 1
    },
    "price": 10,
    "equipped": false,
    "subType": "gear"
  }
}
