{
  "_id": "jjitxdnizmpbthys",
  "name": "Holly And Mistletoe",
  "type": "loot",
  "img": "icons/commodities/flowers/holly-buds-red.webp",
  "system": {
    "description": {
      "value": "<p class=\"source\"><b>Source</b> <em>PZO1110</em></p>\n<p>Druids commonly use these plants as divine focuses when casting spells.</p>"
    },
    "equipped": false,
    "subType": "gear"
  }
}
