{
  "_id": "CmjSKOVJuQnV8o3S",
  "name": "Holy water",
  "type": "weapon",
  "img": "systems/lf1/icons/items/potions/grand-blue.jpg",
  "system": {
    "description": {
      "value": "<p>Source <a href=\"http://paizo.com/products/btpy8tmc?Pathfinder-Roleplaying-Game-Ultimate-Equipment\">Ultimate Equipment pg. 107</a>, <a href=\"http://paizo.com/pathfinderRPG/v5748btpy88yj\">PRPG Core Rulebook pg. 158</a><br />Price 25 gp; Weight 1 lb.<br />Category Alchemical Weapons</p>\n<h3>Description</h3>\n<p>Holy water damages undead creatures and evil outsiders almost as if it were acid. A flask of holy water can be thrown as a splash weapon.<br /><br />Treat this attack as a ranged touch attack with a range increment of 10 feet. A flask breaks if thrown against the body of a corporeal creature, but to use it against an incorporeal creature, you must open the flask and pour the holy water out onto the target. Thus, you can douse an incorporeal creature with holy water only if you are adjacent to it. Doing so is a ranged touch attack that does not provoke attacks of opportunity.<br /><br />A direct hit by a flask of holy water deals 2d4 points of damage to an undead creature or an evil outsider. Each such creature within 5 feet of the point where the flask hits takes 1 point of damage from the splash.<br /><br />Temples to good deities sell holy water at cost (making no profit). Holy water is made using the bless water spell.</p>"
    },
    "weight": {
      "value": 1
    },
    "price": 25,
    "tag": "holyWater",
    "subType": "misc",
    "weaponSubtype": "other"
  }
}
