{
  "_id": "FsUPKyGXxxE7IJxi",
  "name": "Incense (10 sticks)",
  "type": "loot",
  "img": "icons/tools/laboratory/bowl-liquid-orange.webp",
  "system": {
    "description": {
      "value": "<p>Source <a href=\"http://paizo.com/products/btpy8rv2?Pathfinder-Roleplaying-Game-Advanced-Race-Guide\">Advanced Race Guide pg. 87</a><br>Price 10 gp; Weight 1 lb.<br>Category Adventuring Gear</p>\n<h3>Description</h3>\n<p>This aromatic resin, imbued with fragrant oils, is often formed into sticks, cones, or balls and burned in ceremonies or during meditation. A piece of incense burns for 1 hour.</p>"
    },
    "weight": {
      "value": 1
    },
    "price": 10,
    "equipped": false,
    "subType": "gear"
  }
}
