{
  "_id": "rqwuqlvgwyvwlads",
  "name": "Keif",
  "type": "loot",
  "img": "systems/lf1/icons/items/inventory/dice.jpg",
  "system": {
    "description": {
      "value": "<p class=\"source\"><b>Source</b> <em>PZO9445</em></p>\n<p><b>Price</b> 15 gp; <b>Weight</b> -</p>\n<p>When used as an alchemical reagent, refined keif is often sublimated along with other reagents to create new forms of the famous drug.</p>\n<p>Alchemical Power Component</p>\n<p><b>Doses</b> 1 (15 gp); <b>Spells</b> <em>enchantment</em> school</p>\n<p>Spells of the <em>enchantment</em> school are cast at +1 <em>caster level</em> for the purpose of determining duration.</p>"
    },
    "price": 15,
    "equipped": false,
    "subType": "gear"
  }
}
