{
  "_id": "apladajbicmixbev",
  "name": "Key, Copy",
  "type": "loot",
  "img": "systems/lf1/icons/items/inventory/dice.jpg",
  "system": {
    "description": {
      "value": "<p class=\"source\"><b>Source</b>: <em>PZO9410</em></p>\n<p>A craftsman can make a working copy of a key in an hour (making a duplicate that looks exactly like the original requires a skilled smith, a DC 25 <em>Craft</em> check, and one day).</p>"
    },
    "equipped": false,
    "subType": "gear"
  }
}
