{
  "_id": "T3gaWSK4oJ5vD7Ff",
  "name": "Kit, Alchemist's",
  "type": "container",
  "img": "icons/containers/chest/chest-reinforced-steel-red.webp",
  "system": {
    "inventoryItems": [
      {
        "name": "Kit, Alchemy Crafting",
        "type": "loot",
        "img": "systems/lf1/icons/items/inventory/chest-stone.jpg",
        "system": {
          "description": {
            "value": "<p>An @Compendium[lf1.classes.JcaqlAawhf14q1lq]{Alchemist} with an alchemy crafting kit is assumed to have all the material <em>components</em> needed for his extracts, mutagens, and bombs, except for those <em>components</em> that have a specific cost. An alchemy crafting kit provides no bonuses on @UUID[Compendium.lf1.lf1-rules.x175kVqUfLGPt8tC.JournalEntryPage.3E8pxbjI8MD3JbfQ]{Craft (alchemy)} checks. (This item was previously called an \"alchemist's kit\", and was renamed to avoid confusion with the set of adventuring gear called an \"alchemist's kit.\")</p>"
          },
          "weight": {
            "value": 5
          },
          "price": 25,
          "equipped": false,
          "subType": "gear"
        },
        "flags": {
          "core": {
            "sourceId": "Compendium.lf1.items.xkunfssqoyoupryi"
          }
        },
        "_id": "5C6YnFxhkurPpmZS"
      },
      {
        "name": "Backpack",
        "type": "container",
        "img": "systems/lf1/icons/items/inventory/backpack.jpg",
        "system": {
          "description": {
            "value": "<p>This leather knapsack has one large pocket that closes with a buckled strap and holds about 2 cubic feet of material. Some may have one or more smaller pockets on the sides.</p>"
          },
          "weight": {
            "value": 2
          },
          "price": 2
        },
        "flags": {
          "core": {
            "sourceId": "Compendium.lf1.items.lSCPUK5Ea6R0t4fz"
          }
        },
        "_id": "rlwfdX5ySZF2xupL"
      },
      {
        "name": "Bedroll",
        "type": "loot",
        "img": "systems/lf1/icons/items/inventory/cloth-blue.jpg",
        "system": {
          "description": {
            "value": "<p>This consists of two woolen sheets sewn together along the bottom and one side to create a bag for sleeping in. Some have cloth straps along the open side so the bedroll can be tied closed while you are sleeping. It can be rolled and tied into a tight coil for storage or transport. Most people use a <em>blanket</em> with the bedroll to stay warm or provide a ground cushion.</p>"
          },
          "weight": {
            "value": 5
          },
          "price": 0.1,
          "equipped": false,
          "subType": "gear"
        },
        "flags": {
          "core": {
            "sourceId": "Compendium.lf1.items.iegwwsarycqwoezj"
          }
        },
        "_id": "lthRXkMxCTIs8ACd"
      },
      {
        "name": "Pouch, Belt",
        "type": "loot",
        "img": "icons/containers/bags/coinpouch-simple-leather-tan.webp",
        "system": {
          "description": {
            "value": "<p class=\"source\"><b>Source</b> <em>PZO1110</em></p>\n<p>A belt pouch is crafted of soft cloth or leather. They typically hold up to 10 lb. or 1/5 cubic ft. of items.</p>\n<p><b>Empty Weight</b>: 1/2 lb.<sup>1</sup> <b>Capacity</b>: 1/5 cubic ft./10 lb.<sup>1</sup></p>\n<p class=\"source\"><sup>1</sup> When made for Medium characters. Weighs one-quarter the normal amount when made for Small characters. Weighs twice the normal amount when made for Large characters. Containers carry one-quarter the normal amount when made for Small characters.</p>"
          },
          "weight": {
            "value": 0.5
          },
          "price": 1,
          "equipped": false,
          "subType": "gear"
        },
        "flags": {
          "core": {
            "sourceId": "Compendium.lf1.items.wjvxmolafiegvesl"
          }
        },
        "_id": "3UeaVx2evZQkbMVI"
      },
      {
        "name": "Flint And Steel",
        "type": "loot",
        "img": "icons/commodities/stone/rock-chunk-grey.webp",
        "system": {
          "description": {
            "value": "<p>Lighting a <em>torch</em> with a <em>flint and steel</em> is a full-round action. Lighting any other fire with them takes at least that long.</p>"
          },
          "price": 1,
          "equipped": false,
          "subType": "gear"
        },
        "flags": {
          "core": {
            "sourceId": "Compendium.lf1.items.ygmrcisvftnvjyob"
          }
        },
        "_id": "wk9F7XSBBmOMLBlS"
      },
      {
        "name": "Ink",
        "type": "loot",
        "img": "systems/lf1/icons/items/inventory/dice.jpg",
        "system": {
          "description": {
            "value": "<p class=\"source\"><b>Source</b> <em>PZO1110</em></p>\n<p>This vial contains 1 ounce of ink. Ink in colors other than black costs twice as much. <b>Price</b> 8 gp; <b>Weight</b> -</p>"
          },
          "price": 8,
          "equipped": false,
          "subType": "gear"
        },
        "flags": {
          "core": {
            "sourceId": "Compendium.lf1.items.zopwdgykghmkpulz"
          }
        },
        "_id": "KynL7RCK1Yrwxblh"
      },
      {
        "name": "Inkpen",
        "type": "loot",
        "img": "systems/lf1/icons/items/inventory/dice.jpg",
        "system": {
          "description": {
            "value": "<p class=\"source\"><b>Source</b> <em>PZO1110</em></p>\n<p><b>Price</b> 1 sp; <b>Weight</b> -</p>\n<p>This is a wooden stylus with a metal tip that retains a small amount of ink after you dip it in a vial of ink.</p>"
          },
          "price": 0.1,
          "equipped": false,
          "subType": "gear"
        },
        "flags": {
          "core": {
            "sourceId": "Compendium.lf1.items.gbrjebshlzusiqwz"
          }
        },
        "_id": "Ft3szIcj8EP8DIlO"
      },
      {
        "name": "Mess Kit",
        "type": "container",
        "img": "icons/containers/chest/chest-simple-box-red.webp",
        "system": {
          "description": {
            "value": "<p>This kit includes a plate, bowl, cup, fork, knife, and spoon, made of wood, horn, or tin. Each item has a handle or small hole, and can be tied together using the included leather cord.</p>"
          },
          "inventoryItems": [
            {
              "name": "Plate",
              "type": "loot",
              "img": "systems/lf1/icons/items/inventory/dice.jpg",
              "system": {
                "tags": ["Mundane", "Cooking"],
                "weight": {
                  "value": 0.4
                },
                "equipped": false,
                "subType": "tradeGoods"
              },
              "flags": {
                "core": {
                  "sourceId": "Compendium.lf1.items.tVkpdPfIJomoFjUl"
                }
              },
              "_id": "HrXDTu0yJArUbpYe"
            },
            {
              "name": "Bowl",
              "type": "loot",
              "img": "icons/containers/kitchenware/bowl-clay-brown.webp",
              "system": {
                "tags": ["Mundane", "Cooking"],
                "weight": {
                  "value": 0.2
                },
                "equipped": false,
                "subType": "tradeGoods"
              },
              "flags": {
                "core": {
                  "sourceId": "Compendium.lf1.items.fASUzJozDXZldwNT"
                }
              },
              "_id": "B5gFNbiUqEKlkI3d"
            },
            {
              "name": "Fork",
              "type": "loot",
              "img": "icons/tools/cooking/fork-steel-tan.webp",
              "system": {
                "tags": ["Mundane", "Cooking"],
                "weight": {
                  "value": 0.1
                },
                "equipped": false,
                "subType": "gear"
              },
              "flags": {
                "core": {
                  "sourceId": "Compendium.lf1.items.jzu5QqK20bW9gkN1"
                }
              },
              "_id": "75V6g53wDWtG50uT"
            },
            {
              "name": "Knife",
              "type": "loot",
              "img": "icons/tools/cooking/knife-chef-steel-brown.webp",
              "system": {
                "tags": ["Mundane", "Cooking", "Crafting", "Survival"],
                "weight": {
                  "value": 0.1
                },
                "equipped": false,
                "subType": "gear"
              },
              "flags": {
                "core": {
                  "sourceId": "Compendium.lf1.items.GZtAdQ7gJlCe9z64"
                }
              },
              "_id": "G0t7OoDwQXQgSuli"
            },
            {
              "name": "Spoon",
              "type": "loot",
              "img": "icons/tools/cooking/soup-ladle.webp",
              "system": {
                "tags": ["Mundane", "Cooking"],
                "weight": {
                  "value": 0.1
                },
                "equipped": false,
                "subType": "gear"
              },
              "flags": {
                "core": {
                  "sourceId": "Compendium.lf1.items.Asg5Ek4CFqb80P7C"
                }
              },
              "_id": "wPKymHrQQpgJ2oYO"
            },
            {
              "name": "Cup",
              "type": "loot",
              "img": "systems/lf1/icons/items/inventory/dice.jpg",
              "system": {
                "tags": ["Mundane", "Cooking"],
                "weight": {
                  "value": 0.1
                },
                "subType": "tradeGoods",
                "equipped": false
              },
              "flags": {
                "core": {
                  "sourceId": "Compendium.lf1.items.QqdYeaj0M8e5FWWK"
                }
              },
              "_id": "ssTkq1uXfAO6KeFH"
            }
          ]
        },
        "flags": {
          "core": {
            "sourceId": "Compendium.lf1.items.Ueae6c2qqJJGpncA"
          }
        },
        "_id": "U9bplZuWoJslPR2l"
      },
      {
        "name": "Soap",
        "type": "consumable",
        "img": "systems/lf1/icons/items/inventory/soap.jpg",
        "system": {
          "description": {
            "value": "<p class=\"source\"><b>Source</b> <em>PPZO9410</em></p>\n<p>You can use this thick block of soap to scrub clothes, pots, linens, or anything else that might be dirty. A bar of soap has approximately 50 uses.</p>"
          },
          "weight": {
            "value": 0.5
          },
          "price": 0.01,
          "actions": [
            {
              "_id": "ootoocddr3l2eoat",
              "name": "Use",
              "img": "systems/lf1/icons/items/inventory/soap.jpg",
              "activation": {
                "type": "special",
                "unchained": {
                  "type": "special"
                }
              },
              "actionType": ""
            }
          ],
          "uses": {
            "per": "charges",
            "value": 50,
            "maxFormula": "50"
          },
          "tag": "soap",
          "subType": "misc"
        },
        "flags": {
          "core": {
            "sourceId": "Compendium.lf1.items.yMoclCylbCRKyaZF"
          }
        },
        "_id": "p9lplH7Qqw6p5wy4"
      },
      {
        "name": "Torch",
        "type": "loot",
        "img": "systems/lf1/icons/items/inventory/torch.jpg",
        "system": {
          "description": {
            "value": "<p><b>Price</b> 1 cp; <b>Weight</b> 1 lb.</p>\n<p>A torch burns for 1 hour, shedding normal light in a 20-foot radius and increasing the light level by one step for an additional 20 feet beyond that area (darkness becomes dim light and dim light becomes normal light). A torch does not increase the light level in normal light or bright light. If a torch is used in combat, treat it as a one-handed improvised weapon that deals bludgeoning damage equal to that of a gauntlet of its size, plus 1 point of fire damage.</p>"
          },
          "weight": {
            "value": 1
          },
          "price": 0.01,
          "equipped": false,
          "subType": "gear"
        },
        "flags": {
          "core": {
            "sourceId": "Compendium.lf1.items.snfogneawzopfzzl"
          }
        },
        "_id": "GdKEAmivb6PeZSof"
      },
      {
        "name": "Waterskin",
        "type": "loot",
        "img": "systems/lf1/icons/items/inventory/waterskin.jpg",
        "system": {
          "description": {
            "value": "<p class=\"source\"><b>Source</b> <em>PZO1110</em></p>\n<p>A water or wineskin holds 1/2 gallon of liquid and weighs 4 lb when full.</p>\n<p><b>Empty Weight</b>: -; <b>Capacity</b>: 1/2 gallon/4 lb.<sup>1</sup></p>\n<p class=\"source\"><sup>1</sup> When made for Medium characters. Weighs one-quarter the normal amount when made for Small characters. Weighs twice the normal amount when made for Large characters. Containers carry one-quarter the normal amount when made for Small characters.</p>\n<h3>Magic Containers</h3>\n<p>Magic containers come in almost as many varieties as there are <em>alchemists</em>, and so are of inestimable value to <em>alchemists</em> with specific needs. Some of the most well-known magic containers are described here.</p>\n<p>Because of a varied nature of alchemical items and their effects, not all combinations of alchemical items and magic bottles are viable or even make sense, even though they technically might be allowed by the rules. The GM should have the final say on whether or not a particular alchemical item can function within one of the magical containers listed in this section.</p>\n<table>\n<thead>\n<tr>\n<th colspan=\"4\">Magic Containers</th>\n</tr>\n<tr>\n<th>Item</th>\n<th>Price</th>\n<th>Weight</th>\n<th>Source</th>\n</tr>\n</thead>\n<tbody>\n<tr>\n<td><i>Focusing Flask</i></td>\n<td>700 gp</td>\n<td>1 lb.</td>\n<td class=\"source text\"><em>PPC:AM</em></td>\n</tr>\n<tr>\n<td><i>Retort of Control</i></td>\n<td>13,000 gp</td>\n<td>-</td>\n<td class=\"source text\"><em>PPC:AM</em></td>\n</tr>\n<tr>\n<td><i>Vial of Efficacious Medicine</i></td>\n<td>7,000 gp</td>\n<td>-</td>\n<td class=\"source text\"><em>PPC:AM</em></td>\n</tr>\n<tr>\n<td><i>Winged Bottle</i></td>\n<td>1,620 gp</td>\n<td>1 lb.</td>\n<td class=\"source text\"><em>PPC:AM</em></td>\n</tr>\n</tbody>\n</table>"
          },
          "weight": {
            "value": 4
          },
          "price": 1,
          "equipped": false,
          "subType": "gear"
        },
        "flags": {
          "core": {
            "sourceId": "Compendium.lf1.items.bsztkhkrhgmsbqpt"
          }
        },
        "_id": "rQI5ZVBJs3ziZrDO"
      },
      {
        "name": "Rations, Trail",
        "type": "loot",
        "img": "systems/lf1/icons/items/inventory/meat.jpg",
        "system": {
          "description": {
            "value": "<h4>Rations, Trail</h4>\n<p><b>Price</b> 5 sp; <b>Weight</b> 1 lb.</p>\n<p>The listed price is for a day's worth of food. This bland food is usually some kind of hard tack, jerky, and dried fruit, though the contents vary from region to region and the race of those creating it. As long as it stays dry, it can go for months without spoiling.</p>"
          },
          "weight": {
            "value": 1
          },
          "price": 0.5,
          "equipped": false,
          "subType": "gear"
        },
        "flags": {
          "core": {
            "sourceId": "Compendium.lf1.items.manvtbznrwjmnrua"
          }
        },
        "_id": "DVlmY7rXWwDPsv61"
      },
      {
        "name": "Pot, Cooking (Iron)",
        "type": "loot",
        "img": "icons/tools/cooking/cauldron-empty.webp",
        "system": {
          "description": {
            "value": "<p class=\"source\"><b>Source</b> <em>PZO1110</em></p>\n<p>Cooking pots come in a variety of materials, but the most common is formed of iron.</p>\n<p>A mithral cooking pot weighs 2 lbs. and costs 2,001 gp.</p>\n<p><b>Empty Weight</b>: 2 lb.; <b>Capacity</b>: 1 gallon/8 lb.</p>"
          },
          "weight": {
            "value": 4
          },
          "price": 0.8,
          "equipped": false,
          "subType": "gear"
        },
        "flags": {
          "core": {
            "sourceId": "Compendium.lf1.items.habofoapdifirevm"
          }
        },
        "_id": "p6qVXA8Rac2CK6nx"
      }
    ]
  }
}
