{
  "_id": "dhlxmunqjelfybbl",
  "name": "Kit, Ghost Hunter's",
  "type": "loot",
  "img": "icons/containers/chest/chest-reinforced-stone.webp",
  "system": {
    "description": {
      "value": "<p class=\"source\"><b>Source</b>: <em>USH</em></p>\n<p><b>Price</b> 670 gp; <b>Weight</b> 22 lbs.</p>\n<p>This sturdy satchel is the quintessential toolkit for detecting <em>ghosts</em> and sending them to their final slumber. This kit includes 10 candles, three flasks of <em>holy water</em>, one <em>potion of</em> <em>lesser restoration</em>, a crowbar, a folding shovel, four sunrods, one spiritbane spike, and a wooden <em>holy symbol</em>.</p>"
    },
    "weight": {
      "value": 22
    },
    "price": 670,
    "equipped": false,
    "subType": "gear"
  }
}
