{
  "_id": "uxvxpbqkdwuddrmj",
  "name": "Kit, Fishing",
  "type": "loot",
  "img": "icons/containers/chest/chest-simple-box-red.webp",
  "system": {
    "description": {
      "value": "<p><b>Price</b> 5 sp; <b>Weight</b> 3 lbs.</p>\n<p>This kit includes a simple fishing <em>pole</em> and a small box that contains fishing tackle (hooks, lines, sinkers, floats, and lures).</p>"
    },
    "weight": {
      "value": 3
    },
    "price": 0.5,
    "equipped": false,
    "subType": "gear"
  }
}
