{
  "_id": "mqotewaresovmkld",
  "name": "Kit, Entertainer's",
  "type": "loot",
  "img": "icons/containers/chest/chest-simple-box-red.webp",
  "system": {
    "description": {
      "value": "<p><b>Price</b> 5 sp; <b>Weight</b> 3 lbs.</p>\n<p>This kit includes juggling balls, colored handkerchiefs, playing cards, clownish makeup, and other simple props for stage magicians and other street entertainers.</p>"
    },
    "weight": {
      "value": 3
    },
    "price": 0.5,
    "equipped": false,
    "subType": "gear"
  }
}
