{
  "_id": "eoonmdkcxktaqlma",
  "name": "Kit, Breaker's",
  "type": "loot",
  "img": "icons/containers/chest/chest-reinforced-stone.webp",
  "system": {
    "description": {
      "value": "<p class=\"source\"><b>Source</b>: <em>PZO9430</em></p>\n<p><b>Price</b> 353 gp; <b>Weight</b> 40 lbs.</p>\n<p>This kit contains all manner of items useful for smashing down doors, creating diversions, and blowing things up. It includes a dose of alchemist's glue, a flask of alchemist's fire, a crowbar, a drill, a fuse grenade, a glass cutter, a jetcaster, a vial of phosphorescent gel, 4 pints of oil, a portable ram, a dose of rusting powder, 5 tindertwigs, and a wire</p>"
    },
    "weight": {
      "value": 40
    },
    "price": 353,
    "equipped": false,
    "subType": "gear"
  }
}
