{
  "_id": "rcfhitbmkesztzzd",
  "name": "Kit, Gambler's",
  "type": "loot",
  "img": "icons/containers/chest/chest-simple-box-red.webp",
  "system": {
    "description": {
      "value": "<table border=\"1\" cellpadding=\"5\">\n<thead>\n<tr>\n<th>Type</th>\n<th>Price</th>\n<th>Weight</th>\n</tr>\n</thead>\n<tbody>\n<tr>\n<td>Common</td>\n<td>75 gp</td>\n<td>5 lbs.</td>\n</tr>\n<tr>\n<td>Cheating</td>\n<td>300 gp</td>\n<td>5 lbs.</td>\n</tr>\n</tbody>\n</table>\n<p>Particularly useful for travelers moving through areas too small or remote to support a full-time place for gambling, this small, tightly packed suitcase holds decks of cards, a betting wheel, numbered cloths, colored wooden chips, and a wide variety of other sorts of specialized equipment necessary for many different games of chance. A cheating gambler's kit is very similar, except its cards are marked and its games are rigged, giving a knowledgeable user a +4 <em>circumstance bonus</em> on <em>Profession</em> (gambler) checks when using these materials. A DC 25 <em>Perception</em> or DC 20 <em>Profession</em> (gambler) check exposes the ruse.</p>"
    },
    "equipped": false,
    "subType": "gear"
  }
}
