{
  "_id": "dwoqnykwwllrwcxm",
  "name": "Magnesium",
  "type": "loot",
  "img": "systems/lf1/icons/items/inventory/dice.jpg",
  "system": {
    "description": {
      "value": "<p class=\"source\"><b>Source</b> <em>PZO9445</em></p>\n<p><b>Price</b> 1 gp; <b>Weight</b> -</p>\n<p>Magnesium is an extremely light and reactive metal that burns brightly when exposed to air. It is important for all living things, especially plants.</p>\n<p>Alchemical Power Component</p>\n<p><b>Doses</b> 2 (2 gp); <b>Spells</b> <em>transmutation</em> school</p>\n<p>Spells of the <em>transmutation</em> school are cast at +1 caster level for the purpose of determining duration.</p>"
    },
    "price": 1,
    "equipped": false,
    "subType": "gear"
  }
}
