{
  "_id": "gtnquulctezsntua",
  "name": "Mask, Doctor's",
  "type": "loot",
  "img": "systems/lf1/icons/items/inventory/mask-bird.jpg",
  "system": {
    "description": {
      "value": "<p class=\"source\"><b>Source</b> <em>PZO9410</em></p>\n<p>This mask gives you a +1 <em>circumstance bonus</em> on <em>Fortitude</em> saves made against airborne toxins and scent-based effects. It is sometimes a crime to wear a doctor's mask in public if you are not a healer or physician.</p>"
    },
    "weight": {
      "value": 2
    },
    "price": 50,
    "equipped": false,
    "subType": "gear"
  }
}
