{
  "_id": "lwvhrwgyyzzxislo",
  "name": "Mead, Wasp",
  "type": "loot",
  "img": "systems/lf1/icons/items/inventory/dice.jpg",
  "system": {
    "description": {
      "value": "<h4>Mead, Wasp</h4>\n<p class=\"source\"><b>Source</b> <em>PPC:MM</em></p>\n<p><b>Price</b> 400 gp; <b>Weight</b> 2 lbs.</p>\n<p>A rare breed of wasp produces the honey used to make this spiced, mead-like drink. For 1 hour after consuming a glass of wasp mead (this takes 1 round), the drinker is quick to respond to harm, gaining a +1 <em>alchemical bonus</em> on <em>attack rolls</em> against any creature that has damaged her with an attack within the previous round. This bonus does not stack with itself. A typical <em>bottle</em> holds four glasses' worth of wasp mead.</p>"
    },
    "weight": {
      "value": 2
    },
    "price": 400,
    "equipped": false,
    "subType": "gear"
  }
}
