{
  "name": "Mess Kit",
  "type": "container",
  "img": "icons/containers/chest/chest-simple-box-red.webp",
  "system": {
    "description": {
      "value": "<p>This kit includes a plate, bowl, cup, fork, knife, and spoon, made of wood, horn, or tin. Each item has a handle or small hole, and can be tied together using the included leather cord.</p>"
    },
    "inventoryItems": [
      {
        "name": "Plate",
        "type": "loot",
        "img": "systems/lf1/icons/items/inventory/dice.jpg",
        "system": {
          "tags": ["Mundane", "Cooking"],
          "weight": {
            "value": 0.4
          },
          "equipped": false,
          "subType": "tradeGoods"
        },
        "flags": {
          "core": {
            "sourceId": "Compendium.lf1.items.tVkpdPfIJomoFjUl"
          }
        },
        "_id": "HrXDTu0yJArUbpYe"
      },
      {
        "name": "Bowl",
        "type": "loot",
        "img": "icons/containers/kitchenware/bowl-clay-brown.webp",
        "system": {
          "tags": ["Mundane", "Cooking"],
          "weight": {
            "value": 0.2
          },
          "equipped": false,
          "subType": "tradeGoods"
        },
        "flags": {
          "core": {
            "sourceId": "Compendium.lf1.items.fASUzJozDXZldwNT"
          }
        },
        "_id": "B5gFNbiUqEKlkI3d"
      },
      {
        "name": "Fork",
        "type": "loot",
        "img": "icons/tools/cooking/fork-steel-tan.webp",
        "system": {
          "tags": ["Mundane", "Cooking"],
          "weight": {
            "value": 0.1
          },
          "equipped": false,
          "subType": "gear"
        },
        "flags": {
          "core": {
            "sourceId": "Compendium.lf1.items.jzu5QqK20bW9gkN1"
          }
        },
        "_id": "75V6g53wDWtG50uT"
      },
      {
        "name": "Knife",
        "type": "loot",
        "img": "icons/tools/cooking/knife-chef-steel-brown.webp",
        "system": {
          "tags": ["Mundane", "Cooking", "Crafting", "Survival"],
          "weight": {
            "value": 0.1
          },
          "equipped": false,
          "subType": "gear"
        },
        "flags": {
          "core": {
            "sourceId": "Compendium.lf1.items.GZtAdQ7gJlCe9z64"
          }
        },
        "_id": "G0t7OoDwQXQgSuli"
      },
      {
        "name": "Spoon",
        "type": "loot",
        "img": "icons/tools/cooking/soup-ladle.webp",
        "system": {
          "tags": ["Mundane", "Cooking"],
          "weight": {
            "value": 0.1
          },
          "equipped": false,
          "subType": "gear"
        },
        "flags": {
          "core": {
            "sourceId": "Compendium.lf1.items.Asg5Ek4CFqb80P7C"
          }
        },
        "_id": "wPKymHrQQpgJ2oYO"
      },
      {
        "name": "Cup",
        "type": "loot",
        "img": "systems/lf1/icons/items/inventory/dice.jpg",
        "system": {
          "tags": ["Mundane", "Cooking"],
          "weight": {
            "value": 0.1
          },
          "subType": "tradeGoods",
          "equipped": false
        },
        "flags": {
          "core": {
            "sourceId": "Compendium.lf1.items.QqdYeaj0M8e5FWWK"
          }
        },
        "_id": "ssTkq1uXfAO6KeFH"
      }
    ]
  },
  "_id": "Ueae6c2qqJJGpncA"
}
