{
  "_id": "RfQvOISVKf3WU8Nl",
  "name": "Outfit, Cold-Weather",
  "type": "equipment",
  "img": "systems/lf1/icons/items/equipment/cloak-fur.jpg",
  "system": {
    "description": {
      "value": "<p class=\"source\"><b>Source</b> <em>PZO1110</em></p>\n<p>This outfit includes a wool coat, linen shirt, wool cap, heavy cloak, thick pants or skirt, and boots. This outfit grants a +5 <em>circumstance bonus</em> on <em>Fortitude</em> <em>saving throws</em> against exposure to cold weather.</p>"
    },
    "weight": {
      "value": 7
    },
    "price": 8,
    "contextNotes": [
      {
        "text": "+[[5]] <b>Circumstance</b> vs cold weather effects",
        "target": "savingThrows",
        "subTarget": "fort"
      }
    ],
    "subType": "clothing",
    "slot": "clothing"
  }
}
