{
  "_id": "ocDZAkhlICqCywXH",
  "name": "Outfit, Executioner's",
  "type": "equipment",
  "img": "systems/lf1/icons/items/equipment/cowl.jpg",
  "system": {
    "description": {
      "value": "<p class=\"source\"><b>Source</b> <em>PPZO94102</em></p>\n<p>Typically worn by jailers or executioners, this outfit includes a black woolen shirt, a tunic, pants, a belt, sturdy boots, a balaclava or hood, and a great cloak. This outfit is generally too intimidating and macabre to be worn in polite company.</p>\n<p>Some executioner's outfits prominently bear the symbol of the government or law-enforcing institution the wearer serves, while others are left ragged and stained to appear all the more threatening.</p>"
    },
    "weight": {
      "value": 8
    },
    "price": 5,
    "subType": "clothing",
    "slot": "clothing"
  }
}
