{
  "_id": "GFOu4GXWqb6MJQQJ",
  "name": "Outfit, Monk's",
  "type": "equipment",
  "img": "systems/lf1/icons/items/equipment/belt-girdle.jpg",
  "system": {
    "description": {
      "value": "<p class=\"source\"><b>Source</b> <em>PZO1110</em></p>\n<p>This simple outfit includes sandals, loose breeches, and a loose shirt, and is bound together with sashes. The outfit is designed to give you maximum mobility, and it's made of high-quality fabric. You can conceal small weapons in pockets hidden in the folds, and the sashes are strong enough to serve as short ropes.</p>"
    },
    "weight": {
      "value": 2
    },
    "price": 5,
    "subType": "clothing",
    "slot": "clothing"
  }
}
