{
  "_id": "nmnyrrzzysftbzul",
  "name": "Realgar",
  "type": "loot",
  "img": "systems/lf1/icons/items/inventory/dice.jpg",
  "system": {
    "description": {
      "value": "<p class=\"source\"><b>Source</b> <em>PZO9445</em></p>\n<p><b>Price</b> 3 gp; <b>Weight</b> -</p>\n<p>Realgar, also called ruby of arsenic, is a red crystal useful in creating poisons and medicines. It is commonly purified into arsenic, a crystalline metal known as the \"king of poisons\" for its popularity among nobles seeking to poison their rivals.</p>\n<p>Alchemical Power Component</p>\n<p><b>Doses</b> 1 (3 gp); <b>Spells</b> poison descriptor</p>\n<p>The DC to identify or neutralize spells with the [poison] descriptor is increased by +2.</p>"
    },
    "price": 3,
    "equipped": false,
    "subType": "gear"
  }
}
