{
  "_id": "ovmuotfglyqldnnf",
  "name": "Salt",
  "type": "loot",
  "img": "systems/lf1/icons/items/inventory/dice.jpg",
  "system": {
    "description": {
      "value": "<p class=\"source\"><b>Source</b> <em>PZO9445</em></p>\n<p><b>Price</b> 5 sp; <b>Weight</b> -</p>\n<p>Salt is a vital mineral commodity. It is most commonly used as a desiccant and as a catalyst.</p>\n<p>Alchemical Power Component</p>\n<p><b>Doses</b> 20 (10 gp); <b>Spells</b> necromancy school</p>\n<p>Spells of the necromancy school are cast at +1 caster level for the purpose of effects.</p>"
    },
    "price": 0.5,
    "equipped": false,
    "subType": "gear"
  }
}
