{
  "_id": "siigulmifamqfwvi",
  "name": "Salve, Stonechipper",
  "type": "loot",
  "img": "systems/lf1/icons/items/inventory/dice.jpg",
  "system": {
    "description": {
      "value": "<p class=\"source\"><b>Source</b> <em>PZO1121</em></p>\n<p>This gritty, gray ointment weakens rocky materials. When applied to an object made of stone, it reduces the object's <em>hardness</em> by 3 for 10 minutes. As a <em>standard action</em>, a creature can apply the paste to affect one 5-foot-square or a Medium or smaller creature. The paste only affects <em>hardness</em>, not <em>damage reduction</em> or similar defenses.</p>"
    },
    "weight": {
      "value": 1
    },
    "price": 150,
    "equipped": false,
    "subType": "gear"
  }
}
