{
  "name": "Scissors",
  "type": "loot",
  "img": "systems/lf1/icons/items/inventory/dice.jpg",
  "system": {
    "tags": ["Mundane", "Grooming", "Crafting"],
    "equipped": false,
    "subType": "gear"
  },
  "_id": "MyTszOhmpMPGkDO8"
}
