{
  "_id": "lzupxmcxhslzyiyj",
  "name": "Smokestick",
  "type": "loot",
  "img": "icons/tools/laboratory/bowl-liquid-orange.webp",
  "system": {
    "description": {
      "value": "<p><b>Price</b> 20 gp; <b>Weight</b> 1/2 lb.</p>\n<p>This alchemically treated wooden stick instantly creates thick, opaque smoke when burned. The smoke fills a 10-foot cube (treat the effect as a <em>fog cloud</em> spell, except that a moderate or stronger wind dissipates the smoke in 1 round). The stick is consumed after 1 round, and the smoke dissipates naturally after 1 minute.</p>\n<p>Alchemical Power Component</p>\n<p class=\"source\"><b>Source</b> <em>PZO9410</em></p>\n<p>Smokesticks work best with spells that create clouds or smoke.</p>\n<ul>\n<li><em>Fog Cloud</em> (M): Increase the radius of the cloud by 5 feet.</li>\n<li><em>Obscuring Mist</em> (M): The spell creates a smoky haze instead of mist. This haze cannot be dispersed by fire spells and dissipates naturally after 1 minute.</li>\n<li><em>Pyrotechnics</em> (M): Increase the radius of the cloud by 5 feet and the duration by 2 rounds.</li>\n</ul>"
    },
    "weight": {
      "value": 0.5
    },
    "price": 20,
    "equipped": false,
    "subType": "gear"
  }
}
