{
  "_id": "qmhomyimzbukoafn",
  "name": "Soldier's Uniform",
  "type": "loot",
  "img": "systems/lf1/icons/items/inventory/dice.jpg",
  "system": {
    "description": {
      "value": "<p><b>Price</b> 1 gp; <b>Weight</b> 5 lbs.</p>\n<p>The exact details of this item varies from country to country, but typically includes sturdy boots, leather breeches or a kilt, a belt, a shirt, gloves, a cloak or jacket, and a hat. The belt includes several loops or rings for tying pouches, a <em>waterskin</em>, a scabbard, and similar things a traveling soldier requires.</p>"
    },
    "weight": {
      "value": 5
    },
    "price": 1,
    "equipped": false,
    "subType": "gear"
  }
}
