{
  "_id": "kgbciqsmydgmxjmx",
  "name": "Spyglass",
  "type": "loot",
  "img": "icons/tools/navigation/spyglass-telescope-brass.webp",
  "system": {
    "description": {
      "value": "<p><b>Price</b> 1000 gp; <b>Weight</b> 1 lb.</p>\n<p>Objects viewed through a spyglass are magnified to twice their size. Characters using a spyglass take a -1 penalty on Perception skill checks per 20 feet of distance to the target, if the target is visible.</p>"
    },
    "weight": {
      "value": 1
    },
    "price": 1000,
    "equipped": false,
    "subType": "gear"
  }
}
