{
  "_id": "fcqogbwybinvqxht",
  "name": "Tobacco",
  "type": "loot",
  "img": "icons/commodities/materials/bowl-powder-grey.webp",
  "system": {
    "description": {
      "value": "<p class=\"source\"><b>Source</b> <em>PZO9410</em></p>\n<p>These crushed and shredded leaves range in color from peppery red to black; users can either smoke or chew them. Tobacco users experience a certain level of calm and are more easily able to shrug off hunger pangs. Tobacco is addictive (<em>Fort</em> DC 10 to resist), and long-term users suffer <em>Constitution damage</em>.</p>"
    },
    "weight": {
      "value": 2
    },
    "price": 1,
    "equipped": false,
    "subType": "gear"
  }
}
