{
  "_id": "urnyegqxtbxjyokm",
  "name": "Tools, Thieves' (Common)",
  "type": "loot",
  "img": "systems/lf1/icons/items/inventory/lockpick.jpg",
  "system": {
    "description": {
      "value": "<p>This kit contains lockpicks and other tools you need to use the @UUID[Compendium.lf1.lf1-rules.x175kVqUfLGPt8tC.JournalEntryPage.cSdUATLHBFfw3v4s]{Disable Device} skill. Without these tools, you must use improvised tools, and you take a -2 circumstance penalty on @UUID[Compendium.lf1.lf1-rules.x175kVqUfLGPt8tC.JournalEntryPage.cSdUATLHBFfw3v4s]{Disable Device} checks.</p>"
    },
    "weight": {
      "value": 1
    },
    "price": 30,
    "equipped": false,
    "subType": "gear"
  }
}
