{
  "_id": "cnigclhyuuhkrted",
  "name": "Trap, Decoy Tripwire",
  "type": "loot",
  "img": "systems/lf1/icons/items/inventory/dice.jpg",
  "system": {
    "description": {
      "value": "<p><b>Price</b> 25 gp; <b>Weight</b> &#8211;</p>\n<p><b>Type</b> mechanical; <em>Perception</em> DC 15; <em>Sense Motive</em> DC 20</p>\n<p>EFFECTS</p>\n<p>Trap <em>Perception</em> DC +3, CR Modifier: +1</p>"
    },
    "price": 25,
    "equipped": false,
    "subType": "gear"
  }
}
