{
  "_id": "odosbxmfnybnudah",
  "name": "Vial, Iron",
  "type": "loot",
  "img": "systems/lf1/icons/items/inventory/dice.jpg",
  "system": {
    "description": {
      "value": "<p class=\"source\"><b>Source</b> <em>PZO9410</em></p>\n<p>This metal <em>potion</em> bottle has <em>hardness</em> 5, 3 <em>hit points</em>, and break DC 14.</p>"
    },
    "weight": {
      "value": 1
    },
    "price": 0.1,
    "equipped": false,
    "subType": "gear"
  }
}
