{
  "_id": "nlAzay8CayaK7699",
  "name": "Whetstone",
  "type": "loot",
  "img": "icons/commodities/metal/ingot-worn-iron.webp",
  "system": {
    "description": {
      "value": "<p>Source <a href=\"http://paizo.com/products/btpy8tmc?Pathfinder-Roleplaying-Game-Ultimate-Equipment\">Ultimate Equipment pg. 58</a>, <a href=\"http://paizo.com/store/downloads/pathfinder/pathfinderCompanion/pathfinderRPG/v5748btpy8dmf\">Adventurer's Armory pg. 19</a>, <a href=\"http://paizo.com/pathfinderRPG/v5748btpy88yj\">PRPG Core Rulebook pg. 158</a><br>Price 2 cp; Weight 1 lb.<br>Category Adventuring Gear</p>\n<h3>Description</h3>\n<p>A whetstone allows you to sharpen a blade by sliding it against the stone at a precise angle. Honing a blade with a whetstone requires about 15 minutes of work and grants the weapon a +1 bonus on your damage roll the first time you hit with it. This only works on nonmagical blades.</p>"
    },
    "weight": {
      "value": 1
    },
    "price": 0.02,
    "equipped": false,
    "subType": "gear"
  }
}
