{
  "_id": "vlzmimW5X2XPT6Gu",
  "name": "Wrist sheath (Spring loaded)",
  "type": "loot",
  "img": "icons/equipment/wrist/bracer-shadow.webp",
  "system": {
    "description": {
      "value": "<p>Source <a href=\"http://paizo.com/store/downloads/pathfinder/pathfinderCompanion/pathfinderRPG/v5748btpy8dmf\">Adventurer's Armory pg. 19</a><br>Price 5 gp; Weight 1 lb.<br>Category Adventuring Gear</p>\n<h3>Description</h3>\n<p>This item works like a standard wrist sheath, but releasing an item from it is a swift action. Preparing the sheath for this use requires cranking the sheath’s tiny gears and springs into place (a full-round action that provokes an attack of opportunity).</p>"
    },
    "weight": {
      "value": 1
    },
    "price": 5,
    "equipped": false,
    "subType": "gear"
  }
}
