{
  "_id": "pdQNisffDmQqAvsK",
  "name": "Abadar's Boon",
  "type": "feat",
  "img": "systems/lf1/icons/spells/light-royal-1.jpg",
  "system": {
    "description": {
      "value": "<p>You can spend 1 minute meditating on and communing with a masterwork object of any type. At the end of this time, you can speak with that item. This functions as per @Compendium[lf1.spells.wgm8mm1za909pwch]{Stone Tell}, except that it works with masterwork goods, and the item cannot tell you what it covers or conceals if that question is not applicable to it.</p>\n<p>You can speak with items in this way for a number of minutes equal to your oracle level. This duration does not need to be consecutive, but it must be used in 1-minute increments.</p>"
    },
    "actions": [
      {
        "_id": "u8vwsde0ynp9rla9",
        "name": "Use",
        "img": "systems/lf1/icons/spells/light-royal-1.jpg",
        "activation": {
          "type": "minute",
          "unchained": {
            "type": "minute"
          }
        },
        "duration": {
          "value": "1",
          "units": "minute"
        },
        "target": {
          "value": "masterwork weapon held"
        },
        "range": {
          "units": "seeText"
        },
        "actionType": ""
      }
    ],
    "uses": {
      "per": "day",
      "maxFormula": "@classes.oracle.level"
    },
    "tag": "classFeat_abadarsBoon",
    "useCustomTag": true,
    "subType": "classFeat",
    "associations": {
      "classes": ["Oracle"]
    },
    "abilityType": "sp"
  }
}
