{
  "_id": "AkNCupA62JMYJZVn",
  "name": "Abnormal Anatomy",
  "type": "feat",
  "img": "systems/lf1/icons/skills/red_05.jpg",
  "system": {
    "description": {
      "value": "<p>At 12th level, your internal anatomy shifts and changes, giving you a 50% chance to negate any critical hit or sneak attack that hits you. The damage is instead rolled normally.</p>"
    },
    "tag": "classFeat_abnormalAnatomy",
    "useCustomTag": true,
    "subType": "classFeat",
    "associations": {
      "classes": ["Bloodrager"]
    },
    "abilityType": "su"
  }
}
