{
  "_id": "aixc3kURZ8Svkly4",
  "name": "Absentia",
  "type": "feat",
  "img": "systems/lf1/icons/spells/rip-sky-1.jpg",
  "system": {
    "description": {
      "value": "<p><b>Element</b> void; <b>Type</b> utility (Sp); <b>Level</b> 4; <b>Burn</b> 0<br><b>Prerequisite</b> emptiness</p>\n<p>You are always under the effect of @Compendium[lf1.spells.awia42zci8nufpfl]{Nondetection} as if you had cast it on yourself. If the effect is dispelled, you can call if forth again as a standard action. You can accept 1 point of burn to grant a creature touched the effects of nondetection.</p>"
    },
    "actions": [
      {
        "_id": "ecxu8po6unlza928",
        "name": "Use",
        "img": "systems/lf1/icons/spells/rip-sky-1.jpg",
        "activation": {
          "type": "standard",
          "unchained": {
            "cost": 2,
            "type": "action"
          }
        },
        "duration": {
          "value": "@classes.kineticist.level",
          "units": "hour"
        },
        "target": {
          "value": "creature touched"
        },
        "range": {
          "units": "touch"
        },
        "actionType": ""
      }
    ],
    "tag": "classFeat_absentia",
    "useCustomTag": true,
    "subType": "classFeat",
    "associations": {
      "classes": ["Kineticist"]
    },
    "abilityType": "sp"
  }
}
