{
  "_id": "w4Oc5jzEpwpjPOp0",
  "name": "Abundant Step (UC)",
  "type": "feat",
  "img": "systems/lf1/icons/skills/fire_07.jpg",
  "system": {
    "description": {
      "value": "<p>A monk with this ki power can slip magically between spaces, as if using the spell dimension door. Using this ability is a move action that consumes 2 points from his ki pool. The monk's caster level for this effect is equal to his monk level. He cannot take other creatures with him when he uses this ability.</p>\n<p>A monk must be at least 8th level before selecting this ki power.</p>"
    },
    "actions": [
      {
        "_id": "8deuajglxr568jhx",
        "name": "Use",
        "img": "systems/lf1/icons/skills/fire_07.jpg",
        "activation": {
          "type": "move"
        },
        "duration": {
          "units": "inst"
        },
        "uses": {
          "autoDeductChargesCost": "2"
        },
        "actionType": ""
      }
    ],
    "tag": "classFeat_abundantStepUc",
    "useCustomTag": true,
    "subType": "classFeat",
    "associations": {
      "classes": ["Monk (Unchained)"]
    },
    "abilityType": "su"
  }
}
