{
  "_id": "4zVndIJ8NMWWzl1T",
  "name": "AC Bonus (MNK)",
  "type": "feat",
  "img": "systems/lf1/icons/spells/fog-air-1.jpg",
  "system": {
    "description": {
      "value": "<p>When unarmored and unencumbered, the monk adds his <em>Wisdom</em> bonus (if any) to his <em>AC</em> and his <em>CMD</em>. In addition, a monk gains a +1 bonus to <em>AC</em> and <em>CMD</em> at 4th level. This bonus increases by 1 for every four monk levels thereafter, up to a maximum of +5 at 20th level.</p>\n<p>These bonuses to <em>AC</em> apply even against touch attacks or when the monk is <em>flat-footed</em>. He loses these bonuses <span class=\"notImp\" title=\"Not Implemented\">when he is immobilized or <em>helpless</em></span>, when he wears any <em>armor</em>, when he carries a shield, or when he carries a medium or heavy load.</p>"
    },
    "actions": [
      {
        "_id": "jl1dycfznzrgzt7h",
        "name": "Use",
        "img": "systems/lf1/icons/spells/fog-air-1.jpg",
        "activation": {
          "type": "passive",
          "unchained": {
            "type": "passive"
          }
        },
        "actionType": ""
      }
    ],
    "changes": [
      {
        "_id": "c1v782dm",
        "formula": "(@shield.type < 1 && @armor.type < 1 && @attributes.encumbrance.level < 1 ? 1 : 0) * (@abilities.wis.mod + floor(@classes.monk.level / 4))",
        "subTarget": "ac",
        "modifier": "untyped"
      },
      {
        "_id": "3n8ckhwe",
        "formula": "(@shield.type < 1 && @armor.type < 1 && @attributes.encumbrance.level < 1 ? 1 : 0) * (@abilities.wis.mod + floor(@classes.monk.level / 4))",
        "subTarget": "cmd",
        "modifier": "untyped"
      }
    ],
    "tag": "classFeat_acBonusMnk",
    "useCustomTag": true,
    "subType": "classFeat",
    "associations": {
      "classes": ["Monk"]
    },
    "abilityType": "ex"
  }
}
