{
  "_id": "Z53orCz6KeTS5LOb",
  "name": "AC Bonus (BRA)",
  "type": "feat",
  "img": "systems/lf1/icons/feats/dodge.jpg",
  "system": {
    "description": {
      "value": "<p>At 4th level, when a brawler wears light or no armor, she gains a +1 dodge bonus to AC and CMD. This bonus increases by 1 at 9th, 13th, and 18th levels.<p>These bonuses to AC apply against touch attacks. She loses these bonuses while immobilized or helpless, wearing medium or heavy armor, or carrying a medium or heavy load.</p>"
    },
    "actions": [
      {
        "_id": "gjhchr660b8hm20w",
        "name": "Use",
        "img": "systems/lf1/icons/feats/dodge.jpg",
        "activation": {
          "type": "passive",
          "unchained": {
            "type": "passive"
          }
        },
        "actionType": ""
      }
    ],
    "changes": [
      {
        "_id": "ipjt76kz",
        "formula": "(@armor.type < 2 && @attributes.encumbrance.level < 1 ? 1 : 0) * clamped(floor((@classes.brawler.level - 1) / 4), 0, 4)",
        "subTarget": "ac",
        "modifier": "dodge"
      },
      {
        "_id": "tvl84rm2",
        "formula": "(@armor.type < 2 && @attributes.encumbrance.level < 1 ? 1 : 0) * clamped(floor((@classes.brawler.level - 1) / 4), 0, 4)",
        "subTarget": "cmd",
        "modifier": "dodge"
      }
    ],
    "tag": "classFeat_acBonusBra",
    "useCustomTag": true,
    "subType": "classFeat",
    "associations": {
      "classes": ["Brawler"]
    },
    "abilityType": "ex"
  }
}
