{
  "_id": "2rVV74J1UjULap6s",
  "name": "Acceleration of Form",
  "type": "feat",
  "img": "systems/lf1/icons/items/weapons/kunai.png",
  "system": {
    "description": {
      "value": "<p>A ninja with this trick can spend 1 ki point as a standard action to gain the benefits of @Compendium[lf1.spells.r190q9zxmei82lmv]{Displacement} and @Compendium[lf1.spells.s9amdo5398alb5p0]{Haste} for 1 round per 2 ninja levels.</p>"
    },
    "actions": [
      {
        "_id": "z1isxa69p1ssfxhv",
        "name": "Use",
        "img": "systems/lf1/icons/items/weapons/kunai.png",
        "activation": {
          "type": "standard",
          "unchained": {
            "cost": 2,
            "type": "action"
          }
        },
        "duration": {
          "value": "floor(@classes.ninja.level / 2)",
          "units": "round"
        },
        "target": {
          "value": "self"
        },
        "range": {
          "units": "personal"
        },
        "actionType": ""
      }
    ],
    "tag": "classFeat_accelerationOfForm",
    "useCustomTag": true,
    "subType": "classFeat",
    "associations": {
      "classes": ["Ninja"]
    },
    "abilityType": "su"
  }
}
