{
  "_id": "pUEihPkSss2Jxgdr",
  "name": "Accustomed to Awfulness",
  "type": "feat",
  "img": "systems/lf1/icons/skills/green_22.jpg",
  "system": {
    "description": {
      "value": "<p>At 3rd level, you become immune to the <em>sickened</em> condition and gain a +4 bonus on all <em>saving throws</em> against effects that cause nausea or <em>disease</em>. At 9th level, you become immune to the <em>nauseated</em> condition and to the debilitating effects of <em>disease</em> (but you can still be a carrier of diseases).</p>"
    },
    "actions": [
      {
        "_id": "zn404j5obxipj6ja",
        "name": "Use",
        "img": "systems/lf1/icons/skills/green_22.jpg",
        "activation": {
          "type": "passive",
          "unchained": {
            "type": "passive"
          }
        },
        "actionType": ""
      }
    ],
    "tag": "classFeat_accustomedToAwfulness",
    "useCustomTag": true,
    "subType": "classFeat",
    "associations": {
      "classes": ["Sorcerer"]
    },
    "abilityType": "ex"
  }
}
