{
  "_id": "NpZbdMOBzmmIFRNx",
  "name": "Acidic Ray",
  "type": "feat",
  "img": "systems/lf1/icons/spells/beam-acid-1.jpg",
  "system": {
    "description": {
      "value": "<p>Starting at 1st level, you can fire an acidic ray as a standard action, targeting any foe within 30 feet as a ranged touch attack. The acidic ray deals 1d6 points of acid damage + 1 for every two sorcerer levels you possess. You can use this ability a number of times per day equal to 3 + your <em>Charisma</em> modifier.</p>"
    },
    "actions": [
      {
        "_id": "lgiagu5ni7fdgyoc",
        "name": "Use",
        "img": "systems/lf1/icons/spells/beam-acid-1.jpg",
        "activation": {
          "type": "standard",
          "unchained": {
            "cost": 2,
            "type": "action"
          }
        },
        "duration": {
          "units": "inst"
        },
        "target": {
          "value": "one creature"
        },
        "range": {
          "value": "30",
          "units": "spec"
        },
        "actionType": "rsak",
        "damage": {
          "parts": [
            {
              "formula": "1d6 + (floor(@classes.sorcerer.level / 2))",
              "type": {
                "values": ["acid"],
                "custom": ""
              }
            }
          ]
        }
      }
    ],
    "uses": {
      "per": "day",
      "maxFormula": "3 + @abilities.cha.mod"
    },
    "tag": "classFeat_acidicRay",
    "useCustomTag": true,
    "subType": "classFeat",
    "associations": {
      "classes": ["Sorcerer"]
    },
    "abilityType": "sp"
  }
}
