{
  "_id": "bDES4OvFrtuMmPsW",
  "name": "Acid Jet",
  "type": "feat",
  "img": "systems/lf1/icons/spells/runes-blue-2.jpg",
  "system": {
    "description": {
      "value": "<p>The arcanist can unleash a jet of acid by expending 1 point from her arcane reservoir and making a ranged touch attack against any one target within 30 feet. If the attack hits, it deals 1d6 points of acid damage + the arcanist’s Charisma modifier, plus an additional 1d6 points of acid damage for every 2 levels beyond 1st (to a maximum of 10d6 at 19th level). The target is also sickened for 1d4 rounds. It can attempt a Fortitude saving throw to negate the sickened condition.</p>"
    },
    "tags": ["Arcanist Exploit"],
    "actions": [
      {
        "_id": "vtiozu77j6nj9nzu",
        "name": "Use",
        "img": "systems/lf1/icons/spells/runes-blue-2.jpg",
        "activation": {
          "type": "standard",
          "unchained": {
            "cost": 2,
            "type": "action"
          }
        },
        "duration": {
          "units": "inst"
        },
        "target": {
          "value": "one creature"
        },
        "range": {
          "value": "30",
          "units": "ft"
        },
        "actionType": "rsak",
        "damage": {
          "parts": [
            {
              "formula": "(ceil(@classes.arcanist.level / 2))d6 + @abilities.cha.mod",
              "type": {
                "values": ["acid"],
                "custom": ""
              }
            }
          ]
        },
        "ability": {
          "attack": "dex"
        },
        "save": {
          "type": "fort",
          "description": "Fortitude negates sickened"
        }
      }
    ],
    "tag": "classFeat_acidJet",
    "useCustomTag": true,
    "subType": "classFeat",
    "associations": {
      "classes": ["Arcanist"]
    },
    "abilityType": "su"
  }
}
