{
  "_id": "6UJBCfrtkq16Jkwi",
  "name": "Action Before Thought (UC)",
  "type": "feat",
  "img": "systems/lf1/icons/skills/fire_07.jpg",
  "system": {
    "description": {
      "value": "<p>A monk with this ability can spend 2 ki points as a free action as part of rolling initiative to roll twice on the initiative check and take the higher result.</p>\n<p>A monk must be at least 6th level before selecting this ki power.</p>"
    },
    "actions": [
      {
        "_id": "c4p7zhztgzoqtqux",
        "name": "Use",
        "img": "systems/lf1/icons/skills/fire_07.jpg",
        "activation": {
          "type": "free",
          "unchained": {
            "type": "free"
          }
        },
        "uses": {
          "autoDeductChargesCost": "2"
        },
        "actionType": ""
      }
    ],
    "tag": "classFeat_actionBeforeThoughtUc",
    "useCustomTag": true,
    "subType": "classFeat",
    "associations": {
      "classes": ["Monk (Unchained)"]
    },
    "abilityType": "ex"
  }
}
