{
  "_id": "DuAcRnjBmOADOvj2",
  "name": "Added Summonings",
  "type": "feat",
  "img": "systems/lf1/icons/skills/violet_22.jpg",
  "system": {
    "description": {
      "value": "<p>At 15th level, whenever you summon a creature with the demon subtype or the fiendish template using a <em>summon monster</em> spell, you summon one additional creature of the same kind.</p>"
    },
    "actions": [
      {
        "_id": "o982lppomst4200m",
        "name": "Use",
        "img": "systems/lf1/icons/skills/violet_22.jpg",
        "activation": {
          "type": "passive",
          "unchained": {
            "type": "passive"
          }
        },
        "actionType": ""
      }
    ],
    "tag": "classFeat_addedSummonings",
    "useCustomTag": true,
    "subType": "classFeat",
    "associations": {
      "classes": ["Sorcerer"]
    },
    "abilityType": "su"
  }
}
