{
  "_id": "RPiBBcYgbYXH9H58",
  "name": "Aerial Adaptation",
  "type": "feat",
  "img": "systems/lf1/icons/spells/wind-sky-3.jpg",
  "system": {
    "description": {
      "value": "<p><b>Element</b> air; <b>Type</b> utility (Sp); <b>Level</b> 1; <b>Burn</b> 0</p>\n<p>You are immune to altitude sickness, and gain an amount of electricity resistance equal to twice your current amount of burn.</p>"
    },
    "tag": "classFeat_aerialAdaptation",
    "useCustomTag": true,
    "subType": "classFeat",
    "associations": {
      "classes": ["Kineticist"]
    },
    "abilityType": "sp"
  }
}
