{
  "_id": "MR94FlKbi40LnCDQ",
  "name": "Agitating Cognizance",
  "type": "feat",
  "img": "systems/lf1/icons/spells/slice-spirit-3.jpg",
  "system": {
    "description": {
      "value": "<p>Whenever you are not maintaining an altered form via metamorphosis (including the 24 hours normally required to assume a new form), your maximum number of points in your phrenic pool increases by 1.</p>"
    },
    "tag": "classFeat_agitatingCognizance",
    "useCustomTag": true,
    "subType": "classFeat",
    "associations": {
      "classes": ["Psychic"]
    },
    "abilityType": "su"
  }
}
