{
  "_id": "gDHMXzZhprJpf0OJ",
  "name": "Alter Self",
  "type": "feat",
  "img": "systems/lf1/icons/skills/blue_34.jpg",
  "system": {
    "description": {
      "value": "<p>At 15th level, you can change your shape into that of any <em>humanoid</em> at will. This ability acts like @Compendium[lf1.spells.kouqz0pm1xl8xilm]{Alter Self}, except you may remain in a chosen form as long as you want.</p>"
    },
    "actions": [
      {
        "_id": "9ly2zkl7msrj7zby",
        "name": "Use",
        "img": "systems/lf1/icons/skills/blue_34.jpg",
        "activation": {
          "type": "standard",
          "unchained": {
            "cost": 2,
            "type": "action"
          }
        },
        "duration": {
          "units": "seeText"
        },
        "target": {
          "value": "self"
        },
        "range": {
          "units": "personal"
        },
        "actionType": ""
      }
    ],
    "uses": {
      "per": "unlimited"
    },
    "tag": "classFeat_alterSelf",
    "useCustomTag": true,
    "subType": "classFeat",
    "associations": {
      "classes": ["Sorcerer"]
    },
    "abilityType": "sp"
  }
}
