{
  "_id": "69dUpKtkRF0zv5xT",
  "name": "Animal Patron",
  "type": "feat",
  "img": "systems/lf1/icons/skills/shadow_20.jpg",
  "system": {
    "description": {
      "value": "<p>The vigilante gains the benefits of one <a href=\"https://www.aonprd.com/ShifterAspects.aspx?ItemName=ALL\">minor shifter aspect</a> for a number of minutes per day equal to 1 + half his vigilante level. He can shift into this minor aspect as a swift action.</p>\n<p>The vigilante must be at least 5th level to select this talent.</p>"
    },
    "tag": "classFeat_animalPatron",
    "useCustomTag": true,
    "subType": "classFeat",
    "associations": {
      "classes": ["Vigilante"]
    },
    "abilityType": "ex"
  }
}
