{
  "_id": "OkCDOBum0Or5rHFO",
  "name": "Animals Patron",
  "type": "feat",
  "img": "systems/lf1/icons/feats/improved-familiar.jpg",
  "system": {
    "description": {
      "value": "<ul>\n<li>2nd — @Compendium[lf1.spells.pg7dbmuuaksxhp3v]{Charm Animal}</li>\n<li>4th — @Compendium[lf1.spells.ct9fhh8uawn8e4md]{Speak with Animals}</li>\n<li>6th — @Compendium[lf1.spells.io2yjhr42chvcfb4]{Dominate Animal}</li>\n<li>8th — @Compendium[lf1.spells.choriern682hgptb]{Summon Nature's Ally IV}</li>\n<li>10th — @Compendium[lf1.spells.29cfi65seiajh5qv]{Animal Growth}</li>\n<li>12th — @Compendium[lf1.spells.76t09cafayrw13ux]{Antilife Shell}</li>\n<li>14th — @Compendium[lf1.spells.br37848gchetel0q]{Beast Shape IV}</li>\n<li>16th — @Compendium[lf1.spells.3ah9mmg0odateh8l]{Animal Shapes}</li>\n<li>18th — @Compendium[lf1.spells.x6y3kyvxf8s31jhy]{Summon Nature's Ally IX}</li>\n</ul>"
    },
    "tag": "classFeat_animalsPatron",
    "useCustomTag": true,
    "subType": "classFeat",
    "associations": {
      "classes": ["Witch"]
    }
  }
}
