{
  "_id": "4FYrGdeHYdDoOG0Q",
  "name": "Any Guise",
  "type": "feat",
  "img": "systems/lf1/icons/feats/persuasive.jpg",
  "system": {
    "description": {
      "value": "<p>A vigilante can use his everyman social talent to disguise himself as any specific person, even a king or high priest. Furthermore, if the actual individual wouldn’t normally be able to be found via magic (such as by being dead or protected from divinations designed to locate the individual), such divinations always find the vigilante instead.</p>\n<p>A vigilante must be at least 17th level and have the everyman social talent to select this talent.</p>"
    },
    "tag": "classFeat_anyGuise",
    "useCustomTag": true,
    "subType": "classFeat",
    "associations": {
      "classes": ["Vigilante"]
    },
    "abilityType": "su"
  }
}
