{
  "_id": "6z4HpnEvEPsNKnSp",
  "name": "Arcane Dealer",
  "type": "feat",
  "img": "systems/lf1/icons/spells/enchant-red-3.jpg",
  "system": {
    "description": {
      "value": "<p>The magus gains the Deadly Dealer feat, even if he does not meet the prerequisites. He can use his arcane pool to grant a deck of cards an enhancement bonus as though it were a ranged weapon with 54 pieces of ammunition. The magus must use either Arcane Strike or his arcane pool to enhance the cards in order to use them as weapons.</p>\n<p>The magus must be at least 6th level before selecting this arcana.</p>"
    },
    "tag": "classFeat_arcaneDealer",
    "useCustomTag": true,
    "subType": "classFeat",
    "associations": {
      "classes": ["Magus"]
    },
    "abilityType": "su"
  }
}
