{
  "_id": "qgr0VkVJB3xgbbqd",
  "name": "Arcane Bond (SOR)",
  "type": "feat",
  "img": "systems/lf1/icons/spells/enchant-sky-3.jpg",
  "system": {
    "description": {
      "value": "<p>At 1st level, you gain an <em>arcane bond</em>, as a wizard equal to your sorcerer level. Your sorcerer levels stack with any wizard levels you possess when determining the powers of your familiar or bonded object. Once per day, your bonded item allows you to cast any one of your spells known (unlike a wizard’s bonded item, which allows him to cast any one spell in his spellbook). This ability does not allow you to have both a familiar and a bonded item.</p>"
    },
    "tag": "classFeat_arcaneBondSor",
    "useCustomTag": true,
    "subType": "classFeat",
    "associations": {
      "classes": ["Sorcerer"]
    },
    "abilityType": "su"
  }
}
