{
  "_id": "j4uzXCLo91dJszhU",
  "name": "Aristocracy Subdomain",
  "type": "feat",
  "img": "systems/lf1/icons/skills/yellow_08.jpg",
  "system": {
    "description": {
      "value": "<p><b>Replacement Domain Spells:</b></p>\n<ul>\n<li>3rd—@Compendium[lf1.spells.nznqmwpavfediten]{Enter Image}</li>\n<li>9th—@Compendium[lf1.spells.xuuzj9lr2xbwaim4]{Overwhelming Presence}</li>\n</ul>"
    },
    "tag": "classFeat_aristocracySubdomain",
    "useCustomTag": true,
    "subType": "classFeat",
    "associations": {
      "classes": ["Cleric"]
    }
  }
}
