{
  "_id": "44cd1ZCX2puZFoNC",
  "name": "Artifice Blessing: Crafter's Wrath",
  "type": "feat",
  "img": "systems/lf1/icons/spells/enchant-eerie-2.jpg",
  "system": {
    "description": {
      "value": "<p>At 1st level, you can touch one melee weapon and grant it greater power to harm and destroy crafted objects. For 1 minute, whenever this weapon deals damage to constructs or objects, it bypasses hardness and damage reduction.</p>"
    },
    "actions": [
      {
        "_id": "21ubt9x7ui7slupo",
        "name": "Use",
        "img": "systems/lf1/icons/spells/enchant-eerie-2.jpg",
        "activation": {
          "type": "standard",
          "unchained": {
            "cost": 2,
            "type": "action"
          }
        },
        "duration": {
          "value": "1",
          "units": "minute"
        },
        "target": {
          "value": "weapon touched"
        },
        "range": {
          "units": "touch"
        },
        "actionType": ""
      }
    ],
    "tag": "classFeat_artificeBlessingCraftersWrath",
    "useCustomTag": true,
    "subType": "classFeat",
    "associations": {
      "classes": ["Warpriest"]
    }
  }
}
