{
  "_id": "KR6Hhz4S7ZIegQCx",
  "name": "Ascension",
  "type": "feat",
  "img": "systems/lf1/icons/spells/haste-sky-3.jpg",
  "system": {
    "description": {
      "value": "<p>At 20th level, you become infused with the power of the heavens. You gain:</p>\n<ul>\n<li>Immunity to acid, cold, and petrification</li>\n<li>Resist electricity 10</li>\n<li>Resist fire 10</li>\n<li>+4 racial bonus on saves against poison</li>\n<li>Unlimited use of the Wings of Heaven ability</li>\n<li>the ability to speak with any creature that has a language (as per the @Compendium[lf1.spells.m1rmcpcaixcpz9ib]{Tongues} spell).</li>\n</ul>"
    },
    "actions": [
      {
        "_id": "bg64b2v1i7cxbme8",
        "name": "Use",
        "img": "systems/lf1/icons/spells/haste-sky-3.jpg",
        "activation": {
          "type": "passive",
          "unchained": {
            "type": "passive"
          }
        },
        "actionType": ""
      }
    ],
    "tag": "classFeat_ascension",
    "useCustomTag": true,
    "subType": "classFeat",
    "associations": {
      "classes": ["Sorcerer"]
    },
    "abilityType": "su"
  }
}
