{
  "_id": "dSieXFuoMusIuMN8",
  "name": "Ash Subdomain",
  "type": "feat",
  "img": "systems/lf1/icons/skills/blood_05.jpg",
  "system": {
    "description": {
      "value": "<p><b>Replacement Domain Spells:</b></p>\n<ul>\n<li>7th—@Compendium[lf1.spells.sxyiwj0z95piv96i]{Disintegrate}</li>\n<li>9th—@Compendium[lf1.spells.qk3oeq4awbc1smjw]{Fiery Body}</li>\n</ul>"
    },
    "tag": "classFeat_ashSubdomain",
    "useCustomTag": true,
    "subType": "classFeat",
    "associations": {
      "classes": ["Cleric"]
    }
  }
}
