{
  "name": "Assasinate (SLA)",
  "type": "feat",
  "img": "systems/lf1/icons/items/weapons/rhoka.png",
  "system": {
    "description": {
      "value": "<p><strong>Source</strong> Advanced Class Guide pg. 54</p><p>A slayer with this advanced talent can kill foes that are unable to defend themselves. To attempt to assassinate a target, the slayer must first study his target for 1 round as a standard action. On the following round, if the slayer makes a sneak attack against the target and that target is denied its Dexterity bonus to AC, the sneak attack has the additional effect of possibly killing the target. This attempt automatically fails if the target recognizes the slayer as an enemy. If the sneak attack is successful, the target must attempt a Fortitude saving throw with a DC equal to 10 + 1/2 the slayer’s level + the slayer’s Intelligence modifier. If the target fails this save, it dies; otherwise, the target takes the sneak attack damage as normal and is then immune to that slayer’s assassinate ability for 24 hours.</p>"
    },
    "tags": ["Slayer Talent, Advanced", "Sneak Attack"],
    "actions": [
      {
        "_id": "ty8DRQRsqsVJrye8",
        "name": "Study",
        "img": "systems/lf1/icons/items/weapons/rhoka.png",
        "activation": {
          "type": "standard",
          "unchained": {
            "cost": 2,
            "type": "action"
          }
        },
        "duration": {
          "value": "1",
          "units": "round"
        },
        "actionType": ""
      },
      {
        "_id": "TfpyQ5ktFFp0e354",
        "name": "Assasinate",
        "img": "systems/lf1/icons/items/weapons/rhoka.png",
        "activation": {
          "type": "nonaction",
          "unchained": {
            "type": "nonaction"
          }
        },
        "actionType": "save",
        "save": {
          "dc": "10 + floor(@classes.slayer.level / 2) + @abilities.int.mod",
          "type": "fort",
          "description": "Fortitude negates"
        },
        "effectNotes": ["If the target fails it's save, it dies."]
      }
    ],
    "tag": "classFeat_assasinateSla",
    "useCustomTag": true,
    "subType": "classFeat",
    "associations": {
      "classes": ["Slayer"]
    },
    "abilityType": "ex"
  },
  "_id": "4OiltCz1tkgXU7C7"
}
