{
  "_id": "Jh28JnIA7utHUYKF",
  "name": "Atavism Totem, Lesser",
  "type": "feat",
  "img": "systems/lf1/icons/feats/deafening-critical.jpg",
  "system": {
    "description": {
      "value": "<p>The barbarian gains a bite attack; if she already has a bite attack, it deals damage as if the barbarian were one size larger.</p>"
    },
    "tag": "classFeat_atavismTotemLesser",
    "useCustomTag": true,
    "subType": "classFeat",
    "associations": {
      "classes": ["Barbarian", "Skald"]
    },
    "abilityType": "su"
  }
}
