{
  "_id": "Wkv124hVPATT35bm",
  "name": "Aura",
  "type": "feat",
  "img": "systems/lf1/icons/skills/blue_35.jpg",
  "system": {
    "description": {
      "value": "<p>A cleric of a chaotic, evil, good, or lawful deity has a particularly powerful aura corresponding to the deity's alignment (see @Compendium[lf1.spells.tr7m97npkbgm4wp7]{Detect Evil} for details).</p>"
    },
    "tag": "classFeat_aura",
    "useCustomTag": true,
    "subType": "classFeat",
    "associations": {
      "classes": ["Cleric"]
    },
    "abilityType": "ex"
  }
}
