{
  "_id": "75Y2PY8Uha3o0fHE",
  "name": "Aura of Despair",
  "type": "feat",
  "img": "systems/lf1/icons/skills/affliction_03.jpg",
  "system": {
    "description": {
      "value": "<p>At 8th level, you can emit a 30-foot aura of despair for a number of rounds per day equal to your wizard level. Enemies within this aura take a –2 penalty on ability checks, attack rolls, damage rolls, <em>saving throw</em>s, and skill checks. These rounds do not need to be consecutive. This is a mind-affecting effect.</p>"
    },
    "actions": [
      {
        "_id": "gjirq0jlenci26eu",
        "name": "Use",
        "img": "systems/lf1/icons/skills/affliction_03.jpg",
        "activation": {
          "type": "free",
          "unchained": {
            "type": "free"
          }
        },
        "duration": {
          "value": "1",
          "units": "round"
        },
        "range": {
          "units": "seeText"
        },
        "actionType": ""
      }
    ],
    "uses": {
      "per": "day",
      "maxFormula": "@classes.wizard.level"
    },
    "tag": "classFeat_auraOfDespair",
    "useCustomTag": true,
    "subType": "classFeat",
    "associations": {
      "classes": ["Wizard"]
    },
    "abilityType": "su"
  }
}
