{
  "_id": "9PPcIle33hRL5rEx",
  "name": "Aura of Bedlam",
  "type": "feat",
  "img": "systems/lf1/icons/spells/runes-magenta-2.jpg",
  "system": {
    "description": {
      "value": "<p>At 8th level, you can emit a 30-foot-radius aura of chaos and strife for 1 round per cleric level. Enemies in the aura take a –4 penalty on concentration checks and are treated as experiencing vigorous motion (concentration DC = 10 + spell level) when attempting to cast spells. This penalty increases by 1 for every 2 cleric levels you have beyond 8th. This is a mind-affecting effect. These rounds need not be consecutive.</p>\n<p>This power replaces the Chaos Blade power of the Chaos Domain.</p>"
    },
    "actions": [
      {
        "_id": "57nh55p365lwym44",
        "name": "Use",
        "img": "systems/lf1/icons/spells/runes-magenta-2.jpg",
        "activation": {
          "type": "swift",
          "unchained": {
            "type": "action"
          }
        },
        "duration": {
          "value": "1",
          "units": "round"
        },
        "target": {
          "value": "self"
        },
        "range": {
          "value": "30",
          "units": "ft"
        },
        "actionType": ""
      }
    ],
    "uses": {
      "per": "day",
      "maxFormula": "@classes.cleric.level"
    },
    "tag": "classFeat_auraOfBedlam",
    "useCustomTag": true,
    "subType": "classFeat",
    "associations": {
      "classes": ["Cleric"]
    },
    "abilityType": "su"
  }
}
