{
  "_id": "LkbGAZaa2KDrnS89",
  "name": "Aura of Depravity",
  "type": "feat",
  "img": "systems/lf1/icons/spells/horror-red-1.jpg",
  "system": {
    "description": {
      "value": "<p>At 17th level, an antipaladin gains DR 5/good. Each enemy within 10 feet takes a –4 penalty on saving throws against compulsion effects. This ability functions only while the antipaladin is conscious, not if he is unconscious or dead.</p>"
    },
    "actions": [
      {
        "_id": "oiyynkj558a9umo6",
        "name": "Use",
        "img": "systems/lf1/icons/spells/horror-red-1.jpg",
        "activation": {
          "type": "passive",
          "unchained": {
            "type": "passive"
          }
        },
        "actionType": ""
      }
    ],
    "tag": "classFeat_auraOfDepravity",
    "useCustomTag": true,
    "subType": "classFeat",
    "associations": {
      "classes": ["Antipaladin"]
    },
    "abilityType": "su"
  }
}
