{
  "_id": "OtFAdvUxPRkInh8a",
  "name": "Aura of Enlightenment",
  "type": "feat",
  "img": "systems/lf1/icons/items/inventory/badge-cross.jpg",
  "system": {
    "description": {
      "value": "<p>At 4th level, you can create a 30-foot-radius aura of normal light. Allies in this aura gain a +2 insight bonus on skill checks. This counts as a 2nd-level light effect for the purpose of countering or dispelling darkness effects. You can use this aura for a number of rounds per day equal to your inquisitor level. These rounds do not need to be consecutive.</p>"
    },
    "actions": [
      {
        "_id": "9pph2qou8g8tt808",
        "name": "Use",
        "img": "systems/lf1/icons/items/inventory/badge-cross.jpg",
        "activation": {
          "type": "free",
          "unchained": {
            "type": "free"
          }
        },
        "duration": {
          "value": "1",
          "units": "round"
        },
        "actionType": ""
      }
    ],
    "uses": {
      "per": "day",
      "maxFormula": "@classes.inquisitor.level"
    },
    "tag": "classFeat_auraOfEnlightenment",
    "useCustomTag": true,
    "subType": "classFeat",
    "associations": {
      "classes": ["Inquisitor"]
    },
    "abilityType": "su"
  }
}
