{
  "_id": "kVqL3rw5mcAMhiEq",
  "name": "Aura Sight",
  "type": "feat",
  "img": "systems/lf1/icons/skills/shadow_12.jpg",
  "system": {
    "description": {
      "value": "<p>At 5th level, the occultist can read the auras of creatures around him as a standard action. This functions as the @Compendium[lf1.spells.isrnyw9biluqoo80]{Aura Sight} spell with a duration of 1 round.</p>"
    },
    "actions": [
      {
        "_id": "59ls46t34d9vtwe9",
        "name": "Use",
        "img": "systems/lf1/icons/skills/shadow_12.jpg",
        "activation": {
          "type": "standard",
          "unchained": {
            "cost": 2,
            "type": "action"
          }
        },
        "duration": {
          "value": "1",
          "units": "round"
        },
        "uses": {
          "autoDeductChargesCost": "0"
        },
        "actionType": ""
      }
    ],
    "tag": "classFeat_auraSight",
    "useCustomTag": true,
    "subType": "classFeat",
    "associations": {
      "classes": ["Occultist"]
    },
    "abilityType": "su"
  }
}
