{
  "_id": "Mu6vbs3CMn9W5dii",
  "name": "Bane Blade",
  "type": "feat",
  "img": "systems/lf1/icons/spells/enchant-red-3.jpg",
  "system": {
    "description": {
      "value": "<p>Whenever the magus enhances his weapon using his arcane pool, he may spend 1 additional point from his arcane pool to add the bane special ability to the weapon.</p>\n<p>The magus must be at least 15th level before selecting this arcana.</p>"
    },
    "tag": "classFeat_baneBlade",
    "useCustomTag": true,
    "subType": "classFeat",
    "associations": {
      "classes": ["Magus"]
    },
    "abilityType": "su"
  }
}
