{
  "_id": "T5b0GYEe9lhu4G5U",
  "name": "Basic Phytokinesis",
  "type": "feat",
  "img": "systems/lf1/icons/spells/vines-jade-3.jpg",
  "system": {
    "description": {
      "value": "<p><b>Element</b> wood; <b>Type</b> utility (Sp); <b>Level</b> 1; <b>Burn</b> 0</p>\n<p>You can prune and otherwise tend plants within 30 feet without using gardening tools. You can search wooded areas and other plant-heavy areas from a distance as if using the sift cantrip. By concentrating, you can detect plants within 120 feet as if using @Compendium[lf1.spells.65i0wc0e6fq0evk5]{Detect Animals or Plants}.</p>"
    },
    "tag": "classFeat_basicPhytokinesis",
    "useCustomTag": true,
    "subType": "classFeat",
    "associations": {
      "classes": ["Kineticist"]
    },
    "abilityType": "sp"
  }
}
