{
  "_id": "s2HO7z50wNW5jvGP",
  "name": "Battlecry",
  "type": "feat",
  "img": "systems/lf1/icons/spells/light-royal-1.jpg",
  "system": {
    "description": {
      "value": "<p>As a standard action, you can unleash an inspiring battlecry. All allies within 100 feet who hear your cry gain a +1 morale bonus on attack rolls, skill checks, and saving throws for a number of rounds equal to your Charisma modifier.</p>\n<p>At 10th level, this bonus increases to +2. You can use this ability once per day, plus one additional time per day at 5th level and for every five levels thereafter.</p>"
    },
    "tags": ["Revelation", "Battle Mystery"],
    "actions": [
      {
        "_id": "w6tnpnkhl5wc80u8",
        "name": "Use",
        "img": "systems/lf1/icons/spells/light-royal-1.jpg",
        "activation": {
          "type": "standard",
          "unchained": {
            "cost": 2,
            "type": "action"
          }
        },
        "duration": {
          "value": "@abilities.cha.mod",
          "units": "round"
        },
        "target": {
          "value": "allies"
        },
        "range": {
          "value": "100",
          "units": "ft"
        },
        "actionType": ""
      }
    ],
    "uses": {
      "per": "day",
      "maxFormula": "1 + floor(@classes.oracle.level / 5)"
    },
    "tag": "classFeat_battlecry",
    "useCustomTag": true,
    "subType": "classFeat",
    "associations": {
      "classes": ["Oracle"]
    },
    "abilityType": "ex"
  }
}
