{
  "_id": "K3o171F1ahaxeeOg",
  "name": "Beast Totem, Lesser",
  "type": "feat",
  "img": "systems/lf1/icons/feats/deafening-critical.jpg",
  "system": {
    "description": {
      "value": "<p>While raging, the barbarian gains two claw attacks. These attacks are considered primary attacks and are made at the barbarian’s full base attack bonus. The claws deal 1d6 points of slashing damage (1d4 if Small) plus the barbarian’s Strength modifier.</p>"
    },
    "tag": "classFeat_beastTotemLesser",
    "useCustomTag": true,
    "subType": "classFeat",
    "associations": {
      "classes": ["Barbarian", "Skald"]
    },
    "abilityType": "su"
  }
}
