{
  "_id": "JqMUAIFanm4VXyNa",
  "name": "Beguiling Voice",
  "type": "feat",
  "img": "systems/lf1/icons/skills/light_07.jpg",
  "system": {
    "description": {
      "value": "<p>At 1st level, you can use the sound of your voice to lull a target creature into taking no action. This ability acts as the @Compendium[lf1.spells.hk3xhc08blqzniv0]{Daze} spell, except it is language-dependent, has a duration of 1 round, and affects a living creature whose <em>Hit Dice</em> do not exceed your sorcerer level. You can use this ability a number of times per day equal to 3 + your <em>Charisma</em> modifier.</p>"
    },
    "actions": [
      {
        "_id": "pn8rmzg9p4hsq1fx",
        "name": "Use",
        "img": "systems/lf1/icons/skills/light_07.jpg",
        "activation": {
          "type": "standard",
          "unchained": {
            "cost": 2,
            "type": "action"
          }
        },
        "duration": {
          "value": "1",
          "units": "round"
        },
        "actionType": ""
      }
    ],
    "uses": {
      "per": "day",
      "maxFormula": "3 + @abilities.cha.mod"
    },
    "tag": "classFeat_beguilingVoice",
    "useCustomTag": true,
    "subType": "classFeat",
    "associations": {
      "classes": ["Sorcerer"]
    },
    "abilityType": "ex"
  }
}
