{
  "_id": "bWezi4fqxoq20TJx",
  "name": "Bestial Swimmer",
  "type": "feat",
  "img": "systems/lf1/icons/feats/deafening-critical.jpg",
  "system": {
    "description": {
      "value": "<p>While raging, the barbarian gains a natural swim speed equal to her normal land speed.</p>\n<p>A barbarian must have the raging swimmer rage power and be at least 6th level before selecting this rage power.</p>"
    },
    "tag": "classFeat_bestialSwimmer",
    "useCustomTag": true,
    "subType": "classFeat",
    "associations": {
      "classes": ["Barbarian", "Skald"]
    },
    "abilityType": "ex"
  }
}
