{
  "_id": "zm1Px6Hxx8BhERNF",
  "name": "Blindsight (4 pts)",
  "type": "feat",
  "img": "systems/lf1/icons/skills/blue_26.jpg",
  "system": {
    "description": {
      "value": "<p>An eidolon's senses sharpen even further, granting it blindsight out to a range of 30 feet. The eidolon can maneuver and attack as normal, ignoring darkness, invisibility, and most forms of concealment as long as it has line of effect to the target.</p>\n<p>The eidolon must possess the blindsense evolution to take this evolution.</p>\n<p>The summoner must be at least 11th level before selecting this evolution.</p>"
    },
    "tag": "classFeat_blindsight4Pts",
    "useCustomTag": true,
    "subType": "classFeat",
    "associations": {
      "classes": ["Eidolon"]
    },
    "abilityType": "ex"
  }
}
