{
  "_id": "xvBGDYUbsE4Ozean",
  "name": "Blood Sanctuary",
  "type": "feat",
  "img": "systems/lf1/icons/skills/red_08.jpg",
  "system": {
    "description": {
      "value": "<p>At 3rd level, due to the power of his blood, a bloodrager can stand confidently amid the effects of spells cast by himself or his allies. He gains a +2 bonus on saving throws against spells that he or an ally casts.</p>"
    },
    "actions": [
      {
        "_id": "2tqokps88fudkidp",
        "name": "Use",
        "img": "systems/lf1/icons/skills/red_08.jpg",
        "activation": {
          "type": "passive",
          "unchained": {
            "type": "passive"
          }
        },
        "actionType": ""
      }
    ],
    "tag": "classFeat_bloodSanctuary",
    "useCustomTag": true,
    "subType": "classFeat",
    "associations": {
      "classes": ["Bloodrager"]
    },
    "abilityType": "su"
  }
}
