{
  "_id": "juK8HvhwNpAxgFPY",
  "name": "Blurring Movement",
  "type": "feat",
  "img": "systems/lf1/icons/skills/red_05.jpg",
  "system": {
    "description": {
      "value": "<p>At 8th level, you become a blur of motion when you move. As long as you move at least 10 feet, you gain the effects of @Compendium[lf1.spells.18kryvj2dfuymk9d]{Blur} for 1 round.</p>"
    },
    "tag": "classFeat_blurringMovement",
    "useCustomTag": true,
    "subType": "classFeat",
    "associations": {
      "classes": ["Bloodrager"]
    },
    "abilityType": "su"
  }
}
