{
  "_id": "MRetsAEei3k0u0Sb",
  "name": "Boasting Taunt",
  "type": "feat",
  "img": "systems/lf1/icons/feats/deafening-critical.jpg",
  "system": {
    "description": {
      "value": "<p>While raging, the barbarian can incite a creature to attack her by making an Intimidate check to demoralize. If the check succeeds, the target is also shaken as long as the barbarian is visible and raging or until it makes a melee attack against the barbarian. The barbarian receives a +2 circumstance bonus on this check for every alcoholic drink she has consumed during this rage. This is a language-dependent mind-affecting effect, and it relies on audible components.</p>\n<p>The barbarian must be at least 6th level to select this power.</p>"
    },
    "tag": "classFeat_boastingTaunt",
    "useCustomTag": true,
    "subType": "classFeat",
    "associations": {
      "classes": ["Barbarian", "Skald"]
    },
    "abilityType": "ex"
  }
}
