{
  "_id": "PNvnSiZJ5h4gI1mw",
  "name": "Boundaries Patron",
  "type": "feat",
  "img": "systems/lf1/icons/feats/improved-familiar.jpg",
  "system": {
    "description": {
      "value": "<ul>\n<li>2nd — @Compendium[lf1.spells.skgjjub1hng29nwo]{Protection From Evil}</li>\n<li>4th — @Compendium[lf1.spells.nokru6mxk9p3r513]{See Invisibility}</li>\n<li>6th — @Compendium[lf1.spells.1i8b1v3dngkxj6jp]{Magic Circle against Evil}</li>\n<li>8th — @Compendium[lf1.spells.0vmz2klcfvkc3h0v]{Dimensional Anchor}</li>\n<li>10th — @Compendium[lf1.spells.lqbbvb9w0rby8hse]{Control Summoned Creature}</li>\n<li>12th — @Compendium[lf1.spells.trl849bibbe760xo]{Banishment}</li>\n<li>14th — @Compendium[lf1.spells.btccs4sjo2nog1a0]{Ethereal Jaunt}</li>\n<li>16th — @Compendium[lf1.spells.ef75tkrzjuotgra2]{Dimensional Lock}</li>\n<li>18th — @Compendium[lf1.spells.ursm11405zobemi3]{Gate}</li>\n</ul>"
    },
    "tag": "classFeat_boundariesPatron",
    "useCustomTag": true,
    "subType": "classFeat",
    "associations": {
      "classes": ["Witch"]
    }
  }
}
