{
  "_id": "h0Brxw6khcjlEf1T",
  "name": "Bravery",
  "type": "feat",
  "img": "systems/lf1/icons/skills/affliction_24.jpg",
  "system": {
    "description": {
      "value": "<p>Starting at 2nd level, a fighter gains a +1 bonus on <em>Will</em> saves against fear. This bonus increases by +1 for every four levels beyond 2nd.</p>"
    },
    "actions": [
      {
        "_id": "8t8fboqlbd3uefbx",
        "name": "Use",
        "img": "systems/lf1/icons/skills/affliction_24.jpg",
        "activation": {
          "type": "passive",
          "unchained": {
            "type": "passive"
          }
        },
        "actionType": ""
      }
    ],
    "contextNotes": [
      {
        "subTarget": "will",
        "target": "savingThrows",
        "text": "+[[floor((@classes.fighter.level + 2) / 4)]] vs fear effects"
      }
    ],
    "tag": "classFeat_bravery",
    "useCustomTag": true,
    "subType": "classFeat",
    "associations": {
      "classes": ["Fighter"]
    },
    "abilityType": "ex"
  }
}
