{
  "_id": "7ORiNdGyLzGddgNK",
  "name": "Brawler's Strike",
  "type": "feat",
  "img": "systems/lf1/icons/feats/stunning-fist.jpg",
  "system": {
    "description": {
      "value": "<p>At 5th level, a brawler’s unarmed strikes are treated as magic weapons for the purpose of overcoming damage reduction.</p>\n<p>At 9th level, her unarmed attacks are also treated as cold iron and silver for the purpose of overcoming damage reduction.</p>\n<p>At 12th level, she chooses one alignment component: chaotic, evil, good, or lawful; her unarmed strikes also count as this alignment for the purpose of overcoming damage reduction. (This alignment component cannot be the opposite of the brawler’s actual alignment, such as a good brawler choosing evil strikes.)</p>\n<p>At 17th level, her unarmed attacks are also treated as adamantine weapons for the purpose of overcoming damage reduction and bypassing hardness.</p>"
    },
    "tag": "classFeat_brawlersStrike",
    "useCustomTag": true,
    "subType": "classFeat",
    "associations": {
      "classes": ["Brawler"]
    },
    "abilityType": "ex"
  }
}
