{
  "_id": "ykdHgS9XFLje3DON",
  "name": "Breaching the Gulf",
  "type": "feat",
  "img": "systems/lf1/icons/spells/light-eerie-1.jpg",
  "system": {
    "description": {
      "value": "<p>At 15th level, your <em>caster level</em> is increased by 3 when casting spells of the teleportation subschool. In addition, once per day you can <em>teleport</em> a single creature within 30 feet into the void of space if it fails a <em>Will</em> save. The save DC is equal to 10 + 1/2 your sorcerer level + your <em>Charisma</em> modifier. The target can attempt a new <em>saving throw</em> as a <em>full-round action</em> each round to return. While trapped in the airless void, the target suffers 6d6 points of cold damage per round and must hold its breath or begin to suffocate.</p>"
    },
    "actions": [
      {
        "_id": "1r8y48lvn0pdo50m",
        "name": "Use",
        "img": "systems/lf1/icons/spells/light-eerie-1.jpg",
        "activation": {
          "type": "standard",
          "unchained": {
            "cost": 2,
            "type": "action"
          }
        },
        "duration": {
          "units": "perm"
        },
        "target": {
          "value": "one creature"
        },
        "range": {
          "value": "30",
          "units": "ft"
        },
        "actionType": ""
      }
    ],
    "uses": {
      "per": "day",
      "maxFormula": "1"
    },
    "tag": "classFeat_breachingTheGulf",
    "useCustomTag": true,
    "subType": "classFeat",
    "associations": {
      "classes": ["Sorcerer"]
    },
    "abilityType": "sp"
  }
}
