{
  "_id": "TkebdqdVml7GHOl6",
  "name": "Burrow (UC) (3 pts)",
  "type": "feat",
  "img": "systems/lf1/icons/skills/blue_26.jpg",
  "system": {
    "description": {
      "value": "<p><b>Requirements:</b> Summoner level 9th.</p>\n<p>The eidolon grows thick and gnarled claws, allowing it to move through the earth. The eidolon gains a burrow speed equal to 1/2 its base speed. It can use this speed to move through clay, dirt, earth, and sand. It does not leave a hole behind, nor is its passage marked on the surface.</p>"
    },
    "changes": [
      {
        "_id": "mirdwwof",
        "formula": "floor(@attributes.speed.land.base / 2)",
        "subTarget": "burrowSpeed",
        "modifier": "base"
      }
    ],
    "tag": "classFeat_burrowUc3Pts",
    "useCustomTag": true,
    "subType": "classFeat",
    "associations": {
      "classes": ["Eidolon (Unchained)"]
    },
    "abilityType": "ex"
  }
}
