{
  "_id": "ekSRUkLy9QM7HcUB",
  "name": "Call Fire",
  "type": "feat",
  "img": "systems/lf1/icons/spells/beam-red-1.jpg",
  "system": {
    "description": {
      "value": "<p>As a standard action, you can stretch out your hand toward any visible fire source within 60 feet and beckon it toward you. This causes a ribbon-thin streak of fire to approach you in a straight line through the air. Any creature directly in the fire ribbon’s path takes 1d4 points of fire damage; a successful Reflex save (DC = 10 + half your class level + your Wisdom modifier) negates this damage. When the ribbon of fire reaches your hand, it either extinguishes or lights a flammable object of your choice that you’re holding. You can use this ability a number of times per day equal to 3 + your Wisdom modifier.</p>\n<p>This power replaces the Fire Bolt power of the Fire Domain.</p>"
    },
    "actions": [
      {
        "_id": "3201d46nly2o2yxu",
        "name": "Use",
        "img": "systems/lf1/icons/spells/beam-red-1.jpg",
        "activation": {
          "type": "standard",
          "unchained": {
            "cost": 2,
            "type": "action"
          }
        },
        "duration": {
          "units": "inst"
        },
        "target": {
          "value": "one creature"
        },
        "range": {
          "value": "60",
          "units": "ft"
        },
        "actionType": ""
      }
    ],
    "uses": {
      "per": "day",
      "maxFormula": "3 + @abilities.wis.mod"
    },
    "tag": "classFeat_callFire",
    "useCustomTag": true,
    "subType": "classFeat",
    "associations": {
      "classes": ["Cleric"]
    },
    "abilityType": "su"
  }
}
