{
  "_id": "bwPeas5tuLvKhuE4",
  "name": "Calm Spirit",
  "type": "feat",
  "img": "systems/lf1/icons/skills/affliction_05.jpg",
  "system": {
    "description": {
      "value": "<p>At 7th level, a spiritualist gains the ability to use @Compendium[lf1.spells.y4ztvvswf2uuwuqo]{Calm Spirit} as a spell-like ability once per day.</p>\n<p>At 11th level and every 4 levels thereafter, the spiritualist can use this ability an additional time per day (to a maximum of 4 times per day at 19th level).</p>"
    },
    "actions": [
      {
        "_id": "3tgmkptk2ej5gppj",
        "name": "Use",
        "img": "systems/lf1/icons/skills/affliction_05.jpg",
        "activation": {
          "type": "standard",
          "unchained": {
            "cost": 2,
            "type": "action"
          }
        },
        "duration": {
          "value": "1",
          "units": "minute"
        },
        "target": {
          "value": "one incorporeal undead creature or haunt"
        },
        "range": {
          "units": "close"
        },
        "actionType": ""
      }
    ],
    "uses": {
      "per": "day",
      "maxFormula": "floor((@classes.spiritualist.level - 3) / 4)"
    },
    "tag": "classFeat_calmSpirit",
    "useCustomTag": true,
    "subType": "classFeat",
    "associations": {
      "classes": ["Spiritualist"]
    },
    "abilityType": "sp"
  }
}
