{
  "_id": "VogGWaVlmk5OVaIO",
  "name": "Capricious Misdirection",
  "type": "feat",
  "img": "systems/lf1/icons/spells/light-royal-1.jpg",
  "system": {
    "description": {
      "value": "<p>Your ever-changing nature allows you to misdirect aura-reading divinations with ease. You are constantly under the effects of a @Compendium[lf1.spells.8nrt26t37v7koqr8]{Misdirection} spell, except that you can take a standard action to select a creature or object within 60 feet to serve as the target of detection spells used against you until you select a different creature or object.</p>\n<p>You must be at least 7th level to select this revelation.</p>"
    },
    "tag": "classFeat_capriciousMisdirection",
    "useCustomTag": true,
    "subType": "classFeat",
    "associations": {
      "classes": ["Oracle"]
    },
    "abilityType": "sp"
  }
}
