{
  "_id": "mg6moDF1ppBgp3fV",
  "name": "Celestial Blood, Greater",
  "type": "feat",
  "img": "systems/lf1/icons/feats/deafening-critical.jpg",
  "system": {
    "description": {
      "value": "<p>Once per rage, the barbarian can reroll one ability check, skill check, or saving throw she just made. She must take the second result, even if it’s lower. She must decide to use this ability after the die is rolled but before results are revealed.</p>"
    },
    "tag": "classFeat_celestialBloodGreater",
    "useCustomTag": true,
    "subType": "classFeat",
    "associations": {
      "classes": ["Barbarian", "Skald"]
    },
    "abilityType": "su"
  }
}
