{
  "_id": "mMOQM4PC1MaGZbYc",
  "name": "Certain Strike",
  "type": "feat",
  "img": "systems/lf1/icons/skills/red_05.jpg",
  "system": {
    "description": {
      "value": "<p>At 8th level, you may reroll an attack roll once during a bloodrage. You must decide to use this ability after the die is rolled, but before the GM reveals the results. You must take the second result, even if it’s worse.</p>"
    },
    "tag": "classFeat_certainStrike",
    "useCustomTag": true,
    "subType": "classFeat",
    "associations": {
      "classes": ["Bloodrager"]
    },
    "abilityType": "su"
  }
}
