{
  "_id": "hLaFeIBI4P4mpB6V",
  "name": "Chant",
  "type": "feat",
  "img": "systems/lf1/icons/skills/green_03.jpg",
  "system": {
    "description": {
      "value": "<p>A shaman can chant as a move action. Any creature that is within 30 feet that is under the effects of the shaman’s charm, evil eye, fortune, fury, or misfortune hex has that effect’s duration extended by 1 round.</p>\n<p>A shaman cannot select both this hex and the witch’s cackle hex.</p>"
    },
    "actions": [
      {
        "_id": "72x3rvyktv7xmhgn",
        "name": "Use",
        "img": "systems/lf1/icons/skills/green_03.jpg",
        "activation": {
          "type": "move"
        },
        "actionType": ""
      }
    ],
    "tag": "classFeat_chant",
    "useCustomTag": true,
    "subType": "classFeat",
    "associations": {
      "classes": ["Shaman"]
    },
    "abilityType": "su"
  }
}
