{
  "_id": "3AIFigcs4uOgzDYD",
  "name": "Chaos Totem, Greater",
  "type": "feat",
  "img": "systems/lf1/icons/feats/deafening-critical.jpg",
  "system": {
    "description": {
      "value": "<p>While raging, the barbarian gains DR/lawful equal to 1/2 her barbarian level. Her weapons and natural weapons are considered chaotic for the purpose of overcoming damage reduction. A barbarian must have the chaos totem rage power to select this rage power.</p>\n<p>A barbarian must be at least 10th level to select this rage power.</p>"
    },
    "tag": "classFeat_chaosTotemGreater",
    "useCustomTag": true,
    "subType": "classFeat",
    "associations": {
      "classes": ["Barbarian", "Skald"]
    },
    "abilityType": "su"
  }
}
