{
  "_id": "fsDZNtCRYiKuPETc",
  "name": "Cloud Subdomain",
  "type": "feat",
  "img": "systems/lf1/icons/spells/fog-water-air-3.jpg",
  "system": {
    "description": {
      "value": "<p><b>Replacement Domain Spells:</b></p>\n<ul>\n<li>4th—@Compendium[lf1.spells.g0q8c0ni0rvipjpn]{Solid Fog}</li>\n<li>9th—@Compendium[lf1.spells.n4e35m6qu9nmkhgm]{Storm Of Vengeance}</li>\n</ul>"
    },
    "tag": "classFeat_cloudSubdomain",
    "useCustomTag": true,
    "subType": "classFeat",
    "associations": {
      "classes": ["Cleric"]
    }
  }
}
