{
  "_id": "crFYRQunvrXQNYFX",
  "name": "Cloud of Smoke",
  "type": "feat",
  "img": "systems/lf1/icons/spells/fog-sky-2.jpg",
  "system": {
    "description": {
      "value": "<p>As a standard action, you can create a 5-foot-radius cloud of smoke. This power has a range of 30 feet. Creatures inside the cloud take a –2 penalty on attack rolls and Perception skill checks for as long as they remain inside and for 1 round after exiting the cloud. Creatures inside the cloud gain concealment from attacks made by opponents that are not adjacent to them. You can use this ability a number of times per day equal to 3 + your Wisdom modifier.</p>\n<p>This power replaces the Fire Bolt power of the Fire Domain.</p>"
    },
    "actions": [
      {
        "_id": "drxgxd7zv4l012rh",
        "name": "Use",
        "img": "systems/lf1/icons/spells/fog-sky-2.jpg",
        "activation": {
          "type": "standard",
          "unchained": {
            "cost": 2,
            "type": "action"
          }
        },
        "duration": {
          "value": "max(1, floor(@classes.cleric.level / 2))",
          "units": "round"
        },
        "target": {
          "value": "5-ft. radius area"
        },
        "range": {
          "value": "30",
          "units": "ft"
        },
        "actionType": ""
      }
    ],
    "uses": {
      "per": "day",
      "maxFormula": "3 + @abilities.wis.mod"
    },
    "tag": "classFeat_cloudOfSmoke",
    "useCustomTag": true,
    "subType": "classFeat",
    "associations": {
      "classes": ["Cleric"]
    },
    "abilityType": "su"
  }
}
