{
  "_id": "LkD0Mc82KFrosngb",
  "name": "Cold Adaptation",
  "type": "feat",
  "img": "systems/lf1/icons/spells/ice-blue-2.jpg",
  "system": {
    "description": {
      "value": "<p><b>Element</b> fire, water; <b>Type</b> utility (Sp); <b>Level</b> 1; <b>Burn</b> 0</p>\n<p>You are constantly protected by endure elements against cold temperatures only. You gain cold resistance equal to twice your current amount of burn.</p>"
    },
    "tag": "classFeat_coldAdaptation",
    "useCustomTag": true,
    "subType": "classFeat",
    "associations": {
      "classes": ["Kineticist"]
    },
    "abilityType": "sp"
  }
}
