{
  "_id": "bvumhSbDp3dlu5yd",
  "name": "Command",
  "type": "feat",
  "img": "systems/lf1/icons/skills/emerald_06.jpg",
  "system": {
    "description": {
      "value": "<p>As a standard action, you can give a creature an emotionless yet undeniable order, as per the spell @Compendium[lf1.spells.2p6fzj5t03oivndd]{Command}. A Will save negates this effect. You cannot target a creature more than once per day with this ability. You can use this ability a number of times per day equal to 3 + your Wisdom modifier.</p>\n<p>This power replaces the Touch of Law power of the Law Domain.</p>"
    },
    "actions": [
      {
        "_id": "bmhf3s93chkx6kuz",
        "name": "Use",
        "img": "systems/lf1/icons/skills/emerald_06.jpg",
        "activation": {
          "type": "standard",
          "unchained": {
            "cost": 2,
            "type": "action"
          }
        },
        "duration": {
          "value": "1",
          "units": "round"
        },
        "target": {
          "value": "one creature"
        },
        "range": {
          "units": "close"
        },
        "actionType": ""
      }
    ],
    "uses": {
      "per": "day",
      "maxFormula": "3 + @abilities.wis.mod"
    },
    "tag": "classFeat_command",
    "useCustomTag": true,
    "subType": "classFeat",
    "associations": {
      "classes": ["Cleric"]
    },
    "abilityType": "su"
  }
}
