{
  "_id": "UwsvNVAJJGYtuRiN",
  "name": "Community Domain",
  "type": "feat",
  "img": "systems/lf1/icons/races/hobgoblin.png",
  "system": {
    "description": {
      "value": "<p><b>Granted Powers:</b> Your touch can heal wounds, and your presence instills unity and strengthens emotional bonds.</p>\n<p><b>Domain Spells:</b></p>\n<ul>\n<li>1st—@Compendium[lf1.spells.wa0zb2pncesmm9lz]{Bless}</li>\n<li>2nd—@Compendium[lf1.spells.menqakfoa1ftvi3f]{Shield Other}</li>\n<li>3rd—@Compendium[lf1.spells.hu8179fdqfkl0bqj]{Prayer}</li>\n<li>4th—@Compendium[lf1.spells.0axqb92kzlesc24q]{Imbue with Spell Ability}</li>\n<li>5th—@Compendium[lf1.spells.zuqlok69lapqc6lg]{Telepathic Bond}</li>\n<li>6th—@Compendium[lf1.spells.op40qjf9oohlx5nu]{Heroes' Feast}</li>\n<li>7th—@Compendium[lf1.spells.080el1lfozrhf6c2]{Refuge}</li>\n<li>8th—@Compendium[lf1.spells.6346rs0f4sra9gt4]{Cure Critical Wounds, Mass}</li>\n<li>9th—@Compendium[lf1.spells.suel7sgnztenv551]{Miracle}</li>\n</ul>"
    },
    "tag": "classFeat_communityDomain",
    "useCustomTag": true,
    "subType": "classFeat",
    "associations": {
      "classes": ["Cleric"]
    }
  }
}
