{
  "_id": "mHGqr3eA8cupQ2BW",
  "name": "Competition Subdomain",
  "type": "feat",
  "img": "systems/lf1/icons/feats/improved-feint.jpg",
  "system": {
    "description": {
      "value": "<p><b>Replacement Domain Spells:</b></p>\n<ul>\n<li>1st—@Compendium[lf1.spells.ns2zo6qgd9co02uf]{Jump}</li>\n<li>3rd—@Compendium[lf1.spells.2dtcvrqh1z9k05dq]{Animal Aspect, Greater}</li>\n<li>6th—@Compendium[lf1.spells.z0duc2v2n3ioynta]{Heroism, Greater}</li>\n</ul>"
    },
    "tag": "classFeat_competitionSubdomain",
    "useCustomTag": true,
    "subType": "classFeat",
    "associations": {
      "classes": ["Cleric"]
    }
  }
}
