{
  "_id": "cM9uj65GWJS4dPxU",
  "name": "Consume Primal Magic",
  "type": "feat",
  "img": "systems/lf1/icons/spells/runes-blue-3.jpg",
  "system": {
    "description": {
      "value": "<p>When the arcanist encounters a primal magic event, as an immediate action she can attempt to consume its power, as the consume spells class feature. The arcanist must succeed at a Fortitude save equal to 10 + the CR of the primal magic event, or she fails to consume the event and is staggered for 1d4 rounds.</p>\n<p>The arcanist must have the swift consume exploit to select this exploit.</p>"
    },
    "tags": ["Arcanist Exploit, Greater"],
    "actions": [
      {
        "_id": "kwz75yhusge36z6p",
        "name": "Use",
        "img": "systems/lf1/icons/spells/runes-blue-3.jpg",
        "activation": {
          "type": "immediate",
          "unchained": {
            "type": "reaction"
          }
        },
        "uses": {
          "autoDeductChargesCost": "0"
        },
        "actionType": ""
      }
    ],
    "tag": "classFeat_consumePrimalMagic",
    "useCustomTag": true,
    "subType": "classFeat",
    "associations": {
      "classes": ["Arcanist"]
    },
    "abilityType": "su"
  }
}
