{
  "_id": "wLecnO73QE7Se9uv",
  "name": "Conspiracies Patron",
  "type": "feat",
  "img": "systems/lf1/icons/feats/improved-familiar.jpg",
  "system": {
    "description": {
      "value": "<ul>\n<li>2nd — @Compendium[lf1.spells.afoxrj4mjkhq0cp1]{Lock Gaze}</li>\n<li>4th — @Compendium[lf1.spells.80f89nrksbofs5vx]{Disguise Other}</li>\n<li>6th — @Compendium[lf1.spells.m1rmcpcaixcpz9ib]{Tongues}</li>\n<li>8th — @Compendium[lf1.spells.pyr472hvqn8c8es2]{Hypercognition}</li>\n<li>10th — @Compendium[lf1.spells.q070n0zoq3zojpas]{Dominate Person}</li>\n<li>12th — @Compendium[lf1.spells.1m5rpvirt48brv71]{Symbol of Persuasion}</li>\n<li>14th — @Compendium[lf1.spells.aqeaxoaozlv9vg35]{Vision}</li>\n<li>16th — @Compendium[lf1.spells.ukacuu0cvdjkqxwu]{Frightful Aspect}</li>\n<li>18th — @Compendium[lf1.spells.xuuzj9lr2xbwaim4]{Overwhelming Presence}</li>\n</ul>"
    },
    "tag": "classFeat_conspiraciesPatron",
    "useCustomTag": true,
    "subType": "classFeat",
    "associations": {
      "classes": ["Witch"]
    }
  }
}
