{
  "_id": "6PL8a7p7UI9VQZnP",
  "name": "Conversion Inquisition",
  "type": "feat",
  "img": "systems/lf1/icons/items/inventory/badge-cross.jpg",
  "system": {
    "description": {
      "value": "<p><b>Granted Powers:</b> You are a powerful persuader. A honeyed tongue empowered by divine argumentation sways the indifferent and adversarial to your side.</p>"
    },
    "tag": "classFeat_conversionInquisition",
    "useCustomTag": true,
    "subType": "classFeat",
    "associations": {
      "classes": ["Inquisitor"]
    }
  }
}
