{
  "_id": "mu4eR1IuhJe4wBKf",
  "name": "Create Primal Event",
  "type": "feat",
  "img": "systems/lf1/icons/spells/runes-blue-3.jpg",
  "system": {
    "description": {
      "value": "<p>The arcanist can twist the magic of an area, forcing primal magic events to occur there. As a standard action, she can spend 2 points from her arcane reservoir to create a 10-foot-by-10-foot area of primal magic at a point within 30 feet. The arcanist can increase the size of the area to 20-foot-by-20-foot by spending 2 additional points from her arcane reservoir.</p>\n<p>The primal magic effect remains for 1 minute.</p>"
    },
    "tags": ["Arcanist Exploit, Greater"],
    "actions": [
      {
        "_id": "wyj0q8pe3fb4zyls",
        "name": "Use",
        "img": "systems/lf1/icons/spells/runes-blue-3.jpg",
        "activation": {
          "type": "standard",
          "unchained": {
            "cost": 2,
            "type": "action"
          }
        },
        "uses": {
          "autoDeductChargesCost": "2"
        },
        "actionType": ""
      }
    ],
    "tag": "classFeat_createPrimalEvent",
    "useCustomTag": true,
    "subType": "classFeat",
    "associations": {
      "classes": ["Arcanist"]
    },
    "abilityType": "su"
  }
}
