{
  "_id": "zYLW6seXDQ1yY58I",
  "name": "Criminal Minds",
  "type": "feat",
  "img": "systems/lf1/icons/items/inventory/badge-cross.jpg",
  "system": {
    "description": {
      "value": "<p>You can touch a creature and fill its mind with criminal impulses. This otherwise functions as per @Compendium[lf1.spells.q986nbkaq8kwbcy2]{Crime Of Opportunity}, though a target that fails its saving throw and acts on an impulse gets those desires out of its system and becomes immune to the effects of your criminal minds ability for 24 hours. You can use this ability a number of times per day equal to 3 + your Wisdom modifier (minimum 1).</p>"
    },
    "actions": [
      {
        "_id": "mfsl96r8doyry1ue",
        "name": "Use",
        "img": "systems/lf1/icons/items/inventory/badge-cross.jpg",
        "activation": {
          "type": "standard",
          "unchained": {
            "cost": 2,
            "type": "action"
          }
        },
        "duration": {
          "value": "1",
          "units": "round"
        },
        "target": {
          "value": "creature touched"
        },
        "range": {
          "units": "touch"
        },
        "actionType": ""
      }
    ],
    "uses": {
      "per": "day",
      "maxFormula": "3 + @abilities.wis.mod"
    },
    "tag": "classFeat_criminalMinds",
    "useCustomTag": true,
    "subType": "classFeat",
    "associations": {
      "classes": ["Inquisitor"]
    },
    "abilityType": "sp"
  }
}
