{
  "_id": "4yz8wFz8CC89RcON",
  "name": "Crippling Blow (UC)",
  "type": "feat",
  "img": "systems/lf1/icons/feats/deafening-critical.jpg",
  "system": {
    "description": {
      "value": "<p>Once per day when the barbarian hits with an attack, she can deal 1 point of ability damage to the target’s Strength or Dexterity score. This damage increases by 1 point for every 4 levels the barbarian has.</p>\n<p>A barbarian must be at least 8th level to select this rage power.</p>"
    },
    "tag": "classFeat_cripplingBlowUc",
    "useCustomTag": true,
    "subType": "classFeat",
    "associations": {
      "classes": ["Barbarian (Unchained)"]
    },
    "abilityType": "ex"
  }
}
