{
  "_id": "GQhLfjIDAGwby0Pj",
  "name": "Critical Precision",
  "type": "feat",
  "img": "systems/lf1/icons/items/inventory/badge-cross.jpg",
  "system": {
    "description": {
      "value": "<p>At 8th level, when you roll a critical threat, you may expend one use of your torturer's touch ability to add +4 on your critical confirmation roll. This does not stack with Critical Focus.</p>"
    },
    "actions": [
      {
        "_id": "sw6xqgku6eq8ku6v",
        "name": "Use",
        "img": "systems/lf1/icons/items/inventory/badge-cross.jpg",
        "activation": {
          "type": "free",
          "unchained": {
            "type": "free"
          }
        },
        "actionType": ""
      }
    ],
    "tag": "classFeat_criticalPrecision",
    "useCustomTag": true,
    "subType": "classFeat",
    "associations": {
      "classes": ["Inquisitor"]
    },
    "abilityType": "ex"
  }
}
