{
  "_id": "lRnu5k1dkWvOy4nY",
  "name": "Cutting Edge (UC)",
  "type": "feat",
  "img": "systems/lf1/icons/items/weapons/razor-drow.PNG",
  "system": {
    "description": {
      "value": "<p>A rogue with this ability immediately selects two additional skills with her rogue’s edge ability. She can select this advanced talent multiple times.</p>"
    },
    "tag": "classFeat_cuttingEdgeUc",
    "useCustomTag": true,
    "subType": "classFeat",
    "associations": {
      "classes": ["Rogue (Unchained)"]
    },
    "abilityType": "ex"
  }
}
