{
  "_id": "Ta0hUtWhr4NBuhkO",
  "name": "Damage Reduction (UC) (3 pts)",
  "type": "feat",
  "img": "systems/lf1/icons/skills/blue_26.jpg",
  "system": {
    "description": {
      "value": "<p><b>Requirements:</b> Summoner level 15th, damage reduction granted by the eidolon’s subtype.</p>\n<p>The eidolon’s body becomes more resistant to harm. Increase the damage reduction granted by the eidolon’s subtype by 5.</p>"
    },
    "tag": "classFeat_damageReductionUc3Pts",
    "useCustomTag": true,
    "subType": "classFeat",
    "associations": {
      "classes": ["Eidolon (Unchained)"]
    },
    "abilityType": "su"
  }
}
