{
  "_id": "iDqsxJevHkQX4IfY",
  "name": "Deadly Cocktail",
  "type": "feat",
  "img": "systems/lf1/icons/items/weapons/butterfly-knife.PNG",
  "system": {
    "description": {
      "value": "<p>A rogue with this talent can apply two doses of poison to a weapon at once. These can be separate poisons, in which case they both affect the target individually, or two doses of the same toxin, in which case the poisons’ frequency is extended by 50% and the save DC increases by +2. This talent is an exception to the rule that injury poisons can only be delivered one dose at a time.</p>"
    },
    "tag": "classFeat_deadlyCocktail",
    "useCustomTag": true,
    "subType": "classFeat",
    "associations": {
      "classes": ["Rogue", "Rogue (Unchained)"]
    },
    "abilityType": "ex"
  }
}
