{
  "_id": "y41LnSjkiIqKFhMX",
  "name": "Death Blessing: From the Grave",
  "type": "feat",
  "img": "systems/lf1/icons/spells/horror-red-2.jpg",
  "system": {
    "description": {
      "value": "<p>At 1st level, you can take on a corpse-like visage for 1 minute, making you more intimidating and giving you undead-like protection from harm. You gain a +4 bonus on Disguise checks to resemble an undead creature and on Intimidate checks, as well as a +2 profane bonus on saving throws against disease, mindaffecting effects, paralysis, poison, and stun.</p>"
    },
    "actions": [
      {
        "_id": "1fkfyxja4vwhmnno",
        "name": "Use",
        "img": "systems/lf1/icons/spells/horror-red-2.jpg",
        "activation": {
          "type": "standard",
          "unchained": {
            "cost": 2,
            "type": "action"
          }
        },
        "duration": {
          "value": "1",
          "units": "minute"
        },
        "target": {
          "value": "self"
        },
        "range": {
          "units": "personal"
        },
        "actionType": ""
      }
    ],
    "tag": "classFeat_deathBlessingFromTheGrave",
    "useCustomTag": true,
    "subType": "classFeat",
    "associations": {
      "classes": ["Warpriest"]
    }
  }
}
