{
  "_id": "TF9JLx9PwVnN5QPx",
  "name": "Deceptive Flourish",
  "type": "feat",
  "img": "systems/lf1/icons/skills/violet_03.jpg",
  "system": {
    "description": {
      "value": "<p>You gain a +2 <em>enhancement bonus</em> on <em>Bluff</em> and <em>Disguise</em> skill checks. This bonus increases by 1 for every 5 <em>wizard</em> levels you have, up to a maximum of +6 at 20th level. At 20th level, you gain the benefits of @Compendium[lf1.spells.8nrt26t37v7koqr8]{Misdirection} (<em>Will</em> DC = 20 + your <em>Intelligence</em> modifier) or @Compendium[lf1.spells.awia42zci8nufpfl]{Nondetection} permanently. At will as a <em>standard action</em>, you can change which of the two spells is active, and each time you <em>activate</em> @Compendium[lf1.spells.8nrt26t37v7koqr8]{Misdirection}, you can choose a new creature or object as the secondary object.</p>"
    },
    "changes": [
      {
        "_id": "ij6c0rgl",
        "formula": "2 + (floor(@classes.wizard.level / 5))",
        "subTarget": "skill.blf",
        "modifier": "enh"
      },
      {
        "_id": "h39o8dbh",
        "formula": "2 + (floor(@classes.wizard.level / 5))",
        "subTarget": "skill.dis",
        "modifier": "enh"
      }
    ],
    "tag": "classFeat_deceptiveFlourish",
    "useCustomTag": true,
    "subType": "classFeat",
    "associations": {
      "classes": ["Wizard"]
    },
    "abilityType": "su"
  }
}
