{
  "_id": "v4jZpne8wrbWAJE2",
  "name": "Deceitful Trick",
  "type": "feat",
  "img": "systems/lf1/icons/feats/deceitful.jpg",
  "system": {
    "description": {
      "value": "<p>The vigilante can perform a dirty trick combat maneuver in place of his first attack during a full attack. He can take a –4 penalty on his check in order to inf lict two different conditions on his foe if he succeeds at his check. If the vigilante is successful, the target can remove both conditions as a standard action.</p>\n<p>A vigilante must have Greater Dirty Trick and Improved Dirty Trick in order to select this vigilante talent.</p>"
    },
    "tag": "classFeat_deceitfulTrick",
    "useCustomTag": true,
    "subType": "classFeat",
    "associations": {
      "classes": ["Vigilante"]
    },
    "abilityType": "ex"
  }
}
