{
  "_id": "rPSf6FDCJOS2pkql",
  "name": "Deception Subdomain",
  "type": "feat",
  "img": "systems/lf1/icons/skills/violet_07.jpg",
  "system": {
    "description": {
      "value": "<p><b>Replacement Domain Spells:</b></p>\n<ul>\n<li>2nd—@Compendium[lf1.spells.4jsss37x0pplib8f]{Mirror Image}</li>\n<li>7th—@Compendium[lf1.spells.0w3hvcp3gb2bhtv5]{Project Image}</li>\n</ul>"
    },
    "tag": "classFeat_deceptionSubdomain",
    "useCustomTag": true,
    "subType": "classFeat",
    "associations": {
      "classes": ["Cleric"]
    }
  }
}
