{
  "_id": "OXG4lt3sDQJLFAYd",
  "name": "Dehydrating Touch",
  "type": "feat",
  "img": "systems/lf1/icons/skills/ice_16.jpg",
  "system": {
    "description": {
      "value": "<p>Starting at 1st level, you can make a melee <em>touch attack</em> as a <em>standard action</em> that inflicts 1d6 points of <em>nonlethal damage</em> + 1 for every two sorcerer levels you possess and <em>sickens</em> the target for 1 round. <em>Oozes</em>, <em>plants</em>, and creatures with the <em>aquatic</em> or <em>water</em> subtypes suffer lethal damage instead. You can use this ability a number of times per day equal to 3 + your <em>Charisma</em> modifier.</p>"
    },
    "actions": [
      {
        "_id": "j9qlzf6pzzhx6g6s",
        "name": "Use",
        "img": "systems/lf1/icons/skills/ice_16.jpg",
        "activation": {
          "type": "standard",
          "unchained": {
            "cost": 2,
            "type": "action"
          }
        },
        "duration": {
          "units": "inst"
        },
        "target": {
          "value": "creature touched"
        },
        "range": {
          "units": "touch"
        },
        "actionType": "mwak",
        "damage": {
          "parts": [
            {
              "formula": "1d6 + floor(@classes.sorcerer.level / 2)",
              "type": {
                "values": ["untyped"],
                "custom": ""
              }
            }
          ]
        }
      }
    ],
    "uses": {
      "per": "day",
      "maxFormula": "3 + @abilities.cha.mod"
    },
    "tag": "classFeat_dehydratingTouch",
    "useCustomTag": true,
    "subType": "classFeat",
    "associations": {
      "classes": ["Sorcerer"]
    },
    "abilityType": "sp"
  }
}
