{
  "_id": "tRD2FQXN7sGOJGPm",
  "name": "Delay Affliction",
  "type": "feat",
  "img": "systems/lf1/icons/spells/light-royal-1.jpg",
  "system": {
    "description": {
      "value": "<p>Once per day as an immediate action, whenever you fail a saving throw against a disease or poison, you may ignore its effects for 1 hour per level.</p>\n<p>At 7th and 15th level, you can use this ability one additional time per day.</p>"
    },
    "actions": [
      {
        "_id": "4rffzx5ocnpbgyia",
        "name": "Use",
        "img": "systems/lf1/icons/spells/light-royal-1.jpg",
        "activation": {
          "type": "immediate",
          "unchained": {
            "type": "reaction"
          }
        },
        "duration": {
          "units": "inst"
        },
        "target": {
          "value": "self"
        },
        "range": {
          "units": "personal"
        },
        "actionType": ""
      }
    ],
    "uses": {
      "per": "day",
      "maxFormula": "@classes.oracle.level >= 15 ? 3 : ((@classes.oracle.level > 6 && @classes.oracle.level < 15) ? 2 : 1)"
    },
    "tag": "classFeat_delayAffliction",
    "useCustomTag": true,
    "subType": "classFeat",
    "associations": {
      "classes": ["Oracle"]
    },
    "abilityType": "su"
  }
}
