{
  "_id": "1NB0g29D60AeZlf7",
  "name": "Demonic Aura",
  "type": "feat",
  "img": "systems/lf1/icons/skills/red_05.jpg",
  "system": {
    "description": {
      "value": "<p>At 16th level, when entering a bloodrage you can choose to exude an aura of fire. The aura is a 5-foot burst centered on you, and deals 2d6 + your Constitution modifier points of fire damage to creatures that end their turns within it.</p>"
    },
    "tag": "classFeat_demonicAura",
    "useCustomTag": true,
    "subType": "classFeat",
    "associations": {
      "classes": ["Bloodrager"]
    },
    "abilityType": "su"
  }
}
