{
  "_id": "jvjem7KJudSxt6yR",
  "name": "Den of Vipers",
  "type": "feat",
  "img": "systems/lf1/icons/skills/green_02.jpg",
  "system": {
    "description": {
      "value": "<p>At 15th level, you may summon a host of writhing serpents. This power acts as @Compendium[lf1.spells.f828mjoo5afszqnk]{Creeping Doom}, but the swarms’ poison inflicts <em>Con</em> damage and any creature other than you sharing a space with a <em>swarm</em> is <em>entangled</em>. You may use this ability once per day.</p>"
    },
    "actions": [
      {
        "_id": "uy73g44bsselmcc3",
        "name": "Use",
        "img": "systems/lf1/icons/skills/green_02.jpg",
        "activation": {
          "type": "standard",
          "unchained": {
            "cost": 2,
            "type": "action"
          }
        },
        "duration": {
          "value": "@cl",
          "units": "round"
        },
        "range": {
          "units": "close"
        },
        "actionType": ""
      }
    ],
    "uses": {
      "per": "day",
      "maxFormula": "1"
    },
    "tag": "classFeat_denOfVipers",
    "useCustomTag": true,
    "subType": "classFeat",
    "associations": {
      "classes": ["Sorcerer"]
    },
    "abilityType": "sp"
  }
}
