{
  "_id": "XUzdB3wSzV63RQHZ",
  "name": "Destined Bloodrager Bloodline",
  "type": "feat",
  "img": "systems/lf1/icons/skills/red_13.jpg",
  "system": {
    "description": {
      "value": "<p><em>Your bloodline is destined for great things. When you bloodrage, you exude a greatness that makes all but the most legendary creatures seem lesser.</em><p><b>Bonus Feats:</b></p>\n<ul>\n<li>@Compendium[lf1.feats.O0e0UCim27GPKFuW]{Diehard}</li>\n<li>@Compendium[lf1.feats.ehqx8txNRGMaNOPt]{Endurance}</li>\n<li>@Compendium[lf1.feats.Uuiu3p982omhMEPj]{Improved Initiative}</li>\n<li>@Compendium[lf1.feats.O0jbkTJcIji9BNiF]{Intimidating Prowess}</li>\n<li>@Compendium[lf1.feats.R3a1OV18RwDJftvq]{Leadership}</li>\n<li>@Compendium[lf1.feats.0bZf3SDkvVOe2ujH]{Lightning Reflexes}</li>\n<li>@Compendium[lf1.feats.n250dFlbykAIAg5Z]{Weapon Focus}</li>\n</ul>\n<p><b>Bonus Spells:</b> </p>\n<ul>\n<li>@Compendium[lf1.spells.sz7j540uypmqqvti]{Shield} (7th), </li>\n<li>@Compendium[lf1.spells.18kryvj2dfuymk9d]{Blur} (10th), </li>\n<li>@Compendium[lf1.spells.1vh2ewwvzvxunoxk]{Protection from Energy} (13th), </li>\n<li>@Compendium[lf1.spells.lvzq2mwkqmozolpl]{Freedom of Movement} (16th)</li>\n</ul>"
    },
    "tag": "classFeat_destinedBloodragerBloodline",
    "useCustomTag": true,
    "subType": "classFeat",
    "associations": {
      "classes": ["Bloodrager"]
    }
  }
}
