{
  "_id": "4SAknlOAdOM0ZtIe",
  "name": "Destined Bloodline",
  "type": "feat",
  "img": "systems/lf1/icons/skills/shadow_11.jpg",
  "system": {
    "description": {
      "value": "<p><em>Your family is destined for greatness in some way. Your birth could have been foretold in prophecy, or perhaps it occurred during an especially auspicious event, such as a solar eclipse. Regardless of your bloodline’s origin, you have a great future ahead.</em></p>\n<p><b>Class Skill:</b> <em>Knowledge</em> (history).</p>\n<p><b>Bonus Spells:</b></p>\n<ul>\n<li>@Compendium[lf1.spells.nee6cxpoekp3aklq]{Alarm} (3rd),</li>\n<li>@Compendium[lf1.spells.18kryvj2dfuymk9d]{Blur} (5th),</li>\n<li>@Compendium[lf1.spells.1vh2ewwvzvxunoxk]{Protection from Energy} (7th),</li>\n<li>@Compendium[lf1.spells.lvzq2mwkqmozolpl]{Freedom of Movement} (9th),</li>\n<li>@Compendium[lf1.spells.myg2b9ww43nnlbr2]{Break Enchantment} (11th),</li>\n<li>@Compendium[lf1.spells.446vcsetq4ny904e]{Mislead} (13th),</li>\n<li>@Compendium[lf1.spells.uyn64zazmaydnk7o]{Spell Turning} (15th),</li>\n<li>@Compendium[lf1.spells.2vb5orfcy57lrfmc]{Moment of Prescience} (17th),</li>\n<li>@Compendium[lf1.spells.vl7yer8k1leyuxld]{Foresight} (19th).</li>\n</ul>\n<p><b>Bonus Feats:</b></p>\n<ul>\n<li>@Compendium[lf1.feats.QvlxYVVsBDlykPKe]{Arcane Strike},</li>\n<li>@Compendium[lf1.feats.O0e0UCim27GPKFuW]{Diehard},</li>\n<li>@Compendium[lf1.feats.ehqx8txNRGMaNOPt]{Endurance},</li>\n<li>@Compendium[lf1.feats.R3a1OV18RwDJftvq]{Leadership},</li>\n<li>@Compendium[lf1.feats.0bZf3SDkvVOe2ujH]{Lightning Reflexes},</li>\n<li>@Compendium[lf1.feats.J1yi4hFKYdXqZE3h]{Maximize Spell},</li>\n<li>@Compendium[lf1.feats.7zJTztNW7hdaqjKc]{Skill Focus} (<em>Knowledge</em> [history]),</li>\n<li>@Compendium[lf1.feats.n250dFlbykAIAg5Z]{Weapon Focus}.</li>\n</ul>\n<p><b>Bloodline Arcana:</b> Whenever you cast a spell with a range of “personal,” you gain a luck bonus equal to the spell’s level on all your <em>saving throws</em> for 1 round.</p>"
    },
    "tag": "classFeat_destinedBloodline",
    "useCustomTag": true,
    "subType": "classFeat",
    "associations": {
      "classes": ["Sorcerer"]
    }
  }
}
