{
  "_id": "KGjeQOeDKBMUt98q",
  "name": "Detect Alignment",
  "type": "feat",
  "img": "systems/lf1/icons/spells/evil-eye-red-1.jpg",
  "system": {
    "description": {
      "value": "<p>At will, this character can use @Compendium[lf1.spells.17eskras8cjynj10]{Detect Chaos}, @Compendium[lf1.spells.tr7m97npkbgm4wp7]{Detect Evil}, @Compendium[lf1.spells.mkgysr5o92kxxn59]{Detect Good}, or @Compendium[lf1.spells.jo67xdocgdmk5hhh]{Detect Law}. She can only use one of these at any given time.</p>"
    },
    "actions": [
      {
        "_id": "d8v90zjz3u7orjg0",
        "name": "Use",
        "img": "systems/lf1/icons/spells/evil-eye-red-1.jpg",
        "activation": {
          "type": "standard",
          "unchained": {
            "cost": 2,
            "type": "action"
          }
        },
        "actionType": ""
      }
    ],
    "tag": "classFeat_detectAlignment",
    "useCustomTag": true,
    "subType": "classFeat",
    "associations": {
      "classes": ["Inquisitor"]
    },
    "abilityType": "sp"
  }
}
