{
  "_id": "EH4TJ9juWty8GOGb",
  "name": "Detonation Infusion",
  "type": "feat",
  "img": "systems/lf1/icons/spells/fireball-red-3.jpg",
  "system": {
    "description": {
      "value": "<p><b>Element</b> fire; <b>Type</b> form infusion; <b>Level</b> 4; <b>Burn</b> 3<br><b>Associated Blasts</b> blue flame, fire<br><b>Saving Throw</b> Reflex half</p>\n<p>Flames explode outward from your body, dealing your blast damage to all creatures and objects within a 20- foot radius.</p>"
    },
    "actions": [
      {
        "_id": "t7tfnxf81nw2yoby",
        "name": "Use",
        "img": "systems/lf1/icons/spells/fireball-red-3.jpg",
        "actionType": "save",
        "save": {
          "type": "ref",
          "description": "Reflex half"
        }
      }
    ],
    "tag": "classFeat_detonationInfusion",
    "useCustomTag": true,
    "subType": "classFeat",
    "associations": {
      "classes": ["Kineticist"]
    }
  }
}
