{
  "_id": "nRffrQSKTqjeBAO5",
  "name": "Diamond Body",
  "type": "feat",
  "img": "systems/lf1/icons/skills/blue_28.jpg",
  "system": {
    "description": {
      "value": "<p>At 11th level, a monk gains <em>immunity</em> to poisons of all kinds.</p>"
    },
    "actions": [
      {
        "_id": "3dhrpsw80s9z9341",
        "name": "Use",
        "img": "systems/lf1/icons/skills/blue_28.jpg",
        "activation": {
          "type": "passive",
          "unchained": {
            "type": "passive"
          }
        },
        "actionType": ""
      }
    ],
    "tag": "classFeat_diamondBody",
    "useCustomTag": true,
    "subType": "classFeat",
    "associations": {
      "classes": ["Monk"]
    },
    "abilityType": "su"
  }
}
