{
  "_id": "ipV5E7Fd6x0jH1PN",
  "name": "Disquiet (Stare)",
  "type": "feat",
  "img": "systems/lf1/icons/skills/emerald_11.jpg",
  "system": {
    "description": {
      "value": "<p>The target of the hypnotic stare is shaken while in areas of total darkness.</p>"
    },
    "tag": "classFeat_disquietStare",
    "useCustomTag": true,
    "subType": "classFeat",
    "associations": {
      "classes": ["Mesmerist"]
    }
  }
}
