{
  "_id": "WnIpZJLKpgv14D48",
  "name": "Disrupt Animation",
  "type": "feat",
  "img": "systems/lf1/icons/items/inventory/badge-cross.jpg",
  "system": {
    "description": {
      "value": "<p>You can use @Compendium[lf1.spells.oyu8efso7sio8arn]{Disrupt Undead} as a spell-like ability, adding your wisdom modifier to the damage. You can use this ability a number of times per day equal to 3 + your Wisdom modifier.</p>"
    },
    "actions": [
      {
        "_id": "suwf6hwo6zokmdxb",
        "name": "Use",
        "img": "systems/lf1/icons/items/inventory/badge-cross.jpg",
        "activation": {
          "type": "standard",
          "unchained": {
            "cost": 2,
            "type": "action"
          }
        },
        "duration": {
          "units": "inst"
        },
        "target": {
          "value": "one undead creature"
        },
        "range": {
          "units": "close"
        },
        "actionType": "rsak",
        "damage": {
          "parts": [
            {
              "formula": "1d6",
              "type": {
                "values": ["positive"],
                "custom": ""
              }
            }
          ]
        },
        "ability": {
          "attack": "dex"
        }
      }
    ],
    "uses": {
      "per": "day",
      "maxFormula": "3 + @abilities.wis.mod"
    },
    "tag": "classFeat_disruptAnimation",
    "useCustomTag": true,
    "subType": "classFeat",
    "associations": {
      "classes": ["Inquisitor"]
    },
    "abilityType": "sp"
  }
}
