{
  "_id": "QnmdZNxzIHWL7Pkt",
  "name": "Div Bloodline",
  "type": "feat",
  "img": "systems/lf1/icons/races/ifrit.png",
  "system": {
    "description": {
      "value": "<p><em>You can trace your ancestry to one of the foul, corrupted genies known as divs.</em></p>\n<p><b>Class Skill:</b> <em>Knowledge</em> (planes).</p>\n<p><b>Bonus Spells:</b></p>\n<ul>\n<li>@Compendium[lf1.spells.oj36nfak6jc2s5ky]{Disguise Self} (3rd),</li>\n<li>@Compendium[lf1.spells.648x72rflah0ggyz]{Touch of Idiocy} (5th),</li>\n<li>@Compendium[lf1.spells.jdsvncnna6oy189a]{Deeper Darkness} (7th),</li>\n<li>@Compendium[lf1.spells.lsboosfk26m0ycqv]{Bestow Curse} (9th),</li>\n<li>@Compendium[lf1.spells.jdp0mts5razk0qms]{Insect Plague} (11th),</li>\n<li>@Compendium[lf1.spells.sxyiwj0z95piv96i]{Disintegrate} (13th),</li>\n<li>@Compendium[lf1.spells.s6q72tw2zra9sycu]{Insanity} (15th),</li>\n<li>@Compendium[lf1.spells.a5gcbpwfhu4hh5ic]{Earthquake} (17th),</li>\n<li>@Compendium[lf1.spells.nnj51dwfkwd15ngj]{Wish} (19th).</li>\n</ul>\n<p><b>Bonus Feats:</b></p>\n<ul>\n<li>@Compendium[lf1.feats.pmAO1Sni8xx71pLF]{Blind-Fight},</li>\n<li>@Compendium[lf1.feats.SUACufUXl12sUvnQ]{Deceitful},</li>\n<li>@Compendium[lf1.feats.77gXSucrxfrE9yWk]{Empower Spell},</li>\n<li>@Compendium[lf1.feats.Uuiu3p982omhMEPj]{Improved Initiative},</li>\n<li>@Compendium[lf1.feats.iAbIGhm7T2OK9Brt]{Iron Will},</li>\n<li>@Compendium[lf1.feats.0bZf3SDkvVOe2ujH]{Lightning Reflexes},</li>\n<li>@Compendium[lf1.feats.L10V7jTzmMYz62zz]{Persuasive},</li>\n<li>@Compendium[lf1.feats.FUW5mIXHNBBIQ1Sq]{Power Attack}.</li>\n</ul>\n<p><b>Bloodline Arcana:</b> Whenever you deal damage to more than one creature with a spell that affects an area, the save DCs of your spells increase by 1 for 1d4 rounds.</p>"
    },
    "tag": "classFeat_divBloodline",
    "useCustomTag": true,
    "subType": "classFeat",
    "associations": {
      "classes": ["Sorcerer"]
    }
  }
}
