{
  "_id": "4g5em5Nqr6LUVQZi",
  "name": "Div Resistances",
  "type": "feat",
  "img": "systems/lf1/icons/feats/heighten-spell.jpg",
  "system": {
    "description": {
      "value": "<p>At 3rd level, you gain fire <em>resistance</em> 5 and a +2 bonus on saving throws against <em>poison</em>. At 9th level, your resistance to fire increases to 10 and your bonus on saving throws against poison increases to +4.</p>"
    },
    "actions": [
      {
        "_id": "vr8os2zx7ysn7khe",
        "name": "Use",
        "img": "systems/lf1/icons/feats/heighten-spell.jpg",
        "activation": {
          "type": "passive",
          "unchained": {
            "type": "passive"
          }
        },
        "actionType": ""
      }
    ],
    "tag": "classFeat_divResistances",
    "useCustomTag": true,
    "subType": "classFeat",
    "associations": {
      "classes": ["Sorcerer"]
    },
    "abilityType": "ex"
  }
}
