{
  "_id": "jvTPFiJNvW1rr1ca",
  "name": "Dominate Technology",
  "type": "feat",
  "img": "systems/lf1/icons/spells/slice-spirit-3.jpg",
  "system": {
    "description": {
      "value": "<p>At 13th level, you can meld your mind with a piece of technology and temporarily control it, even if you had no hand in creating it or anything like it. Once per day, you can target one construct with @Compendium[lf1.spells.cqjtlth3uqafuwnn]{Control Construct} (as per the spell), except the DC of the Spellcraft check each round to maintain control of the construct is equal to 15 + the construct’s HD.</p>\n<p>If you must attempt opposed Spellcraft checks against the construct’s creator, you take a –5 penalty on your Spellcraft checks while you concentrate on this ability.</p>"
    },
    "actions": [
      {
        "_id": "eyk13qn556k27mi6",
        "name": "Use",
        "img": "systems/lf1/icons/spells/slice-spirit-3.jpg",
        "activation": {
          "type": "standard",
          "unchained": {
            "cost": 2,
            "type": "action"
          }
        },
        "target": {
          "value": "one construct"
        },
        "actionType": ""
      }
    ],
    "uses": {
      "per": "day",
      "maxFormula": "1"
    },
    "tag": "classFeat_dominateTechnology",
    "useCustomTag": true,
    "subType": "classFeat",
    "associations": {
      "classes": ["Psychic"]
    },
    "abilityType": "sp"
  }
}
