{
  "_id": "1i9PrQNV5fCPTqgg",
  "name": "Dragon Totem Resilience",
  "type": "feat",
  "img": "systems/lf1/icons/feats/deafening-critical.jpg",
  "system": {
    "description": {
      "value": "<p>While raging, the barbarian gains resistance to the energy type that is associated with her dragon totem—acid (black, copper, green), cold (silver, white), electricity (blue, bronze), or fire (brass, gold, red). This resistance equals double her current DR/— from her barbarian damage reduction class feature; this DR increases by 2 for each dragon totem rage power she possesses, including this one.</p>\n<p>A barbarian must have the dragon totem rage power and be at least 8th level before selecting this rage power.</p>"
    },
    "tag": "classFeat_dragonTotemResilience",
    "useCustomTag": true,
    "subType": "classFeat",
    "associations": {
      "classes": ["Barbarian", "Skald"]
    },
    "abilityType": "su"
  }
}
