{
  "_id": "ZMTpED4Ox86Wqybg",
  "name": "Drain Vibrancy",
  "type": "feat",
  "img": "systems/lf1/icons/spells/slice-spirit-3.jpg",
  "system": {
    "description": {
      "value": "<p>At 13th level, you can drain the color and vitality from the world around you. Three times per day, as a standard action you can drain vibrancy within a 30-foot radius, causing the area and all creatures within it to become pale and sallow. Each living creature in the area must succeed at a Fortitude save (DC = 10 + half your psychic level + your Wisdom modifier) or take 1 temporary negative level as their life force drains away.</p>\n<p>If you’re at least 17th level, a creature that fails its saving throw takes 2 temporary negative levels instead.</p>"
    },
    "actions": [
      {
        "_id": "381gfl6dno2flsz3",
        "name": "Use",
        "img": "systems/lf1/icons/spells/slice-spirit-3.jpg",
        "activation": {
          "type": "standard",
          "unchained": {
            "cost": 2,
            "type": "action"
          }
        },
        "duration": {
          "units": "inst"
        },
        "target": {
          "value": "creatures within range"
        },
        "range": {
          "value": "30",
          "units": "ft"
        },
        "actionType": "save",
        "save": {
          "type": "fort",
          "description": "Fortitude negates"
        }
      }
    ],
    "uses": {
      "per": "day",
      "maxFormula": "3"
    },
    "tag": "classFeat_drainVibrancy",
    "useCustomTag": true,
    "subType": "classFeat",
    "associations": {
      "classes": ["Psychic"]
    }
  }
}
