{
  "_id": "zIIz4l6KYCUnoZtQ",
  "name": "Drugged",
  "type": "feat",
  "img": "systems/lf1/icons/skills/violet_02.jpg",
  "system": {
    "description": {
      "value": "<p>The witch can combine her magic with her poisons to weaken her enemies’ minds. When the witch creates a poison, she can require the target of the poison to attempt a Will save rather than a Fortitude save.</p>\n<p>The witch must use this hex when she crafts the poison, and once used, the hex can’t be undone without remaking the poison.</p>"
    },
    "tags": ["Hex", "Major Hex"],
    "tag": "classFeat_drugged",
    "useCustomTag": true,
    "subType": "classFeat",
    "associations": {
      "classes": ["Witch"]
    },
    "abilityType": "su"
  }
}
