{
  "_id": "qJ7ubLyKJCalOBKQ",
  "name": "Dual Spirit",
  "type": "feat",
  "img": "systems/lf1/icons/skills/affliction_01.jpg",
  "system": {
    "description": {
      "value": "<p>At 20th level, you gain <em>immunity</em> to <em>mind-affecting</em> effects. Whenever you successfully employ a possession effect (such as @Compendium[lf1.spells.8ai7fslz4zu8xe9s]{Magic Jar} or possession), you remain in complete control of your body and the body of your possessed target.</p>"
    },
    "actions": [
      {
        "_id": "itxqrswown0kjpj9",
        "name": "Use",
        "img": "systems/lf1/icons/skills/affliction_01.jpg",
        "activation": {
          "type": "passive",
          "unchained": {
            "type": "passive"
          }
        },
        "actionType": ""
      }
    ],
    "tag": "classFeat_dualSpirit",
    "useCustomTag": true,
    "subType": "classFeat",
    "associations": {
      "classes": ["Sorcerer"]
    },
    "abilityType": "su"
  }
}
