{
  "_id": "vsPPygCVgWzGdVbN",
  "name": "Eldritch Bolt",
  "type": "feat",
  "img": "systems/lf1/icons/spells/light-royal-1.jpg",
  "system": {
    "description": {
      "value": "<p>You can damage foes with a bolt of raw magical energy. Make a ranged touch attack against any foe within 30 feet. On a hit, you deal 1d8 points of force damage, +1 point of damage per two oracle levels. At 10th level, the bolt’s range increases to 60 feet.</p>\n<p>You may use this revelation a number of times per day equal to 3 + your Charisma modifier.</p>"
    },
    "actions": [
      {
        "_id": "y8vet7095p4beufa",
        "name": "Use",
        "img": "systems/lf1/icons/spells/light-royal-1.jpg",
        "activation": {
          "type": "standard",
          "unchained": {
            "cost": 2,
            "type": "action"
          }
        },
        "duration": {
          "units": "inst"
        },
        "target": {
          "value": "one creature"
        },
        "range": {
          "value": "@classes.oracle.level >= 10 ? 60 : 30",
          "units": "ft"
        },
        "actionType": "rsak",
        "damage": {
          "parts": [
            {
              "formula": "1d8 + floor(@classes.oracle.level / 2)",
              "type": {
                "values": ["force"],
                "custom": ""
              }
            }
          ]
        },
        "ability": {
          "attack": "dex"
        }
      }
    ],
    "uses": {
      "per": "day",
      "maxFormula": "3 + @abilities.cha.mod"
    },
    "tag": "classFeat_eldritchBolt",
    "useCustomTag": true,
    "subType": "classFeat",
    "associations": {
      "classes": ["Oracle"]
    },
    "abilityType": "su"
  }
}
