{
  "_id": "UPXjehDR242zj3QZ",
  "name": "Elemental Final Revelation",
  "type": "feat",
  "img": "systems/lf1/icons/spells/light-royal-1.jpg",
  "system": {
    "description": {
      "value": "<p><strong>Source</strong> Elemental Master's Handbook pg. 29</p><p>Upon reaching 20th level, your body undergoes an internal elemental shift, and you become a living conduit of the Elemental Planes. Your external appearance remains the same, although you may take on certain cosmetic elemental traits (such as smoldering hair or pebble-like skin). You become immune to critical hits and precision damage such as from sneak attacks. You no longer need to breathe, eat, or sleep.</p>"
    },
    "tags": ["Elemental Mystery"],
    "actions": [
      {
        "_id": "te3wk8doz5kdbeun",
        "name": "Use",
        "img": "systems/lf1/icons/spells/light-royal-1.jpg",
        "activation": {
          "type": "passive",
          "unchained": {
            "type": "passive"
          }
        },
        "actionType": ""
      }
    ],
    "tag": "classFeat_elementalFinalRevelation",
    "useCustomTag": true,
    "subType": "classFeat",
    "associations": {
      "classes": ["Oracle"]
    }
  }
}
