{
  "_id": "CSSEFVBegdWvHkDR",
  "name": "Elemental Resistance (Fire)",
  "type": "feat",
  "img": "systems/lf1/icons/spells/protect-red-2.jpg",
  "system": {
    "description": {
      "value": "<p>At 3rd level, you gain <em>fire resistance</em> 10. At 9th level, your <em>fire resistance</em> increases to 20.</p>"
    },
    "actions": [
      {
        "_id": "48vrwpq5fhaov98p",
        "name": "Use",
        "img": "systems/lf1/icons/spells/protect-red-2.jpg",
        "activation": {
          "type": "passive",
          "unchained": {
            "type": "passive"
          }
        },
        "actionType": ""
      }
    ],
    "tag": "classFeat_elementalResistanceFire",
    "useCustomTag": true,
    "subType": "classFeat",
    "associations": {
      "classes": ["Sorcerer"]
    },
    "abilityType": "ex"
  }
}
