{
  "_id": "Zcatqkdn6BuGYdsM",
  "name": "Elemental Movement",
  "type": "feat",
  "img": "systems/lf1/icons/spells/fog-sky-2.jpg",
  "system": {
    "description": {
      "value": "<p>At 15th level, you gain a special movement type or bonus. This ability is based on your chosen element, as indicated on Table: Elemental Bloodline Energy Types and Movement.</p><table><caption><b>Table: Elemental Bloodline Energy Types and Movement</b></caption>\n<thead>\n<tr>\n<th>Element</th>\n<th>Energy Type</th>\n<th>Elemental Movement</th>\n</tr>\n</thead>\n<tbody>\n<tr>\n<td>Air</td>\n<td>Electricity</td>\n<td>Fly 60 feet (average)</td>\n</tr>\n<tr>\n<td>Earth</td>\n<td>Acid</td>\n<td>Burrow 30 feet</td>\n</tr>\n<tr>\n<td>Fire</td>\n<td>Fire</td>\n<td>+30 feet base speed</td>\n</tr>\n<tr>\n<td>Water</td>\n<td>Cold</td>\n<td>Swim 60 feet</td>\n</tr>\n</tbody>\n</table>"
    },
    "actions": [
      {
        "_id": "qatqodsvrd063bx2",
        "name": "Use",
        "img": "systems/lf1/icons/spells/fog-sky-2.jpg",
        "activation": {
          "type": "passive",
          "unchained": {
            "type": "passive"
          }
        },
        "actionType": ""
      }
    ],
    "tag": "classFeat_elementalMovement",
    "useCustomTag": true,
    "subType": "classFeat",
    "associations": {
      "classes": ["Sorcerer"]
    },
    "abilityType": "su"
  }
}
