{
  "_id": "52vhE9asxPlXIr39",
  "name": "Elemental Wall",
  "type": "feat",
  "img": "systems/lf1/icons/spells/beam-red-3.jpg",
  "system": {
    "description": {
      "value": "<p>At 8th level, you can create a wall of energy that lasts for a number of rounds per day equal to your wizard level. These rounds do not need to be consecutive. This wall deals acid, cold, electricity, or fire damage, determined when you create it. The elemental wall otherwise functions like @Compendium[lf1.spells.92hth51cs9oi0nfe]{Wall Of Fire}.</p>"
    },
    "actions": [
      {
        "_id": "5u5ynqoi7bugn0ow",
        "name": "Use",
        "img": "systems/lf1/icons/spells/beam-red-3.jpg",
        "activation": {
          "type": "standard",
          "unchained": {
            "cost": 2,
            "type": "action"
          }
        },
        "duration": {
          "value": "1",
          "units": "round"
        },
        "actionType": ""
      }
    ],
    "uses": {
      "per": "day",
      "maxFormula": "@classes.wizard.level"
    },
    "tag": "classFeat_elementalWall",
    "useCustomTag": true,
    "subType": "classFeat",
    "associations": {
      "classes": ["Wizard"]
    },
    "abilityType": "sp"
  }
}
