{
  "_id": "n6l3NLmO8RU6MuN5",
  "name": "Elemental Exile",
  "type": "feat",
  "img": "systems/lf1/icons/spells/runes-blue-1.jpg",
  "system": {
    "description": {
      "value": "<p><b>Element</b> universal; <b>Type</b> utility (Sp); <b>Level</b> 8; <b>Burn</b> 1<br><b>Saving Throw</b> Will negates; <b>SR</b> yes</p>\n<p>You transport a single creature you touch to the plane associated with your element. Precise accuracy regarding a particular arrival location on the intended plane is almost impossible. The creature appears 5 to 500 miles (5d%) from your intended destination. Elemental exile transports creatures instantaneously and then ends. The creature must find other means to travel back (such as casting @Compendium[lf1.spells.q3st18udsalnyz5v]{Plane Shift} or using elemental exile again).</p>"
    },
    "actions": [
      {
        "_id": "0mexp1ucpr0rawwi",
        "name": "Use",
        "img": "systems/lf1/icons/spells/runes-blue-1.jpg",
        "activation": {
          "type": "standard",
          "unchained": {
            "cost": 2,
            "type": "action"
          }
        },
        "actionType": ""
      }
    ],
    "tag": "classFeat_elementalExile",
    "useCustomTag": true,
    "subType": "classFeat",
    "associations": {
      "classes": ["Kineticist"]
    },
    "abilityType": "sp"
  }
}
