{
  "_id": "RQo6mf1F6pXp0IzL",
  "name": "Elemental Movement (Fire)",
  "type": "feat",
  "img": "systems/lf1/icons/spells/fog-orange-2.jpg",
  "system": {
    "description": {
      "value": "<p>At 15th level, your base speed increases by +30 feet.</p>"
    },
    "actions": [
      {
        "_id": "l3nq2ljzq1s0qqrz",
        "name": "Use",
        "img": "systems/lf1/icons/spells/fog-orange-2.jpg",
        "activation": {
          "type": "passive",
          "unchained": {
            "type": "passive"
          }
        },
        "actionType": ""
      }
    ],
    "changes": [
      {
        "_id": "0arua3bn",
        "formula": "30",
        "subTarget": "landSpeed",
        "modifier": "untyped"
      }
    ],
    "tag": "classFeat_elementalMovementFire",
    "useCustomTag": true,
    "subType": "classFeat",
    "associations": {
      "classes": ["Sorcerer"]
    },
    "abilityType": "su"
  }
}
