{
  "_id": "dtnkUkinLVIl1b2T",
  "name": "Empty Body",
  "type": "feat",
  "img": "systems/lf1/icons/feats/blinding-critical.jpg",
  "system": {
    "description": {
      "value": "<p>At 19th level, a monk gains the ability to assume an ethereal state for 1 minute as though using the spell @Compendium[lf1.spells.gw9bes9othfqm7mi]{Etherealness}. Using this ability is a <em>move action</em> that consumes 3 points from his ki pool. This ability only affects the monk and cannot be used to make other creatures ethereal.</p>"
    },
    "actions": [
      {
        "_id": "ffoo0lybgs7shykr",
        "name": "Use",
        "img": "systems/lf1/icons/feats/blinding-critical.jpg",
        "activation": {
          "type": "move"
        },
        "duration": {
          "value": "@attributes.hd.total",
          "units": "minute"
        },
        "range": {
          "units": "personal"
        },
        "actionType": ""
      }
    ],
    "tag": "classFeat_emptyBody",
    "useCustomTag": true,
    "subType": "classFeat",
    "associations": {
      "classes": ["Monk"]
    },
    "abilityType": "su"
  }
}
