{
  "_id": "HKCjARZvhSVzkyjA",
  "name": "Enchantment Resonant School",
  "type": "feat",
  "img": "systems/lf1/icons/feats/leadership.jpg",
  "system": {
    "description": {
      "value": "<p><em>Enchantment implements allow the occultist to befuddle the mind and charm his foes.</em><p><b>Implements:</b> Censer, crown, helm, musical instrument, necklace.</p>"
    },
    "tag": "classFeat_enchantmentResonantSchool",
    "useCustomTag": true,
    "subType": "classFeat",
    "associations": {
      "classes": ["Occultist"]
    }
  }
}
