{
  "_id": "b9LhRovlfLggwVou",
  "name": "Enduring Earth",
  "type": "feat",
  "img": "systems/lf1/icons/spells/rock-sky-3.jpg",
  "system": {
    "description": {
      "value": "<p><b>Element</b> earth; <b>Type</b> utility (Su); <b>Level</b> 4; <b>Burn</b> —</p>\n<p>When using earth blasts, earth wild talents, or composite blasts that include earth, double the duration if it’s longer than 1 round.</p>"
    },
    "tag": "classFeat_enduringEarth",
    "useCustomTag": true,
    "subType": "classFeat",
    "associations": {
      "classes": ["Kineticist"]
    },
    "abilityType": "su"
  }
}
