{
  "_id": "zIUzrlK42Evwv60E",
  "name": "Enduring Blade",
  "type": "feat",
  "img": "systems/lf1/icons/spells/enchant-red-3.jpg",
  "system": {
    "description": {
      "value": "<p>Whenever the magus enchants his weapon using his arcane pool, he may spend 1 additional point from his arcane pool to increase the duration to 1 minute per magus level.</p>\n<p>The magus must be at least 6th level before selecting this arcana.</p>"
    },
    "tag": "classFeat_enduringBlade",
    "useCustomTag": true,
    "subType": "classFeat",
    "associations": {
      "classes": ["Magus"]
    },
    "abilityType": "su"
  }
}
