{
  "_id": "TItIq9FrzgMuTBWU",
  "name": "Enemies' Bane",
  "type": "feat",
  "img": "systems/lf1/icons/skills/violet_20.jpg",
  "system": {
    "description": {
      "value": "<p>As a swift action, the shaman imbues a single weapon she’s wielding with the bane weapon special ability, choosing the type of creature affected each time she does. The effect lasts for 1 minute. If the weapon already has the bane weapon special ability of the type chosen, the additional damage dealt by bane increases to 4d6.</p>\n<p>The shaman can use this ability a number of times per day equal to 3 + her Charisma modifier.</p>"
    },
    "actions": [
      {
        "_id": "ngcow6a4rwo97qc8",
        "name": "Use",
        "img": "systems/lf1/icons/skills/violet_20.jpg",
        "activation": {
          "type": "swift",
          "unchained": {
            "type": "action"
          }
        },
        "duration": {
          "value": "1",
          "units": "minute"
        },
        "target": {
          "value": "weapon held"
        },
        "range": {
          "units": "touch"
        },
        "actionType": ""
      }
    ],
    "uses": {
      "per": "day",
      "maxFormula": "3 + @abilities.cha.mod"
    },
    "tag": "classFeat_enemiesBane",
    "useCustomTag": true,
    "subType": "classFeat",
    "associations": {
      "classes": ["Shaman"]
    },
    "abilityType": "su"
  }
}
