{
  "_id": "N32qfirDp2o7pG5h",
  "name": "Entropy Patron",
  "type": "feat",
  "img": "systems/lf1/icons/feats/improved-familiar.jpg",
  "system": {
    "description": {
      "value": "<ul>\n<li>2nd — @Compendium[lf1.spells.ud4xukzhan89qhm4]{Confusion, Lesser}</li>\n<li>4th — @Compendium[lf1.spells.kvfggbo0tr5gklxu]{Plague Carrier}</li>\n<li>6th — @Compendium[lf1.spells.w0nnnapmxd8u3auq]{Babble}</li>\n<li>8th — @Compendium[lf1.spells.ni93l43asrq29ytd]{Wandering Star Motes}</li>\n<li>10th — @Compendium[lf1.spells.66vvhyiy5q8yzbq2]{Feeblemind}</li>\n<li>12th — @Compendium[lf1.spells.niqxt53lhxrjfaty]{Antimagic Field}</li>\n<li>14th — @Compendium[lf1.spells.s6q72tw2zra9sycu]{Insanity}</li>\n<li>16th — @Compendium[lf1.spells.picot3viqlfo8arm]{Symbol of Insanity}</li>\n<li>18th — @Compendium[lf1.spells.4qriqew7d2ot7wr5]{Interplanetary Teleport}</li>\n</ul>"
    },
    "tag": "classFeat_entropyPatron",
    "useCustomTag": true,
    "subType": "classFeat",
    "associations": {
      "classes": ["Witch"]
    }
  }
}
