{
  "_id": "957AB1mVOXLHYJNv",
  "name": "Eternal Youth",
  "type": "feat",
  "img": "systems/lf1/icons/items/potions/unique-3.jpg",
  "system": {
    "description": {
      "value": "<p>The alchemist has discovered a cure for aging, and from this point forward he takes no penalty to his physical ability scores from advanced age. If the alchemist is already taking such penalties, they are removed at this time.</p>"
    },
    "tag": "classFeat_eternalYouth",
    "useCustomTag": true,
    "subType": "classFeat",
    "associations": {
      "classes": ["Alchemist"]
    }
  }
}
