{
  "_id": "YsQWBe3dRvwnCHwU",
  "name": "Evil Eye (BLO)",
  "type": "feat",
  "img": "systems/lf1/icons/skills/red_05.jpg",
  "system": {
    "description": {
      "value": "<p>At 1st level, you can curse an opponent with a wicked glance. As a standard action, you can afflict one target within 30 feet that you can see, causing it to take a –2 penalty to AC and on attack rolls for 1 round per class level or until the target hits you with an attack. The target can negate this effect with a successful Will saving throw (DC = 10 + half your bloodrager level + your Charisma modifier). You can use this ability a number of times per day equal to 3 + your Charisma modifier.</p>"
    },
    "actions": [
      {
        "_id": "2bq9x4xz0hnbywmt",
        "name": "Use",
        "img": "systems/lf1/icons/skills/red_05.jpg",
        "actionType": "save",
        "save": {
          "type": "will",
          "description": "Will negates"
        }
      }
    ],
    "tag": "classFeat_evilEyeBlo",
    "useCustomTag": true,
    "subType": "classFeat",
    "associations": {
      "classes": ["Bloodrager"]
    },
    "abilityType": "su"
  }
}
