{
  "_id": "vuWLdHoRvpaPQ24E",
  "name": "Excommunication Inquisition",
  "type": "feat",
  "img": "systems/lf1/icons/items/inventory/badge-cross.jpg",
  "system": {
    "description": {
      "value": "<p><b>Granted Powers:</b> Marked by your deity for your impressive will, you are among the few with the wherewithal to carry out the necessary work of removing dangerous influences from your church.</p>"
    },
    "tag": "classFeat_excommunicationInquisition",
    "useCustomTag": true,
    "subType": "classFeat",
    "associations": {
      "classes": ["Inquisitor"]
    }
  }
}
