{
  "_id": "4lNgChxjExmqUpwP",
  "name": "Extreme Range Infusion",
  "type": "feat",
  "img": "systems/lf1/icons/spells/runes-blue-1.jpg",
  "system": {
    "description": {
      "value": "<p><b>Element</b> universal; <b>Type</b> form infusion; <b>Level</b> 3; <b>Burn</b> 2<br><b>Prerequisite</b> extended range<br><b>Associated Blasts</b> any<br><b>Saving Throw</b> none</p>\n<p>Your kinetic blast can strike any target within 480 feet.</p>"
    },
    "tag": "classFeat_extremeRangeInfusion",
    "useCustomTag": true,
    "subType": "classFeat",
    "associations": {
      "classes": ["Kineticist"]
    }
  }
}
