{
  "_id": "XMRuzcZXSu0FHYlM",
  "name": "Eye for an Eye",
  "type": "feat",
  "img": "systems/lf1/icons/items/inventory/banner-red.jpg",
  "system": {
    "description": {
      "value": "<p>At 8th level, the cavalier gains @Compendium[lf1.feats.JNlMhMhcDO8wkXiw]{Critical Focus} as a bonus feat. The cavalier can grant a <a href=\"https://aonprd.com/Feats.aspx?Category=Critical\">critical feat</a> (in place of a teamwork feat) to her allies using the tactician ability.</p>"
    },
    "tag": "classFeat_eyeForAnEye",
    "useCustomTag": true,
    "subType": "classFeat",
    "associations": {
      "classes": ["Cavalier"]
    },
    "abilityType": "ex"
  }
}
