{
  "_id": "OxLSX3yUpgcf1J5O",
  "name": "Family Subdomain",
  "type": "feat",
  "img": "systems/lf1/icons/skills/affliction_10.jpg",
  "system": {
    "description": {
      "value": "<p><b>Replacement Domain Spells:</b></p>\n<ul>\n<li>2nd—@Compendium[lf1.spells.6orhthk4g27rncuu]{Calm Emotions}</li>\n<li>3rd—@Compendium[lf1.spells.qn947hen3wrelxhz]{Create Food and Water}</li>\n</ul>"
    },
    "tag": "classFeat_familySubdomain",
    "useCustomTag": true,
    "subType": "classFeat",
    "associations": {
      "classes": ["Cleric"]
    }
  }
}
