{
  "_id": "C4iiYvz6eOQ9zbSq",
  "name": "Fast Stealth (UC)",
  "type": "feat",
  "img": "systems/lf1/icons/items/weapons/hunga-munga.PNG",
  "system": {
    "description": {
      "value": "<p>This ability allows a rogue to move at full speed using the Stealth skill without penalty.</p>"
    },
    "tag": "classFeat_fastStealthUc",
    "useCustomTag": true,
    "subType": "classFeat",
    "associations": {
      "classes": ["Rogue (Unchained)"]
    },
    "abilityType": "ex"
  }
}
