{
  "_id": "9EX00obqhGHcrOdp",
  "name": "Fast Movement (BAR)",
  "type": "feat",
  "img": "systems/lf1/icons/skills/armor_01.jpg",
  "system": {
    "description": {
      "value": "<p>A barbarian’s land speed is faster than the norm for her race by +10 feet. This benefit applies only when he is wearing no <em>armor</em>, light <em>armor</em>, or medium <em>armor</em>, and not carrying a heavy load. Apply this bonus before modifying the barbarian’s speed because of any load carried or armor worn. This bonus stacks with any other bonuses to the barbarian’s land speed.</p>"
    },
    "actions": [
      {
        "_id": "lo6bd7k9n9o3mp39",
        "name": "Use",
        "img": "systems/lf1/icons/skills/armor_01.jpg",
        "activation": {
          "type": "passive",
          "unchained": {
            "type": "passive"
          }
        },
        "actionType": ""
      }
    ],
    "changes": [
      {
        "_id": "cu5r7fnq",
        "formula": "@armor.type <= 2 && @attributes.encumbrance.level < 2 ? 10 : 0",
        "subTarget": "landSpeed",
        "modifier": "base"
      }
    ],
    "tag": "classFeat_fastMovementBar",
    "useCustomTag": true,
    "subType": "classFeat",
    "associations": {
      "classes": ["Barbarian"]
    },
    "abilityType": "ex"
  }
}
