{
  "_id": "BXAA2uGKQr6WDT19",
  "name": "Feywise",
  "type": "feat",
  "img": "systems/lf1/icons/spells/light-royal-1.jpg",
  "system": {
    "description": {
      "value": "<p>Your whimsy grants you protection from fey mischief. You gain the resist nature’s lure druid class feature. In addition, you gain a +2 bonus on Perception, Sense Motive, and Survival checks against fey.</p>\n<p>You must be at least 3rd level to select this revelation.</p>"
    },
    "actions": [
      {
        "_id": "j83h50a58stlut56",
        "name": "Use",
        "img": "systems/lf1/icons/spells/light-royal-1.jpg",
        "activation": {
          "type": "passive",
          "unchained": {
            "type": "passive"
          }
        },
        "actionType": ""
      }
    ],
    "tag": "classFeat_feywise",
    "useCustomTag": true,
    "subType": "classFeat",
    "associations": {
      "classes": ["Oracle"]
    },
    "abilityType": "ex"
  }
}
