{
  "_id": "Z3pFVFlfMcbiCgQJ",
  "name": "Fiend Totem",
  "type": "feat",
  "img": "systems/lf1/icons/feats/deafening-critical.jpg",
  "system": {
    "description": {
      "value": "<p>While raging, the barbarian sprouts dozens of wicked barbs from her body. Anyone striking the barbarian with a melee weapon, an unarmed strike, or a natural weapon takes 1d6 points of piercing damage. A barbarian must have the lesser fiend totem rage power to select this rage power.</p>\n<p>A barbarian must be at least 6th level to select this rage power.</p>"
    },
    "tag": "classFeat_fiendTotem",
    "useCustomTag": true,
    "subType": "classFeat",
    "associations": {
      "classes": ["Barbarian", "Skald"]
    },
    "abilityType": "su"
  }
}
