{
  "_id": "S6YvE7H7ChJIl839",
  "name": "Finesse Rogue",
  "type": "feat",
  "img": "systems/lf1/icons/items/weapons/dagger.PNG",
  "system": {
    "description": {
      "value": "<p>A rogue that selects this talent gains @Compendium[lf1.feats.vWiTqHC4Y3Xn1Pme]{Weapon Finesse} as a bonus feat.</p>"
    },
    "tag": "classFeat_finesseRogue",
    "useCustomTag": true,
    "subType": "classFeat",
    "associations": {
      "classes": ["Rogue"]
    },
    "abilityType": "ex"
  }
}
