{
  "_id": "QjWHNYX9az2Aydxz",
  "name": "Firearm Training",
  "type": "feat",
  "img": "systems/lf1/icons/items/weapons/dagger.PNG",
  "system": {
    "description": {
      "value": "<p>A rogue with this talent gains @Compendium[lf1.feats.BJBC4lbo7xGWPsKJ]{Exotic Weapon Proficiency} (firearms).</p>"
    },
    "tag": "classFeat_firearmTraining",
    "useCustomTag": true,
    "subType": "classFeat",
    "associations": {
      "classes": ["Rogue", "Rogue (Unchained)"]
    },
    "abilityType": "ex"
  }
}
