{
  "_id": "k19i2hOVsbC7Zm72",
  "name": "Fire Breath",
  "type": "feat",
  "img": "systems/lf1/icons/spells/light-royal-1.jpg",
  "system": {
    "description": {
      "value": "<p>As a standard action, you can unleash a 15-foot cone of flame from your mouth. This flame deals 1d4 points of fire damage per level. A Reflex save halves this damage.</p>\n<p>You can use this ability once per day, plus one additional time per day at 5th level and every five levels thereafter. The save DC is Charisma-based.</p>"
    },
    "actions": [
      {
        "_id": "ewjhvtdvvpmvb3bq",
        "name": "Use",
        "img": "systems/lf1/icons/spells/light-royal-1.jpg",
        "activation": {
          "type": "standard",
          "unchained": {
            "cost": 2,
            "type": "action"
          }
        },
        "duration": {
          "units": "inst"
        },
        "target": {
          "value": "15-ft. cone"
        },
        "measureTemplate": {
          "type": "cone",
          "size": "15",
          "overrideColor": true,
          "customColor": "#000000",
          "overrideTexture": true
        },
        "actionType": "spellsave",
        "damage": {
          "parts": [
            {
              "formula": "(@classes.oracle.level)d4",
              "type": {
                "values": ["fire"],
                "custom": ""
              }
            }
          ]
        },
        "save": {
          "type": "ref",
          "description": "Reflex half"
        }
      }
    ],
    "uses": {
      "per": "day",
      "maxFormula": "1 + floor(@classes.oracle.level / 5)"
    },
    "tag": "classFeat_fireBreath",
    "useCustomTag": true,
    "subType": "classFeat",
    "associations": {
      "classes": ["Oracle"]
    },
    "abilityType": "su"
  }
}
