{
  "_id": "GgPeOYI0CyqvXhb6",
  "name": "Fire Steed",
  "type": "feat",
  "img": "systems/lf1/icons/spells/fireball-red-3.jpg",
  "system": {
    "description": {
      "value": "<p><b>Element</b> fire; <b>Type</b> utility (Sp); <b>Level</b> 2; <b>Burn</b> 0</p>\n<p>You imbue a willing animal, magical beast, or other creature that can serve as a suitable mount with elemental power from the Plane of Fire, wreathing it in flames for 1 round. You can accept 1 point of burn to increase the duration to 1 round per kineticist level you have. The mount gains fire resistance 10 and its speed increases by 10 feet.</p>\n<p>Creatures other than you who touch the mount, attack the mount with a natural weapon or unarmed strike, or attempt to mount the creature take 1d6 points of fire damage every round they are in contact with the mount.</p>"
    },
    "actions": [
      {
        "_id": "ml5dnc0j8qr4lz5b",
        "name": "Use",
        "img": "systems/lf1/icons/spells/fireball-red-3.jpg",
        "activation": {
          "type": "standard",
          "unchained": {
            "cost": 2,
            "type": "action"
          }
        },
        "duration": {
          "value": "@classes.kineticist.level",
          "units": "round"
        },
        "actionType": ""
      }
    ],
    "tag": "classFeat_fireSteed",
    "useCustomTag": true,
    "subType": "classFeat",
    "associations": {
      "classes": ["Kineticist"]
    },
    "abilityType": "sp"
  }
}
