{
  "_id": "YvkymTmb5YLbqsjK",
  "name": "Fist Subdomain",
  "type": "feat",
  "img": "systems/lf1/icons/feats/improved-unarmed-strike.jpg",
  "system": {
    "description": {
      "value": "<p><b>Replacement Domain Spells:</b></p>\n<ul>\n<li>1st—@Compendium[lf1.spells.xco22162bwgxn7pj]{True Strike}</li>\n<li>3rd—@Compendium[lf1.spells.bgtmki0xl4xl4y91]{Magic Fang, Greater}</li>\n<li>4th—@Compendium[lf1.spells.lmst00dtapf4xhya]{Force Punch}</li>\n</ul>"
    },
    "tag": "classFeat_fistSubdomain",
    "useCustomTag": true,
    "subType": "classFeat",
    "associations": {
      "classes": ["Cleric"]
    }
  }
}
