{
  "_id": "GkaUE9fgyMkiLlOH",
  "name": "Flame Control",
  "type": "feat",
  "img": "systems/lf1/icons/spells/runes-blue-2.jpg",
  "system": {
    "description": {
      "value": "<p>The arcanist can spend 1 point from her arcane reservoir to move or extinguish one 5-foot square per arcanist level of an ongoing nonmagical fire. If she chooses to move a portion of the fire, it must be moved to a square contiguous with that fire. If she also expends a spell slot of at least 3rd level when activating this ability, she can attempt to dispel a magical fire effect, as @Compendium[lf1.spells.gmgwyjfpeuuc4t4o]{Dispel Magic}.</p>"
    },
    "tags": ["Arcanist Exploit"],
    "actions": [
      {
        "_id": "7ysk88zeq44vo7j0",
        "name": "Use",
        "img": "systems/lf1/icons/spells/runes-blue-2.jpg",
        "activation": {
          "type": "standard",
          "unchained": {
            "cost": 2,
            "type": "action"
          }
        },
        "actionType": ""
      }
    ],
    "tag": "classFeat_flameControl",
    "useCustomTag": true,
    "subType": "classFeat",
    "associations": {
      "classes": ["Arcanist"]
    },
    "abilityType": "su"
  }
}
