{
  "_id": "xRA5OKCbThqypyYP",
  "name": "Fluid Magic",
  "type": "feat",
  "img": "systems/lf1/icons/skills/green_03.jpg",
  "system": {
    "description": {
      "value": "<p>The shaman’s magic is not constrained by the reservoirs of magic that hold others back. She is able to prepare her spirit magic spells in her regular spell slots. If the shaman changes her wandering spirit, any prepared spirit magic spell belonging to that spirit becomes an open spell slot.</p>"
    },
    "tag": "classFeat_fluidMagic",
    "useCustomTag": true,
    "subType": "classFeat",
    "associations": {
      "classes": ["Shaman"]
    },
    "abilityType": "su"
  }
}
