{
  "_id": "Ganfw21vhCNdu09Y",
  "name": "Focused Summoning",
  "type": "feat",
  "img": "systems/lf1/icons/spells/runes-blue-2.jpg",
  "system": {
    "description": {
      "value": "<p>When an arcanist is on a plane other than the Material Plane, she can expend 1 point from her arcane reservoir as part of casting a spell that summons a single outsider native to that plane. If she does so, the outsider’s attacks bypass all types of DR that it has. For example, a nabasu demon, which has DR/cold iron or DR/good, would bypass both DR/cold iron and DR/good.</p>"
    },
    "tags": ["Arcanist Exploit"],
    "actions": [
      {
        "_id": "hnbmi5alm7v4c5w6",
        "name": "Use",
        "img": "systems/lf1/icons/spells/runes-blue-2.jpg",
        "activation": {
          "type": "free",
          "unchained": {
            "type": "free"
          }
        },
        "actionType": ""
      }
    ],
    "tag": "classFeat_focusedSummoning",
    "useCustomTag": true,
    "subType": "classFeat",
    "associations": {
      "classes": ["Arcanist"]
    },
    "abilityType": "su"
  }
}
