{
  "_id": "iBeDQtCPXycfpiqV",
  "name": "Foil Scrutiny",
  "type": "feat",
  "img": "systems/lf1/icons/items/weapons/rhoka.PNG",
  "system": {
    "description": {
      "value": "<p>A slayer with this talent is able to obscure his thoughts and intentions. He gains a +2 bonus on all Bluff and Disguise checks, as well as on Will saving throws to resist mind-reading spells and effects (such as detect thoughts and discern lies).</p>"
    },
    "changes": [
      {
        "_id": "rqb8uxvs",
        "formula": "2",
        "subTarget": "skill.blf",
        "modifier": "untyped"
      },
      {
        "_id": "c4s34q3f",
        "formula": "2",
        "subTarget": "skill.dis",
        "modifier": "untyped"
      }
    ],
    "tag": "classFeat_foilScrutiny",
    "useCustomTag": true,
    "subType": "classFeat",
    "associations": {
      "classes": ["Slayer"]
    },
    "abilityType": "ex"
  }
}
