{
  "_id": "eSBAqJV9AZLiWdux",
  "name": "Force Barrier",
  "type": "feat",
  "img": "systems/lf1/icons/spells/link-blue-2.jpg",
  "system": {
    "description": {
      "value": "<p><b>Element</b> aether; <b>Type</b> utility (Sp); <b>Level</b> 5; <b>Burn</b> 0<br><b>Prerequisite</b> force ward</p>\n<p>You create an immobile sphere or hemisphere of force around your square or squares. The force barrier functions as a wall of force in all other ways. Activating this ability is a standard action, and the barrier lasts until the beginning of your next turn.</p>\n<p>Each round, just before the barrier would disappear, you can extend its duration by accepting 1 point of burn. If an attack manages to destroy the force barrier, you immediately take 1 point of burn.</p>"
    },
    "tag": "classFeat_forceBarrier",
    "useCustomTag": true,
    "subType": "classFeat",
    "associations": {
      "classes": ["Kineticist"]
    },
    "abilityType": "sp"
  }
}
