{
  "_id": "EclIoodZh17RhZul",
  "name": "Foresight Subschool",
  "type": "feat",
  "img": "systems/lf1/icons/spells/wind-grasp-acid-1.jpg",
  "system": {
    "description": {
      "value": "<p><b>Associated School:</b> <em>Divination</em>.</p>\n<p><b>Replacement Powers:</b> This subschool replaces the diviner’s fortune and scrying adept powers of the <em>divination</em> school.</p>"
    },
    "tag": "classFeat_foresightSubschool",
    "useCustomTag": true,
    "subType": "classFeat",
    "associations": {
      "classes": ["Wizard"]
    }
  }
}
