{
  "_id": "Ouix3acXFWzTaxGO",
  "name": "Forebear's Reserves",
  "type": "feat",
  "img": "systems/lf1/icons/skills/red_05.jpg",
  "system": {
    "description": {
      "value": "<p>At 8th level, you can reroll a saving throw once during a bloodrage. You must decide to use this ability after the die is rolled but before the GM reveals the result. You must take the second result, even if it’s worse.</p>"
    },
    "tag": "classFeat_forebearsReserves",
    "useCustomTag": true,
    "subType": "classFeat",
    "associations": {
      "classes": ["Bloodrager"]
    },
    "abilityType": "su"
  }
}
