{
  "_id": "c5vETaJIG3Phtpig",
  "name": "Forge and Fire",
  "type": "feat",
  "img": "systems/lf1/icons/items/inventory/anvil.jpg",
  "system": {
    "description": {
      "value": "<p>At 3rd level, you gain @Compendium[lf1.feats.4hNO4OAWYF5vXphH]{Craft Magic Arms and Armor} as a bonus feat. In addition, whenever you cast a nonpermanent, noninstantaneous spell that improves or enhances a manufactured weapon, you can also give that weapon the <em>flaming</em> special ability for the spell’s duration (This has no effect if the weapon already has the <em>flaming</em> special ability).</p>"
    },
    "actions": [
      {
        "_id": "w8or24guduvshkpq",
        "name": "Use",
        "img": "systems/lf1/icons/items/inventory/anvil.jpg",
        "activation": {
          "type": "passive",
          "unchained": {
            "type": "passive"
          }
        },
        "actionType": ""
      }
    ],
    "tag": "classFeat_forgeAndFire",
    "useCustomTag": true,
    "subType": "classFeat",
    "associations": {
      "classes": ["Sorcerer"]
    },
    "abilityType": "su"
  }
}
