{
  "_id": "mS7LSsQQkjVvKx9z",
  "name": "Gentle Rest",
  "type": "feat",
  "img": "systems/lf1/icons/skills/blue_20.jpg",
  "system": {
    "description": {
      "value": "<p>Your touch can fill a creature with lethargy, causing a living creature to become staggered for 1 round as a melee touch attack. If you touch a staggered living creature, that creature falls asleep for 1 round instead. Undead creatures touched are staggered for a number of rounds equal to your Wisdom modifier. You can use this ability a number of times per day equal to 3 + your Wisdom modifier.</p>"
    },
    "actions": [
      {
        "_id": "fne8jvaue2e7ws7r",
        "name": "Use",
        "img": "systems/lf1/icons/skills/blue_20.jpg",
        "activation": {
          "type": "standard",
          "unchained": {
            "cost": 2,
            "type": "action"
          }
        },
        "duration": {
          "value": "@abilities.wis.mod",
          "units": "round"
        },
        "target": {
          "value": "creature touched"
        },
        "range": {
          "units": "touch"
        },
        "actionType": ""
      }
    ],
    "uses": {
      "per": "day",
      "maxFormula": "3 + @abilities.wis.mod"
    },
    "tag": "classFeat_gentleRest",
    "useCustomTag": true,
    "subType": "classFeat",
    "associations": {
      "classes": ["Cleric"]
    },
    "abilityType": "sp"
  }
}
