{
  "_id": "dCz0ma1bPh4tJK0H",
  "name": "Gills (UC) (1 pt)",
  "type": "feat",
  "img": "systems/lf1/icons/skills/blue_26.jpg",
  "system": {
    "description": {
      "value": "<p>The eidolon has gills and can breathe underwater indefinitely.</p>"
    },
    "tag": "classFeat_gillsUc1Pt",
    "useCustomTag": true,
    "subType": "classFeat",
    "associations": {
      "classes": ["Eidolon (Unchained)"]
    },
    "abilityType": "ex"
  }
}
