{
  "_id": "3Qb0NIxRMpNhM3ls",
  "name": "Gills (1 pt)",
  "type": "feat",
  "img": "systems/lf1/icons/skills/blue_26.jpg",
  "system": {
    "description": {
      "value": "<p>An eidolon has gills and can breathe underwater indefinitely.</p>"
    },
    "tag": "classFeat_gills1Pt",
    "useCustomTag": true,
    "subType": "classFeat",
    "associations": {
      "classes": ["Eidolon"]
    },
    "abilityType": "ex"
  }
}
