{
  "_id": "8msuK0gdOUVJvD4X",
  "name": "Good Blessing: Battle Companion",
  "type": "feat",
  "img": "systems/lf1/icons/spells/beam-sky-3.jpg",
  "system": {
    "description": {
      "value": "<p>At 10th level, you can summon a battle companion. This ability functions as @Compendium[lf1.spells.aqri3zf6mzgd4di6]{Summon Monster IV} with a duration of 1 minute, but for only a good outsider or an animal with the celestial creature simple template.</p>\n<p>This ability can summon only one creature, regardless of the list used. For every 2 levels beyond 10th, the level of the summon monster spell increases by 1 (to a maximum of @Compendium[lf1.spells.mi52crelhwuy6bmp]{Summon Monster IX} at 20th level).</p>"
    },
    "actions": [
      {
        "_id": "hrsjrqa5atkzvdau",
        "name": "Use",
        "img": "systems/lf1/icons/spells/beam-sky-3.jpg",
        "activation": {
          "type": "round",
          "unchained": {
            "cost": 3,
            "type": "action"
          }
        },
        "duration": {
          "value": "1",
          "units": "minute"
        },
        "actionType": ""
      }
    ],
    "tag": "classFeat_goodBlessingBattleCompanion",
    "useCustomTag": true,
    "subType": "classFeat",
    "associations": {
      "classes": ["Warpriest"]
    }
  }
}
