{
  "_id": "3gcGbx4ymWgh4vGS",
  "name": "Grab (UC) (2 pts)",
  "type": "feat",
  "img": "systems/lf1/icons/skills/blue_26.jpg",
  "system": {
    "description": {
      "value": "<p>The eidolon becomes adept at grappling foes, gaining the grab ability. Select one of the following attacks: bite, claw, pincers, slam, tail slap, or tentacle. Whenever the eidolon makes a successful attack of the selected type, it can attempt a free combat maneuver check. If successful, the eidolon grapples the target.</p>\n<p>This ability works only on creatures at least one size category smaller than the eidolon.</p>\n<p>Eidolons with this evolution gain a +4 bonus on combat maneuver checks to grapple.</p>"
    },
    "tag": "classFeat_grabUc2Pts",
    "useCustomTag": true,
    "subType": "classFeat",
    "associations": {
      "classes": ["Eidolon (Unchained)"]
    },
    "abilityType": "ex"
  }
}
