{
  "_id": "HSa7LF5k1v4QwYt2",
  "name": "Grand Maestro",
  "type": "feat",
  "img": "systems/lf1/icons/skills/emerald_06.jpg",
  "system": {
    "description": {
      "value": "<p>At 20th level, the power of pure magic music flows through you. You cast any spell with a verbal component as if it had the @Compendium[lf1.feats.jVFjMIyQD6TOAsmj]{Still Spell} metamagic feat applied to it, with no increase to the <em>casting time</em> or spell slot required to cast it. You gain <em>immunity</em> to sonic damage and language-dependent spells.</p>"
    },
    "actions": [
      {
        "_id": "ulgeym1gi189w16i",
        "name": "Use",
        "img": "systems/lf1/icons/skills/emerald_06.jpg",
        "activation": {
          "type": "passive",
          "unchained": {
            "type": "passive"
          }
        },
        "actionType": ""
      }
    ],
    "tag": "classFeat_grandMaestro",
    "useCustomTag": true,
    "subType": "classFeat",
    "associations": {
      "classes": ["Sorcerer"]
    },
    "abilityType": "su"
  }
}
