{
  "_id": "OCILArrmxAomStte",
  "name": "Grasping Gloom",
  "type": "feat",
  "img": "systems/lf1/icons/items/potions/unique-3.jpg",
  "system": {
    "description": {
      "value": "<p>The gloom creates an area equal to double its splash radius that functions as @Compendium[lf1.spells.wralcmyi4tdcai24]{Black Tentacles}. The effect lasts for a number of rounds equal to half the alchemist’s level.</p>\n<p>An alchemist must be at least 8th level before selecting this discovery.</p>"
    },
    "tag": "classFeat_graspingGloom",
    "useCustomTag": true,
    "subType": "classFeat",
    "associations": {
      "classes": ["Alchemist"]
    }
  }
}
