{
  "_id": "XAFGCIT6r7lRw9yN",
  "name": "Greater Metamagic Knowledge",
  "type": "feat",
  "img": "systems/lf1/icons/spells/runes-blue-3.jpg",
  "system": {
    "description": {
      "value": "<p>The arcanist can select a metamagic feat as a bonus feat. She must meet the prerequisites of this feat. Each morning, when she prepares her spells, the arcanist can expend 1 point from her arcane reservoir to exchange this bonus feat for another metamagic feat, as long as she meets the prerequisites of the new feat.</p>\n<p>The arcanist must have the metamagic knowledge exploit to select this exploit.</p>"
    },
    "tags": ["Arcanist Exploit, Greater"],
    "actions": [
      {
        "_id": "dmrkarzobcnwu3dz",
        "name": "Use",
        "img": "systems/lf1/icons/spells/runes-blue-3.jpg",
        "activation": {
          "type": "special",
          "unchained": {
            "type": "special"
          }
        },
        "actionType": ""
      }
    ],
    "tag": "classFeat_greaterMetamagicKnowledge",
    "useCustomTag": true,
    "subType": "classFeat",
    "associations": {
      "classes": ["Arcanist"]
    }
  }
}
