{
  "_id": "Itt5uycnpzrnrKM9",
  "name": "Greater Invocation",
  "type": "feat",
  "img": "systems/lf1/icons/skills/emerald_06.jpg",
  "system": {
    "description": {
      "value": "<p>At 20th level, each day when the omdura regains her spell slots, she chooses one invocation to be active on herself and her allies for the entire day. The omdura receives the full bonus granted by this invocation. This invocation is in addition to her uses of the invocation and improved invocation class abilities.</p>"
    },
    "tag": "classFeat_greaterInvocation",
    "useCustomTag": true,
    "subType": "classFeat",
    "associations": {
      "classes": ["Omdura"]
    },
    "abilityType": "ex"
  }
}
