{
  "_id": "EJmvyrfWfi2q7Evl",
  "name": "Greater Spirit Channeling",
  "type": "feat",
  "img": "systems/lf1/icons/spells/slice-spirit-3.jpg",
  "system": {
    "description": {
      "value": "<p>At 13th level, when you open your body to a wandering spirit, you also gain that wandering spirit’s greater spirit ability as long as you are in a metamorphosed form.</p>"
    },
    "tag": "classFeat_greaterSpiritChanneling",
    "useCustomTag": true,
    "subType": "classFeat",
    "associations": {
      "classes": ["Psychic"]
    },
    "abilityType": "su"
  }
}
