{
  "_id": "wV4A980QNyo4Vo1X",
  "name": "Guiding Star",
  "type": "feat",
  "img": "systems/lf1/icons/spells/light-royal-1.jpg",
  "system": {
    "description": {
      "value": "<p>Whenever you can see the open sky at night, you can determine your precise location. When the night sky is visible to you, you may also add your Charisma modifier to your Wisdom modifier on all Wisdom-based checks.</p>\n<p>In addition, once per night while outdoors, you can cast one spell as if it were modified by the Empower Spell, Extend Spell, Silent Spell, or Still spell feat without increasing the spell's casting time or level.</p>"
    },
    "tag": "classFeat_guidingStar",
    "useCustomTag": true,
    "subType": "classFeat",
    "associations": {
      "classes": ["Oracle"]
    },
    "abilityType": "su"
  }
}
