{
  "_id": "zRCb4hRGIVAfvEyY",
  "name": "Hag Transformation",
  "type": "feat",
  "img": "systems/lf1/icons/skills/red_05.jpg",
  "system": {
    "description": {
      "value": "<p>At 12th level, your form grows more twisted and powerful while bloodraging, but clumsy, blind aggression clouds your mind. Your morale bonus to Strength increases by 2, and you gain low-light vision and darkvision (60 feet), but you take a –2 penalty to both Dexterity and Wisdom for the duration of your bloodrage.</p>\n<p>At 16th level, you apply your morale bonus on Will saving throws while bloodraging to Fortitude and Reflex saving throws against spells and spell-like abilities.</p>"
    },
    "tag": "classFeat_hagTransformation",
    "useCustomTag": true,
    "subType": "classFeat",
    "associations": {
      "classes": ["Bloodrager"]
    },
    "abilityType": "su"
  }
}
