{
  "_id": "6qCPzf5PB1dCOgSh",
  "name": "Hampering Hex",
  "type": "feat",
  "img": "systems/lf1/icons/skills/green_03.jpg",
  "system": {
    "description": {
      "value": "<p>The shaman causes a creature within 30 feet to take a –2 penalty to AC and CMD for a number of rounds equal to the shaman’s level. A successful Will saving throw reduces this to just 1 round.</p>\n<p>At 8th level, the penalty becomes –4.</p>\n<p>Whether or not the save is successful, a creature affected by a hampering hex cannot be the target of this hex again for 24 hours.</p>"
    },
    "actions": [
      {
        "_id": "yeag89fvrzxdkt8y",
        "name": "Use",
        "img": "systems/lf1/icons/skills/green_03.jpg",
        "activation": {
          "type": "standard",
          "unchained": {
            "cost": 2,
            "type": "action"
          }
        },
        "duration": {
          "value": "@classes.shaman.level",
          "units": "round"
        },
        "target": {
          "value": "one creature"
        },
        "range": {
          "value": "30",
          "units": "ft"
        },
        "actionType": "save",
        "save": {
          "type": "will",
          "description": "Will reduces duration to 1 round"
        }
      }
    ],
    "tag": "classFeat_hamperingHex",
    "useCustomTag": true,
    "subType": "classFeat",
    "associations": {
      "classes": ["Shaman"]
    },
    "abilityType": "su"
  }
}
