{
  "_id": "jGpMrid5nQOXB7tl",
  "name": "Harrow Bloodline",
  "type": "feat",
  "img": "systems/lf1/icons/races/aphorite.png",
  "system": {
    "description": {
      "value": "<p><em>Just as knowledge of the harrow has passed from generation to generation since time immemorial, so too has a deep spiritual connection to the otherworldly forces bound by the harrow passed through the ages. Your connection to the mysterious deck grants you magical power over the cards of the harrow, visions of the future, and the ability to call down ephemeral forces.</em></p>\n<p><b>Class Skills:</b> <em>Knowledge</em> (history).</p>\n<p><b>Bonus Spells:</b></p>\n<ul>\n<li>@Compendium[lf1.spells.wjdhmfdgwrevax3w]{Ill Omen} (3rd),</li>\n<li>@Compendium[lf1.spells.d1wxnax51cecplm4]{Augury} (5th),</li>\n<li>@Compendium[lf1.spells.hpdynlxhfnop2wm4]{Harrowing} (7th),</li>\n<li>@Compendium[lf1.spells.ed7fvzc2p4m6n7a2]{Shadow Conjuration} (9th),</li>\n<li>@Compendium[lf1.spells.68ngvzmzvadhf6vs]{Contact Other Plane} (11th),</li>\n<li>@Compendium[lf1.spells.b5mz8voksps5g4yq]{Legend Lore} (13th),</li>\n<li>@Compendium[lf1.spells.ew8hm1fndppz1ezx]{Harrowing, Greater} (15th),</li>\n<li>@Compendium[lf1.spells.2vb5orfcy57lrfmc]{Moment of Prescience} (17th),</li>\n<li>@Compendium[lf1.spells.3wdx7fjulsohi1lk]{Weird} (19th).</li>\n</ul>\n<p><b>Bonus Feats:</b></p>\n<ul>\n<li>@Compendium[lf1.feats.Q1cY8r0Pvb66pMG0]{Alertness},</li>\n<li>@Compendium[lf1.feats.tD76K8QGco9scT0r]{Craft Wondrous Item},</li>\n<li>@Compendium[lf1.feats.btXWioB3SKJv8YEG]{Extend Spell}, </li>\n<li><em>Fortune Teller</em>, </li>\n<li><em>Harrowed</em>, </li>\n<li><em>Mage’s Tattoo</em>,</li>\n<li>@Compendium[lf1.feats.7zJTztNW7hdaqjKc]{Skill Focus} (<em>Knowledge</em> [history]).</li>\n</ul>\n<p><h4><b>Bloodline Arcana:</b> Whenever you cast a <em>divination</em> spell that requires a percentage roll, add 5 to the result of your roll. In addition, you can roll the percentage dice twice and use the result you prefer. Your maximum percentage chance of receiving a meaningful and accurate reply for <em>divination</em> spells is 100%, instead of the usual 90%.</h4>"
    },
    "tag": "classFeat_harrowBloodline",
    "useCustomTag": true,
    "subType": "classFeat",
    "associations": {
      "classes": ["Sorcerer"]
    }
  }
}
