{
  "_id": "OIC39qE2PPdjPuNk",
  "name": "Heroism Subdomain",
  "type": "feat",
  "img": "systems/lf1/icons/skills/red_05.jpg",
  "system": {
    "description": {
      "value": "<p><b>Replacement Domain Spells:</b> </p>\n<ul>\n<li>3rd—@Compendium[lf1.spells.vqfrp8t0c1lw1jna]{Heroism}</li>\n<li>6th—@Compendium[lf1.spells.z0duc2v2n3ioynta]{Heroism, Greater}</li>\n</ul>"
    },
    "tag": "classFeat_heroismSubdomain",
    "useCustomTag": true,
    "subType": "classFeat",
    "associations": {
      "classes": ["Cleric"]
    }
  }
}
