{
  "_id": "15WzT4bwQbf4AW1A",
  "name": "Hidden Weapons",
  "type": "feat",
  "img": "systems/lf1/icons/items/weapons/kunai.png",
  "system": {
    "description": {
      "value": "<p>A ninja with this ability can easily conceal weapons on her body. The ninja adds her level on opposed Sleight of Hand checks made to conceal a weapon. In addition, she can draw hidden weapons as a move action, instead of as a standard action.</p>"
    },
    "tags": ["Ninja Trick"],
    "tag": "classFeat_hiddenWeapons",
    "useCustomTag": true,
    "subType": "classFeat",
    "associations": {
      "classes": ["Ninja"]
    },
    "abilityType": "ex"
  }
}
