{
  "_id": "ytotO22rp5ji6rT1",
  "name": "Hide in Plain Sight (RNG)",
  "type": "feat",
  "img": "systems/lf1/icons/skills/emerald_09.jpg",
  "system": {
    "description": {
      "value": "<p>While in any of his favored terrains, a ranger of 17th level or higher can use the <em>Stealth</em> skill even while being observed.</p>"
    },
    "actions": [
      {
        "_id": "46itv1rncm29zefv",
        "name": "Use",
        "img": "systems/lf1/icons/skills/emerald_09.jpg",
        "activation": {
          "type": "passive",
          "unchained": {
            "type": "passive"
          }
        },
        "actionType": ""
      }
    ],
    "tag": "classFeat_hideInPlainSightRng",
    "useCustomTag": true,
    "subType": "classFeat",
    "associations": {
      "classes": ["Ranger"]
    },
    "abilityType": "ex"
  }
}
