{
  "_id": "TYR2cSWOyWebnj8O",
  "name": "Hold Breath",
  "type": "feat",
  "img": "systems/lf1/icons/items/weapons/dagger.PNG",
  "system": {
    "description": {
      "value": "<p>A rogue with this talent increases the number of rounds she can hold her breath by 2. She can take this talent multiple times.</p>"
    },
    "tag": "classFeat_holdBreath",
    "useCustomTag": true,
    "subType": "classFeat",
    "associations": {
      "classes": ["Rogue"]
    },
    "abilityType": "ex"
  }
}
