{
  "_id": "VjyJLTkaNBSclOro",
  "name": "Honeyed Words",
  "type": "feat",
  "img": "systems/lf1/icons/items/weapons/dagger.PNG",
  "system": {
    "description": {
      "value": "<p>Once per day, the rogue can roll two dice while making a Bluff check, and take the better result. She must choose to use this talent before making the Bluff check. A rogue can use this ability one additional time per day for every five rogue levels she possesses.</p>"
    },
    "actions": [
      {
        "_id": "rgb9ruqthago3qlo",
        "name": "Use",
        "img": "systems/lf1/icons/items/weapons/dagger.PNG",
        "activation": {
          "type": "free",
          "unchained": {
            "type": "free"
          }
        },
        "actionType": ""
      }
    ],
    "uses": {
      "per": "day",
      "maxFormula": "ceil(@classes.rogue.level / 5)"
    },
    "contextNotes": [
      {
        "subTarget": "skill.blf",
        "text": "Honeyed Words: roll two dice and take the better result."
      }
    ],
    "tag": "classFeat_honeyedWords",
    "useCustomTag": true,
    "subType": "classFeat",
    "associations": {
      "classes": ["Rogue"]
    },
    "abilityType": "ex"
  }
}
