{
  "_id": "JNVeU1MRGDeiTl6T",
  "name": "Hshurha's Veil",
  "type": "feat",
  "img": "systems/lf1/icons/feats/deafening-critical.jpg",
  "system": {
    "description": {
      "value": "<p>When raging, the barbarian can use Stealth, and she gains a bonus equal to 1/2 her barbarian level on Stealth checks plus the benefits of concealment against ranged attacks and attacks of opportunity.</p>"
    },
    "tag": "classFeat_hshurhasVeil",
    "useCustomTag": true,
    "subType": "classFeat",
    "associations": {
      "classes": ["Barbarian", "Skald"]
    },
    "abilityType": "su"
  }
}
