{
  "_id": "o2FEeU5XJlukKeTh",
  "name": "Hurricane Queen",
  "type": "feat",
  "img": "systems/lf1/icons/spells/wind-sky-3.jpg",
  "system": {
    "description": {
      "value": "<p><b>Element</b> air; <b>Type</b> utility (Su); <b>Level</b> 9; <b>Burn</b> —</p>\n<p>You are one with the hurricane. Your enveloping winds defense wild talent has an additional 25% chance of deflecting nonmagical ranged attacks, and your total deflection chance can exceed the usual cap of 75%.</p>\n<p>All wind and weather (including creatures using the whirlwind monster ability) affect you and your attacks only if you wish them to do so; for example, you could shoot arrows directly through a tornado without penalty.</p>"
    },
    "tag": "classFeat_hurricaneQueen",
    "useCustomTag": true,
    "subType": "classFeat",
    "associations": {
      "classes": ["Kineticist"]
    },
    "abilityType": "su"
  }
}
