{
  "_id": "ructcpEg6rejcpYQ",
  "name": "Icicle",
  "type": "feat",
  "img": "systems/lf1/icons/skills/ice_01.jpg",
  "system": {
    "description": {
      "value": "<p>As a standard action, you can fire an icicle from your finger, targeting any foe within 30 feet as a ranged touch attack. The icicle deals 1d6 points of cold damage + 1 point for every two cleric levels you possess. You can use this ability a number of times per day equal to 3 + your Wisdom modifier.</p>"
    },
    "actions": [
      {
        "_id": "i1ku8v2fyffc199z",
        "name": "Use",
        "img": "systems/lf1/icons/skills/ice_01.jpg",
        "activation": {
          "type": "standard",
          "unchained": {
            "cost": 2,
            "type": "action"
          }
        },
        "duration": {
          "units": "inst"
        },
        "target": {
          "value": "one creature"
        },
        "range": {
          "value": "30",
          "units": "ft"
        },
        "actionType": "rsak",
        "damage": {
          "parts": [
            {
              "formula": "1d6 + floor(@classes.cleric.level / 2)",
              "type": {
                "values": ["cold"],
                "custom": ""
              }
            }
          ]
        },
        "ability": {
          "attack": "dex"
        }
      }
    ],
    "uses": {
      "per": "day",
      "maxFormula": "3 + @abilities.wis.mod"
    },
    "tag": "classFeat_icicle",
    "useCustomTag": true,
    "subType": "classFeat",
    "associations": {
      "classes": ["Cleric"]
    },
    "abilityType": "sp"
  }
}
