{
  "_id": "vz1Kywa9xxPp0z2x",
  "name": "Icy Skin",
  "type": "feat",
  "img": "systems/lf1/icons/spells/light-royal-1.jpg",
  "system": {
    "description": {
      "value": "<p>You gain resist cold 5. This resistance increases to 10 at 5th level and 20 at 11th level.</p>\n<p>At 17th level, you gain immunity to cold.</p>"
    },
    "actions": [
      {
        "_id": "89t9rh429axbdfac",
        "name": "Use",
        "img": "systems/lf1/icons/spells/light-royal-1.jpg",
        "activation": {
          "type": "passive",
          "unchained": {
            "type": "passive"
          }
        },
        "actionType": ""
      }
    ],
    "tag": "classFeat_icySkin",
    "useCustomTag": true,
    "subType": "classFeat",
    "associations": {
      "classes": ["Oracle"]
    },
    "abilityType": "ex"
  }
}
