{
  "_id": "Cc2eFfhJYlClCGEH",
  "name": "Improved Evasion",
  "type": "feat",
  "img": "systems/lf1/icons/skills/blue_06.jpg",
  "system": {
    "description": {
      "value": "<p>At 9th level, a monk’s <em>evasion</em> ability improves. He still takes no damage on a successful <em>Reflex</em> <em>saving throw</em> against attacks, but henceforth he takes only half damage on a failed save. A <em>helpless</em> monk does not gain the benefit of <em>improved evasion</em>.</p>"
    },
    "actions": [
      {
        "_id": "p5ynf4n3cz8n93lb",
        "name": "Use",
        "img": "systems/lf1/icons/skills/blue_06.jpg",
        "activation": {
          "type": "passive",
          "unchained": {
            "type": "passive"
          }
        },
        "actionType": ""
      }
    ],
    "tag": "classFeat_improvedEvasion",
    "useCustomTag": true,
    "subType": "classFeat",
    "associations": {
      "classes": ["Monk"]
    },
    "abilityType": "ex"
  }
}
