{
  "_id": "QddQSoKq7rvq4mhy",
  "name": "Incorporeal Flight",
  "type": "feat",
  "img": "systems/lf1/icons/skills/blood_12.jpg",
  "system": {
    "description": {
      "value": "<p>When the phantom manifests in incorporeal form, it has a fly speed of 40 feet (good).</p>"
    },
    "tag": "classFeat_incorporealFlight",
    "useCustomTag": true,
    "subType": "classFeat",
    "associations": {
      "classes": ["Spiritualist", "Phantom"]
    },
    "abilityType": "su"
  }
}
