{
  "_id": "ltxXGwjdkuXbD3Yn",
  "name": "Increased Damage Reduction (UC)",
  "type": "feat",
  "img": "systems/lf1/icons/feats/deafening-critical.jpg",
  "system": {
    "description": {
      "value": "<p>The barbarian’s damage reduction increases by 2/— whenever she is raging. A barbarian can select this rage power up to three times. Its effects stack.</p>\n<p>A barbarian must be at least 8th level to select this rage power.</p>"
    },
    "tag": "classFeat_increasedDamageReductionUc",
    "useCustomTag": true,
    "subType": "classFeat",
    "associations": {
      "classes": ["Barbarian (Unchained)"]
    },
    "abilityType": "ex"
  }
}
