{
  "_id": "xyoyofs7FzZ5GtFU",
  "name": "Infernal Blood, Lesser",
  "type": "feat",
  "img": "systems/lf1/icons/feats/deafening-critical.jpg",
  "system": {
    "description": {
      "value": "<p>While raging, up to three times a day as a swift action, the barbarian can infuse her attacks with hellfire for 1 round. During this time, all of her melee attacks gain the <a href=\"https://aonprd.com/MagicWeaponsDisplay.aspx?ItemName=Flaming\">flaming</a> magic weapon special ability.</p>"
    },
    "tag": "classFeat_infernalBloodLesser",
    "useCustomTag": true,
    "subType": "classFeat",
    "associations": {
      "classes": ["Barbarian", "Skald"]
    },
    "abilityType": "su"
  }
}
