{
  "_id": "V8cq1HxfIYrCWWf8",
  "name": "Infernal Binder Subschool",
  "type": "feat",
  "img": "systems/lf1/icons/spells/evil-eye-red-1.jpg",
  "system": {
    "description": {
      "value": "<p><b>Associated School</b>: <em>Conjuration</em>.</p>\n<p><b>Suggested Opposition Schools:</b> <em>Divination</em>, <em>illusion</em>, or <em>transmutation</em>.</p>\n<p><b>Alignment:</b> Lawful Evil, Lawful Neutral, Neutral Evil, or Neutral.</p>\n<p><b>Requirements:</b> An infernal binder must choose a familiar as her arcane bond at 1st level.</p>\n<p><b>Replacement Powers:</b> This subschool replaces the acid dart and dimensional steps powers of the <em>conjuration</em> school.</p>"
    },
    "tag": "classFeat_infernalBinderSubschool",
    "useCustomTag": true,
    "subType": "classFeat",
    "associations": {
      "classes": ["Wizard"]
    }
  }
}
