{
  "_id": "QvZMpFdQeHEZT1jU",
  "name": "Infiltration (Stare)",
  "type": "feat",
  "img": "systems/lf1/icons/skills/emerald_11.jpg",
  "system": {
    "description": {
      "value": "<p>The hypnotic stare penalty also applies to the target’s Perception checks and CMD.</p>"
    },
    "tag": "classFeat_infiltrationStare",
    "useCustomTag": true,
    "subType": "classFeat",
    "associations": {
      "classes": ["Mesmerist"]
    }
  }
}
