{
  "_id": "8AEWlCfk9KzzqbX9",
  "name": "Innocent Facade",
  "type": "feat",
  "img": "systems/lf1/icons/items/weapons/dagger.PNG",
  "system": {
    "description": {
      "value": "<p>Once per day, a rogue with this talent can use @Compendium[lf1.spells.4w51afqi5d9t8nl4]{Innocence} as a spell-like ability, using her rogue level as the spell’s caster level. A rogue must have the minor magic talent before selecting this talent. An investigator can select the innocent facade rogue talent in place of an investigator talent. She must have the underworld inspiration investigator talent before selecting this talent, instead of minor magic.</p>"
    },
    "tag": "classFeat_innocentFacade",
    "useCustomTag": true,
    "subType": "classFeat",
    "associations": {
      "classes": ["Rogue", "Rogue (Unchained)"]
    },
    "abilityType": "sp"
  }
}
