{
  "_id": "bdDlq1GYuJYrTWIx",
  "name": "Internal Fortitude",
  "type": "feat",
  "img": "systems/lf1/icons/feats/deafening-critical.jpg",
  "system": {
    "description": {
      "value": "<p>While raging, the barbarian is immune to the sickened and nauseated conditions.</p>\n<p>A barbarian must be at least 8th level before selecting this rage power.</p>"
    },
    "tag": "classFeat_internalFortitude",
    "useCustomTag": true,
    "subType": "classFeat",
    "associations": {
      "classes": ["Barbarian", "Skald"]
    },
    "abilityType": "ex"
  }
}
