{
  "_id": "UMubqclakAoILgtR",
  "name": "Intense Focus (PSY)",
  "type": "feat",
  "img": "systems/lf1/icons/spells/shielding-spirit-2.jpg",
  "system": {
    "description": {
      "value": "<p>The psychic can spend 1 point from her phrenic pool to gain a +2 bonus on any concentration check she attempts as part of casting the linked spell.</p>\n<p>She can choose to spend 2 points from her phrenic pool to instead gain a +4 bonus.</p>"
    },
    "actions": [
      {
        "_id": "iivkegd0c13b64po",
        "name": "Use",
        "img": "systems/lf1/icons/spells/shielding-spirit-2.jpg",
        "activation": {
          "type": "free",
          "unchained": {
            "type": "free"
          }
        },
        "actionType": ""
      }
    ],
    "tag": "classFeat_intenseFocusPsy",
    "useCustomTag": true,
    "subType": "classFeat",
    "associations": {
      "classes": ["Psychic"]
    },
    "abilityType": "ex"
  }
}
