{
  "_id": "ch8Ch7wdonWsZtfL",
  "name": "Intimidating Glare (UC)",
  "type": "feat",
  "img": "systems/lf1/icons/feats/deafening-critical.jpg",
  "system": {
    "description": {
      "value": "<p>The barbarian adds her Strength modifier in place of her Charisma modifier on all Intimidate checks to demoralize a foe. She can attempt an Intimidate check to demoralize an adjacent foe as a move action instead of a standard action.</p>\n<p>If the barbarian successfully demoralizes an adjacent foe, that foe is shaken for the remainder of the barbarian’s current rage.</p>"
    },
    "tag": "classFeat_intimidatingGlareUc",
    "useCustomTag": true,
    "subType": "classFeat",
    "associations": {
      "classes": ["Barbarian (Unchained)"]
    },
    "abilityType": "ex"
  }
}
