{
  "_id": "KU83XZbeoZF7WXPy",
  "name": "Invisibility",
  "type": "feat",
  "img": "systems/lf1/icons/spells/light-royal-1.jpg",
  "system": {
    "description": {
      "value": "<p>As a standard action, you can become invisible (as per the @Compendium[lf1.spells.oylikodnyku2zewu]{Invisibility} spell). You can remain invisible for 1 minute per day per oracle level. This duration does not need to be consecutive, but it must be spent in 1-minute increments.</p>\n<p>Starting at 9th level, each time you activate this ability you can treat it as @Compendium[lf1.spells.cxgi0ub77t6aink1]{Invisibility, Greater}, though each round spent this way counts as 1 minute of your normal invisibility duration.</p>\n<p>You must be at least 3rd level to select this revelation.</p>"
    },
    "actions": [
      {
        "_id": "1wvq03sflp4ztydn",
        "name": "Use",
        "img": "systems/lf1/icons/spells/light-royal-1.jpg",
        "activation": {
          "type": "standard",
          "unchained": {
            "cost": 2,
            "type": "action"
          }
        },
        "duration": {
          "value": "1",
          "units": "minute"
        },
        "target": {
          "value": "self"
        },
        "range": {
          "units": "personal"
        },
        "actionType": ""
      }
    ],
    "uses": {
      "per": "day",
      "maxFormula": "@classes.oracle.level"
    },
    "tag": "classFeat_invisibility",
    "useCustomTag": true,
    "subType": "classFeat",
    "associations": {
      "classes": ["Oracle"]
    },
    "abilityType": "su"
  }
}
