{
  "_id": "aVMtWqERshuxhmr6",
  "name": "Irresistible Demand",
  "type": "feat",
  "img": "systems/lf1/icons/skills/ice_15.jpg",
  "system": {
    "description": {
      "value": "<p>At 8th level, you can force others to do your bidding. As a <em>standard action</em>, you attempt to dominate a creature as though using the @Compendium[lf1.spells.66s5qm8kwycgobce]{Dominate Monster} spell, except that the creature must have a number of <em>Hit Dice</em> equal to or less than your wizard level. The targeted creature receives a <em>Will</em> <em>saving throw</em> each round to negate the effect. The DC is equal to 10 + 1/2 your wizard level + your <em>Intelligence</em> modifier. You can dominate creatures for a number of rounds per day equal to your wizard level. These rounds do not need to be consecutive. You must concentrate as a <em>standard action</em> to maintain control over a dominated creature.</p>"
    },
    "actions": [
      {
        "_id": "1sqbjl6m0kfgtbuc",
        "name": "Use",
        "img": "systems/lf1/icons/skills/ice_15.jpg",
        "activation": {
          "type": "standard",
          "unchained": {
            "cost": 2,
            "type": "action"
          }
        },
        "duration": {
          "value": "1",
          "units": "round"
        },
        "actionType": ""
      }
    ],
    "uses": {
      "per": "day",
      "maxFormula": "@classes.wizard.level"
    },
    "tag": "classFeat_irresistibleDemand",
    "useCustomTag": true,
    "subType": "classFeat",
    "associations": {
      "classes": ["Wizard"]
    },
    "abilityType": "sp"
  }
}
