{
  "_id": "NwSc2aYKhOMiIQ0v",
  "name": "Judicious Force",
  "type": "feat",
  "img": "systems/lf1/icons/items/inventory/badge-cross.jpg",
  "system": {
    "description": {
      "value": "<p>If you or an ally within 10 feet makes a critical threat with a melee or ranged attack, as an immediate action you may add +4 to the confirmation roll. This does not stack with the Critical Focus feat. You may use this ability a number of times per day equal to your Wisdom bonus.</p>"
    },
    "actions": [
      {
        "_id": "sgr3xmmdrf948fij",
        "name": "Use",
        "img": "systems/lf1/icons/items/inventory/badge-cross.jpg",
        "activation": {
          "type": "immediate",
          "unchained": {
            "type": "reaction"
          }
        },
        "duration": {
          "units": "inst"
        },
        "target": {
          "value": "one ally"
        },
        "range": {
          "value": "10",
          "units": "ft"
        },
        "actionType": ""
      }
    ],
    "uses": {
      "per": "day",
      "maxFormula": "3 + @abilities.wis.mod"
    },
    "tag": "classFeat_judiciousForce",
    "useCustomTag": true,
    "subType": "classFeat",
    "associations": {
      "classes": ["Inquisitor"]
    },
    "abilityType": "su"
  }
}
