{
  "_id": "pyTpm15kVml3bGyC",
  "name": "Just a Face in the Crowd",
  "type": "feat",
  "img": "systems/lf1/icons/items/weapons/dagger.PNG",
  "system": {
    "description": {
      "value": "<p><strong>Source</strong> Magic Tactics Toolbox pg. 7</p><p>The rabble-rousers of Galt can blend into a crowd and are able to hide and spot others who appear to be hiding. The rogue gains a bonus equal to half his class level on Disguise and Perception checks when 10 or more creatures of his size are within 30 feet of him.</p>"
    },
    "tags": ["Rogue Talent", "Ninja Trick", "Investigator Talent"],
    "tag": "classFeat_justAFaceInTheCrowd",
    "useCustomTag": true,
    "subType": "classFeat",
    "associations": {
      "classes": ["Rogue", "Rogue (Unchained)", "Ninja", "Investigator"]
    },
    "abilityType": "su"
  }
}
