{
  "_id": "4XN6kf8mRbR4wOaU",
  "name": "Ki Arcana",
  "type": "feat",
  "img": "systems/lf1/icons/spells/enchant-red-3.jpg",
  "system": {
    "description": {
      "value": "<p>The magus may use points from his arcana pool and ki points from a ki pool granted by another class interchangeably.</p>\n<p>The magus must be at least 6th level and must have levels in a class that grants him a ki pool before selecting this arcana.</p>"
    },
    "tag": "classFeat_kiArcana",
    "useCustomTag": true,
    "subType": "classFeat",
    "associations": {
      "classes": ["Magus"]
    },
    "abilityType": "ex"
  }
}
