{
  "_id": "n5Bd0eHk70XOvnF9",
  "name": "Ki Blocker (UC)",
  "type": "feat",
  "img": "systems/lf1/icons/skills/fire_07.jpg",
  "system": {
    "description": {
      "value": "<p>A monk with this ability can spend 1 ki point as a free action before making an unarmed strike against a foe. If the attack hits, the monk can interrupt the target’s flow of ki. If the monk successfully damages the target of his attack, that opponent’s cost to activate abilities with ki increases by 1 ki point for 1 hour.</p>\n<p>If the monk spends 2 points from his ki pool, he can use this ability to affect the target’s arcane pool, arcane reservoir, grit points, inspiration, or panache points instead of its ki pool. The effects of this ability do not stack, but multiple hits increase the duration by 1 hour for each hit.</p>\n<p>A monk must be at least 10th level before selecting this ki power.</p>"
    },
    "actions": [
      {
        "_id": "hyrdvdsrzf7sh94g",
        "name": "Use",
        "img": "systems/lf1/icons/skills/fire_07.jpg",
        "activation": {
          "type": "free",
          "unchained": {
            "type": "free"
          }
        },
        "target": {
          "value": "self"
        },
        "range": {
          "units": "personal"
        },
        "actionType": ""
      }
    ],
    "tag": "classFeat_kiBlockerUc",
    "useCustomTag": true,
    "subType": "classFeat",
    "associations": {
      "classes": ["Monk (Unchained)"]
    },
    "abilityType": "su"
  }
}
