{
  "_id": "rzaGurgU1kcP6RVZ",
  "name": "Kyton Bloodrager Bloodline",
  "type": "feat",
  "img": "systems/lf1/icons/skills/red_13.jpg",
  "system": {
    "description": {
      "value": "<p><em>In the shadowy land of Nidal, the influence of Zon-Kuthon and the Midnight Lord’s favored servants—the kytons— taints the land and its inhabitants. Just as an eclipse drives animals wild, so too does the darkness unleash a madness from deep within you.</em><p><b>Bonus Feats:</b></p>\n<ul>\n<li>@Compendium[lf1.feats.Q1cY8r0Pvb66pMG0]{Alertness}</li>\n<li>@Compendium[lf1.feats.pmAO1Sni8xx71pLF]{Blind-Fight}</li>\n<li>@Compendium[lf1.feats.BJBC4lbo7xGWPsKJ]{Exotic Weapon Proficiency} (spiked chain),</li>\n<li>@Compendium[lf1.feats.fVRnBIHR4Jq6btvm]{Great Fortitude}</li>\n<li>Improved Dirty Trick,</li>\n<li>@Compendium[lf1.feats.iAbIGhm7T2OK9Brt]{Iron Will}</li>\n<li>@Compendium[lf1.feats.8snLqsJN4LLL00Nq]{Toughness}</li>\n</ul>\n<p><b>Bonus Spells:</b> </p>\n<ul>\n<li>@Compendium[lf1.spells.ijtqp1h3hka5kive]{Persuasive Goad} (7th), </li>\n<li>@Compendium[lf1.spells.jy64xofud29j5ju6]{Pain Strike} (10th), </li>\n<li>@Compendium[lf1.spells.jdsvncnna6oy189a]{Deeper Darkness} (13th),</li>\n<li>@Compendium[lf1.spells.be88e90guqbi1q1z]{Fear} (16th)</li>\n</ul>"
    },
    "tag": "classFeat_kytonBloodragerBloodline",
    "useCustomTag": true,
    "subType": "classFeat",
    "associations": {
      "classes": ["Bloodrager"]
    }
  }
}
