{
  "_id": "51FDels17DGl7Yq9",
  "name": "Legend Subdomain",
  "type": "feat",
  "img": "systems/lf1/icons/skills/yellow_07.jpg",
  "system": {
    "description": {
      "value": "<p><b>Replacement Power:</b> In campaigns that use the optional hero point system (Pathfinder RPG Advanced Player’s Guide 322), you gain Hero’s Fortune (Advanced Player’s Guide 324) as a bonus feat. Otherwise, you gain Marked for Glory (Pathfinder RPG Mythic Adventures 69) as a bonus feat, even if you do not meet its prerequisites.</p>\n<p><b>Replacement Domain Spells:</b></p>\n<ul>\n<li>2nd—@Compendium[lf1.spells.ibk7jrc5rwubpia6]{Aid}, 3rd—@Compendium[lf1.spells.3wcvosazm31i8758]{Contagious Zeal}</li>\n<li>4th— @Compendium[lf1.spells.dm52jk1e37b05v9d]{Righteous Vigor}</li>\n<li>6th— @Compendium[lf1.spells.p4h6ocn0axh59xrc]{Unshakable Zeal}</li>\n<li>If you are evil, replace the domain spells @Compendium[lf1.spells.erndkoe44rgj0lob]{Holy Smite}, @Compendium[lf1.spells.osi62mwn6rpkwlm6]{Holy Sword}, and @Compendium[lf1.spells.n0vm6or4nwaylpfa]{Holy Aura} with @Compendium[lf1.spells.okui7mft5bquqfrg]{Unholy Blight}, @Compendium[lf1.spells.ftrg3ira8jwicetv]{Unholy Sword}, and @Compendium[lf1.spells.flrn1xmm2wfrxbkf]{Unholy Aura} respectively.</li>\n</ul>"
    },
    "tag": "classFeat_legendSubdomain",
    "useCustomTag": true,
    "subType": "classFeat",
    "associations": {
      "classes": ["Cleric"]
    }
  }
}
