{
  "_id": "mO0pMgYsKx98oiHg",
  "name": "Legislation Subdomain",
  "type": "feat",
  "img": "systems/lf1/icons/items/inventory/note-sealed.jpg",
  "system": {
    "description": {
      "value": "<p><b>Replacement Domain Spells:</b></p>\n<ul>\n<li>1st—@Compendium[lf1.spells.mmdypasgl5us00wb]{Forbid Action}</li>\n<li>5th—@Compendium[lf1.spells.gn1u9cjc9phsczec]{Forbid Action, Greater}</li>\n<li>9th—@Compendium[lf1.spells.fjekm39re35y3kot]{Hold Monster, Mass}</li>\n</ul>"
    },
    "tag": "classFeat_legislationSubdomain",
    "useCustomTag": true,
    "subType": "classFeat",
    "associations": {
      "classes": ["Cleric"]
    }
  }
}
