{
  "_id": "qMMwDowcWY53xYjz",
  "name": "Liberation Subdomain",
  "type": "feat",
  "img": "systems/lf1/icons/skills/blue_13.jpg",
  "system": {
    "description": {
      "value": "<p><b>Replacement Domain Spells:</b></p>\n<ul>\n<li>1st—@Compendium[lf1.spells.yk5bgi6j9kbtigof]{Sanctuary}</li>\n<li>5th—@Compendium[lf1.spells.q3st18udsalnyz5v]{Plane Shift}</li>\n</ul>"
    },
    "tag": "classFeat_liberationSubdomain",
    "useCustomTag": true,
    "subType": "classFeat",
    "associations": {
      "classes": ["Cleric"]
    }
  }
}
