{
  "_id": "nBpCfDWgxcTQikDO",
  "name": "Liberation Blessing: Freedom's Shout",
  "type": "feat",
  "img": "systems/lf1/icons/spells/wind-grasp-sky-3.jpg",
  "system": {
    "description": {
      "value": "<p>At 10th level, as a swift action you can emit a 30-foot aura that affects all allies with the liberation blessing described above. This effect lasts for 1 round.</p>"
    },
    "actions": [
      {
        "_id": "3eq257gliyi93zyq",
        "name": "Use",
        "img": "systems/lf1/icons/spells/wind-grasp-sky-3.jpg",
        "activation": {
          "type": "swift",
          "unchained": {
            "type": "action"
          }
        },
        "duration": {
          "value": "1",
          "units": "round"
        },
        "target": {
          "value": "allies"
        },
        "range": {
          "value": "30",
          "units": "ft"
        },
        "actionType": ""
      }
    ],
    "tag": "classFeat_liberationBlessingFreedomsShout",
    "useCustomTag": true,
    "subType": "classFeat",
    "associations": {
      "classes": ["Warpriest"]
    }
  }
}
