{
  "_id": "cqNz3JulUhveVipu",
  "name": "Lifesense (4 pts)",
  "type": "feat",
  "img": "systems/lf1/icons/skills/blue_26.jpg",
  "system": {
    "description": {
      "value": "<p>An eidolon can pinpoint living creatures with ease. The eidolon notices and locates living creatures within 60 feet, just as if it possessed the blindsight evolution.</p>\n<p>The eidolon must possess the undead appearance evolution to take this evolution.</p>\n<p>The summoner must be at least 11th level before selecting this evolution.</p>"
    },
    "tag": "classFeat_lifesense4Pts",
    "useCustomTag": true,
    "subType": "classFeat",
    "associations": {
      "classes": ["Eidolon"]
    },
    "abilityType": "su"
  }
}
