{
  "_id": "UmMT57HYbdF3qJep",
  "name": "Life Bond (UC)",
  "type": "feat",
  "img": "systems/lf1/icons/skills/blood_04.jpg",
  "system": {
    "description": {
      "value": "<p>At 14th level, the summoner's life becomes linked to his eidolon's. As long as the eidolon has 1 or more hit points, the summoner is protected from harm. Damage in excess of that which would reduce the summoner to 0 hit points is instead transferred to the eidolon. This damage is transferred 1 point at a time, meaning that as soon as the eidolon is reduced to a number of negative hit points equal to its Constitution score, all excess damage remains with the summoner. Effects that cause death but don't deal damage are unaffected by this ability. This ability does not affect spells such as @Compendium[lf1.spells.t8ei2mrmqg7252vw]{baleful polymorph}, @Compendium[lf1.spells.361rc74674l3zt9a]{flesh to stone}, @Compendium[lf1.spells.esia6azb5g68tfs7]{imprisonment}, or other spells that don't deal damage.</p>"
    },
    "actions": [
      {
        "_id": "re3lcv9bl82ngt6y",
        "name": "Use",
        "img": "systems/lf1/icons/skills/blood_04.jpg",
        "activation": {
          "type": "passive",
          "unchained": {
            "type": "passive"
          }
        }
      }
    ],
    "tag": "classFeat_lifeBondUc",
    "useCustomTag": true,
    "subType": "classFeat",
    "associations": {
      "classes": ["Summoner (Unchained)"]
    },
    "abilityType": "su"
  }
}
