{
  "_id": "giiZFEuN7c0s8UbA",
  "name": "Lightning Lance",
  "type": "feat",
  "img": "systems/lf1/icons/spells/runes-blue-2.jpg",
  "system": {
    "description": {
      "value": "<p>The arcanist can unleash a lance of lightning by expending 1 point from her arcane reservoir and making a ranged touch attack against any one target within 30 feet. If the attack hits, it deals 1d6 points of electricity damage + the arcanist’s Charisma modifier, plus 1d6 points of electricity damage for every 2 levels beyond 1st (to a maximum of 10d6 at 19th level). The target’s vision is also impaired, causing the target to treat all creatures as if they had concealment (20%) for 1 round. It can attempt a Fortitude saving throw to negate the impaired vision.</p>"
    },
    "tags": ["Arcanist Exploit"],
    "actions": [
      {
        "_id": "v0asp6goofi6bv2o",
        "name": "Use",
        "img": "systems/lf1/icons/spells/runes-blue-2.jpg",
        "activation": {
          "type": "standard",
          "unchained": {
            "cost": 2,
            "type": "action"
          }
        },
        "duration": {
          "units": "inst"
        },
        "target": {
          "value": "one creature"
        },
        "range": {
          "value": "30",
          "units": "ft"
        },
        "actionType": "rsak",
        "damage": {
          "parts": [
            {
              "formula": "(ceil(@classes.arcanist.level / 2))d6 + @abilities.cha.mod",
              "type": {
                "values": ["electric"],
                "custom": ""
              }
            }
          ]
        },
        "ability": {
          "attack": "dex"
        },
        "save": {
          "type": "fort",
          "description": "Fortitude negates impaired vision"
        }
      }
    ],
    "tag": "classFeat_lightningLance",
    "useCustomTag": true,
    "subType": "classFeat",
    "associations": {
      "classes": ["Arcanist"]
    },
    "abilityType": "su"
  }
}
