{
  "_id": "b8B2htuq5I6HX767",
  "name": "Lingering Spirits",
  "type": "feat",
  "img": "systems/lf1/icons/spells/slice-spirit-3.jpg",
  "system": {
    "description": {
      "value": "<p>Numerous minor spirits find themselves attracted to you. Your connection with these spirits allows you to manifest any of the following spell-like abilities as a swift action:</p>\n<ul>\n<li>@Compendium[lf1.spells.p8lm7khq3ynyif21]{Mage Hand}</li>\n<li>@Compendium[lf1.spells.mtxqp85izkb20djq]{Ghost Sound}</li>\n<li>@Compendium[lf1.spells.z3ysa1xxmzgj14sd]{Grave Words}</li>\n<li>@Compendium[lf1.spells.f6k11j4pvmkka4e9]{Telekinetic Projectile}</li>\n</ul>\n<p>You can use this ability a number of times per day equal to 3 + your Charisma modifier.</p>"
    },
    "actions": [
      {
        "_id": "w2kdew0e6gt5yqcf",
        "name": "Use",
        "img": "systems/lf1/icons/spells/slice-spirit-3.jpg",
        "activation": {
          "type": "special",
          "unchained": {
            "type": "special"
          }
        },
        "actionType": ""
      }
    ],
    "uses": {
      "per": "day",
      "maxFormula": "3 + @abilities.cha.mod"
    },
    "tag": "classFeat_lingeringSpirits",
    "useCustomTag": true,
    "subType": "classFeat",
    "associations": {
      "classes": ["Psychic"]
    },
    "abilityType": "sp"
  }
}
