{
  "_id": "28vHk6lT93FF1V8w",
  "name": "Lizard Stride",
  "type": "feat",
  "img": "systems/lf1/icons/feats/deafening-critical.jpg",
  "system": {
    "description": {
      "value": "<p>When the barbarian makes a charge or run action while raging, she can move across the surface of water without sinking. She sinks immediately if she ends her turn standing on water.</p>"
    },
    "tag": "classFeat_lizardStride",
    "useCustomTag": true,
    "subType": "classFeat",
    "associations": {
      "classes": ["Barbarian", "Skald"]
    },
    "abilityType": "su"
  }
}
