{
  "_id": "iv3eNHISB84mHLox",
  "name": "Lore Keeper",
  "type": "feat",
  "img": "systems/lf1/icons/items/inventory/book-grey.jpg",
  "system": {
    "description": {
      "value": "<p>You can touch a creature to learn about its abilities and weaknesses. With a successful touch attack, you gain information as if you made the appropriate Knowledge skill check with a result equal to 15 + your cleric level + your Wisdom modifier.</p>"
    },
    "actions": [
      {
        "_id": "eliuplljjuhh80pn",
        "name": "Use",
        "img": "systems/lf1/icons/items/inventory/book-grey.jpg",
        "activation": {
          "type": "standard",
          "unchained": {
            "cost": 2,
            "type": "action"
          }
        },
        "duration": {
          "units": "inst"
        },
        "target": {
          "value": "creature touched"
        },
        "range": {
          "units": "touch"
        },
        "actionType": ""
      }
    ],
    "uses": {
      "per": "day",
      "maxFormula": "3 + @abilities.wis.mod"
    },
    "tag": "classFeat_loreKeeper",
    "useCustomTag": true,
    "subType": "classFeat",
    "associations": {
      "classes": ["Cleric"]
    },
    "abilityType": "sp"
  }
}
