{
  "_id": "7cdaP4J59HqIDVeg",
  "name": "Lure of the Heavens",
  "type": "feat",
  "img": "systems/lf1/icons/spells/light-royal-1.jpg",
  "system": {
    "description": {
      "value": "<p>Your connection to the skies above is so strong that your feet barely touch the ground. At 1st level, you no longer leave tracks.</p>\n<p>At 5th level, you can hover up to 6 inches above the ground or even above liquid surfaces, as if levitating.</p>\n<p>At 10th level, you gain the ability to fly, as per the spell, for a number of minutes per day equal to your oracle level. This duration does not need to be consecutive, but it must be spent in 1-minute increments.</p>"
    },
    "actions": [
      {
        "_id": "m61mlzrzs4pw4brw",
        "name": "Use",
        "img": "systems/lf1/icons/spells/light-royal-1.jpg",
        "activation": {
          "type": "passive",
          "unchained": {
            "type": "passive"
          }
        },
        "target": {
          "value": "self"
        },
        "range": {
          "units": "personal"
        },
        "actionType": ""
      }
    ],
    "tag": "classFeat_lureOfTheHeavens",
    "useCustomTag": true,
    "subType": "classFeat",
    "associations": {
      "classes": ["Oracle"]
    },
    "abilityType": "su"
  }
}
