{
  "_id": "nO6cI6JoY2THQoxZ",
  "name": "Major Amplifications",
  "type": "feat",
  "img": "systems/lf1/icons/spells/shielding-spirit-3.jpg",
  "system": {
    "description": {
      "value": "<p>At 11th level and every 4 levels thereafter, a psychic can choose a major amplification in place of a phrenic amplification.</p>"
    },
    "tag": "classFeat_majorAmplifications",
    "useCustomTag": true,
    "subType": "classFeat",
    "associations": {
      "classes": ["Psychic"]
    }
  }
}
