{
  "_id": "mSipe4l5BWXZivZQ",
  "name": "Mammoth Spirit Manifestation",
  "type": "feat",
  "img": "systems/lf1/icons/skills/violet_20.jpg",
  "system": {
    "description": {
      "value": "<p>At 20th level, the shaman can transform into any animal listed under the megafauna or elephant heading. This ability works as per @Compendium[lf1.spells.br37848gchetel0q]{Beast Shape IV}, but the shaman can activate and dismiss the ability as often as she likes and the duration is permanent.</p>"
    },
    "tag": "classFeat_mammothSpiritManifestation",
    "useCustomTag": true,
    "subType": "classFeat",
    "associations": {
      "classes": ["Shaman"]
    }
  }
}
