{
  "_id": "j4QEAgodP37MOFd6",
  "name": "Manipulator Subschool",
  "type": "feat",
  "img": "systems/lf1/icons/skills/shadow_17.jpg",
  "system": {
    "description": {
      "value": "<p><b>Associated School:</b> <em>Enchantment</em>.</p>\n<p><b>Replacement Powers:</b> This subschool replaces the dazing touch and aura of despair powers of the <em>enchantment</em> school.</p>"
    },
    "tag": "classFeat_manipulatorSubschool",
    "useCustomTag": true,
    "subType": "classFeat",
    "associations": {
      "classes": ["Wizard"]
    }
  }
}
