{
  "_id": "Q3NN76jsX9KKlXvp",
  "name": "Many Throw Infusion",
  "type": "feat",
  "img": "systems/lf1/icons/spells/link-blue-2.jpg",
  "system": {
    "description": {
      "value": "<p><b>Element</b> aether; <b>Type</b> form infusion; <b>Level</b> 8; <b>Burn</b> 4<br><b>Prerequisite</b> extended range<br><b>Associated Blasts</b> telekinesis<br><b>Saving Throw</b> none</p>\n<p>You grab a large number of objects and throw them all at once. You can use your telekinetic blast to make attack rolls against a number of targets equal to your kineticist level within 120 feet, but no two targets can be more than 30 feet apart.</p>"
    },
    "tag": "classFeat_manyThrowInfusion",
    "useCustomTag": true,
    "subType": "classFeat",
    "associations": {
      "classes": ["Kineticist"]
    }
  }
}
