{
  "_id": "agVFqf3mfxf0l8oT",
  "name": "Martial Training",
  "type": "feat",
  "img": "systems/lf1/icons/skills/blue_23.jpg",
  "system": {
    "description": {
      "value": "<p>At 1st level, a brawler counts her total brawler levels as both fighter levels and monk levels for the purpose of qualifying for feats. She also counts as both a fighter and a monk for feats and magic items that have different effects based on whether the character has levels in those classes (such as @Compendium[lf1.feats.GsjouI6B8X7BA5wN]{Stunning Fist} and a monk’s robe). This ability does not automatically grant feats normally granted to fighters and monks based on class level, namely @Compendium[lf1.feats.GsjouI6B8X7BA5wN]{Stunning Fist}.&lt;/magic.wondrous%monk's&gt;</p>"
    },
    "tag": "classFeat_martialTraining",
    "useCustomTag": true,
    "subType": "classFeat",
    "associations": {
      "classes": ["Brawler"]
    },
    "abilityType": "ex"
  }
}
