{
  "_id": "boUT77rXoTcZ5C3X",
  "name": "Martial Discipline",
  "type": "feat",
  "img": "systems/lf1/icons/spells/light-royal-1.jpg",
  "system": {
    "description": {
      "value": "<p>Through meditation and study of monastic forms of combat, you have learned a lethal form of unarmed combat. You gain @Compendium[lf1.feats.2aTFNMs3pW6nUBlr]{Improved Unarmed Strike} as a bonus feat, even if you do not meet the prerequisites. You gain the unarmed strike damage of a monk of your oracle level. If you also have monk levels, those levels stack for the purpose of determining your unarmed strike damage.</p>"
    },
    "actions": [
      {
        "_id": "700o5ffhy1r0l4od",
        "name": "Use",
        "img": "systems/lf1/icons/spells/light-royal-1.jpg",
        "activation": {
          "type": "passive",
          "unchained": {
            "type": "passive"
          }
        },
        "actionType": ""
      }
    ],
    "tag": "classFeat_martialDiscipline",
    "useCustomTag": true,
    "subType": "classFeat",
    "associations": {
      "classes": ["Oracle"]
    },
    "abilityType": "su"
  }
}
