{
  "_id": "NKPkvMia6t5ERnmY",
  "name": "Master of the Veil",
  "type": "feat",
  "img": "systems/lf1/icons/feats/blinding-critical.jpg",
  "system": {
    "description": {
      "value": "<p>At 8th level, you can create an <em>illusion</em> that hides the appearance of yourself and any number of allies within 30 feet for 1 round per <em>wizard</em> level. This ability otherwise functions like the spell @Compendium[lf1.spells.fxwycv6d7xwzua4t]{Veil}. The rounds do not need to be consecutive.</p>"
    },
    "actions": [
      {
        "_id": "qpqi58b5z8fxpu8s",
        "name": "Use",
        "img": "systems/lf1/icons/feats/blinding-critical.jpg",
        "activation": {
          "type": "free",
          "unchained": {
            "type": "free"
          }
        },
        "duration": {
          "value": "1",
          "units": "round"
        },
        "actionType": ""
      }
    ],
    "uses": {
      "per": "day",
      "maxFormula": "@classes.wizard.level"
    },
    "tag": "classFeat_masterOfTheVeil",
    "useCustomTag": true,
    "subType": "classFeat",
    "associations": {
      "classes": ["Wizard"]
    },
    "abilityType": "sp"
  }
}
