{
  "_id": "Js83QWyHQQ4PjP0m",
  "name": "Medium Armor",
  "type": "feat",
  "img": "systems/lf1/icons/feats/arcane-armor-training.jpg",
  "system": {
    "description": {
      "value": "<p>At 7th level, a magus gains proficiency with medium armor. A magus can cast magus spells while wearing medium armor without incurring the normal arcane spell failure chance. Like any other arcane spellcaster, a magus wearing heavy armor or using a shield incurs a chance of arcane spell failure if the spell in question has a somatic component.</p>"
    },
    "tag": "classFeat_mediumArmor",
    "useCustomTag": true,
    "subType": "classFeat",
    "associations": {
      "classes": ["Magus"]
    },
    "abilityType": "ex"
  }
}
