{
  "_id": "bT1frt3FuOpog5E2",
  "name": "Mercy Patron",
  "type": "feat",
  "img": "systems/lf1/icons/feats/improved-familiar.jpg",
  "system": {
    "description": {
      "value": "<ul>\n<li>2nd — @Compendium[lf1.spells.xoc3vhg3btmfjauq]{Cure Light Wounds}</li>\n<li>4th — @Compendium[lf1.spells.d4oubr5bdoo8w1ev]{Eagle's Splendor}</li>\n<li>6th — @Compendium[lf1.spells.o87h8gjxevcbztgd]{Remove Curse}</li>\n<li>8th — @Compendium[lf1.spells.anya5qwdjhdfyk8u]{Restoration}</li>\n<li>10th — @Compendium[lf1.spells.sbhij6pdo24wkm48]{Cleanse}</li>\n<li>12th — @Compendium[lf1.spells.op40qjf9oohlx5nu]{Heroes' Feast}</li>\n<li>14th — @Compendium[lf1.spells.82z60xtalr9fzkwb]{Foe to Friend}</li>\n<li>16th — @Compendium[lf1.spells.xlzqpkl8fpm3sn4u]{Euphoric Tranquility}</li>\n<li>18th — @Compendium[lf1.spells.mxqi375ya2rka7cp]{True Resurrection}</li>\n</ul>"
    },
    "tag": "classFeat_mercyPatron",
    "useCustomTag": true,
    "subType": "classFeat",
    "associations": {
      "classes": ["Witch"]
    }
  }
}
