{
  "_id": "cxKy7bUQPWZxw6n8",
  "name": "Metacharge",
  "type": "feat",
  "img": "systems/lf1/icons/skills/shadow_10.jpg",
  "system": {
    "description": {
      "value": "<p>As an Arcane crafter, you gain a bonus feat at 3rd level, which must be an item creation feat or metamagic feat. You must still meet all prerequisites for a bonus feat, including caster level minimums. When using <em>metamagic feats</em> to create magic items, your skill and understanding of the principles involved in the item’s creation give you a +2 bonus on the skill check made to create the item.</p>"
    },
    "actions": [
      {
        "_id": "bqerognhivny8msq",
        "name": "Use",
        "img": "systems/lf1/icons/skills/shadow_10.jpg",
        "activation": {
          "type": "passive",
          "unchained": {
            "type": "passive"
          }
        },
        "actionType": ""
      }
    ],
    "tag": "classFeat_metacharge",
    "useCustomTag": true,
    "subType": "classFeat",
    "associations": {
      "classes": ["Wizard"]
    },
    "abilityType": "ex"
  }
}
