{
  "_id": "52ZH9aDmi5E2jUKr",
  "name": "Metal Curse",
  "type": "feat",
  "img": "systems/lf1/icons/skills/green_03.jpg",
  "system": {
    "description": {
      "value": "<p>The shaman causes a creature within 30 feet to become slightly magnetic until the end of the shaman’s next turn. Whenever the creature is attacked with a melee or ranged weapon constructed primarily of metal, it takes a –2 penalty to AC.</p>\n<p>At 8th and 16th levels, the penalty increases by –2 and the duration extends by 1 round.</p>\n<p>Once affected, the creature cannot be the target of this hex again for 24 hours.</p>"
    },
    "actions": [
      {
        "_id": "a6r2asqcefihfmrk",
        "name": "Use",
        "img": "systems/lf1/icons/skills/green_03.jpg",
        "activation": {
          "type": "standard",
          "unchained": {
            "cost": 2,
            "type": "action"
          }
        },
        "duration": {
          "value": "1",
          "units": "round"
        },
        "target": {
          "value": "one creature"
        },
        "range": {
          "value": "30",
          "units": "ft"
        },
        "actionType": ""
      }
    ],
    "tag": "classFeat_metalCurse",
    "useCustomTag": true,
    "subType": "classFeat",
    "associations": {
      "classes": ["Shaman"]
    },
    "abilityType": "su"
  }
}
