{
  "_id": "sshDcWip4VS5kIPI",
  "name": "Method to the Madness",
  "type": "feat",
  "img": "systems/lf1/icons/items/potions/unique-3.jpg",
  "system": {
    "description": {
      "value": "<p>The alchemist has learned to channel his madness into one of his alchemist class abilities. When the alchemist takes this discovery, he chooses one of either bombs or extracts. If he selects bombs, he uses his Charisma bonus in place of his Intelligence bonus when determining the bonus to damage and the saving throw DCs of his bombs. If the alchemist selects extracts, he uses his Charisma bonus in place of his Intelligence bonus to calculate bonus extracts per day. The alchemist must have the <a href=\"https://aonprd.com/MonsterDisplay.aspx?ItemName=Derro\">madness extraordinary ability</a> to take this discovery. This discovery can be taken twice, allowing the alchemist to select both bombs and extracts.</p>"
    },
    "tag": "classFeat_methodToTheMadness",
    "useCustomTag": true,
    "subType": "classFeat",
    "associations": {
      "classes": ["Alchemist"]
    },
    "abilityType": "ex"
  }
}
