{
  "_id": "rmzUjpMld0deM9Aa",
  "name": "Mighty Rage (UC)",
  "type": "feat",
  "img": "systems/lf1/icons/feats/stunning-critical.jpg",
  "system": {
    "description": {
      "value": "<p>At 20th level, a barbarian’s bonus on melee attack rolls, melee damage rolls, thrown weapon damage rolls, and Will saves while raging increases to +4. In addition, the amount of temporary hit points gained when entering a rage increases to 4 per Hit Die.</p>"
    },
    "tag": "classFeat_mightyRageUc",
    "useCustomTag": true,
    "subType": "classFeat",
    "associations": {
      "classes": ["Barbarian (Unchained)"]
    },
    "abilityType": "ex"
  }
}
