{
  "_id": "EgxyhOjIcHfE8toe",
  "name": "Mighty Swing",
  "type": "feat",
  "img": "systems/lf1/icons/feats/deafening-critical.jpg",
  "system": {
    "description": {
      "value": "<p>The barbarian automatically confirms a critical hit. This power is used as an immediate action once a critical threat has been determined.</p>\n<p>A barbarian must be at least 12th level before selecting this power. This power can only be used once per rage.</p>"
    },
    "tag": "classFeat_mightySwing",
    "useCustomTag": true,
    "subType": "classFeat",
    "associations": {
      "classes": ["Barbarian", "Skald"]
    },
    "abilityType": "ex"
  }
}
