{
  "_id": "Lqvj1u2DgmTa8fOz",
  "name": "Mind Steed",
  "type": "feat",
  "img": "systems/lf1/icons/items/inventory/lantern.jpg",
  "system": {
    "description": {
      "value": "<p>As a standard action, you can expend 1 point of mental focus to conjure a spectral horse. This horse can be either Medium or Large, but it otherwise functions as mount. The horse lasts for 10 minutes per occultist level you possess.</p>\n<p>If you are at least 5th level, the mount’s base land speed increases by 20 feet. If you are at least 9th level and you expend 1 additional point of mental focus, the mount can fly at a speed of 60 feet with good maneuverability, but doing so reduces the mount’s duration to 1 minute per occultist level you possess.</p>"
    },
    "tag": "classFeat_mindSteed",
    "useCustomTag": true,
    "subType": "classFeat",
    "associations": {
      "classes": ["Occultist"]
    },
    "abilityType": "sp"
  }
}
