{
  "_id": "hZGcHilMr9RCYKUZ",
  "name": "Mist's Shroud",
  "type": "feat",
  "img": "systems/lf1/icons/skills/green_03.jpg",
  "system": {
    "description": {
      "value": "<p>The shaman touches a willing creature (including herself ) and enshrouds that creature in mist. This grants the creature concealment as the @Compendium[lf1.spells.18kryvj2dfuymk9d]{Blur} spell. The mist dissipates after it causes an attack to miss because of concealment or after 1 minute, whichever comes first.</p>\n<p>At 8th and 16th levels, the mist lasts for one additional attack.</p>\n<p>A creature affected by this hex cannot be affected by it again for 24 hours.</p>"
    },
    "actions": [
      {
        "_id": "lwznq3ef5d3rmbkr",
        "name": "Use",
        "img": "systems/lf1/icons/skills/green_03.jpg",
        "activation": {
          "type": "standard",
          "unchained": {
            "cost": 2,
            "type": "action"
          }
        },
        "duration": {
          "value": "1",
          "units": "minute"
        },
        "target": {
          "value": "willing creature"
        },
        "range": {
          "units": "touch"
        },
        "actionType": ""
      }
    ],
    "tag": "classFeat_mistsShroud",
    "useCustomTag": true,
    "subType": "classFeat",
    "associations": {
      "classes": ["Shaman"]
    },
    "abilityType": "su"
  }
}
