{
  "_id": "MpGAWL4HGhVMSU5R",
  "name": "Mucilaginous Gloom",
  "type": "feat",
  "img": "systems/lf1/icons/items/potions/unique-3.jpg",
  "system": {
    "description": {
      "value": "<p>The gloom leaves a chilly gray residue that turns each square in its splash radius into difficult terrain. This effect lasts for a number of rounds equal to the alchemist’s level.</p>"
    },
    "tag": "classFeat_mucilaginousGloom",
    "useCustomTag": true,
    "subType": "classFeat",
    "associations": {
      "classes": ["Alchemist"]
    }
  }
}
