{
  "_id": "EFmnDbDEMcCuxc4F",
  "name": "Naga Form",
  "type": "feat",
  "img": "systems/lf1/icons/skills/red_05.jpg",
  "system": {
    "description": {
      "value": "<p>At 16th level, when entering a bloodrage, you can assume the form of a naga (as per @Compendium[lf1.spells.p8mgf91fcmsi0kdk]{Naga Shape III}).</p>"
    },
    "tag": "classFeat_nagaForm",
    "useCustomTag": true,
    "subType": "classFeat",
    "associations": {
      "classes": ["Bloodrager"]
    },
    "abilityType": "sp"
  }
}
