{
  "_id": "jNPECEcPwhId8jCB",
  "name": "Naga Bloodrager Bloodline",
  "type": "feat",
  "img": "systems/lf1/icons/skills/red_13.jpg",
  "system": {
    "description": {
      "value": "<p><em>The blood of the powerful, serpentine aberrations known as nagas runs through your veins, fueling your bloodrage.</em><p><b>Bonus Feats:</b></p>\n<ul>\n<li>@Compendium[lf1.feats.Q1cY8r0Pvb66pMG0]{Alertness}</li>\n<li>@Compendium[lf1.feats.u7rGDZUL296QIuA0]{Combat Casting}</li>\n<li>@Compendium[lf1.feats.h9nHYLxXvIXBTmup]{Combat Reflexes}</li>\n<li>@Compendium[lf1.feats.JreaiTHdyWFNj3Tb]{Dodge}</li>\n<li>@Compendium[lf1.feats.0bZf3SDkvVOe2ujH]{Lightning Reflexes}</li>\n<li>@Compendium[lf1.feats.FUW5mIXHNBBIQ1Sq]{Power Attack}</li>\n<li>@Compendium[lf1.feats.f5FPqAYWlKj3zCIY]{Stealthy}</li>\n</ul>\n<p><b>Bonus Spells:</b> </p>\n<ul>\n<li>@Compendium[lf1.spells.mczdgwo3xl8c6e26]{Ray Of Enfeeblement} (7th),</li>\n<li>@Compendium[lf1.spells.oylikodnyku2zewu]{Invisibility} (10th),</li>\n<li>@Compendium[lf1.spells.m84969gni5iu4bdt]{Lightning Bolt} (13th), </li>\n<li>@Compendium[lf1.spells.vdh0yuzpjwhky6kr]{Poison} (16th)</li>\n</ul>"
    },
    "tag": "classFeat_nagaBloodragerBloodline",
    "useCustomTag": true,
    "subType": "classFeat",
    "associations": {
      "classes": ["Bloodrager"]
    }
  }
}
