{
  "_id": "qJIdQ0udgHVZEhui",
  "name": "Nanite Resurgence",
  "type": "feat",
  "img": "systems/lf1/icons/skills/violet_06.jpg",
  "system": {
    "description": {
      "value": "<p>At 9th level, once per day as an <em>immediate action</em> upon being reduced to one-quarter your maximum <em>hit points</em>, you can force the mechanical <em>swarm</em> living inside you to keep you alive. This ability functions like a @Compendium[lf1.spells.u7y6niex9e7tbhyp]{Resurgent Transformation} spell using your <em>sorcerer</em> level as the <em>caster level</em>, except it is an extraordinary ability and cannot be dispelled.</p>\n<p>At 17th level, you can use this ability twice per day (though using this ability twice in one 24-hour period entails a chance of system shock and death; see the spell’s description for more details).</p>\n<p>At 20th level, you never die of system shock from using this ability.</p>"
    },
    "actions": [
      {
        "_id": "k3fmvnun6knmgri2",
        "name": "Use",
        "img": "systems/lf1/icons/skills/violet_06.jpg",
        "activation": {
          "type": "immediate",
          "unchained": {
            "type": "reaction"
          }
        },
        "duration": {
          "units": "inst"
        },
        "target": {
          "value": "Self"
        },
        "range": {
          "units": "personal"
        },
        "actionType": ""
      }
    ],
    "uses": {
      "per": "day",
      "maxFormula": "@classes.sorcerer.level >= 17 ? 2 : 1"
    },
    "tag": "classFeat_naniteResurgence",
    "useCustomTag": true,
    "subType": "classFeat",
    "associations": {
      "classes": ["Sorcerer"]
    },
    "abilityType": "ex"
  }
}
