{
  "_id": "Gd6OEMdAlNz4dwIt",
  "name": "Nanite Strike",
  "type": "feat",
  "img": "systems/lf1/icons/skills/violet_24.jpg",
  "system": {
    "description": {
      "value": "<p>At 1st level as a <em>free action</em>, you can cause nanites to flow from your body and coat the striking end of any manufactured melee weapon you wield. When you hit with a melee attack using this weapon, some of the nanites infect the blood of the victim (Poison—injury; save <em>Fort</em> DC 10 + 1/2 your <em>sorcerer</em> level + your <em>Con</em> modifier; frequency 1/round for 6 rounds; effect 1 <em>Str</em> damage; cure 1 save).</p>\n<p>At 5th level, weapons you use with this ability are treated as magical for the purposes of overcoming <em>DR</em>, and the <em>poison</em> also deals 1 point of <em>Constitution damage</em>. At 7th level, the damage increases to 1d2 points of <em>Constitution damage</em> and 1d2 points of <em>Strength damage</em>. At 11th level, the cure becomes two successful saves.</p>\n<p>You can use this ability for a number of rounds per day equal to 3 + your <em>Charisma</em> modifier; these rounds need not be consecutive.</p>"
    },
    "actions": [
      {
        "_id": "xrvxafbdb8v7r4ai",
        "name": "Use",
        "img": "systems/lf1/icons/skills/violet_24.jpg",
        "activation": {
          "type": "free",
          "unchained": {
            "type": "free"
          }
        },
        "duration": {
          "units": "inst"
        },
        "target": {
          "value": "held weapon"
        },
        "range": {
          "units": "touch"
        },
        "actionType": ""
      }
    ],
    "uses": {
      "per": "day",
      "maxFormula": "3 + @abilities.cha.mod"
    },
    "tag": "classFeat_naniteStrike",
    "useCustomTag": true,
    "subType": "classFeat",
    "associations": {
      "classes": ["Sorcerer"]
    },
    "abilityType": "ex"
  }
}
