{
  "_id": "7QAoMQ4v3B92HW85",
  "name": "Nature Mystery",
  "type": "feat",
  "img": "systems/lf1/icons/spells/light-magenta-2.jpg",
  "system": {
    "description": {
      "value": "<p><b>Class Skills:</b> An oracle with the nature mystery adds Climb, Fly, Knowledge (nature), Ride, Survival, and Swim to her list of class skills.<p><b>Bonus Spells:</b> </p>\n<ul>\n<li>@Compendium[lf1.spells.pg7dbmuuaksxhp3v]{Charm Animal} (2nd), </li>\n<li>@Compendium[lf1.spells.la7kuehewu85ybnt]{Barkskin} (4th), </li>\n<li>@Compendium[lf1.spells.rrsefzpm3nhztvld]{Speak with Plants} (6th), </li>\n<li>@Compendium[lf1.spells.0sssdtv0tkbns2r3]{Grove of Respite} (8th), </li>\n<li>@Compendium[lf1.spells.h9qiwo9kx8d1hqrn]{Awaken} (10th), </li>\n<li>@Compendium[lf1.spells.wgm8mm1za909pwch]{Stone Tell} (12th), </li>\n<li>@Compendium[lf1.spells.f828mjoo5afszqnk]{Creeping Doom} (14th), </li>\n<li>@Compendium[lf1.spells.3ah9mmg0odateh8l]{Animal Shapes} (16th), </li>\n<li>@Compendium[lf1.spells.refg1teqkrdtxllg]{World Wave} (18th).</li>\n</ul>"
    },
    "tag": "classFeat_natureMystery",
    "useCustomTag": true,
    "subType": "classFeat",
    "associations": {
      "classes": ["Oracle"]
    },
    "classSkills": {
      "clm": true,
      "fly": true,
      "kna": true,
      "rid": true,
      "sur": true,
      "swm": true
    }
  }
}
