{
  "_id": "21saeg2CrFoelyGi",
  "name": "Nightmare (Stare)",
  "type": "feat",
  "img": "systems/lf1/icons/skills/emerald_11.jpg",
  "system": {
    "description": {
      "value": "<p>The target of the hypnotic stare rolls twice on all Will saves versus fear, taking the lower result.</p>"
    },
    "tag": "classFeat_nightmareStare",
    "useCustomTag": true,
    "subType": "classFeat",
    "associations": {
      "classes": ["Mesmerist"]
    }
  }
}
