{
  "_id": "Xv9qX5fEj8yIjsBY",
  "name": "No Breath",
  "type": "feat",
  "img": "systems/lf1/icons/spells/runes-blue-1.jpg",
  "system": {
    "description": {
      "value": "<p><b>Element</b> void; <b>Type</b> utility (Su); <b>Level</b> 2; <b>Burn</b> —<br><b>Prerequisite</b> emptiness</p>\n<p>You gain no breath, as per the universal monster ability, and you can survive in the vacuum of space.</p>"
    },
    "tag": "classFeat_noBreath",
    "useCustomTag": true,
    "subType": "classFeat",
    "associations": {
      "classes": ["Kineticist"]
    },
    "abilityType": "su"
  }
}
