{
  "_id": "oShDny4KeDHuVAtW",
  "name": "Occult Patron",
  "type": "feat",
  "img": "systems/lf1/icons/feats/improved-familiar.jpg",
  "system": {
    "description": {
      "value": "<ul>\n<li>2nd — @Compendium[lf1.spells.aa0w7tk852iqn3ni]{Detect Undead}</li>\n<li>4th — @Compendium[lf1.spells.h1ankl1l77kmnpke]{Command Undead}</li>\n<li>6th — @Compendium[lf1.spells.bp1j6n5r1lsok3kf]{Twilight Knife}</li>\n<li>8th — @Compendium[lf1.spells.wralcmyi4tdcai24]{Black Tentacles}</li>\n<li>10th — @Compendium[lf1.spells.1rhpxleafu8mi5yu]{Snake Staff}</li>\n<li>12th — @Compendium[lf1.spells.c1e7f0ct04k270wy]{Create Undead}</li>\n<li>14th — @Compendium[lf1.spells.9f3hf9h3j8q8062b]{Waves of Exhaustion}</li>\n<li>16th — @Compendium[lf1.spells.xmkvpl56appk20cl]{Trap the Soul}</li>\n<li>18th — @Compendium[lf1.spells.ursm11405zobemi3]{Gate}</li>\n</ul>"
    },
    "tag": "classFeat_occultPatron",
    "useCustomTag": true,
    "subType": "classFeat",
    "associations": {
      "classes": ["Witch"]
    }
  }
}
