{
  "_id": "SlM3VLHOaz2PEoWn",
  "name": "One with Abaddon",
  "type": "feat",
  "img": "systems/lf1/icons/skills/blood_13.jpg",
  "system": {
    "description": {
      "value": "<p>At 20th level, your body embraces the unspeakable power of your <em>daemon</em> lineage. You gain <em>immunity</em> to acid, death effects, and <em>poison</em>. You also gain <em>DR</em> 5/good or silver and <em>resistance</em> to cold 10, electricity 10, and fire 10.</p>"
    },
    "actions": [
      {
        "_id": "gnx6bij6p1dcs8kd",
        "name": "Use",
        "img": "systems/lf1/icons/skills/blood_13.jpg",
        "activation": {
          "type": "passive",
          "unchained": {
            "type": "passive"
          }
        },
        "actionType": ""
      }
    ],
    "tag": "classFeat_oneWithAbaddon",
    "useCustomTag": true,
    "subType": "classFeat",
    "associations": {
      "classes": ["Sorcerer"]
    },
    "abilityType": "su"
  }
}
