{
  "_id": "6sP6SpP5BclCYS32",
  "name": "One Touch (UC)",
  "type": "feat",
  "img": "systems/lf1/icons/skills/fire_07.jpg",
  "system": {
    "description": {
      "value": "<p>As long as he has at least 1 point remaining in his ki pool, as a standard action, a monk with this power can make an unarmed strike against a foe as a touch attack. He adds 1/2 his monk level as a bonus on the damage roll. He can spend 1 ki point to double this bonus for that attack.</p>\n<p>A monk must be at least 12th level before selecting this ki power.</p>"
    },
    "actions": [
      {
        "_id": "u4spx7383xk6trqb",
        "name": "Use",
        "img": "systems/lf1/icons/skills/fire_07.jpg",
        "activation": {
          "type": "standard",
          "unchained": {
            "cost": 2,
            "type": "action"
          }
        },
        "actionType": ""
      }
    ],
    "tag": "classFeat_oneTouchUc",
    "useCustomTag": true,
    "subType": "classFeat",
    "associations": {
      "classes": ["Monk (Unchained)"]
    },
    "abilityType": "ex"
  }
}
