{
  "_id": "A56OUZnIsE8ZMda2",
  "name": "One with the Wild",
  "type": "feat",
  "img": "systems/lf1/icons/feats/deceitful.jpg",
  "system": {
    "description": {
      "value": "<p>The vigilante must have the environmental weapon talent to select this talent. In the same terrain for which he selected that talent, he gains a +4 competence bonus on Stealth, Survival, and Perception checks.</p>"
    },
    "tag": "classFeat_oneWithTheWild",
    "useCustomTag": true,
    "subType": "classFeat",
    "associations": {
      "classes": ["Vigilante"]
    },
    "abilityType": "ex"
  }
}
