{
  "_id": "LlFvhM7wA3ANdAzw",
  "name": "Outer Rifts Final Revelation",
  "type": "feat",
  "img": "systems/lf1/icons/spells/light-royal-1.jpg",
  "system": {
    "description": {
      "value": "<p>At 20th level, you gain the ability to open rifts between planes. This allows you to use @Compendium[lf1.spells.ursm11405zobemi3]{Gate} as a spell-like ability once per day. If you use this ability to call creatures, you still need to provide 10,000 gp in offerings to secure the creature’s aid.</p>"
    },
    "tag": "classFeat_outerRiftsFinalRevelation",
    "useCustomTag": true,
    "subType": "classFeat",
    "associations": {
      "classes": ["Oracle"]
    }
  }
}
