{
  "_id": "UTSlwH6BvvAaSCY9",
  "name": "Pain Discipline",
  "type": "feat",
  "img": "systems/lf1/icons/spells/slice-spirit-3.jpg",
  "system": {
    "description": {
      "value": "<p>Mental blocks prevent your immense inborn psychic energies from flowing freely. They are unleashed only when you suffer pain.<p><b>Phrenic Pool Ability:</b> Charisma<p><b>Bonus Spells:</b></p>\n<ul>\n<li>@Compendium[lf1.spells.ijtqp1h3hka5kive]{Persuasive Goad} (1st), </li>\n<li>@Compendium[lf1.spells.jy64xofud29j5ju6]{Pain Strike} (4th), </li>\n<li>@Compendium[lf1.spells.3efy1ico48ccrzni]{Vampiric Touch} (6th), </li>\n<li>@Compendium[lf1.spells.1dkzhi78je32sbrr]{Pain Strike, Mass} (8th), </li>\n<li>@Compendium[lf1.spells.4jddpsd5pkky0qjg]{Synapse Overload} (10th), </li>\n<li>@Compendium[lf1.spells.nqrpfidjuzllqa9z]{Inflict Pain, Mass} (12th), </li>\n<li>@Compendium[lf1.spells.9f3hf9h3j8q8062b]{Waves of Exhaustion} (14th), </li>\n<li>@Compendium[lf1.spells.e8zen5nzixnt7bde]{Horrid Wilting} (16th), </li>\n<li>@Compendium[lf1.spells.6yeorbvt5ysym3nh]{Suffocation, Mass} (18th).</li>\n</ul>"
    },
    "tag": "classFeat_painDiscipline",
    "useCustomTag": true,
    "subType": "classFeat",
    "associations": {
      "classes": ["Psychic"]
    }
  }
}
