{
  "_id": "lKj5mKUidQ9ByDbg",
  "name": "Perfect Fall",
  "type": "feat",
  "img": "systems/lf1/icons/feats/deceitful.jpg",
  "system": {
    "description": {
      "value": "<p>As long as there is a wall or another surface within arm’s reach, the vigilante never takes falling damage. Even if no surface is available, he takes only half damage from falling and lands on his feet.</p>"
    },
    "tag": "classFeat_perfectFall",
    "useCustomTag": true,
    "subType": "classFeat",
    "associations": {
      "classes": ["Vigilante"]
    },
    "abilityType": "ex"
  }
}
