{
  "_id": "p9yDKj9mQz1bBiJp",
  "name": "Petrification Subdomain",
  "type": "feat",
  "img": "systems/lf1/icons/skills/blood_09.jpg",
  "system": {
    "description": {
      "value": "<p><b>Replacement Domain Spells:</b></p>\n<ul>\n<li>4th—@Compendium[lf1.spells.wvpa1pt2gyh75g3x]{Calcific Touch}</li>\n<li>5th—@Compendium[lf1.spells.knyako6zopc1chrv]{Stoneskin}</li>\n<li>6th—@Compendium[lf1.spells.361rc74674l3zt9a]{Flesh to Stone}</li>\n<li>8th—@Compendium[lf1.spells.g52zx1t1giteg5h1]{Statue}</li>\n</ul>"
    },
    "tag": "classFeat_petrificationSubdomain",
    "useCustomTag": true,
    "subType": "classFeat",
    "associations": {
      "classes": ["Cleric"]
    }
  }
}
