{
  "_id": "okBdYuHA2VdKyo8L",
  "name": "Phantasm Subschool",
  "type": "feat",
  "img": "systems/lf1/icons/spells/horror-acid-1.jpg",
  "system": {
    "description": {
      "value": "<p><b>Associated School:</b> <em>Illusion</em>.</p>\n<p><b>Replacement Powers:</b> This subschool replaces the blinding ray and <em>invisibility</em> field powers of the <em>illusion</em> school.</p>"
    },
    "tag": "classFeat_phantasmSubschool",
    "useCustomTag": true,
    "subType": "classFeat",
    "associations": {
      "classes": ["Wizard"]
    }
  }
}
