{
  "_id": "LZUh2JH0j1x4WvCg",
  "name": "Phantasmagoric Display",
  "type": "feat",
  "img": "systems/lf1/icons/skills/violet_20.jpg",
  "system": {
    "description": {
      "value": "<p>The shaman can cast @Compendium[lf1.spells.ijwcwnt3oatnfghq]{Prismatic Wall} and @Compendium[lf1.spells.mb819hvwpk0zmw53]{Prismatic Spray}, each once per day with a caster level equal to her shaman level.</p>"
    },
    "tag": "classFeat_phantasmagoricDisplay",
    "useCustomTag": true,
    "subType": "classFeat",
    "associations": {
      "classes": ["Shaman"]
    },
    "abilityType": "sp"
  }
}
