{
  "_id": "Ut4J7E2Ay2anav5T",
  "name": "Plant Blessing: Creeping Vines",
  "type": "feat",
  "img": "systems/lf1/icons/spells/vines-jade-2.jpg",
  "system": {
    "description": {
      "value": "<p>At 1st level, upon hitting with a melee attack, as a swift action you cause the creature you hit to sprout entangling vines that attempt to hold it in place, entangling it for 1 round (Reflex negates).</p>"
    },
    "actions": [
      {
        "_id": "opssvz1d5fyh3212",
        "name": "Use",
        "img": "systems/lf1/icons/spells/vines-jade-2.jpg",
        "activation": {
          "type": "swift",
          "unchained": {
            "type": "action"
          }
        },
        "duration": {
          "value": "1",
          "units": "round"
        },
        "target": {
          "value": "creature struck"
        },
        "range": {
          "units": "touch"
        },
        "actionType": "save",
        "save": {
          "type": "ref",
          "description": "Reflex negates"
        }
      }
    ],
    "tag": "classFeat_plantBlessingCreepingVines",
    "useCustomTag": true,
    "subType": "classFeat",
    "associations": {
      "classes": ["Warpriest"]
    }
  }
}
