{
  "_id": "EuZbXDIMZozh0JYd",
  "name": "Plant Blessing: Battle Companion",
  "type": "feat",
  "img": "systems/lf1/icons/spells/vines-jade-3.jpg",
  "system": {
    "description": {
      "value": "<p>At 10th level, you can summon a battle companion. This ability functions as @Compendium[lf1.spells.choriern682hgptb]{Summon Nature's Ally IV}, with a duration of 1 minute. This ability can summon only one animal, regardless of the list used, and the creature’s type changes to plant instead of animal.</p>\n<p>For every 2 levels beyond 10th, the level of the summon nature’s ally spell increases by 1, to a maximum of @Compendium[lf1.spells.x6y3kyvxf8s31jhy]{Summon Nature's Ally IX} at 20th level.</p>"
    },
    "actions": [
      {
        "_id": "dxc5eulonv75fq23",
        "name": "Use",
        "img": "systems/lf1/icons/spells/vines-jade-3.jpg",
        "activation": {
          "type": "round",
          "unchained": {
            "cost": 3,
            "type": "action"
          }
        },
        "duration": {
          "value": "1",
          "units": "minute"
        },
        "actionType": ""
      }
    ],
    "tag": "classFeat_plantBlessingBattleCompanion",
    "useCustomTag": true,
    "subType": "classFeat",
    "associations": {
      "classes": ["Warpriest"]
    }
  }
}
