{
  "_id": "kKaz5A6XbuxgVvhO",
  "name": "Poison Use (ALC)",
  "type": "feat",
  "img": "systems/lf1/icons/skills/violet_24.jpg",
  "system": {
    "description": {
      "value": "<p>Alchemists are trained in the use of poison and starting at 2nd level, cannot accidentally poison themselves when applying poison to a weapon.</p>"
    },
    "tag": "classFeat_poisonUseAlc",
    "useCustomTag": true,
    "subType": "classFeat",
    "associations": {
      "classes": ["Alchemist"]
    },
    "abilityType": "ex"
  }
}
