{
  "_id": "AmsnoKelAxLttUbj",
  "name": "Poison Use (NIN)",
  "type": "feat",
  "img": "systems/lf1/icons/items/weapons/kunai.png",
  "system": {
    "description": {
      "value": "<p>At 1st level, a ninja is trained in the use of poison and cannot accidentally poison herself when applying poison to a weapon.</p>"
    },
    "tag": "classFeat_poisonUseNin",
    "useCustomTag": true,
    "subType": "classFeat",
    "associations": {
      "classes": ["Ninja"]
    },
    "abilityType": "ex"
  }
}
