{
  "_id": "05dlMQ4G1bTM74xp",
  "name": "Powerful Persuader",
  "type": "feat",
  "img": "systems/lf1/icons/skills/light_07.jpg",
  "system": {
    "description": {
      "value": "<p>At 8th level, when you make a Diplomacy or Intimidate check, you can roll twice and take the higher result. Using this ability is a free action. You can use this ability once per day at 8th level, plus one additional time per day for every 2 levels beyond 8th.</p>\n<p>This power replaces the Freedom's Call power of the Liberation Domain.</p>"
    },
    "actions": [
      {
        "_id": "gw9vq4bo8t6e7cyc",
        "name": "Use",
        "img": "systems/lf1/icons/skills/light_07.jpg",
        "activation": {
          "type": "passive",
          "unchained": {
            "type": "passive"
          }
        },
        "actionType": ""
      }
    ],
    "uses": {
      "per": "day",
      "maxFormula": "floor((@classes.cleric.level - 6) / 2)"
    },
    "tag": "classFeat_powerfulPersuader",
    "useCustomTag": true,
    "subType": "classFeat",
    "associations": {
      "classes": ["Cleric"]
    },
    "abilityType": "su"
  }
}
