{
  "_id": "BcEPgCcl1sBMrjoV",
  "name": "Powerful Smash",
  "type": "feat",
  "img": "systems/lf1/icons/skills/violet_20.jpg",
  "system": {
    "description": {
      "value": "<p>As a standard action, the shaman can attack an enemy with an unarmed strike as if she had the @Compendium[lf1.feats.2aTFNMs3pW6nUBlr]{Improved Unarmed Strike} feat. If the shaman hits a creature in this way, that creature must succeed at a Fortitude save (DC = 10 + half the shaman’s class level + her Charisma modifier) or be dazed for 1 round.</p>\n<p>The shaman can use this ability a number of times per day equal to 3 + her Charisma modifier.</p>"
    },
    "actions": [
      {
        "_id": "tl0el32fm3blhg97",
        "name": "Use",
        "img": "systems/lf1/icons/skills/violet_20.jpg",
        "activation": {
          "type": "standard",
          "unchained": {
            "cost": 2,
            "type": "action"
          }
        },
        "duration": {
          "value": "1",
          "units": "round"
        },
        "target": {
          "value": "one creature"
        },
        "range": {
          "units": "touch"
        },
        "actionType": "save",
        "save": {
          "type": "fort",
          "description": "Fortitude negates dazed"
        }
      }
    ],
    "uses": {
      "per": "day",
      "maxFormula": "3 + @abilities.cha.mod"
    },
    "tag": "classFeat_powerfulSmash",
    "useCustomTag": true,
    "subType": "classFeat",
    "associations": {
      "classes": ["Shaman"]
    },
    "abilityType": "ex"
  }
}
