{
  "_id": "VloIqoW596a3tJ6f",
  "name": "Powerful Blow",
  "type": "feat",
  "img": "systems/lf1/icons/feats/deafening-critical.jpg",
  "system": {
    "description": {
      "value": "<p>The barbarian gains a +1 bonus on a single damage roll. This bonus increases by +1 for every 4 levels the barbarian has attained. This power is used as a swift action before the roll to hit is made. This power can only be used once per rage.</p>"
    },
    "tag": "classFeat_powerfulBlow",
    "useCustomTag": true,
    "subType": "classFeat",
    "associations": {
      "classes": ["Barbarian", "Skald"]
    },
    "abilityType": "ex"
  }
}
