{
  "_id": "N2ayp8Ckp9mkQ7Lh",
  "name": "Power from Pain",
  "type": "feat",
  "img": "systems/lf1/icons/spells/slice-spirit-3.jpg",
  "system": {
    "description": {
      "value": "<p>If your painful reminder deals at least 5 points of damage, you regain 1 point in your phrenic pool. The maximum number of points you can regain in this way per day is equal to your Wisdom modifier.</p>"
    },
    "tag": "classFeat_powerFromPain",
    "useCustomTag": true,
    "subType": "classFeat",
    "associations": {
      "classes": ["Psychic"]
    },
    "abilityType": "su"
  }
}
