{
  "_id": "S5qTE935Zpa2ZZuh",
  "name": "Power of the Shaitan",
  "type": "feat",
  "img": "systems/lf1/icons/skills/yellow_14.jpg",
  "system": {
    "description": {
      "value": "<p>At 20th level, you gain the power of genies to grant wishes. Once per day, you can cast @Compendium[lf1.spells.s2p7a4biy7bl4ks2]{Limited Wish} as a <em>spell-like ability</em>. Such wishes must begin with the words “I wish,” and cannot duplicate a wish you have granted within the past 24 hours. If you use this ability to duplicate a spell with a costly material component, you must provide that component.</p>\n<p>You become immune to acid damage, and can use @Compendium[lf1.spells.q3st18udsalnyz5v]{Plane Shift} once per day to travel to or from the Plane of Earth.</p>"
    },
    "tag": "classFeat_powerOfTheShaitan",
    "useCustomTag": true,
    "subType": "classFeat",
    "associations": {
      "classes": ["Sorcerer"]
    },
    "abilityType": "su"
  }
}
