{
  "_id": "9RQQwmHfpoI08sLd",
  "name": "Powerful Sneak (UC)",
  "type": "feat",
  "img": "systems/lf1/icons/items/weapons/hunga-munga.PNG",
  "system": {
    "description": {
      "value": "<p>Whenever a rogue with this talent takes a full-attack action, she can take a –2 penalty on all attack rolls until the start of her next turn. If she does, she can reroll any sneak attack damage dice that result in 1s. She can reroll multiple dice, but she can’t reroll any individual die more than once per attack.</p>"
    },
    "tag": "classFeat_powerfulSneakUc",
    "useCustomTag": true,
    "subType": "classFeat",
    "associations": {
      "classes": ["Rogue (Unchained)"]
    },
    "abilityType": "ex"
  }
}
