{
  "_id": "rfLUozY0ZZBvTd3H",
  "name": "Prescient Attack",
  "type": "feat",
  "img": "systems/lf1/icons/spells/enchant-red-3.jpg",
  "system": {
    "description": {
      "value": "<p>The magus can expend 1 point from his arcane pool as an immediate action after hitting a target with a weapon attack, allowing him to anticipate his opponent’s defenses. The target is denied its Dexterity bonus against the magus’s attacks until the end of the magus’s next turn.</p>\n<p>The magus must be at least 6th level before selecting this arcana.</p>"
    },
    "tag": "classFeat_prescientAttack",
    "useCustomTag": true,
    "subType": "classFeat",
    "associations": {
      "classes": ["Magus"]
    },
    "abilityType": "su"
  }
}
