{
  "_id": "0mTk1t1TI27smPnB",
  "name": "Primal Manipulation",
  "type": "feat",
  "img": "systems/lf1/icons/spells/light-royal-1.jpg",
  "system": {
    "description": {
      "value": "<p>Whenever you cast a spell that deals acid, cold, electricity, or fire damage, you may change it to deal one of the other listed damage types.</p>\n<p>You may use this ability once per day, plus one additional time for every 5 levels.</p>\n<p>At 15th level, you can change a spell to deal sonic damage, though the damage is halved.</p>\n<p>At 20th level, you can change a spell to deal force damage, though the damage is halved.</p>\n<p>You must be at least 7th level to select this revelation.</p>"
    },
    "actions": [
      {
        "_id": "tz9d2npl9myosb1q",
        "name": "Use",
        "img": "systems/lf1/icons/spells/light-royal-1.jpg",
        "activation": {
          "type": "passive",
          "unchained": {
            "type": "passive"
          }
        },
        "actionType": ""
      }
    ],
    "uses": {
      "per": "day",
      "maxFormula": "1 + floor(@classes.oracle.level / 5)"
    },
    "tag": "classFeat_primalManipulation",
    "useCustomTag": true,
    "subType": "classFeat",
    "associations": {
      "classes": ["Oracle"]
    },
    "abilityType": "su"
  }
}
