{
  "_id": "dzAbx3olXdrHIcOE",
  "name": "Prophecy Subschool",
  "type": "feat",
  "img": "systems/lf1/icons/spells/air-burst-magenta-3.jpg",
  "system": {
    "description": {
      "value": "<p><b>Associated School</b>: <em>Divination</em>.</p>\n<p><b>Replacement Powers:</b> This subschool replaces the forewarned and scrying adept powers of the <em>divination school</em>.</p>"
    },
    "tag": "classFeat_prophecySubschool",
    "useCustomTag": true,
    "subType": "classFeat",
    "associations": {
      "classes": ["Wizard"]
    }
  }
}
