{
  "_id": "9ILlrwcEAtzy8mWB",
  "name": "Prophecy",
  "type": "feat",
  "img": "systems/lf1/icons/skills/violet_02.jpg",
  "system": {
    "description": {
      "value": "<p>The witch can call on her prophetic ancestors and cast @Compendium[lf1.spells.pwueht12qqo0268e]{Divination} once per day. She can spend a full hour casting the spell in place of providing the usual material components.</p>"
    },
    "tags": ["Hex", "Major Hex"],
    "actions": [
      {
        "_id": "lha4fwkxaict98i2",
        "name": "Use Materials",
        "img": "systems/lf1/icons/skills/violet_02.jpg",
        "activation": {
          "cost": 10,
          "type": "minute",
          "unchained": {
            "cost": 10,
            "type": "minute"
          }
        },
        "duration": {
          "units": "inst"
        },
        "target": {
          "value": "self"
        },
        "range": {
          "units": "personal"
        },
        "actionType": ""
      },
      {
        "_id": "5PUsrrJNs0nmvayl",
        "name": "Forgo Materials",
        "img": "systems/lf1/icons/skills/violet_02.jpg",
        "activation": {
          "cost": 10,
          "type": "minute",
          "unchained": {
            "type": "hour"
          }
        },
        "duration": {
          "units": "inst"
        },
        "target": {
          "value": "self"
        },
        "range": {
          "units": "personal"
        },
        "actionType": ""
      }
    ],
    "uses": {
      "per": "day",
      "maxFormula": "1"
    },
    "tag": "classFeat_prophecy",
    "useCustomTag": true,
    "subType": "classFeat",
    "associations": {
      "classes": ["Witch"]
    },
    "abilityType": "su"
  }
}
