{
  "_id": "8DLJqK1p5TuWxCGP",
  "name": "Protect Vitals (UC)",
  "type": "feat",
  "img": "systems/lf1/icons/feats/deafening-critical.jpg",
  "system": {
    "description": {
      "value": "<p>While in the guarded stance, the barbarian gains an additional +4 dodge bonus to AC against attack rolls made to confirm critical hits.</p>\n<p>A barbarian must have the guarded stance rage power and be at least 8th level to select this rage power.</p>"
    },
    "tag": "classFeat_protectVitalsUc",
    "useCustomTag": true,
    "subType": "classFeat",
    "associations": {
      "classes": ["Barbarian (Unchained)"]
    },
    "abilityType": "ex"
  }
}
