{
  "_id": "qIFUwyCjea79rUri",
  "name": "Protective Ward",
  "type": "feat",
  "img": "systems/lf1/icons/items/inventory/badge-shield.jpg",
  "system": {
    "description": {
      "value": "<p>As a standard action, you can create a 10-foot-radius field of protective magic centered on you that lasts for a number of rounds equal to your <em>Intelligence</em> modifier. All allies in this area (including you) receive a +1 deflection bonus to their <em>Armor Class</em>. This bonus increases by +1 for every five wizard levels you possess. You can use this ability a number of times per day equal to 3 + your <em>Intelligence</em> modifier.</p>"
    },
    "actions": [
      {
        "_id": "400za3sy54uivilo",
        "name": "Use",
        "img": "systems/lf1/icons/items/inventory/badge-shield.jpg",
        "activation": {
          "type": "standard",
          "unchained": {
            "cost": 2,
            "type": "action"
          }
        },
        "duration": {
          "value": "@abilities.int.mod",
          "units": "round"
        },
        "range": {
          "units": "personal"
        },
        "measureTemplate": {
          "type": "circle",
          "size": "10"
        },
        "actionType": ""
      }
    ],
    "uses": {
      "per": "day",
      "maxFormula": "3 + @abilities.int.mod"
    },
    "tag": "classFeat_protectiveWard",
    "useCustomTag": true,
    "subType": "classFeat",
    "associations": {
      "classes": ["Wizard"]
    },
    "abilityType": "su"
  }
}
