{
  "_id": "znyWT4TkL09HToDQ",
  "name": "Psychopomp Totem, Lesser",
  "type": "feat",
  "img": "systems/lf1/icons/feats/deafening-critical.jpg",
  "system": {
    "description": {
      "value": "<p>While raging, the barbarian gains a +1 deflection bonus to AC against the attacks of undead creatures and a +1 bonus on saving throws against death effects, diseases, and poisons. This bonus increases by 1 for each psychopomp totem rage power she has, excepting this one.</p>"
    },
    "tag": "classFeat_psychopompTotemLesser",
    "useCustomTag": true,
    "subType": "classFeat",
    "associations": {
      "classes": ["Barbarian", "Skald"]
    },
    "abilityType": "su"
  }
}
