{
  "_id": "Ba5ZM3i1csfOo4on",
  "name": "Pure Whimsy",
  "type": "feat",
  "img": "systems/lf1/icons/spells/light-royal-1.jpg",
  "system": {
    "description": {
      "value": "<p>Once per day, you can release a stream of errant chaos from the First World as a standard action. When you do so, identify a target within 90 feet and generate a random effect as from a rod of wonder (or, at the GM’s discretion, another random or unusual effect of similar power). The DC of any required saving throw is 10 + half your oracle level + your Charisma modifier, and no effect from this ability persists for more than 1 day.</p>\n<p>You can use this ability once per day at 7th level and one additional time per day for every 4 levels beyond 7th. You must be at least 7th level to select this revelation.</p>"
    },
    "actions": [
      {
        "_id": "3ebrfaqsh56my293",
        "name": "Use",
        "img": "systems/lf1/icons/spells/light-royal-1.jpg",
        "activation": {
          "type": "standard",
          "unchained": {
            "cost": 2,
            "type": "action"
          }
        },
        "duration": {
          "units": "inst"
        },
        "target": {
          "value": "one creature"
        },
        "range": {
          "value": "90",
          "units": "ft"
        },
        "actionType": ""
      }
    ],
    "uses": {
      "per": "day",
      "maxFormula": "floor((@classes.oracle.level - 3) / 4)"
    },
    "tag": "classFeat_pureWhimsy",
    "useCustomTag": true,
    "subType": "classFeat",
    "associations": {
      "classes": ["Oracle"]
    },
    "abilityType": "su"
  }
}
