{
  "_id": "OsXHPUjTYM5TtDLw",
  "name": "Purge Corruption",
  "type": "feat",
  "img": "systems/lf1/icons/items/inventory/lantern.jpg",
  "system": {
    "description": {
      "value": "<p>As a standard action, you can expend 1 point of mental focus to draw out the corruption from a creature. You must touch the target with your implement to use this power. This ability functions as either @Compendium[lf1.spells.6l904edkt8jv9jor]{Neutralize Poison} or @Compendium[lf1.spells.ocbjt6z7amc3yn8w]{Remove Disease}, using your occultist level as the caster level.</p>\n<p>Each use of this ability can cure only one poison or one disease.</p>\n<p>You must be at least 5th level to select this focus power.</p>"
    },
    "actions": [
      {
        "_id": "gjxnlheqk27v33xj",
        "name": "Use",
        "img": "systems/lf1/icons/items/inventory/lantern.jpg",
        "activation": {
          "type": "standard",
          "unchained": {
            "cost": 2,
            "type": "action"
          }
        },
        "actionType": ""
      }
    ],
    "tag": "classFeat_purgeCorruption",
    "useCustomTag": true,
    "subType": "classFeat",
    "associations": {
      "classes": ["Occultist"]
    },
    "abilityType": "sp"
  }
}
