{
  "_id": "s6J1s1XtrBaaEcMy",
  "name": "Purge Disquiet",
  "type": "feat",
  "img": "systems/lf1/icons/spells/slice-spirit-3.jpg",
  "system": {
    "description": {
      "value": "<p>At 13th level, you can banish mental distress. You become immune to fear spells and effects and to the confused condition.</p>\n<p>As a standard action, you can choose a willing creature that is either within 30 feet or in telepathic contact with you. For 1 round per psychic level you possess, you suppress any fear effect or confused, cowering, frightened, panicked, or shaken condition affecting that creature.</p>\n<p>You can suppress only one effect at a time with this ability, and choosing a new target ends the suppression for the character you previously chose.</p>"
    },
    "actions": [
      {
        "_id": "8i012yu1swheba49",
        "name": "Use",
        "img": "systems/lf1/icons/spells/slice-spirit-3.jpg",
        "activation": {
          "type": "standard",
          "unchained": {
            "cost": 2,
            "type": "action"
          }
        },
        "duration": {
          "value": "@classes.psychic.level",
          "units": "round"
        },
        "uses": {
          "autoDeductChargesCost": "0"
        },
        "actionType": ""
      }
    ],
    "tag": "classFeat_purgeDisquiet",
    "useCustomTag": true,
    "subType": "classFeat",
    "associations": {
      "classes": ["Psychic"]
    },
    "abilityType": "su"
  }
}
