{
  "_id": "sRkGFqJGumBoP8pD",
  "name": "Qinggong Power (UC)",
  "type": "feat",
  "img": "systems/lf1/icons/skills/fire_07.jpg",
  "system": {
    "description": {
      "value": "<p>A monk with this power selects any of the qinggong monk ki powers (Pathfinder RPG Ultimate Magic 51) for which he qualifies based on his monk level.</p>\n<p>A monk can select this ability multiple times. Each time, he must select a different qinggong monk ki power.</p>"
    },
    "tag": "classFeat_qinggongPowerUc",
    "useCustomTag": true,
    "subType": "classFeat",
    "associations": {
      "classes": ["Monk (Unchained)"]
    }
  }
}
