{
  "name": "Quick Study (INV)",
  "type": "feat",
  "img": "systems/lf1/icons/items/weapons/sword-cane.png",
  "system": {
    "description": {
      "value": "<p><strong>Source</strong> Advanced Class Guide pg. 32</p><p>An investigator can use his @UUID[Compendium.lf1.class-abilities.nVwveeNV71Bg7YnY]{studied combat} ability as swift action instead of a move action.</p>"
    },
    "tags": ["Investigator Talent"],
    "tag": "classFeat_quickStudyInv",
    "useCustomTag": true,
    "subType": "classFeat",
    "associations": {
      "classes": ["Investigator"]
    },
    "abilityType": "ex"
  },
  "_id": "0Yv9Zji04sz7eICi"
}
