{
  "_id": "owCz5PIfP8iaFeUf",
  "name": "Quick Disable",
  "type": "feat",
  "img": "systems/lf1/icons/items/weapons/dagger.PNG",
  "system": {
    "description": {
      "value": "<p>It takes a rogue with this ability half the normal amount of time to disable a trap using the Disable Device skill (minimum 1 round).</p>"
    },
    "tag": "classFeat_quickDisable",
    "useCustomTag": true,
    "subType": "classFeat",
    "associations": {
      "classes": ["Rogue"]
    },
    "abilityType": "ex"
  }
}
