{
  "_id": "LwwjHf6ORZKi0tTa",
  "name": "Radiation Subdomain",
  "type": "feat",
  "img": "systems/lf1/icons/skills/green_11.jpg",
  "system": {
    "description": {
      "value": "<p><b>Replacement Domain Spells:</b> </p>\n<ul>\n<li>2nd—@Compendium[lf1.spells.sq5lzym6a8mmfl7l]{Defoliate}</li>\n<li>4th—@Compendium[lf1.spells.gq7np9mwtfd500zg]{Blight}</li>\n<li>8th—@Compendium[lf1.spells.e8zen5nzixnt7bde]{Horrid Wilting}</li>\n</ul>"
    },
    "tag": "classFeat_radiationSubdomain",
    "useCustomTag": true,
    "subType": "classFeat",
    "associations": {
      "classes": ["Cleric"]
    }
  }
}
