{
  "_id": "8aFTPx0YF8gKMOYN",
  "name": "Rage Subdomain",
  "type": "feat",
  "img": "systems/lf1/icons/skills/yellow_17.jpg",
  "system": {
    "description": {
      "value": "<p><b>Replacement Domain Spells:</b></p>\n<ul>\n<li>2nd—@Compendium[lf1.spells.05i5rxwim12hwktu]{Bull's Strength}</li>\n<li>6th—@Compendium[lf1.spells.2mh7g81k30bv7b5m]{Moonstruck}</li>\n</ul>"
    },
    "tag": "classFeat_rageSubdomain",
    "useCustomTag": true,
    "subType": "classFeat",
    "associations": {
      "classes": ["Cleric"]
    }
  }
}
