{
  "_id": "4awBxRCmPYsjzmUt",
  "name": "Raise the Dead",
  "type": "feat",
  "img": "systems/lf1/icons/spells/light-royal-1.jpg",
  "system": {
    "description": {
      "value": "<p>As a standard action, you can summon a single skeleton or zombie to serve you. The undead creature has a number of Hit Dice equal to your oracle level. It remains for a number of rounds equal to your Charisma modifier.</p>\n<p>At 7th level, you can summon a bloody skeleton or fast zombie.</p>\n<p>At 15th level, you can summon an advanced skeleton or zombie. You can use this ability once per day plus one additional time per day at 10th level.</p>"
    },
    "actions": [
      {
        "_id": "xayzjnlfk9i8n979",
        "name": "Use",
        "img": "systems/lf1/icons/spells/light-royal-1.jpg",
        "activation": {
          "type": "standard",
          "unchained": {
            "cost": 2,
            "type": "action"
          }
        },
        "duration": {
          "value": "@abilities.cha.mod",
          "units": "round"
        },
        "actionType": ""
      }
    ],
    "uses": {
      "per": "day",
      "maxFormula": "@classes.oracle.level >= 10 ? 2 : 1"
    },
    "tag": "classFeat_raiseTheDead",
    "useCustomTag": true,
    "subType": "classFeat",
    "associations": {
      "classes": ["Oracle"]
    },
    "abilityType": "su"
  }
}
