{
  "_id": "ll0BGE9t6Oo3Ug6Q",
  "name": "Rapid Boost",
  "type": "feat",
  "img": "systems/lf1/icons/items/weapons/dagger.PNG",
  "system": {
    "description": {
      "value": "<p>Once per day, the rogue can roll two dice while attempting a Sleight of Hand check and take the better result. She must choose to use this talent before attempting the Sleight of Hand check. A rogue can use this ability one additional time per day for every 5 rogue levels she has.</p>"
    },
    "tag": "classFeat_rapidBoost",
    "useCustomTag": true,
    "subType": "classFeat",
    "associations": {
      "classes": ["Rogue"]
    },
    "abilityType": "ex"
  }
}
