{
  "_id": "uTCepSkCy8A1690s",
  "name": "Reality Wrinkle",
  "type": "feat",
  "img": "systems/lf1/icons/skills/blue_15.jpg",
  "system": {
    "description": {
      "value": "<p>At 9th level, you can surround yourself with a mobile, 10-foot-radius emanation of mutable reality. This rippling distortion is similar to @Compendium[lf1.spells.g0q8c0ni0rvipjpn]{Solid Fog} but does not provide <em>concealment</em> or block line of sight. Your movement is not slowed by this aura. Attacks from outside the aura suffer a 20% miss chance against targets inside the aura. You may use this ability a number of rounds per day equal to your sorcerer level, though this duration need not be continuous.</p>"
    },
    "actions": [
      {
        "_id": "revfqtu1f0nlpa11",
        "name": "Use",
        "img": "systems/lf1/icons/skills/blue_15.jpg",
        "activation": {
          "type": "free",
          "unchained": {
            "type": "free"
          }
        },
        "actionType": ""
      }
    ],
    "tag": "classFeat_realityWrinkle",
    "useCustomTag": true,
    "subType": "classFeat",
    "associations": {
      "classes": ["Sorcerer"]
    },
    "abilityType": "sp"
  }
}
