{
  "_id": "kYc25YOKUYZxMQFn",
  "name": "Reaper Mystery",
  "type": "feat",
  "img": "systems/lf1/icons/spells/light-magenta-2.jpg",
  "system": {
    "description": {
      "value": "<p><strong>Source</strong> Pathfinder #139: The Dead Road pg. 66</p><p><strong>Class Skills:</strong> An oracle with this mystery adds Intimidate, Perception, Stealth, and Survival to her list of class skills.</p><p><strong>Bonus Spells:</strong></p><ul><li>@Compendium[lf1.spells.to1cdmyh5rtfyg2s]{Chill Touch} (2nd),</li><li>@Compendium[lf1.spells.y4ztvvswf2uuwuqo]{Calm Spirit} (4th),</li><li>@Compendium[lf1.spells.l7tmsbg37zr1q382]{Sands of Time} (6th),</li><li>@Compendium[lf1.spells.l8xwrepcmkdgb2wf]{Purge Spirit} (8th),</li><li>@Compendium[lf1.spells.dg3mrasygkm83c3e]{Slay Living} (10th),</li><li>@Compendium[lf1.spells.lllhr9py6w44cxjm]{Undeath to Death} (12th),</li><li>@Compendium[lf1.spells.rlfd7f64wgjfvg6e]{Destruction} (14th),</li><li>@Compendium[lf1.spells.e8zen5nzixnt7bde]{Horrid Wilting} (16th),</li><li>@Compendium[lf1.spells.wplgawb6aznjx7se]{Wail of the Banshee} (18th).</li></ul>"
    },
    "tags": ["Reaper Mystery"],
    "tag": "classFeat_reaperMystery",
    "useCustomTag": true,
    "subType": "classFeat",
    "associations": {
      "classes": ["Oracle"]
    },
    "classSkills": {
      "int": true,
      "per": true,
      "ste": true,
      "sur": true
    }
  }
}
