{
  "name": "Receptive Vibrations",
  "type": "feat",
  "img": "icons/magic/control/silhouette-hold-change-green.webp",
  "system": {
    "description": {
      "value": "<p><strong>Source:</strong> Elemental Master's Handbook pg. 20</p><p>At 8th level, you are constantly surrounded by ephemeral and invisible strands of aether, increasing your awareness of your surroundings. You are never denied your Dexterity bonus to AC against attacks made within 30 feet of you because you are flat-footed or because your assailant is unseen. In addition, you gain a bonus on Perception checks to avoid being surprised equal to half your wizard level.</p>"
    },
    "tags": ["Aether School"],
    "contextNotes": [
      {
        "text": "+[[floor(@classes.wizard.level / 2)]] bonus to avoid being surprised.",
        "subTarget": "skill.per"
      }
    ],
    "subType": "classFeat",
    "associations": {
      "classes": ["Wizard"]
    },
    "abilityType": "su"
  },
  "_id": "khGQDuyL6TKASqYb"
}
