{
  "_id": "5bMdPLDLTci3Ybgu",
  "name": "Redirect Primal Magic",
  "type": "feat",
  "img": "systems/lf1/icons/spells/runes-blue-2.jpg",
  "system": {
    "description": {
      "value": "<p>If the arcanist triggers a primal magic event, she can spend 1 point from her arcane reservoir as an immediate action to redirect the event. The event occurs at a location of the arcanist’s choosing within a 20-foot radius. This radius expands by 5 feet for every 2 arcanist levels she has.</p>"
    },
    "tags": ["Arcanist Exploit"],
    "actions": [
      {
        "_id": "5lhv6mw8km95cneb",
        "name": "Use",
        "img": "systems/lf1/icons/spells/runes-blue-2.jpg",
        "activation": {
          "type": "immediate",
          "unchained": {
            "type": "reaction"
          }
        },
        "actionType": ""
      }
    ],
    "tag": "classFeat_redirectPrimalMagic",
    "useCustomTag": true,
    "subType": "classFeat",
    "associations": {
      "classes": ["Arcanist"]
    },
    "abilityType": "su"
  }
}
