{
  "_id": "3wRZrnb7itCksfhP",
  "name": "Regenerative Stance (UC)",
  "type": "feat",
  "img": "systems/lf1/icons/feats/deafening-critical.jpg",
  "system": {
    "description": {
      "value": "<p>The barbarian can continually replenish her health. At the start of her turn, she regains 1 temporary hit point for every 4 levels she has (up to 5 hit points per round), but this cannot give her more than her maximum temporary hit points from rage.</p>\n<p>This is a stance rage power.</p>\n<p>A barbarian must be at least 4th level to select this rage power.</p>"
    },
    "actions": [
      {
        "_id": "68zc6jt1fndfo3qe",
        "name": "Use",
        "img": "systems/lf1/icons/feats/deafening-critical.jpg",
        "activation": {
          "type": "move"
        },
        "uses": {
          "autoDeductChargesCost": "0"
        },
        "actionType": ""
      }
    ],
    "tag": "classFeat_regenerativeStanceUc",
    "useCustomTag": true,
    "subType": "classFeat",
    "associations": {
      "classes": ["Barbarian (Unchained)"]
    },
    "abilityType": "ex"
  }
}
