{
  "_id": "woALy2NGARmqMf7l",
  "name": "Relentless Casting",
  "type": "feat",
  "img": "systems/lf1/icons/spells/shielding-spirit-2.jpg",
  "system": {
    "description": {
      "value": "<p>The psychic can spend 1 point from her phrenic pool to roll twice on any caster level checks to overcome spell resistance required for the linked spell and take the better result. Because she must decide to spend points from her phrenic pool when she starts casting a spell, the psychic must decide to use this ability before the GM calls for the caster level check.</p>"
    },
    "actions": [
      {
        "_id": "cxwinc5cicvmbhn2",
        "name": "Use",
        "img": "systems/lf1/icons/spells/shielding-spirit-2.jpg",
        "activation": {
          "type": "free",
          "unchained": {
            "type": "free"
          }
        },
        "actionType": ""
      }
    ],
    "tag": "classFeat_relentlessCasting",
    "useCustomTag": true,
    "subType": "classFeat",
    "associations": {
      "classes": ["Psychic"]
    },
    "abilityType": "su"
  }
}
