{
  "_id": "UeYdiNoaF0gG08Y5",
  "name": "Resistance",
  "type": "feat",
  "img": "systems/lf1/icons/items/inventory/element-fire.jpg",
  "system": {
    "description": {
      "value": "<p>You gain resistance 5 to an energy type of your choice, chosen when you prepare spells. This resistance can be changed each day. At 11th level, this resistance increases to 10. At 20th level, this resistance changes to immunity to the chosen energy type.</p>"
    },
    "actions": [
      {
        "_id": "bvakcg7srtmk1o4a",
        "name": "Use",
        "img": "systems/lf1/icons/items/inventory/element-fire.jpg",
        "activation": {
          "type": "passive",
          "unchained": {
            "type": "passive"
          }
        },
        "actionType": ""
      }
    ],
    "tag": "classFeat_resistance",
    "useCustomTag": true,
    "subType": "classFeat",
    "associations": {
      "classes": ["Wizard"]
    },
    "abilityType": "ex"
  }
}
