{
  "_id": "auUhKGg9Gpf8Yyug",
  "name": "Resonating Rumbles",
  "type": "feat",
  "img": "systems/lf1/icons/items/weapons/butterfly-knife.PNG",
  "system": {
    "description": {
      "value": "<p><strong>Source</strong> Elemental Master's Handbook pg. 9</p><p>When a rogue with this talent makes a successful sneak attack against a creature with tremorsense, the rogue can subtract 3 dice from her sneak attack damage to prevent the target from using tremorsense for a number of rounds equal to half her rogue level.</p>"
    },
    "tags": ["Rogue Talent, Advanced"],
    "tag": "classFeat_resonatingRumbles",
    "useCustomTag": true,
    "subType": "classFeat",
    "associations": {
      "classes": ["Rogue", "Rogue (Unchained)"]
    },
    "abilityType": "su"
  }
}
