{
  "_id": "VciWXEALxtJwwIYk",
  "name": "Resolve Subdomain",
  "type": "feat",
  "img": "systems/lf1/icons/skills/blue_23.jpg",
  "system": {
    "description": {
      "value": "<p><b>Replacement Domain Spells:</b></p>\n<ul>\n<li>1st—@Compendium[lf1.spells.wa0zb2pncesmm9lz]{Bless}</li>\n<li>6th—@Compendium[lf1.spells.op40qjf9oohlx5nu]{Heroes' Feast}</li>\n</ul>"
    },
    "tag": "classFeat_resolveSubdomain",
    "useCustomTag": true,
    "subType": "classFeat",
    "associations": {
      "classes": ["Cleric"]
    }
  }
}
