{
  "_id": "yay3Gfa9ZYvx3Mdf",
  "name": "Restriction (Stare)",
  "type": "feat",
  "img": "systems/lf1/icons/skills/emerald_11.jpg",
  "system": {
    "description": {
      "value": "<p>The target of the hypnotic stare treats all areas of dim light or darker as difficult terrain.</p>"
    },
    "tag": "classFeat_restrictionStare",
    "useCustomTag": true,
    "subType": "classFeat",
    "associations": {
      "classes": ["Mesmerist"]
    }
  }
}
