{
  "_id": "SZ8mTnUBFXzBkmBK",
  "name": "Revelation Inquisition",
  "type": "feat",
  "img": "systems/lf1/icons/items/inventory/badge-cross.jpg",
  "system": {
    "description": {
      "value": "<p><b>Granted Powers:</b> Evil often hides itself behind a mask of good. You are an expert at ferreting out those who are not what they seem, and use your powers to reveal the true forms of the unworthy.</p>"
    },
    "tag": "classFeat_revelationInquisition",
    "useCustomTag": true,
    "subType": "classFeat",
    "associations": {
      "classes": ["Inquisitor"]
    }
  }
}
