{
  "_id": "5fNOtCT2bfilfNOJ",
  "name": "Rime-Bound Gloom",
  "type": "feat",
  "img": "systems/lf1/icons/items/potions/unique-3.jpg",
  "system": {
    "description": {
      "value": "<p>The gloom creates an area of freezing shadow in its splash radius that deals 2d6 points of cold damage to all creatures in the area each turn. This effect lasts 1 round for every 2 alchemist levels.</p>\n<p>An alchemist must be at least 6th level to select this discovery.</p>"
    },
    "tag": "classFeat_rimeboundGloom",
    "useCustomTag": true,
    "subType": "classFeat",
    "associations": {
      "classes": ["Alchemist"]
    }
  }
}
