{
  "_id": "gOMQuX8vUnNclNXT",
  "name": "Rites Subdomain",
  "type": "feat",
  "img": "systems/lf1/icons/skills/light_06.jpg",
  "system": {
    "description": {
      "value": "<p><b>Replacement Power:</b> When casting a Rites domain spell with a costly material component—or casting permanency on any domain spell—reduce the cost of the necessary components by 20%.</p>\n<p><b>Replacement Domain Spells:</b> </p>\n<ul>\n<li>1st—@Compendium[lf1.spells.5o8uysrb153tnvci]{Sanctify Corpse}</li>\n<li>5th—@Compendium[lf1.spells.nsxngq65mbrzgwnm]{Permanency}</li>\n<li>8th—@Compendium[lf1.spells.gb7pxobi1za67p7g]{Binding}</li>\n</ul>"
    },
    "tag": "classFeat_ritesSubdomain",
    "useCustomTag": true,
    "subType": "classFeat",
    "associations": {
      "classes": ["Cleric"]
    }
  }
}
