{
  "_id": "gvo9pqFOPFF6I35A",
  "name": "Rod Mastery",
  "type": "feat",
  "img": "systems/lf1/icons/spells/enchant-red-3.jpg",
  "system": {
    "description": {
      "value": "<p>Whenever the magus uses a rod, he calculates the DC for any spell it contains using his Intelligence modifier (minimum 0) instead of the minimum modifier needed to cast a spell of that level.</p>"
    },
    "tag": "classFeat_rodMastery",
    "useCustomTag": true,
    "subType": "classFeat",
    "associations": {
      "classes": ["Magus"]
    },
    "abilityType": "su"
  }
}
