{
  "_id": "arKp5dB4xzfDpGVG",
  "name": "Rune Domain",
  "type": "feat",
  "img": "systems/lf1/icons/spells/runes-blue-1.jpg",
  "system": {
    "description": {
      "value": "<p><b>Granted Powers:</b> In strange and eldritch runes you find potent magic. You gain Scribe Scroll as a bonus feat.</p>\n<p><b>Domain Spells:</b> </p>\n<ul>\n<li>1st—@Compendium[lf1.spells.qvpzcjm5lmtn389j]{Erase}</li>\n<li>2nd—@Compendium[lf1.spells.6klw6f8yrhu9z9mn]{Secret Page}</li>\n<li>3rd—@Compendium[lf1.spells.53dyu81yaw4y0nz4]{Glyph Of Warding}</li>\n<li>4th—@Compendium[lf1.spells.o4ywdvsm1oty8blq]{Explosive Runes}</li>\n<li>5th—@Compendium[lf1.spells.y4b1zmhmsa0gvf06]{Planar Binding, Lesser}</li>\n<li>6th—@Compendium[lf1.spells.pmf5luoblkdc4zfk]{Glyph of Warding, Greater}</li>\n<li>7th—@Compendium[lf1.spells.o6vh3lrmi1hsdzmm]{Instant Summons}</li>\n<li>8th—@Compendium[lf1.spells.g0x2fnktg1553wv1]{Symbol of Death}</li>\n<li>9th—@Compendium[lf1.spells.if867t28tu6zxaei]{Teleportation Circle}</li>\n</ul>"
    },
    "tag": "classFeat_runeDomain",
    "useCustomTag": true,
    "subType": "classFeat",
    "associations": {
      "classes": ["Cleric"]
    }
  }
}
