{
  "_id": "mqukM0AnVAF4bvV4",
  "name": "Rusting Grasp",
  "type": "feat",
  "img": "systems/lf1/icons/spells/light-royal-1.jpg",
  "system": {
    "description": {
      "value": "<p>Once per day as a standard action, you can perform a melee touch attack that rusts iron, as the rusting grasp spell.</p>\n<p>At 11th level, and every four levels thereafter, you can use this ability an additional time per day.</p>\n<p>You must be at least 7th level to select this revelation.</p>"
    },
    "tags": ["Revelation", "Metal Mystery"],
    "actions": [
      {
        "_id": "kb2w03xj5xja17zj",
        "name": "Use",
        "img": "systems/lf1/icons/spells/light-royal-1.jpg",
        "activation": {
          "type": "standard",
          "unchained": {
            "cost": 2,
            "type": "action"
          }
        },
        "duration": {
          "units": "inst"
        },
        "target": {
          "value": "object touched"
        },
        "range": {
          "units": "touch"
        },
        "actionType": ""
      }
    ],
    "uses": {
      "per": "day",
      "maxFormula": "floor((@classes.oracle.level - 3) / 4)"
    },
    "tag": "classFeat_rustingGrasp",
    "useCustomTag": true,
    "subType": "classFeat",
    "associations": {
      "classes": ["Oracle"]
    },
    "abilityType": "sp"
  }
}
