{
  "_id": "EaImVUjWn4NUrjI4",
  "name": "Sacrifice (3 pts)",
  "type": "feat",
  "img": "systems/lf1/icons/skills/blue_26.jpg",
  "system": {
    "description": {
      "value": "<p>An eidolon can sacrifice its own hit points to heal another creature. As a standard action, the eidolon can sacrifice up to 2 hit points per Hit Die and then touch the target creature, thereby healing the creature for half the amount sacrificed.</p>"
    },
    "tag": "classFeat_sacrifice3Pts",
    "useCustomTag": true,
    "subType": "classFeat",
    "associations": {
      "classes": ["Eidolon"]
    },
    "abilityType": "su"
  }
}
