{
  "_id": "ehbx7LReuXz0Tn18",
  "name": "Sandwalker",
  "type": "feat",
  "img": "systems/lf1/icons/skills/yellow_42.jpg",
  "system": {
    "description": {
      "value": "<p>At 15th level, you gain you gain a <em>burrow</em> speed of 30 feet and <em>tremorsense</em> with a range of 60 feet.</p>"
    },
    "actions": [
      {
        "_id": "x09bezbouhfpgmik",
        "name": "Use",
        "img": "systems/lf1/icons/skills/yellow_42.jpg",
        "activation": {
          "type": "passive",
          "unchained": {
            "type": "passive"
          }
        },
        "actionType": ""
      }
    ],
    "changes": [
      {
        "_id": "ths7d87l",
        "formula": "30",
        "subTarget": "burrowSpeed",
        "modifier": "base"
      }
    ],
    "tag": "classFeat_sandwalker",
    "useCustomTag": true,
    "subType": "classFeat",
    "associations": {
      "classes": ["Sorcerer"]
    },
    "abilityType": "ex"
  }
}
