{
  "_id": "eHgWj7yYwEQO6Jh3",
  "name": "Scalykind Blessing: Scaly Touch",
  "type": "feat",
  "img": "systems/lf1/icons/races/lizardfolk.png",
  "system": {
    "description": {
      "value": "<p>At 1st level, you can touch an ally as a standard action to grant it reptilian scales. For 1 minute, the ally gains a +1 enhancement bonus to its natural armor.</p>\n<p>At 5th level and every 5 levels thereafter, this bonus increases by 1 (to a maximum of +5 at 20th level).</p>"
    },
    "actions": [
      {
        "_id": "doklx4kv0xc97xg5",
        "name": "Use",
        "img": "systems/lf1/icons/races/lizardfolk.png",
        "activation": {
          "type": "standard",
          "unchained": {
            "cost": 2,
            "type": "action"
          }
        },
        "duration": {
          "value": "1",
          "units": "minute"
        },
        "target": {
          "value": "creature touched"
        },
        "range": {
          "units": "touch"
        },
        "actionType": ""
      }
    ],
    "tag": "classFeat_scalykindBlessingScalyTouch",
    "useCustomTag": true,
    "subType": "classFeat",
    "associations": {
      "classes": ["Warpriest"]
    }
  }
}
