{
  "_id": "e9BXUUb2wkNgJfsD",
  "name": "Shadow Door",
  "type": "feat",
  "img": "systems/lf1/icons/skills/red_05.jpg",
  "system": {
    "description": {
      "value": "<p>At 16th level, you can take any part of your movement through shadows, teleporting to another location within 60 feet. This ability functions as @Compendium[lf1.spells.ojwg1ki98tq8xyh9]{Dimension Door}, except you can’t use shadow door in brightly lit areas. You can teleport in this manner a total of 10 feet per class level each day.</p>"
    },
    "tag": "classFeat_shadowDoor",
    "useCustomTag": true,
    "subType": "classFeat",
    "associations": {
      "classes": ["Bloodrager"]
    },
    "abilityType": "su"
  }
}
