{
  "_id": "COYvk4S1CTRWSloW",
  "name": "Shades of Gray",
  "type": "feat",
  "img": "systems/lf1/icons/items/weapons/dagger.PNG",
  "system": {
    "description": {
      "value": "<p>A rogue with this talent uses mental and emotional tricks to protect herself from attempts to discern her alignment. This offers her the benefits of @Compendium[lf1.spells.vsr1e8ib0hfhbnxb]{Undetectable Alignment} whenever she chooses, though she must be conscious to maintain the effect.</p>"
    },
    "tag": "classFeat_shadesOfGray",
    "useCustomTag": true,
    "subType": "classFeat",
    "associations": {
      "classes": ["Rogue", "Rogue (Unchained)"]
    },
    "abilityType": "ex"
  }
}
