{
  "_id": "gfXQTfFuDtjuWG3N",
  "name": "Shadow Form (2 pts)",
  "type": "feat",
  "img": "systems/lf1/icons/skills/blue_26.jpg",
  "system": {
    "description": {
      "value": "<p>The eidolon's body becomes shadowy and more indistinct. This shadow form grants the eidolon constant concealment (20% miss chance), and its melee attacks affect incorporeal creatures as if it had the ghost touch weapon property. The eidolon's melee attacks deal only half damage to corporeal creatures.</p>"
    },
    "tag": "classFeat_shadowForm2Pts",
    "useCustomTag": true,
    "subType": "classFeat",
    "associations": {
      "classes": ["Eidolon"]
    },
    "abilityType": "su"
  }
}
