{
  "_id": "qtMw6Ov0BN2eBUWI",
  "name": "Shadow Bloodrager Bloodline",
  "type": "feat",
  "img": "systems/lf1/icons/skills/red_13.jpg",
  "system": {
    "description": {
      "value": "<p><em>Because of your heritage, you can move and see through shadows as if you are part of them. Your fury absorbs light, warmth, and strength.</em><p><b>Bonus Feats:</b></p>\n<ul>\n<li>@Compendium[lf1.feats.pmAO1Sni8xx71pLF]{Blind-Fight}</li>\n<li>@Compendium[lf1.feats.h9nHYLxXvIXBTmup]{Combat Reflexes}</li>\n<li>@Compendium[lf1.feats.Uuiu3p982omhMEPj]{Improved Initiative}</li>\n<li>@Compendium[lf1.feats.0bZf3SDkvVOe2ujH]{Lightning Reflexes}</li>\n<li>@Compendium[lf1.feats.WKIVfdosc5SqYzmP]{Quick Draw}</li>\n<li>@Compendium[lf1.feats.Mz8ZG6nqW3NKFZhK]{Step Up}</li>\n</ul>\n<p><b>Bonus Spells:</b> </p>\n<ul>\n<li>@Compendium[lf1.spells.mczdgwo3xl8c6e26]{Ray Of Enfeeblement} (7th), </li>\n<li>@Compendium[lf1.spells.mz9yr5yhr0f3oqtp]{Darkvision} (10th), </li>\n<li>@Compendium[lf1.spells.jdsvncnna6oy189a]{Deeper Darkness} (13th), </li>\n<li>@Compendium[lf1.spells.ed7fvzc2p4m6n7a2]{Shadow Conjuration} (16th)</li>\n</ul>"
    },
    "tag": "classFeat_shadowBloodragerBloodline",
    "useCustomTag": true,
    "subType": "classFeat",
    "associations": {
      "classes": ["Bloodrager"]
    }
  }
}
