{
  "_id": "iMZTa86xlmGO77x1",
  "name": "Shadow's Speed",
  "type": "feat",
  "img": "systems/lf1/icons/feats/deceitful.jpg",
  "system": {
    "description": {
      "value": "<p>The vigilante’s base speed increases by 10 feet.</p>\n<p>At 10th level, it increases by an additional 10 feet.</p>"
    },
    "changes": [
      {
        "_id": "an4f9gvm",
        "formula": "@classes.vigilante.level >= 10 ? 20 : 10",
        "subTarget": "landSpeed",
        "modifier": "base"
      }
    ],
    "tag": "classFeat_shadowsSpeed",
    "useCustomTag": true,
    "subType": "classFeat",
    "associations": {
      "classes": ["Vigilante"]
    },
    "abilityType": "ex"
  }
}
