{
  "_id": "H5BScdULGUCOEt5L",
  "name": "Shadow Subdomain",
  "type": "feat",
  "img": "systems/lf1/icons/skills/shadow_11.jpg",
  "system": {
    "description": {
      "value": "<p><b>Replacement Domain Spells:</b> </p>\n<ul>\n<li>1st—@Compendium[lf1.spells.mczdgwo3xl8c6e26]{Ray Of Enfeeblement}</li>\n<li>4th—@Compendium[lf1.spells.6efjgs1qvmj6yxqv]{Phantasmal Killer}</li>\n<li>8th—@Compendium[lf1.spells.003tu19dpyoaj0se]{Orb Of The Void}</li>\n</ul>"
    },
    "tag": "classFeat_shadowSubdomain",
    "useCustomTag": true,
    "subType": "classFeat",
    "associations": {
      "classes": ["Cleric"]
    }
  }
}
