{
  "_id": "p3vSX7iEtJro5gjT",
  "name": "Shapechanger Bloodrager Bloodline",
  "type": "feat",
  "img": "systems/lf1/icons/skills/red_13.jpg",
  "system": {
    "description": {
      "value": "<p><em>The blood of doppelgangers, faceless stalkers, lycanthropes, or other shapechangers courses through your veins.</em><p><b>Bonus Feats:</b></p>\n<ul>\n<li>@Compendium[lf1.feats.JreaiTHdyWFNj3Tb]{Dodge}</li>\n<li>@Compendium[lf1.feats.BkKYCzEGNTzZRiTz]{Fleet}</li>\n<li>@Compendium[lf1.feats.Uuiu3p982omhMEPj]{Improved Initiative}</li>\n<li>@Compendium[lf1.feats.2aTFNMs3pW6nUBlr]{Improved Unarmed Strike}</li>\n<li>@Compendium[lf1.feats.0bZf3SDkvVOe2ujH]{Lightning Reflexes}</li>\n<li>@Compendium[lf1.feats.FUW5mIXHNBBIQ1Sq]{Power Attack}</li>\n<li>@Compendium[lf1.feats.n250dFlbykAIAg5Z]{Weapon Focus}</li>\n</ul>\n<p><b>Bonus Spells:</b> </p>\n<ul>\n<li>@Compendium[lf1.spells.jnlr9cuepka1l26e]{Enlarge Person} (7th), </li>\n<li>@Compendium[lf1.spells.kouqz0pm1xl8xilm]{Alter Self} (10th), </li>\n<li>@Compendium[lf1.spells.7d6sv5ecvi7kho3m]{Fly} (13th), </li>\n<li>@Compendium[lf1.spells.knyako6zopc1chrv]{Stoneskin} (16th)</li>\n</ul>"
    },
    "tag": "classFeat_shapechangerBloodragerBloodline",
    "useCustomTag": true,
    "subType": "classFeat",
    "associations": {
      "classes": ["Bloodrager"]
    }
  }
}
