{
  "_id": "Lz9i4zNAH50umw3s",
  "name": "Shape Emotions",
  "type": "feat",
  "img": "systems/lf1/icons/spells/protect-magenta-3.jpg",
  "system": {
    "description": {
      "value": "<p>At 8th level, you can emit a 30-foot aura to either ward off or welcome emotional influence for a number of rounds per day equal to your wizard level. If you choose to ward, you and your allies within this aura receive a +4 <em>morale bonus</em> on saves against mind-affecting spells and effects, and any fear effects targeting you or your allies are reduced by one step (<em>shaken</em> has no effect, <em>frightened</em> becomes <em>shaken</em>, and <em>panicked</em> becomes <em>frightened</em>). If you chose to enhance emotional influence, enemies within the aura receive a –2 penalty on saves against mind-affecting spells and effects. These rounds do not need to be consecutive.</p>"
    },
    "actions": [
      {
        "_id": "v45bg788ri0oc0c0",
        "name": "Use",
        "img": "systems/lf1/icons/spells/protect-magenta-3.jpg",
        "activation": {
          "type": "free",
          "unchained": {
            "type": "free"
          }
        },
        "duration": {
          "value": "1",
          "units": "round"
        },
        "range": {
          "units": "seeText"
        },
        "actionType": ""
      }
    ],
    "uses": {
      "per": "day",
      "maxFormula": "@classes.wizard.level"
    },
    "tag": "classFeat_shapeEmotions",
    "useCustomTag": true,
    "subType": "classFeat",
    "associations": {
      "classes": ["Wizard"]
    },
    "abilityType": "su"
  }
}
