{
  "_id": "56HhUEP9UF45esFg",
  "name": "Share Memory",
  "type": "feat",
  "img": "systems/lf1/icons/spells/slice-spirit-3.jpg",
  "system": {
    "description": {
      "value": "<p>At 5th level, you can use @Compendium[lf1.spells.9hi94t05i449j5ul]{Share Memory} at will, but only with a willing target.</p>"
    },
    "tag": "classFeat_shareMemory",
    "useCustomTag": true,
    "subType": "classFeat",
    "associations": {
      "classes": ["Psychic"]
    },
    "abilityType": "sp"
  }
}
