{
  "_id": "WoVPQkJ3CxFNVzFB",
  "name": "Shock Bomb",
  "type": "feat",
  "img": "systems/lf1/icons/items/potions/unique-3.jpg",
  "system": {
    "description": {
      "value": "<p>When the alchemist creates a bomb, he can choose to have it inflict electricity damage. Creatures that take a direct hit from a shock bomb are dazzled for 1d4 rounds.</p>"
    },
    "tag": "classFeat_shockBomb",
    "useCustomTag": true,
    "subType": "classFeat",
    "associations": {
      "classes": ["Alchemist"]
    }
  }
}
