{
  "_id": "YZnFYJppNYe6KtBF",
  "name": "Silver-Tongued Haggler",
  "type": "feat",
  "img": "systems/lf1/icons/skills/light_07.jpg",
  "system": {
    "description": {
      "value": "<p>Whenever you make a Bluff, Diplomacy, or Sense Motive check, you can, as a free action, grant yourself a bonus on the roll equal to 1/2 your cleric level (minimum +1). You can use this ability a number of times per day equal to 3 + your Wisdom modifier.</p>\n<p>This pwoer replaces the Agile Feet power of the Travel Domain.</p>"
    },
    "actions": [
      {
        "_id": "z73nnv17llxehcfo",
        "name": "Use",
        "img": "systems/lf1/icons/skills/light_07.jpg",
        "activation": {
          "type": "free",
          "unchained": {
            "type": "free"
          }
        },
        "duration": {
          "units": "inst"
        },
        "target": {
          "value": "self"
        },
        "range": {
          "units": "personal"
        },
        "actionType": ""
      }
    ],
    "uses": {
      "per": "day",
      "maxFormula": "3 + @abilities.wis.mod"
    },
    "tag": "classFeat_silvertonguedHaggler",
    "useCustomTag": true,
    "subType": "classFeat",
    "associations": {
      "classes": ["Cleric"]
    },
    "abilityType": "su"
  }
}
