{
  "_id": "Qya2EAZvbAN9JAEc",
  "name": "Single-Minded Appraiser",
  "type": "feat",
  "img": "systems/lf1/icons/items/weapons/dagger.PNG",
  "system": {
    "description": {
      "value": "<p>A catfolk rogue with this talent is skilled at determining the value of sparkly things. She can always take 10 when appraising gems and jewelry.</p>"
    },
    "tag": "classFeat_singlemindedAppraiser",
    "useCustomTag": true,
    "subType": "classFeat",
    "associations": {
      "classes": ["Rogue"]
    },
    "abilityType": "ex"
  }
}
