{
  "_id": "BxWHV2yvMZ2rx8f7",
  "name": "Size Alteration",
  "type": "feat",
  "img": "systems/lf1/icons/items/weapons/axe-orc-double.png",
  "system": {
    "description": {
      "value": "<p>As a standard action, you can expend 1 point of mental focus and touch a creature to alter its size. You can increase or decrease the creature’s size by one step, as @Compendium[lf1.spells.jnlr9cuepka1l26e]{Enlarge Person} or @Compendium[lf1.spells.2y9e1l6zso9tdg0a]{Reduce Person} but not limited by the creature’s type.</p>\n<p>If the creature is hostile toward you, using this ability requires a successful melee touch attack, and the creature can attempt a Fortitude save to negate the effect.</p>\n<p>This effect lasts for 1 round per occultist level you possess.</p>\n<p>You can’t use this ability on a creature that is already subject to an effect that alters its size.</p>"
    },
    "actions": [
      {
        "_id": "50act4pqxn6bsi40",
        "name": "Use",
        "img": "systems/lf1/icons/items/weapons/axe-orc-double.png",
        "activation": {
          "type": "standard",
          "unchained": {
            "cost": 2,
            "type": "action"
          }
        },
        "duration": {
          "value": "@classes.occultist.level",
          "units": "round"
        },
        "target": {
          "value": "creature touched"
        },
        "range": {
          "units": "touch"
        },
        "actionType": ""
      }
    ],
    "tag": "classFeat_sizeAlteration",
    "useCustomTag": true,
    "subType": "classFeat",
    "associations": {
      "classes": ["Occultist"]
    },
    "abilityType": "sp"
  }
}
