{
  "_id": "DOzEH9ScFeGCGt8H",
  "name": "Smasher (UC)",
  "type": "feat",
  "img": "systems/lf1/icons/feats/deafening-critical.jpg",
  "system": {
    "description": {
      "value": "<p>Whenever the barbarian attempts a sunder combat maneuver or makes an attack against an unattended object, she ignores 1 point of the object’s hardness per barbarian level she has.</p>"
    },
    "tag": "classFeat_smasherUc",
    "useCustomTag": true,
    "subType": "classFeat",
    "associations": {
      "classes": ["Barbarian (Unchained)"]
    },
    "abilityType": "ex"
  }
}
