{
  "name": "Smokesight",
  "type": "feat",
  "img": "icons/magic/perception/eye-ringed-glow-angry-red.webp",
  "system": {
    "description": {
      "value": "<p><strong>Source</strong> Elemental Master's Handbook pg. 21</p><p>You can see normally through natural fog and smoke, as well as any fog and smoke that you (but not others) magically create. A number of times per day equal to 3 + your Intelligence bonus, you can touch another creature as a standard action to grant it this vision for 1 hour.</p>"
    },
    "tags": ["Smoke School"],
    "actions": [
      {
        "_id": "8jQJhaPhju59JFgt",
        "name": "Use",
        "img": "icons/magic/perception/eye-ringed-glow-angry-red.webp",
        "activation": {
          "type": "standard",
          "unchained": {
            "cost": 2,
            "type": "action"
          }
        },
        "target": {
          "value": "Creature touched"
        },
        "actionType": "other",
        "touch": true
      }
    ],
    "uses": {
      "per": "day",
      "maxFormula": "3 + @abilities.int.mod",
      "autoDeductChargesCost": ""
    },
    "subType": "classFeat",
    "associations": {
      "classes": ["Wizard"]
    },
    "abilityType": "su"
  },
  "_id": "Y8Fa9bxd9Bc2NJJT"
}
