{
  "_id": "CfmIVQOp1oLvtBH2",
  "name": "Song-Bound Curse",
  "type": "feat",
  "img": "systems/lf1/icons/spells/horror-eerie-1.jpg",
  "system": {
    "description": {
      "value": "<p>(<a href=\"https://aonprd.com/RacesDisplay.aspx?ItemName=Merfolk\">Merfolk</a> only) Whenever you speak, you are compelled to sing loudly, and you draw out even short utterances with vocal scales or simple melodies. You cannot speak in less than a loud voice, although you may choose not to speak. You can perform the countersong bardic performance (using Perform [sing] only) for a number of rounds per day equal to your oracle level. If you gain the bardic performance class feature, these rounds are in addition to any other bardic performance rounds you gain, but they can be used only for the countersong bardic performance.</p>\n<p>At 5th level, add @Compendium[lf1.spells.2p6fzj5t03oivndd]{Command} and @Compendium[lf1.spells.zqj5qzyl46af27v0]{Suggestion} to your list of spells known.</p>\n<p>At 10th level, add 1 to the difficulty class of saving throws against language-dependent spells you cast.</p>\n<p>At 15th level, add @Compendium[lf1.spells.l1zl69j95ad7l9dn]{Command, Greater} and @Compendium[lf1.spells.52v3fogun1n9jzum]{Suggestion, Mass} to your list of spells known.</p>"
    },
    "tag": "classFeat_songboundCurse",
    "useCustomTag": true,
    "subType": "classFeat",
    "associations": {
      "classes": ["Oracle"]
    }
  }
}
