{
  "_id": "MeMvLwKJUn09QNKN",
  "name": "Sorrow Discipline",
  "type": "feat",
  "img": "systems/lf1/icons/spells/slice-spirit-3.jpg",
  "system": {
    "description": {
      "value": "<p>You draw strength from deep feelings of abandonment, loneliness, and sadness, turning these emotions into a powerful weapon or a barrier that protects you.<p><b>Phrenic Pool Ability:</b> Charisma.<p><b>Bonus Spells:</b></p>\n<ul>\n<li>@Compendium[lf1.spells.yk5bgi6j9kbtigof]{Sanctuary} (1st), </li>\n<li>@Compendium[lf1.spells.ow4t1zox6dtybgji]{Silence} (4th), </li>\n<li>@Compendium[lf1.spells.awia42zci8nufpfl]{Nondetection} (6th), </li>\n<li>@Compendium[lf1.spells.zt7cje76dck9hwp9]{Crushing Despair} (8th), </li>\n<li>@Compendium[lf1.spells.dlmeq0hpxfbjtibb]{Mind Fog} (10th), </li>\n<li>@Compendium[lf1.spells.z8xnkfpufuqapseq]{Eyebite} (12th), </li>\n<li>@Compendium[lf1.spells.c3qqu6l3vdcfaoh7]{Sequester} (14th), </li>\n<li>@Compendium[lf1.spells.hi72gh3dlf7a1qyt]{Maze} (16th), </li>\n<li>@Compendium[lf1.spells.esia6azb5g68tfs7]{Imprisonment} (18th).</li>\n</ul>"
    },
    "tag": "classFeat_sorrowDiscipline",
    "useCustomTag": true,
    "subType": "classFeat",
    "associations": {
      "classes": ["Psychic"]
    }
  }
}
