{
  "_id": "4lA5PZjFcR1veuyL",
  "name": "Spark of Innovation",
  "type": "feat",
  "img": "systems/lf1/icons/spells/rock-sky-3.jpg",
  "system": {
    "description": {
      "value": "<p><b>Element</b> earth; <b>Type</b> utility (Sp); <b>Level</b> 5; <b>Burn</b> 0<br><b>Prerequisite</b> metal blast</p>\n<p>You shape metal into a clockwork creature, as <a href=\"https://aonprd.com/KineticistTalentsDisplay.aspx?ItemName=Spark%20of%20Life\">spark of life</a> except you summon a clockwork earth elemental. The elemental’s type is changed to construct (clockwork) and it gains construct traits and <a href=\"https://aonprd.com/MonsterSubtypes.aspx?ItemName=Clockwork\">clockwork traits</a> instead of elemental traits. The creature loses any spell-like abilities or supernatural abilities it normally has. If you have the <a href=\"https://aonprd.com/KineticistTalentsDisplay.aspx?ItemName=Greater%20Elemental%20Whispers\">greater elemental whispers</a> utility wild talent, you can take a <a href=\"https://aonprd.com/MonsterDisplay.aspx?ItemName=Clockwork%20Familiar\">clockwork familiar</a> as an improved familiar with that ability instead of an earth elemental.</p>"
    },
    "tag": "classFeat_sparkOfInnovation",
    "useCustomTag": true,
    "subType": "classFeat",
    "associations": {
      "classes": ["Kineticist"]
    },
    "abilityType": "sp"
  }
}
