{
  "_id": "DnQK1UZ09ufe1Jmn",
  "name": "Speak with Master",
  "type": "feat",
  "img": "systems/lf1/icons/spells/wild-orange-1.jpg",
  "system": {
    "description": {
      "value": "<p>At 11th level, a hunter and her animal companion can communicate verbally, as if they were using a common language. Other creatures cannot understand the communication without magical aid.</p>"
    },
    "tag": "classFeat_speakWithMaster",
    "useCustomTag": true,
    "subType": "classFeat",
    "associations": {
      "classes": ["Hunter"]
    },
    "abilityType": "ex"
  }
}
