{
  "_id": "CO1zRIeXTn6L5yQY",
  "name": "Spell Resistance (ARC)",
  "type": "feat",
  "img": "systems/lf1/icons/spells/runes-blue-2.jpg",
  "system": {
    "description": {
      "value": "<p>The arcanist can grant herself spell resistance for a number of rounds equal to her Charisma modifier (minimum 1) as a standard action by expending 1 point from her arcane reservoir. This spell resistance is equal to 6 + her arcanist level and cannot be suppressed, but it can be ended as a free action on her turn.</p>"
    },
    "tags": ["Arcanist Exploit"],
    "actions": [
      {
        "_id": "j55q6fgo9biy348n",
        "name": "Use",
        "img": "systems/lf1/icons/spells/runes-blue-2.jpg",
        "activation": {
          "type": "standard",
          "unchained": {
            "cost": 2,
            "type": "action"
          }
        },
        "duration": {
          "value": "@abilities.cha.mod",
          "units": "round"
        },
        "target": {
          "value": "self"
        },
        "range": {
          "units": "personal"
        },
        "actionType": ""
      }
    ],
    "tag": "classFeat_spellResistanceArc",
    "useCustomTag": true,
    "subType": "classFeat",
    "associations": {
      "classes": ["Arcanist"]
    },
    "abilityType": "su"
  }
}
