{
  "_id": "Q4Z9iU23UvkEqfp5",
  "name": "Spellbreaker (BAR)",
  "type": "feat",
  "img": "systems/lf1/icons/feats/deafening-critical.jpg",
  "system": {
    "description": {
      "value": "<p>When raging, the barbarian gains @Compendium[lf1.feats.yE3hVOvBq9rx6TAw]{Spellbreaker} as a bonus feat.</p>\n<p>A barbarian must have the disruptive rage power and be at least 12th level to select this rage power.</p>"
    },
    "tag": "classFeat_spellbreakerBar",
    "useCustomTag": true,
    "subType": "classFeat",
    "associations": {
      "classes": ["Barbarian", "Skald"]
    }
  }
}
