{
  "_id": "8q8RNXP17DVDS6Y1",
  "name": "Spell Resistance",
  "type": "feat",
  "img": "systems/lf1/icons/spells/light-royal-1.jpg",
  "system": {
    "description": {
      "value": "<p>You gain SR equal to your oracle level + 5.</p>\n<p>You must be at least 11th level before selecting this revelation.</p>"
    },
    "actions": [
      {
        "_id": "fl55ax7l59x96mm0",
        "name": "Use",
        "img": "systems/lf1/icons/spells/light-royal-1.jpg",
        "activation": {
          "type": "passive",
          "unchained": {
            "type": "passive"
          }
        },
        "actionType": ""
      }
    ],
    "tag": "classFeat_spellResistance",
    "useCustomTag": true,
    "subType": "classFeat",
    "associations": {
      "classes": ["Oracle"]
    },
    "abilityType": "ex"
  }
}
