{
  "_id": "l9E0cac0iqhKAWIZ",
  "name": "Spiritual Awareness",
  "type": "feat",
  "img": "systems/lf1/icons/feats/deafening-critical.jpg",
  "system": {
    "description": {
      "value": "<p>While raging, the barbarian's dodge bonus to AC from trap sense applies against attacks made by incorporeal creatures.</p>\n<p>The barbarian must have trap sense to select this ability.</p>"
    },
    "tag": "classFeat_spiritualAwareness",
    "useCustomTag": true,
    "subType": "classFeat",
    "associations": {
      "classes": ["Barbarian", "Skald"]
    }
  }
}
