{
  "_id": "8KTJUAsXSVWDAkZm",
  "name": "Spoiling Touch",
  "type": "feat",
  "img": "systems/lf1/icons/races/creature-types/monstrous-humanoid.png",
  "system": {
    "description": {
      "value": "<p>At 1st level, you can impose the <em>broken</em> condition upon one Medium or smaller object by making a successful melee <em>touch attack</em>. Magical items or objects carried or worn by a creature are allowed a <em>Fortitude</em> save to resist this effect. Multiple uses of this effect do not stack. You can use this ability a number of times per day equal to 3 + your <em>Charisma</em> modifier.</p>"
    },
    "actions": [
      {
        "_id": "alcy8wnhbxpg3fgy",
        "name": "Use",
        "img": "systems/lf1/icons/races/creature-types/monstrous-humanoid.png",
        "activation": {
          "type": "standard",
          "unchained": {
            "cost": 2,
            "type": "action"
          }
        },
        "duration": {
          "units": "inst"
        },
        "target": {
          "value": "object touched"
        },
        "range": {
          "units": "touch"
        },
        "actionType": ""
      }
    ],
    "uses": {
      "per": "day",
      "maxFormula": "3 + @abilities.cha.mod"
    },
    "tag": "classFeat_spoilingTouch",
    "useCustomTag": true,
    "subType": "classFeat",
    "associations": {
      "classes": ["Sorcerer"]
    },
    "abilityType": "su"
  }
}
