{
  "_id": "uvNhK9qse2SC7Oqm",
  "name": "Spontaneous Generation",
  "type": "feat",
  "img": "systems/lf1/icons/skills/arrow_11.jpg",
  "system": {
    "description": {
      "value": "<p>At 3rd level, you gain @Compendium[lf1.feats.tD76K8QGco9scT0r]{Craft Wondrous Item} as a bonus feat. In addition, when you craft a magic item (except a <em>potion</em>, a spell-trigger item, or a spell-completion item), you may ignore one spell prerequisite without increasing the creation DC. You can ignore an additional spell prerequisite at 9th, 15th, and 20th levels.</p>"
    },
    "actions": [
      {
        "_id": "050iyeefo3udsodt",
        "name": "Use",
        "img": "systems/lf1/icons/skills/arrow_11.jpg",
        "activation": {
          "type": "passive",
          "unchained": {
            "type": "passive"
          }
        },
        "actionType": ""
      }
    ],
    "tag": "classFeat_spontaneousGeneration",
    "useCustomTag": true,
    "subType": "classFeat",
    "associations": {
      "classes": ["Sorcerer"]
    }
  }
}
