{
  "_id": "J4QibEdTUK559sGO",
  "name": "Staff of Order",
  "type": "feat",
  "img": "systems/lf1/icons/items/weapons/sword-cane.png",
  "system": {
    "description": {
      "value": "<p>At 8th level, you can give a weapon touched the axiomatic special weapon quality for a number of rounds equal to 1/2 your cleric level. You can use this ability once per day at 8th level, and an additional time per day for every four levels beyond 8th.</p>"
    },
    "actions": [
      {
        "_id": "iiify8ozt0i4k0ui",
        "name": "Use",
        "img": "systems/lf1/icons/items/weapons/sword-cane.png",
        "activation": {
          "type": "standard",
          "unchained": {
            "cost": 2,
            "type": "action"
          }
        },
        "duration": {
          "value": "floor(@classes.cleric.level / 2)",
          "units": "round"
        },
        "target": {
          "value": "weapon touched"
        },
        "range": {
          "units": "touch"
        },
        "actionType": ""
      }
    ],
    "uses": {
      "per": "day",
      "maxFormula": "floor((@classes.cleric.level - 4) / 4)"
    },
    "tag": "classFeat_staffOfOrder",
    "useCustomTag": true,
    "subType": "classFeat",
    "associations": {
      "classes": ["Cleric"]
    },
    "abilityType": "su"
  }
}
