{
  "_id": "MXn4M314ayumZbVW",
  "name": "Staggering Drunk",
  "type": "feat",
  "img": "systems/lf1/icons/feats/deafening-critical.jpg",
  "system": {
    "description": {
      "value": "<p>While raging, a barbarian gains a +1 dodge bonus to AC against attacks of opportunity for each alcoholic drink she has consumed during her rage, to a maximum of +1 per four barbarian levels.</p>"
    },
    "tag": "classFeat_staggeringDrunk",
    "useCustomTag": true,
    "subType": "classFeat",
    "associations": {
      "classes": ["Barbarian", "Skald"]
    },
    "abilityType": "ex"
  }
}
