{
  "_id": "cOyN5SEN7rqIqzxv",
  "name": "Stand Up (UC)",
  "type": "feat",
  "img": "systems/lf1/icons/items/weapons/hunga-munga.PNG",
  "system": {
    "description": {
      "value": "<p>A rogue with this ability can stand up from a prone position as a swift action without provoking attacks of opportunity, or as a free action that provokes attacks of opportunity.</p>"
    },
    "tag": "classFeat_standUpUc",
    "useCustomTag": true,
    "subType": "classFeat",
    "associations": {
      "classes": ["Rogue (Unchained)"]
    },
    "abilityType": "ex"
  }
}
