{
  "_id": "FEiv14SmEjVCOrRU",
  "name": "Steal Voice",
  "type": "feat",
  "img": "systems/lf1/icons/skills/violet_02.jpg",
  "system": {
    "description": {
      "value": "<p>The witch can steal the voice of one creature within 30 feet, causing it to lose, for a number of rounds equal to the witch’s Intelligence bonus, all abilities that rely on speech, including talking, casting spells with verbal components, and using auditory bardic performances.</p><p>A successful Will saving throw negates this effect.</p><p>If this hex is used upon a willing target, the duration lasts for a number of hours equal to the witch’s Intelligence bonus.</p><p>Additionally, the witch can change her voice to match that of any creature whose voice she has stolen with this hex, as per @Compendium[lf1.spells.26g4tysnax570dxo]{vocal alteration}.</p>"
    },
    "tags": ["Hex", "Major Hex"],
    "actions": [
      {
        "_id": "454ho06cqjkfzk3m",
        "name": "Use",
        "img": "systems/lf1/icons/skills/violet_02.jpg",
        "activation": {
          "type": "standard",
          "unchained": {
            "cost": 2,
            "type": "action"
          }
        },
        "duration": {
          "value": "@abilities.int.mod",
          "units": "round"
        },
        "target": {
          "value": "one creature"
        },
        "range": {
          "value": "30",
          "units": "ft"
        },
        "actionType": "save",
        "save": {
          "dc": "10 + floor(@classes.witch.level / 2) + @abilities.int.mod",
          "type": "will",
          "description": "Will negates"
        }
      }
    ],
    "tag": "classFeat_stealVoice",
    "useCustomTag": true,
    "subType": "classFeat",
    "associations": {
      "classes": ["Witch"]
    },
    "abilityType": "su"
  }
}
