{
  "_id": "u3S04XDWgD1m7IBl",
  "name": "Still Magic",
  "type": "feat",
  "img": "systems/lf1/icons/spells/enchant-red-3.jpg",
  "system": {
    "description": {
      "value": "<p>The magus can cast one spell per day as if it were modified by the @Compendium[lf1.feats.jVFjMIyQD6TOAsmj]{Still Spell} feat. This does not increase the casting time or the level of the spell.</p>"
    },
    "tag": "classFeat_stillMagic",
    "useCustomTag": true,
    "subType": "classFeat",
    "associations": {
      "classes": ["Magus"]
    },
    "abilityType": "su"
  }
}
