{
  "_id": "TTn7hey3SfqaTsLr",
  "name": "Still Mind (UMK)",
  "type": "feat",
  "img": "systems/lf1/icons/feats/blind-fight.jpg",
  "system": {
    "description": {
      "value": "<p>At 4th level, a monk gains a +2 bonus on saving throws against enchantment spells and effects.</p>"
    },
    "tag": "classFeat_stillMindUmk",
    "useCustomTag": true,
    "subType": "classFeat",
    "associations": {
      "classes": ["Monk (Unchained)"]
    },
    "abilityType": "ex"
  }
}
