{
  "_id": "zaI1PGMMCSEaXtUg",
  "name": "Stone Spirit Manifestation",
  "type": "feat",
  "img": "systems/lf1/icons/skills/violet_20.jpg",
  "system": {
    "description": {
      "value": "<p>Upon reaching 20th level, the shaman becomes a being of acid and earth. The shaman gains acid resistance 30. She can also apply any one of the following feats to any acid or earth spell she casts without increasing the spell’s level or casting time: Enlarge Spell, Extend Spell, Silent Spell, or Still Spell. She doesn’t need to possess these feats to use this ability.</p>"
    },
    "tag": "classFeat_stoneSpiritManifestation",
    "useCustomTag": true,
    "subType": "classFeat",
    "associations": {
      "classes": ["Shaman"]
    }
  }
}
