{
  "_id": "NfoB34jDXxaN0gFa",
  "name": "Streets Mystery",
  "type": "feat",
  "img": "systems/lf1/icons/spells/light-magenta-2.jpg",
  "system": {
    "description": {
      "value": "<p><strong>Source</strong> Heroes of the Streets pg. 20</p><p><b>Class Skills:</b> An oracle with the streets mystery adds Bluff, Knowledge (local), Perception, and Stealth to her list of class skills.<p><b>Bonus Spells:</b></p>\n<ul>\n<li>@Compendium[lf1.spells.oj36nfak6jc2s5ky]{Disguise Self} (2nd), </li>\n<li>@Compendium[lf1.spells.xllxylvvqr82o2d5]{Detect Thoughts} (4th), </li>\n<li>@Compendium[lf1.spells.53dyu81yaw4y0nz4]{Glyph Of Warding} (6th), </li>\n<li>@Compendium[lf1.spells.7c0l64pfdkgl7j5y]{Illusory Wall}(8th), </li>\n<li>@Compendium[lf1.spells.gk8fqfvj99d46p2h]{False Vision} (10th), </li>\n<li>@Compendium[lf1.spells.q5432hyeds4pncxn]{Getaway} (12th), </li>\n<li>@Compendium[lf1.spells.dsondqy4ngf1yzf3]{Screen} (14th), </li>\n<li>@Compendium[lf1.spells.kqftgm3bi2dqj92l]{Mage's Magnificent Mansion} (16th), </li>\n<li>@Compendium[lf1.spells.9968j68bl9x9iq7u]{Clone} (18th).</li>\n</ul>"
    },
    "tags": ["Streets Mystery"],
    "tag": "classFeat_streetsMystery",
    "useCustomTag": true,
    "subType": "classFeat",
    "associations": {
      "classes": ["Oracle"]
    },
    "classSkills": {
      "blf": true,
      "klo": true,
      "per": true,
      "ste": true
    }
  }
}
