{
  "_id": "YHhf6okxoTLjXnzx",
  "name": "Strength of Stone",
  "type": "feat",
  "img": "systems/lf1/icons/skills/yellow_14.jpg",
  "system": {
    "description": {
      "value": "<p>At 20th level, your flesh becomes as hard as stone, giving you <em>DR</em> 10/<em>adamantine</em>, and you become immune to petrification. You suffer no penalties while squeezing through tight spaces and are immune to <em>bull rush</em>, <em>drag</em>, <em>grapple</em>, <em>reposition</em>, and <em>trip</em> maneuvers, and to push and pull effects as long as you are standing on the ground.</p>"
    },
    "actions": [
      {
        "_id": "j3r9oqomwlrkkgkk",
        "name": "Use",
        "img": "systems/lf1/icons/skills/yellow_14.jpg",
        "activation": {
          "type": "passive",
          "unchained": {
            "type": "passive"
          }
        },
        "actionType": ""
      }
    ],
    "tag": "classFeat_strengthOfStone",
    "useCustomTag": true,
    "subType": "classFeat",
    "associations": {
      "classes": ["Sorcerer"]
    },
    "abilityType": "su"
  }
}
