{
  "_id": "6JYvxEtSqmjDbDWr",
  "name": "Strength Domain",
  "type": "feat",
  "img": "systems/lf1/icons/feats/athletic.jpg",
  "system": {
    "description": {
      "value": "<p><b>Granted Powers:</b> In strength and brawn there is truth—your faith gives you incredible might and power.</p>\n<p><b>Domain Spells:</b> </p>\n<ul>\n<li>1st—@Compendium[lf1.spells.jnlr9cuepka1l26e]{Enlarge Person}</li>\n<li>2nd—@Compendium[lf1.spells.05i5rxwim12hwktu]{Bull's Strength}</li>\n<li>3rd—@Compendium[lf1.spells.73han2zqxg59u18g]{Magic Vestment}</li>\n<li>4th—@Compendium[lf1.spells.ui70binwqvjsgaam]{Spell Immunity}</li>\n<li>5th—@Compendium[lf1.spells.6ax0ythzw8n4bta8]{Righteous Might}</li>\n<li>6th—@Compendium[lf1.spells.knyako6zopc1chrv]{Stoneskin}</li>\n<li>7th—@Compendium[lf1.spells.h2r6m68142borl8k]{Grasping Hand}</li>\n<li>8th—@Compendium[lf1.spells.0amu53wegzdp0axj]{Clenched Fist}</li>\n<li>9th—@Compendium[lf1.spells.1zyixa5b6aw7npub]{Crushing Hand}</li>\n</ul>"
    },
    "tag": "classFeat_strengthDomain",
    "useCustomTag": true,
    "subType": "classFeat",
    "associations": {
      "classes": ["Cleric"]
    }
  }
}
