{
  "_id": "fCaw2ldaQlkktvsB",
  "name": "Stunning Appearance",
  "type": "feat",
  "img": "systems/lf1/icons/skills/affliction_18.jpg",
  "system": {
    "description": {
      "value": "<p>At 17th level, a vigilante can leave his foes unable to respond when he appears. Whenever a vigilante with this ability makes a successful attack against a foe that is unaware of the vigilante’s presence (see startling appearance), the foe must make a successful Will save (DC = 10 + 1/2 the vigilante’s class level + his Charisma modifier) or be stunned until the end of the vigilante’s next turn. If the creature has more HD than the vigilante’s class level, it receives a +4 circumstance bonus on this save. This ability is in addition to the effects of startling appearance and frightening appearance. Once a creature has been the target of this ability (regardless of whether or not the saving throw is successful), it is immune to that vigilante’s stunning appearance for 24 hours. This is a mind-affecting fear effect.</p>"
    },
    "actions": [
      {
        "_id": "okmfa9nqavlos62w",
        "name": "Use",
        "img": "systems/lf1/icons/skills/affliction_18.jpg",
        "activation": {
          "type": "passive",
          "unchained": {
            "type": "passive"
          }
        },
        "actionType": ""
      }
    ],
    "tag": "classFeat_stunningAppearance",
    "useCustomTag": true,
    "subType": "classFeat",
    "associations": {
      "classes": ["Vigilante"]
    },
    "abilityType": "ex"
  }
}
