{
  "_id": "zUAVZeb4uCBcGgou",
  "name": "Surge",
  "type": "feat",
  "img": "systems/lf1/icons/skills/emerald_03.jpg",
  "system": {
    "description": {
      "value": "<p>As a standard action, you can cause a mighty wave to appear that pushes or pulls a single creature. Make a combat maneuver check against the target, using your cleric level + your Wisdom modifier as your CMB. If successful, you may pull or push the creature as if using the bull rush or drag combat maneuver. You can use this ability a number of times per day equal to 3 + your Wisdom modifier.</p>\n<p>This power replaces the Icicle power of the Water Domain.</p>"
    },
    "actions": [
      {
        "_id": "w8c1c3gnlwet2pik",
        "name": "Use",
        "img": "systems/lf1/icons/skills/emerald_03.jpg",
        "activation": {
          "type": "standard",
          "unchained": {
            "cost": 2,
            "type": "action"
          }
        },
        "duration": {
          "units": "inst"
        },
        "target": {
          "value": "one creature"
        },
        "range": {
          "units": "touch"
        },
        "actionType": ""
      }
    ],
    "uses": {
      "per": "day",
      "maxFormula": "3 + @abilities.wis.mod"
    },
    "tag": "classFeat_surge",
    "useCustomTag": true,
    "subType": "classFeat",
    "associations": {
      "classes": ["Cleric"]
    },
    "abilityType": "su"
  }
}
