{
  "_id": "ToRHlkSkeAiEHafr",
  "name": "Telekinetic Mastery",
  "type": "feat",
  "img": "systems/lf1/icons/items/weapons/axe-orc-double.png",
  "system": {
    "description": {
      "value": "<p>As a standard action, you can expend 1 point of mental focus to grant yourself telekinetic power. This functions as @Compendium[lf1.spells.3lfx1ccxo2hdqrf3]{Telekinesis}, except you don’t need to concentrate on the effect to maintain it, and using any one of its effects is a standard action. This effect lasts for 1 round per occultist level you possess.</p>\n<p>You must be at least 9th level to select this focus power.</p>"
    },
    "actions": [
      {
        "_id": "2ltfi87mlib10ulc",
        "name": "Use",
        "img": "systems/lf1/icons/items/weapons/axe-orc-double.png",
        "activation": {
          "type": "standard",
          "unchained": {
            "cost": 2,
            "type": "action"
          }
        },
        "duration": {
          "value": "@classes.occultist.level",
          "units": "round"
        },
        "target": {
          "value": "self"
        },
        "range": {
          "units": "personal"
        },
        "actionType": ""
      }
    ],
    "tag": "classFeat_telekineticMastery",
    "useCustomTag": true,
    "subType": "classFeat",
    "associations": {
      "classes": ["Occultist"]
    },
    "abilityType": "sp"
  }
}
