{
  "_id": "KtVTin0dyTZ5JgOr",
  "name": "Tentacle (1 pt)",
  "type": "feat",
  "img": "systems/lf1/icons/skills/blue_26.jpg",
  "system": {
    "description": {
      "value": "<p>An eidolon possesses a long, sinuous tentacle, granting it a tentacle attack. This attack is a secondary attack. The tentacle attack deals 1d4 points of damage (1d6 if Large, 1d8 if Huge). This evolution can be selected more than once.</p>"
    },
    "tag": "classFeat_tentacle1Pt",
    "useCustomTag": true,
    "subType": "classFeat",
    "associations": {
      "classes": ["Eidolon"]
    },
    "abilityType": "ex"
  }
}
