{
  "_id": "QOTAu9uRTMQ5E4a6",
  "name": "Terrain Mastery",
  "type": "feat",
  "img": "systems/lf1/icons/items/weapons/dagger.PNG",
  "system": {
    "description": {
      "value": "<p>A rogue with this talent gains a favored terrain as the ranger ability of the same name, though the favored terrain ability does not increase with her level as the ranger’s ability does. A rogue can take this ability multiple times.</p>"
    },
    "tag": "classFeat_terrainMastery",
    "useCustomTag": true,
    "subType": "classFeat",
    "associations": {
      "classes": ["Rogue"]
    },
    "abilityType": "ex"
  }
}
