{
  "_id": "JQt3xIsa5BQSgjor",
  "name": "The Streets Are Your Friend",
  "type": "feat",
  "img": "systems/lf1/icons/spells/light-royal-1.jpg",
  "system": {
    "description": {
      "value": "<p><strong>Source</strong> Heroes of the Streets pg. 21</p><p>As long as you are in an urban environment, you can call upon the city to help an ally within 30 feet succeed at a task. The ally gets a +2 competence bonus on skill checks with a particular skill as long as you concentrate. This bonus increases to +3 at 9th level, and to +4 at 15th level.</p>"
    },
    "tags": ["Streets Mystery"],
    "actions": [
      {
        "_id": "sp3kn4b50nojwnqi",
        "name": "Use",
        "img": "systems/lf1/icons/spells/light-royal-1.jpg",
        "activation": {
          "type": "standard",
          "unchained": {
            "cost": 2,
            "type": "action"
          }
        },
        "duration": {
          "units": "seeText"
        },
        "target": {
          "value": "one ally"
        },
        "range": {
          "value": "30",
          "units": "ft"
        },
        "actionType": ""
      }
    ],
    "tag": "classFeat_theStreetsAreYourFriend",
    "useCustomTag": true,
    "subType": "classFeat",
    "associations": {
      "classes": ["Oracle"]
    },
    "abilityType": "ex"
  }
}
