{
  "_id": "3KlxegG3qa6IKN59",
  "name": "The Unseen World",
  "type": "feat",
  "img": "systems/lf1/icons/skills/red_09.jpg",
  "system": {
    "description": {
      "value": "<p>At 1st level, you gain @Compendium[lf1.spells.uqh87jz757r2cb7r]{Detect Magic} and @Compendium[lf1.spells.j0bc0iii8zp1jiwr]{Read Magic} as spells known. At 5th level, the <em>phoenix’s</em> blood drives you to find and save lost knowledge and magical items. As a <em>swift action</em>, you can automatically identify the properties of a non-cursed magic item you hold; you must still identify a cursed item as normal to correctly <em>identify</em> it as cursed. You can use this ability a number of times equal to your <em>Charisma</em> modifier per day.</p>"
    },
    "actions": [
      {
        "_id": "3kkta6gpnme6bjgv",
        "name": "Use",
        "img": "systems/lf1/icons/skills/red_09.jpg",
        "activation": {
          "type": "passive",
          "unchained": {
            "type": "passive"
          }
        },
        "actionType": ""
      }
    ],
    "tag": "classFeat_theUnseenWorld",
    "useCustomTag": true,
    "subType": "classFeat",
    "associations": {
      "classes": ["Sorcerer"]
    },
    "abilityType": "su"
  }
}
