{
  "_id": "Kvx1P7zkatq3H1XG",
  "name": "Thorny Bomb",
  "type": "feat",
  "img": "systems/lf1/icons/items/potions/unique-3.jpg",
  "system": {
    "description": {
      "value": "<p>When the alchemist creates a bomb, he can choose to have it deal piercing damage. Thorny bombs count as magic weapons for the purpose of overcoming damage reduction.</p>"
    },
    "tag": "classFeat_thornyBomb",
    "useCustomTag": true,
    "subType": "classFeat",
    "associations": {
      "classes": ["Alchemist"]
    },
    "abilityType": "su"
  }
}
