{
  "_id": "mkrQUtrBgUgV7G2Y",
  "name": "Throat Crush (UC)",
  "type": "feat",
  "img": "systems/lf1/icons/skills/yellow_08.jpg",
  "system": {
    "description": {
      "value": "<p>The monk gives a sharp blow to a foe’s throat, hampering its ability to speak for 1 round as if it had the <a href=\"https://aonprd.com/Rules.aspx?Name=Minor%20Spellblights&amp;Category=Description%20of%20Spellblights\">caster croak spellblight</a>. Creatures without a discernible throat, or with multiple vocal organs, are unaffected (subject to GM discretion).</p>"
    },
    "tag": "classFeat_throatCrushUc",
    "useCustomTag": true,
    "subType": "classFeat",
    "associations": {
      "classes": ["Monk (Unchained)"]
    },
    "abilityType": "ex"
  }
}
