{
  "_id": "HPhzvirqCmZXYWxp",
  "name": "Thunderstaff",
  "type": "feat",
  "img": "systems/lf1/icons/spells/enchant-jade-2.jpg",
  "system": {
    "description": {
      "value": "<p>At 1st level, you can touch a weapon as a <em>standard action</em>, giving it the <em>shock</em> property for a number of rounds equal to 1/2 your sorcerer level (minimum 1). At 9th level, you can confer the <em>shocking burst</em> property instead, but the duration of the power is halved. You can use this ability a number of times per day equal to 3 + your <em>Charisma</em> modifier.</p>"
    },
    "actions": [
      {
        "_id": "dr20vxd5mzcfwva3",
        "name": "Use",
        "img": "systems/lf1/icons/spells/enchant-jade-2.jpg",
        "activation": {
          "type": "standard",
          "unchained": {
            "cost": 2,
            "type": "action"
          }
        },
        "duration": {
          "value": "max(1, (floor(@classes.sorcerer.level / 2)))",
          "units": "round"
        },
        "target": {
          "value": "weapon touched"
        },
        "range": {
          "units": "touch"
        },
        "actionType": ""
      }
    ],
    "uses": {
      "per": "day",
      "maxFormula": "3 + @abilities.cha.mod"
    },
    "tag": "classFeat_thunderstaff",
    "useCustomTag": true,
    "subType": "classFeat",
    "associations": {
      "classes": ["Sorcerer"]
    },
    "abilityType": "sp"
  }
}
