{
  "_id": "SlEZ7vXoh9e67P87",
  "name": "Timidity (Stare)",
  "type": "feat",
  "img": "systems/lf1/icons/skills/emerald_11.jpg",
  "system": {
    "description": {
      "value": "<p>The hypnotic stare penalty also applies to damage rolls.</p>"
    },
    "tag": "classFeat_timidityStare",
    "useCustomTag": true,
    "subType": "classFeat",
    "associations": {
      "classes": ["Mesmerist"]
    }
  }
}
