{
  "_id": "AW8RWHDiMKhwglcQ",
  "name": "Torture Subdomain",
  "type": "feat",
  "img": "systems/lf1/icons/skills/red_32.jpg",
  "system": {
    "description": {
      "value": "<p><b>Replacement Domain Spells:</b></p>\n<ul>\n<li>2nd—@Compendium[lf1.spells.jy64xofud29j5ju6]{Pain Strike}</li>\n<li>5th— @Compendium[lf1.spells.k6nfhf1wvik082wu]{Symbol of Pain}</li>\n<li>8th—@Compendium[lf1.spells.21r9ptvsjo99o3yw]{Demand}</li>\n</ul>"
    },
    "tag": "classFeat_tortureSubdomain",
    "useCustomTag": true,
    "subType": "classFeat",
    "associations": {
      "classes": ["Cleric"]
    }
  }
}
