{
  "_id": "8po73BGLsPt9NGV2",
  "name": "Touchsight, Reactive",
  "type": "feat",
  "img": "systems/lf1/icons/spells/link-blue-2.jpg",
  "system": {
    "description": {
      "value": "<p><b>Element</b> aether; <b>Type</b> utility (Su); <b>Level</b> 5; <b>Burn</b> 0<br><b>Prerequisite</b> touchsight</p>\n<p>Your strands of aether surround you, making it virtually impossible for a violent motion to catch you off guard, so long as the motion originates within their range. You are never denied your Dexterity bonus to AC against attacks from within 30 feet because of being flat-footed or because your assailant is unseen or invisible. You always succeed at any Perception check to act on the surprise round against opponents within 30 feet.</p>"
    },
    "tag": "classFeat_touchsightReactive",
    "useCustomTag": true,
    "subType": "classFeat",
    "associations": {
      "classes": ["Kineticist"]
    },
    "abilityType": "su"
  }
}
