{
  "_id": "7td8qAPvj9YEasha",
  "name": "Touch of Good",
  "type": "feat",
  "img": "systems/lf1/icons/skills/light_08.jpg",
  "system": {
    "description": {
      "value": "<p>You can touch a creature as a standard action, granting a sacred bonus on attack rolls, skill checks, ability checks, and saving throws equal to half your cleric level (minimum 1) for 1 round. You can use this ability a number of times per day equal to 3 + your Wisdom modifier.</p>"
    },
    "actions": [
      {
        "_id": "im2kn7mnr3fvswjj",
        "name": "Use",
        "img": "systems/lf1/icons/skills/light_08.jpg",
        "activation": {
          "type": "standard",
          "unchained": {
            "cost": 2,
            "type": "action"
          }
        },
        "duration": {
          "value": "1",
          "units": "round"
        },
        "target": {
          "value": "creature touched"
        },
        "range": {
          "units": "touch"
        },
        "actionType": ""
      }
    ],
    "uses": {
      "per": "day",
      "maxFormula": "3 + @abilities.wis.mod"
    },
    "tag": "classFeat_touchOfGood",
    "useCustomTag": true,
    "subType": "classFeat",
    "associations": {
      "classes": ["Cleric"]
    },
    "abilityType": "sp"
  }
}
