{
  "_id": "sksJz5ZXK7vYpoVY",
  "name": "Touch of Succor",
  "type": "feat",
  "img": "systems/lf1/icons/skills/green_03.jpg",
  "system": {
    "description": {
      "value": "<p>The shaman can touch a willing creature as a standard action to remove one of the following conditions: fatigued, shaken, or sickened.</p>\n<p>At 8th level, she adds confused and frightened to the list of conditions she can remove.</p>\n<p>At 12th level, she also adds dazed, nauseated, and panicked.</p>\n<p>The shaman can use this ability a number of times per day equal to her shaman level.</p>"
    },
    "actions": [
      {
        "_id": "j8a80q5dkgv4fppb",
        "name": "Use",
        "img": "systems/lf1/icons/skills/green_03.jpg",
        "activation": {
          "type": "standard",
          "unchained": {
            "cost": 2,
            "type": "action"
          }
        },
        "duration": {
          "units": "inst"
        },
        "target": {
          "value": "creature touched"
        },
        "range": {
          "units": "touch"
        },
        "actionType": ""
      }
    ],
    "uses": {
      "per": "day",
      "maxFormula": "@classes.shaman.level"
    },
    "tag": "classFeat_touchOfSuccor",
    "useCustomTag": true,
    "subType": "classFeat",
    "associations": {
      "classes": ["Shaman"]
    },
    "abilityType": "su"
  }
}
