{
  "_id": "x7kGZOsN8iXiGt6c",
  "name": "Touch of Resolve",
  "type": "feat",
  "img": "systems/lf1/icons/items/inventory/badge-cross.jpg",
  "system": {
    "description": {
      "value": "<p>You may use @Compendium[lf1.spells.eu4u4mr1naoiqohz]{Remove Fear} on a single creature a number of times per day equal to your 3 + your Wisdom bonus.</p>"
    },
    "tags": ["Inquisition", "Valor Inquisition"],
    "actions": [
      {
        "_id": "7tofdouj778hz13f",
        "name": "Use",
        "img": "systems/lf1/icons/items/inventory/badge-cross.jpg",
        "activation": {
          "type": "standard",
          "unchained": {
            "cost": 2,
            "type": "action"
          }
        },
        "duration": {
          "value": "10",
          "units": "minute"
        },
        "target": {
          "value": "one creature"
        },
        "range": {
          "units": "close"
        },
        "actionType": ""
      }
    ],
    "uses": {
      "per": "day",
      "maxFormula": "3 + @abilities.wis.mod"
    },
    "tag": "classFeat_touchOfResolve",
    "useCustomTag": true,
    "subType": "classFeat",
    "associations": {
      "classes": ["Inquisitor"]
    },
    "abilityType": "sp"
  }
}
