{
  "_id": "Le6qmKF8wkhVCPCz",
  "name": "Touch of Darkness",
  "type": "feat",
  "img": "systems/lf1/icons/spells/rip-sky-1.jpg",
  "system": {
    "description": {
      "value": "<p>As a melee touch attack, you can cause a creature's vision to be fraught with shadows and darkness. The creature touched treats all other creatures as if they had concealment, suffering a 20% miss chance on all attack rolls. This effect lasts for a number of rounds equal to 1/2 your cleric level (minimum 1). You can use this ability a number of times per day equal to 3 + your Wisdom modifier.</p>"
    },
    "actions": [
      {
        "_id": "giee9ut2pinugn5h",
        "name": "Use",
        "img": "systems/lf1/icons/spells/rip-sky-1.jpg",
        "activation": {
          "type": "standard",
          "unchained": {
            "cost": 2,
            "type": "action"
          }
        },
        "duration": {
          "value": "max(1, floor(@classes.cleric.level / 2))",
          "units": "round"
        },
        "target": {
          "value": "creature touched"
        },
        "range": {
          "units": "touch"
        },
        "actionType": ""
      }
    ],
    "uses": {
      "per": "day",
      "maxFormula": "3 + @abilities.wis.mod"
    },
    "tag": "classFeat_touchOfDarkness",
    "useCustomTag": true,
    "subType": "classFeat",
    "associations": {
      "classes": ["Cleric"]
    },
    "abilityType": "sp"
  }
}
