{
  "_id": "NOPkNZh7H143aCMi",
  "name": "Trapfinding (INV)",
  "type": "feat",
  "img": "systems/lf1/icons/items/inventory/lockpick.jpg",
  "system": {
    "description": {
      "value": "<p>An investigator adds 1/2 his level to @UUID[Compendium.lf1.lf1-rules.x175kVqUfLGPt8tC.JournalEntryPage.2h6hz5AkTDxKPFxr]{Perception} skill checks made to locate traps and to @UUID[Compendium.lf1.lf1-rules.x175kVqUfLGPt8tC.JournalEntryPage.cSdUATLHBFfw3v4s]{Disable Device} checks (minimum 1). An investigator can use @UUID[Compendium.lf1.lf1-rules.x175kVqUfLGPt8tC.JournalEntryPage.cSdUATLHBFfw3v4s]{Disable Device} to disarm magical traps.</p>"
    },
    "changes": [
      {
        "_id": "vhodw42z",
        "formula": "max(1, floor(@classes.investigator.level / 2))",
        "subTarget": "skill.dev",
        "modifier": "untyped"
      }
    ],
    "contextNotes": [
      {
        "text": "+[[max(1, floor(@classes.investigator.level / 2))]] vs Traps",
        "target": "skill",
        "subTarget": "skill.per"
      }
    ],
    "tag": "classFeat_trapfindingInv",
    "useCustomTag": true,
    "subType": "classFeat",
    "associations": {
      "classes": ["Investigator"]
    }
  }
}
