{
  "_id": "BYL3ctQXmKZZNCeY",
  "name": "Travel Blessing: Agile Feet",
  "type": "feat",
  "img": "systems/lf1/icons/spells/wind-grasp-eerie-1.jpg",
  "system": {
    "description": {
      "value": "<p>At 1st level, as a swift action you gain increased mobility. For 1 round, you ignore all difficult terrain (including magical terrain) and take no penalties for moving through it.</p>"
    },
    "actions": [
      {
        "_id": "j53suhsbwxsiw7at",
        "name": "Use",
        "img": "systems/lf1/icons/spells/wind-grasp-eerie-1.jpg",
        "activation": {
          "type": "swift",
          "unchained": {
            "type": "action"
          }
        },
        "duration": {
          "value": "1",
          "units": "round"
        },
        "target": {
          "value": "self"
        },
        "range": {
          "units": "personal"
        },
        "actionType": ""
      }
    ],
    "tag": "classFeat_travelBlessingAgileFeet",
    "useCustomTag": true,
    "subType": "classFeat",
    "associations": {
      "classes": ["Warpriest"]
    }
  }
}
