{
  "_id": "jE6myrWdDLQo9KjU",
  "name": "Tree Form",
  "type": "feat",
  "img": "systems/lf1/icons/spells/light-royal-1.jpg",
  "system": {
    "description": {
      "value": "<p><strong>Source</strong> Ultimate Magic pg. 57</p><p>As a standard action, you can assume the form of a Large living or dead tree or shrub, as @Compendium[lf1.spells.6ho3wsspkqkhypt0]{Tree Shape}.</p>\n<p>At 9th level, you can assume the form of a Small or Medium plant creature, as @Compendium[lf1.spells.y653mq8kmma3kg3w]{Plant Shape I}.</p>\n<p>At 11th level, you can assume the form of a Large plant creature, as @Compendium[lf1.spells.ik4riccm7tozdwox]{Plant Shape II}.</p>\n<p>At 13th level, you can assume the form of a Huge plant creature, as @Compendium[lf1.spells.sheso071mxbywlah]{Plant Shape III}.</p>\n<p>You can use this ability once per day, but the duration is 1 hour/level.</p>\n<p>You must be at least 3rd level to select this revelation.</p>"
    },
    "tags": ["Wood Mystery"],
    "actions": [
      {
        "_id": "3ycatkemvadkh5a4",
        "name": "Use",
        "img": "systems/lf1/icons/spells/light-royal-1.jpg",
        "activation": {
          "type": "standard",
          "unchained": {
            "cost": 2,
            "type": "action"
          }
        },
        "duration": {
          "value": "@classes.oracle.level",
          "units": "hour"
        },
        "target": {
          "value": "self"
        },
        "range": {
          "units": "personal"
        },
        "actionType": ""
      }
    ],
    "uses": {
      "per": "day",
      "maxFormula": "1",
      "autoDeductChargesCost": ""
    },
    "tag": "classFeat_treeForm",
    "useCustomTag": true,
    "subType": "classFeat",
    "associations": {
      "classes": ["Oracle"]
    },
    "abilityType": "sp"
  }
}
