{
  "_id": "80t4f08Y5KAzCKLZ",
  "name": "Tremor",
  "type": "feat",
  "img": "systems/lf1/icons/skills/yellow_15.jpg",
  "system": {
    "description": {
      "value": "<p>At 1st level, as a <em>standard action</em>, you can cause the ground to shake beneath a single creature within 30 feet, functioning as a <em>trip</em> maneuver using your sorcerer level plus your <em>Charisma</em> modifier in place of your <em>CMB</em>. You can use this ability a number of times per day equal to 3 + your <em>Charisma</em> modifier.</p>"
    },
    "actions": [
      {
        "_id": "opzlzoslusjtp7kz",
        "name": "Use",
        "img": "systems/lf1/icons/skills/yellow_15.jpg",
        "activation": {
          "type": "standard",
          "unchained": {
            "cost": 2,
            "type": "action"
          }
        },
        "duration": {
          "units": "inst"
        },
        "target": {
          "value": "One creature"
        },
        "range": {
          "value": "30",
          "units": "spec"
        },
        "actionType": ""
      }
    ],
    "uses": {
      "per": "day",
      "maxFormula": "3 + @abilities.cha.mod"
    },
    "tag": "classFeat_tremor",
    "useCustomTag": true,
    "subType": "classFeat",
    "associations": {
      "classes": ["Sorcerer"]
    },
    "abilityType": "sp"
  }
}
