{
  "_id": "BagjWlZZFLuWmrMA",
  "name": "Trickery Blessing: Double",
  "type": "feat",
  "img": "systems/lf1/icons/spells/slice-spirit-1.jpg",
  "system": {
    "description": {
      "value": "<p>At 1st level, as a move action you can create an illusory double of yourself. This double functions as a single @Compendium[lf1.spells.4jsss37x0pplib8f]{Mirror Image}, and lasts for a number of rounds equal to your warpriest level, or until the illusory duplicate is dispelled or destroyed. You can have no more than one double at a time.</p>\n<p>The double created by this ability doesn’t stack with the additional images from the @Compendium[lf1.spells.4jsss37x0pplib8f]{Mirror Image} spell.</p>"
    },
    "actions": [
      {
        "_id": "pfucyi2vrzo4nxyc",
        "name": "Use",
        "img": "systems/lf1/icons/spells/slice-spirit-1.jpg",
        "activation": {
          "type": "move"
        },
        "duration": {
          "value": "@classes.warpriest.level",
          "units": "round"
        },
        "target": {
          "value": "self"
        },
        "range": {
          "units": "personal"
        },
        "actionType": ""
      }
    ],
    "tag": "classFeat_trickeryBlessingDouble",
    "useCustomTag": true,
    "subType": "classFeat",
    "associations": {
      "classes": ["Warpriest"]
    }
  }
}
