{
  "_id": "xgGmqNCUSt41dcpA",
  "name": "Trigger Primal Magic Event",
  "type": "feat",
  "img": "systems/lf1/icons/spells/light-royal-1.jpg",
  "system": {
    "description": {
      "value": "<p>Once per day as an immediate action, you can cause a spellcaster (including yourself ) within 30 feet to trigger a primal magic event as the spell is being cast.</p>\n<p>At 13th level, you can cause any creature in the act of activating a magic item to trigger a primal magic event (see page 13).</p>\n<p>At 17th level, you can use this ability twice per day. A spellcaster can make a concentration check (DC = 15 + twice the spell’s level) to focus the magic and avoid triggering a primal magic effect, but non-spellcasters activating magic items have no such option.</p>\n<p>You must be at least 9th level before selecting this revelation.</p>"
    },
    "actions": [
      {
        "_id": "q3kq1n6ctvbpidir",
        "name": "Use",
        "img": "systems/lf1/icons/spells/light-royal-1.jpg",
        "activation": {
          "type": "immediate",
          "unchained": {
            "type": "reaction"
          }
        },
        "actionType": ""
      }
    ],
    "uses": {
      "per": "day",
      "maxFormula": "@classes.oracle.level >= 17 ? 2 : 1"
    },
    "tag": "classFeat_triggerPrimalMagicEvent",
    "useCustomTag": true,
    "subType": "classFeat",
    "associations": {
      "classes": ["Oracle"]
    },
    "abilityType": "su"
  }
}
