{
  "_id": "N1TVJ8y9XF9PzEht",
  "name": "Truth Subdomain",
  "type": "feat",
  "img": "systems/lf1/icons/skills/green_27.jpg",
  "system": {
    "description": {
      "value": "<p><b>Replacement Domain Spells:</b></p>\n<ul>\n<li>3rd—@Compendium[lf1.spells.56atnwmo4s61hi45]{Wall Of Nausea}</li>\n<li>5th—@Compendium[lf1.spells.68ngvzmzvadhf6vs]{Contact Other Plane}</li>\n<li>6th—@Compendium[lf1.spells.cxp0vodhvuwnfmye]{Litany Of Madness}</li>\n</ul>"
    },
    "tag": "classFeat_truthSubdomain",
    "useCustomTag": true,
    "subType": "classFeat",
    "associations": {
      "classes": ["Cleric"]
    }
  }
}
