{
  "_id": "2rYSUirW0lXDO8PL",
  "name": "Unbalancing Trick",
  "type": "feat",
  "img": "systems/lf1/icons/items/weapons/dagger.PNG",
  "system": {
    "description": {
      "value": "<p><strong>Source</strong> Elemental Master's Handbook pg. 9</p><p>The rogue gains @Compendium[lf1.feats.gTrGPxzN054GfpkM]{Improved Trip} as a bonus feat, even if she does not meet the prerequisites. At 6th level, she is treated as if she meets all the prerequisites of @Compendium[lf1.feats.lNyMFFQaOxxTOW7M]{Greater Trip} (although she must take the feat as normal to gain its benefits).</p>"
    },
    "tags": ["Rogue Talent", "Slayer Talent", "Investigator Talent"],
    "tag": "classFeat_unbalancingTrick",
    "useCustomTag": true,
    "subType": "classFeat",
    "associations": {
      "classes": ["Rogue", "Rogue (Unchained)", "Slayer", "Investigator"]
    },
    "abilityType": "ex"
  }
}
