{
  "_id": "S18NwiPXkqJamNT2",
  "name": "Unbound Steps",
  "type": "feat",
  "img": "systems/lf1/icons/items/weapons/kunai.png",
  "system": {
    "description": {
      "value": "<p>This trick allows a ninja to use her ki to walk through the air. Whenever the ninja uses the light steps class feature, she can walk on air, rising or descending as she desires. She must end her move on a solid surface.</p>\n<p>Each use of this ability uses up 1 ki point.</p>"
    },
    "tags": ["Master Trick"],
    "tag": "classFeat_unboundSteps",
    "useCustomTag": true,
    "subType": "classFeat",
    "associations": {
      "classes": ["Ninja"]
    },
    "abilityType": "su"
  }
}
