{
  "_id": "nIzaK16t8e4mEWmN",
  "name": "Underhanded",
  "type": "feat",
  "img": "systems/lf1/icons/items/weapons/dagger.PNG",
  "system": {
    "description": {
      "value": "<p>A rogue with this talent gains a +4 circumstance bonus on all Sleight of Hand checks made to conceal a weapon. Furthermore, if she makes a sneak attack during the surprise round using a concealed weapon that her opponent didn’t know about, she does not have to roll sneak attack damage, and the sneak attack deals maximum damage. A rogue can only use the underhanded talent a number of times per day equal to her Charisma modifier (minimum 0).</p>"
    },
    "tag": "classFeat_underhanded",
    "useCustomTag": true,
    "subType": "classFeat",
    "associations": {
      "classes": ["Rogue", "Rogue (Unchained)"]
    },
    "abilityType": "ex"
  }
}
