{
  "_id": "ehqS3YoFY4BJyMyt",
  "name": "Undo Artifice",
  "type": "feat",
  "img": "systems/lf1/icons/spells/light-royal-1.jpg",
  "system": {
    "description": {
      "value": "<p>At 11th-level, you gain the ability to reduce a nonliving item to its component parts, essentially erasing the hand of artifice and rendering the item into a pile of raw natural materials. This effect acts as the spell @Compendium[lf1.spells.2sa3881har33geo1]{Polymorph Any Object}, working on both magical and nonmagical nonliving objects. The duration is always permanent. Unlike polymorph any object, it cannot be used to mimic the effects of other spells. Items subject to this effect receive a Fortitude saving throw to negate the effect. Magic items receive a circumstance bonus on this save equal to +1 for every 5,000 gp in the item's value.</p>\n<p>You may use undo artifice a number of times per day equal to your Charisma modifier.</p>"
    },
    "actions": [
      {
        "_id": "4x5po13mnfafu76j",
        "name": "Use",
        "img": "systems/lf1/icons/spells/light-royal-1.jpg",
        "activation": {
          "type": "standard",
          "unchained": {
            "cost": 2,
            "type": "action"
          }
        },
        "duration": {
          "units": "perm"
        },
        "target": {
          "value": "one object"
        },
        "range": {
          "units": "close"
        },
        "actionType": ""
      }
    ],
    "uses": {
      "per": "day",
      "maxFormula": "@abilities.cha.mod"
    },
    "tag": "classFeat_undoArtifice",
    "useCustomTag": true,
    "subType": "classFeat",
    "associations": {
      "classes": ["Oracle"]
    },
    "abilityType": "sp"
  }
}
