{
  "_id": "dZ299512ZVUMWudN",
  "name": "Unexpected Strike (UC)",
  "type": "feat",
  "img": "systems/lf1/icons/feats/deafening-critical.jpg",
  "system": {
    "description": {
      "value": "<p>The barbarian can make an attack of opportunity against a foe that moves into any square threatened by the barbarian, regardless of whether that movement would normally provoke an attack of opportunity. The barbarian can use this ability only when there are no other foes in a square threatened by the barbarian.</p>\n<p>A barbarian must be at least 8th level to select this rage power.</p>"
    },
    "tag": "classFeat_unexpectedStrikeUc",
    "useCustomTag": true,
    "subType": "classFeat",
    "associations": {
      "classes": ["Barbarian (Unchained)"]
    },
    "abilityType": "ex"
  }
}
