{
  "_id": "4U69gg3altKZvFHD",
  "name": "Unshakable",
  "type": "feat",
  "img": "systems/lf1/icons/skills/blue_27.jpg",
  "system": {
    "description": {
      "value": "<p>Starting at 3rd level, a vigilante adds his class level to the DC of any attempts to Intimidate him.</p>"
    },
    "actions": [
      {
        "_id": "fpvl4r7o0i6tcbw8",
        "name": "Use",
        "img": "systems/lf1/icons/skills/blue_27.jpg",
        "activation": {
          "type": "passive",
          "unchained": {
            "type": "passive"
          }
        },
        "actionType": ""
      }
    ],
    "tag": "classFeat_unshakable",
    "useCustomTag": true,
    "subType": "classFeat",
    "associations": {
      "classes": ["Vigilante"]
    },
    "abilityType": "ex"
  }
}
