{
  "_id": "TeLzqieZtgxtDkNo",
  "name": "Unstoppable Overrun",
  "type": "feat",
  "img": "systems/lf1/icons/spells/light-royal-1.jpg",
  "system": {
    "description": {
      "value": "<p>You can attempt overrun combat maneuvers against opponents that are up to two size categories larger than you.</p>\n<p>At 5th level, you gain @Compendium[lf1.feats.go4xOiSUP8R1QJ5N]{Improved Overrun} as a bonus feat.</p>\n<p>At 10th level, you gain @Compendium[lf1.feats.tkWfEP1fD7CZt8Kw]{Greater Overrun} as a bonus feat. You don’t need to meet the prerequisites to gain these feats.</p>"
    },
    "actions": [
      {
        "_id": "kxuv9oemm1pb7flf",
        "name": "Use",
        "img": "systems/lf1/icons/spells/light-royal-1.jpg",
        "activation": {
          "type": "passive",
          "unchained": {
            "type": "passive"
          }
        },
        "actionType": ""
      }
    ],
    "tag": "classFeat_unstoppableOverrun",
    "useCustomTag": true,
    "subType": "classFeat",
    "associations": {
      "classes": ["Oracle"]
    },
    "abilityType": "ex"
  }
}
