{
  "_id": "XvmKpSfSy9TnjMZI",
  "name": "Vampiric Sight",
  "type": "feat",
  "img": "systems/lf1/icons/skills/beast_02.jpg",
  "system": {
    "description": {
      "value": "<p>The vampire hunter gains <em>darkvision</em> to a range of 60 feet (if he already has <em>darkvision</em>, its range increases by 30 feet). At 8th level, the range of the vampire hunter’s <em>darkvision</em> increases by 30 feet. At 16th level, the vampire hunter also gains <em>blindsense</em> to a range of 30 feet.</p>"
    },
    "actions": [
      {
        "_id": "l82m5qleyf3xmw8o",
        "name": "Use",
        "img": "systems/lf1/icons/skills/beast_02.jpg",
        "activation": {
          "type": "passive",
          "unchained": {
            "type": "passive"
          }
        },
        "actionType": ""
      }
    ],
    "tag": "classFeat_vampiricSight",
    "useCustomTag": true,
    "subType": "classFeat",
    "associations": {
      "classes": ["Vampire Hunter"]
    },
    "abilityType": "su"
  }
}
