{
  "_id": "4aFYh5LVr95mvzxu",
  "name": "Vampiric Might",
  "type": "feat",
  "img": "systems/lf1/icons/skills/beast_02.jpg",
  "system": {
    "description": {
      "value": "<p>The vampire hunter gains a +2 <em>enhancement bonus</em> to <em>Strength</em> and his weapons are always treated as magical for the purpose of overcoming <em>damage reduction</em>. This bonus increases to +4 at 8th level and +6 at 16th level.</p>"
    },
    "actions": [
      {
        "_id": "axdyuduoz0vvlctd",
        "name": "Use",
        "img": "systems/lf1/icons/skills/beast_02.jpg",
        "activation": {
          "type": "passive",
          "unchained": {
            "type": "passive"
          }
        },
        "actionType": ""
      }
    ],
    "changes": [
      {
        "_id": "g5eza6nx",
        "formula": "@classes.vampirehunter.level >= 16 ? 6 : ((@classes.vampirehunter.level < 16 && @classes.vampirehunter.level > 7) ? 4 : 2)",
        "subTarget": "str",
        "modifier": "enh"
      }
    ],
    "tag": "classFeat_vampiricMight",
    "useCustomTag": true,
    "subType": "classFeat",
    "associations": {
      "classes": ["Vampire Hunter"]
    },
    "abilityType": "su"
  }
}
