{
  "_id": "6WjewPQdk4Mmt96R",
  "name": "Veiled Venom",
  "type": "feat",
  "img": "systems/lf1/icons/spells/light-royal-1.jpg",
  "system": {
    "description": {
      "value": "<p>The powers of intrigue veil your poisons and magic items from magical scrutiny. As a standard action, you can touch an object, granting it the benefits of the spells @Compendium[lf1.spells.l01ajd0m4xgwq3fd]{Magic Aura} and @Compendium[lf1.spells.gf9fj6c1wwmqiksv]{Obscure Poison}. You can use this ability at will, but each time you do, the effects of any previous use end.</p>"
    },
    "actions": [
      {
        "_id": "axcw95uv50eokjnh",
        "name": "Use",
        "img": "systems/lf1/icons/spells/light-royal-1.jpg",
        "activation": {
          "type": "standard",
          "unchained": {
            "cost": 2,
            "type": "action"
          }
        },
        "duration": {
          "value": "@classes.oracle.level",
          "units": "hour"
        },
        "target": {
          "value": "creature touched"
        },
        "range": {
          "units": "touch"
        },
        "actionType": ""
      }
    ],
    "uses": {
      "per": "unlimited"
    },
    "tag": "classFeat_veiledVenom",
    "useCustomTag": true,
    "subType": "classFeat",
    "associations": {
      "classes": ["Oracle"]
    },
    "abilityType": "sp"
  }
}
