{
  "_id": "dkcWJ80XYWvnM1h7",
  "name": "Venom Subdomain",
  "type": "feat",
  "img": "systems/lf1/icons/skills/violet_16.jpg",
  "system": {
    "description": {
      "value": "<p><b>Replacement Domain Spells:</b></p>\n<ul>\n<li>2nd—@Compendium[lf1.spells.6gbb0vdil1e8mhou]{Pernicious Poison}</li>\n<li>6th—@Compendium[lf1.spells.im8z5kfg8ohowie9]{Cloudkill}</li>\n</ul>"
    },
    "tag": "classFeat_venomSubdomain",
    "useCustomTag": true,
    "subType": "classFeat",
    "associations": {
      "classes": ["Cleric"]
    }
  }
}
