{
  "_id": "4NBiAJxv3NbBCtXN",
  "name": "Verdant Bloodrager Bloodline",
  "type": "feat",
  "img": "systems/lf1/icons/skills/red_13.jpg",
  "system": {
    "description": {
      "value": "<p><em>Your body is suffused with raw plant life. When you bloodrage, your plantlike characteristics bolster your durability and grant you some control over vegetation.</em><p><b>Bonus Feats:</b> </p>\n<ul>\n<li>Bolstered Resilience,</li>\n<li>@Compendium[lf1.feats.O0e0UCim27GPKFuW]{Diehard}</li>\n<li>@Compendium[lf1.feats.ehqx8txNRGMaNOPt]{Endurance}</li>\n<li>@Compendium[lf1.feats.fVRnBIHR4Jq6btvm]{Great Fortitude}</li>\n<li>@Compendium[lf1.feats.FUW5mIXHNBBIQ1Sq]{Power Attack}</li>\n<li>Raging Vitality,</li>\n<li>@Compendium[lf1.feats.8snLqsJN4LLL00Nq]{Toughness}</li>\n</ul>\n<p><b>Bonus Spells:</b> </p>\n<ul>\n<li>@Compendium[lf1.spells.2nn2tshkn4p7k25l]{Entangle} (7th), </li>\n<li>@Compendium[lf1.spells.lviqtqs3y2ebkinr]{Greensight} (10th), </li>\n<li>@Compendium[lf1.spells.auvsi3fenss2hga9]{Burst of Nettles} (13th), </li>\n<li>@Compendium[lf1.spells.wi9uvm8p12qvq616]{Command Plants} (16th)</li>\n</ul>"
    },
    "tag": "classFeat_verdantBloodragerBloodline",
    "useCustomTag": true,
    "subType": "classFeat",
    "associations": {
      "classes": ["Bloodrager"]
    }
  }
}
