{
  "_id": "wdnjYqzZYPXEHgu5",
  "name": "Versatile Comedy",
  "type": "feat",
  "img": "systems/lf1/icons/spells/light-royal-1.jpg",
  "system": {
    "description": {
      "value": "<p>The powers of whimsy infuse your comedy with the ability to awe and befuddle. You can use your total Perform (comedy) bonus in place of your Bluff and Intimidate bonuses.</p>"
    },
    "tag": "classFeat_versatileComedy",
    "useCustomTag": true,
    "subType": "classFeat",
    "associations": {
      "classes": ["Oracle"]
    },
    "abilityType": "ex"
  }
}
