{
  "_id": "mUuP0SayUtP05sBI",
  "name": "Vigilante's Reflexes",
  "type": "feat",
  "img": "systems/lf1/icons/feats/deceitful.jpg",
  "system": {
    "description": {
      "value": "<p>The vigilante gains @Compendium[lf1.feats.h9nHYLxXvIXBTmup]{Combat Reflexes} as a bonus feat. If he already has the Combat Reflexes feat, he instead gains another feat he qualified for at the level when he chose Combat Reflexes.</p>\n<p>At 8th and 16th levels, the number of additional attacks of opportunity per round the vigilante can make increases by 1, regardless of the vigilante’s Dexterity bonus.</p>"
    },
    "tag": "classFeat_vigilantesReflexes",
    "useCustomTag": true,
    "subType": "classFeat",
    "associations": {
      "classes": ["Vigilante"]
    },
    "abilityType": "ex"
  }
}
