{
  "_id": "UJ3fKW74kW2537nw",
  "name": "Vortex Splash",
  "type": "feat",
  "img": "systems/lf1/icons/feats/deceitful.jpg",
  "system": {
    "description": {
      "value": "<p>When in rain or waist deep in water, the vigilante can make a whirling splash as a full-round action, allowing him to attempt a single dirty trick combat maneuver or feint against each adjacent foe. The vigilante can make a separate choice for each target.</p>"
    },
    "tag": "classFeat_vortexSplash",
    "useCustomTag": true,
    "subType": "classFeat",
    "associations": {
      "classes": ["Vigilante"]
    },
    "abilityType": "ex"
  }
}
