{
  "_id": "j4VAabAOxzPbyUUY",
  "name": "War Domain",
  "type": "feat",
  "img": "systems/lf1/icons/skills/weapon_02.jpg",
  "system": {
    "description": {
      "value": "<p><b>Granted Powers:</b> You are a crusader for your god, always ready and willing to fight to defend your faith.</p>\n<p><b>Domain Spells:</b></p>\n<ul>\n<li>1st—@Compendium[lf1.spells.cvv6oimqks9n62vy]{Magic Weapon}</li>\n<li>2nd—@Compendium[lf1.spells.avofn5q2v0f0qxjy]{Spiritual Weapon}</li>\n<li>3rd—@Compendium[lf1.spells.73han2zqxg59u18g]{Magic Vestment}</li>\n<li>4th—@Compendium[lf1.spells.0yvwyclhkf76veo1]{Divine Power}</li>\n<li>5th—@Compendium[lf1.spells.gmugktarbieojt59]{Flame Strike}</li>\n<li>6th—@Compendium[lf1.spells.z1j8oc2291czpinh]{Blade Barrier}</li>\n<li>7th—@Compendium[lf1.spells.gado7zyg5knc83ir]{Power Word Blind}</li>\n<li>8th—@Compendium[lf1.spells.ol9newf4vrcx0kpf]{Power Word Stun}</li>\n<li>9th—@Compendium[lf1.spells.51ob5y7phwlhcuzz]{Power Word Kill}</li>\n</ul>"
    },
    "tag": "classFeat_warDomain",
    "useCustomTag": true,
    "subType": "classFeat",
    "associations": {
      "classes": ["Cleric"]
    }
  }
}
