{
  "_id": "7McdLINwwFaUzVsa",
  "name": "War Blessing: Battle Lust",
  "type": "feat",
  "img": "systems/lf1/icons/spells/enchant-sky-3.jpg",
  "system": {
    "description": {
      "value": "<p>At 10th level, you can touch an ally and grant it a thirst for battle. All of the ally’s melee attacks are treated as if they had the vicious weapon special ability, but the additional damage dealt to the ally from that special ability is nonlethal. In addition, the ally receives a +4 insight bonus on attack rolls made to confirm critical hits.</p>\n<p>These benefits last for 1 minute.</p>"
    },
    "actions": [
      {
        "_id": "d2thjjbe54pd91ys",
        "name": "Use",
        "img": "systems/lf1/icons/spells/enchant-sky-3.jpg",
        "activation": {
          "type": "standard",
          "unchained": {
            "cost": 2,
            "type": "action"
          }
        },
        "duration": {
          "value": "1",
          "units": "minute"
        },
        "target": {
          "value": "ally touched"
        },
        "range": {
          "units": "touch"
        },
        "actionType": ""
      }
    ],
    "tag": "classFeat_warBlessingBattleLust",
    "useCustomTag": true,
    "subType": "classFeat",
    "associations": {
      "classes": ["Warpriest"]
    }
  }
}
