{
  "_id": "KkaRIN5v9KRusiBV",
  "name": "War Blessing: War Mind",
  "type": "feat",
  "img": "systems/lf1/icons/spells/enchant-sky-2.jpg",
  "system": {
    "description": {
      "value": "<p>At 1st level, you can touch an ally and grant it a tactical advantage for 1 minute. At the start of its turn each round, it can select one of the following bonuses:</p>\n<ul>\n<li>+10 feet to base land speed</li>\n<li>+1 dodge bonus to AC</li>\n<li>+1 insight bonus on attack rolls</li>\n<li>+1 luck bonus on saving throws</li>\n</ul>\n<p>Each bonus selected lasts for 1 round.</p>"
    },
    "actions": [
      {
        "_id": "aj11oim5y6tu0ru0",
        "name": "Use",
        "img": "systems/lf1/icons/spells/enchant-sky-2.jpg",
        "activation": {
          "type": "standard",
          "unchained": {
            "cost": 2,
            "type": "action"
          }
        },
        "duration": {
          "value": "1",
          "units": "minute"
        },
        "target": {
          "value": "ally touched"
        },
        "range": {
          "units": "touch"
        },
        "actionType": ""
      }
    ],
    "tag": "classFeat_warBlessingWarMind",
    "useCustomTag": true,
    "subType": "classFeat",
    "associations": {
      "classes": ["Warpriest"]
    }
  }
}
