{
  "_id": "X1x6gUALY07XDXH8",
  "name": "Warlord Reborn",
  "type": "feat",
  "img": "systems/lf1/icons/feats/stunning-critical.jpg",
  "system": {
    "description": {
      "value": "<p>At 20th level, you become a true orc warlord of legend. You gain immunity to fire and <em>DR</em> 5/—. Once per day, you can cast @Compendium[lf1.spells.9pbl3ktd5oqejl19]{Transformation} as a spell-like ability using your sorcerer level as your caster level.</p>"
    },
    "actions": [
      {
        "_id": "nsg5bjqzd7ctyi5o",
        "name": "Use",
        "img": "systems/lf1/icons/feats/stunning-critical.jpg",
        "activation": {
          "type": "passive",
          "unchained": {
            "type": "passive"
          }
        },
        "actionType": ""
      }
    ],
    "tag": "classFeat_warlordReborn",
    "useCustomTag": true,
    "subType": "classFeat",
    "associations": {
      "classes": ["Sorcerer"]
    },
    "abilityType": "su"
  }
}
