{
  "_id": "q3rgdQbJwcdB4gNt",
  "name": "Water Blessing: Armor of Ice",
  "type": "feat",
  "img": "systems/lf1/icons/spells/ice-blue-2.jpg",
  "system": {
    "description": {
      "value": "<p>At 10th level, you can touch any one ally and wreath it in freezing mist. This works as @Compendium[lf1.spells.nfm6i9z9r3n2fku7]{Fire Shield} (chill shield only) with a duration 1 minute.</p>"
    },
    "actions": [
      {
        "_id": "wy9n1ypjrmqnsi0c",
        "name": "Use",
        "img": "systems/lf1/icons/spells/ice-blue-2.jpg",
        "activation": {
          "type": "standard",
          "unchained": {
            "cost": 2,
            "type": "action"
          }
        },
        "duration": {
          "value": "1",
          "units": "minute"
        },
        "target": {
          "value": "ally touched"
        },
        "range": {
          "units": "touch"
        },
        "actionType": ""
      }
    ],
    "tag": "classFeat_waterBlessingArmorOfIce",
    "useCustomTag": true,
    "subType": "classFeat",
    "associations": {
      "classes": ["Warpriest"]
    }
  }
}
