{
  "_id": "Gy6jWVYC11IUBYbD",
  "name": "Water Totem, Greater",
  "type": "feat",
  "img": "systems/lf1/icons/feats/deafening-critical.jpg",
  "system": {
    "description": {
      "value": "<p>While raging, the barbarian gains tremorsense to a range of 30 feet while underwater. She can attack and move underwater as if affected by @Compendium[lf1.spells.lvzq2mwkqmozolpl]{Freedom of Movement}.</p>"
    },
    "tag": "classFeat_waterTotemGreater",
    "useCustomTag": true,
    "subType": "classFeat",
    "associations": {
      "classes": ["Barbarian", "Skald"]
    },
    "abilityType": "su"
  }
}
