{
  "name": "Wave",
  "type": "feat",
  "img": "icons/magic/water/projectile-water-wave-teal.webp",
  "system": {
    "description": {
      "value": "<p><strong>Source:</strong> Advanced Player's Guide pg. 142</p><p>At 8th level, you can create a wave of water that starts at your location and moves 30 feet per round away from you in a direction of your choosing. Creatures struck by the wave might be knocked down and pushed away. Make a caster level check against the CMD of each creature struck. If you succeed, the creature is knocked prone. If your check exceeds the CMD of the creature by 5 or more, it is carried with the wave during the wave's movement this round. You receive a +5 bonus on this check if the creature shares its space with the wave at the start of your turn (when the wave moves). Creatures carried in this way can move out of the wave on their turn if they succeed on a Strength check (DC = 10 + 1/2 your caster level + your Intelligence modifier), but they cannot breathe while sharing space with the wave. The wave is up to 20 feet high and up to 5 feet long for each wizard level you possess. Nonmagical fires hit by the wave are automatically extinguished. Magical fire effects are unaffected. You can use this ability for a number of rounds per day equal to 1/2 your wizard level.</p>"
    },
    "tags": ["Water School"],
    "actions": [
      {
        "_id": "CtO0KwSC3xyDxbQm",
        "name": "Use",
        "img": "icons/magic/water/projectile-water-wave-teal.webp",
        "activation": {
          "type": "standard",
          "unchained": {
            "cost": 2,
            "type": "action"
          }
        },
        "range": {
          "value": "30",
          "units": "ft"
        },
        "actionType": "other",
        "spellArea": "20 feet high and 5 feet long per level",
        "measureTemplate": {
          "type": "ray",
          "size": "5 * @classes.wizard.level"
        }
      }
    ],
    "uses": {
      "per": "day",
      "maxFormula": "floor(@classes.wizard.level / 2)",
      "autoDeductChargesCost": ""
    },
    "subType": "classFeat",
    "associations": {
      "classes": ["Wizard"]
    },
    "abilityType": "su"
  },
  "_id": "JR0T67kfvoS5RQ9w"
}
