{
  "_id": "McXAM1BoPHZLO1n4",
  "name": "Weapon Mastery",
  "type": "feat",
  "img": "systems/lf1/icons/items/weapons/sabre-sawtooth.png",
  "system": {
    "description": {
      "value": "<p>At 20th level, a fighter chooses one weapon, such as the longsword, greataxe, or longbow. Any attacks made with that weapon automatically confirm all critical threats and have their damage multiplier increased by 1 (×2 becomes ×3, for example). In addition, he cannot be disarmed while wielding a weapon of this type.</p>"
    },
    "actions": [
      {
        "_id": "nr7zd0fgdzsq3hxx",
        "name": "Use",
        "img": "systems/lf1/icons/items/weapons/sabre-sawtooth.png",
        "activation": {
          "type": "passive",
          "unchained": {
            "type": "passive"
          }
        },
        "actionType": ""
      }
    ],
    "tag": "classFeat_weaponMastery",
    "useCustomTag": true,
    "subType": "classFeat",
    "associations": {
      "classes": ["Fighter"]
    },
    "abilityType": "ex"
  }
}
