{
  "name": "Wild Empathy",
  "type": "feat",
  "img": "systems/lf1/icons/items/inventory/banner-red.jpg",
  "system": {
    "description": {
      "value": "<p><strong>Source</strong> Advanced Class Guide pg. 90</p><p>At 2nd level, the cavalier can improve the attitude of an animal. This ability functions as the @UUID[Compendium.lf1.class-abilities.Yr8dfM2d8JEWoYkr]{druid ability} of the same name. The cavalier uses his level as his effective druid level when using this ability.</p>"
    },
    "subType": "classFeat",
    "associations": {
      "classes": ["Cavalier", "Samurai"]
    },
    "abilityType": "ex"
  },
  "_id": "EUwxZ6Tpf5orxv2D"
}
