{
  "_id": "mtqopGcrDf1bnn5p",
  "name": "Wild Magic",
  "type": "feat",
  "img": "systems/lf1/icons/items/weapons/dagger.PNG",
  "system": {
    "description": {
      "value": "<p>A rogue with this talent gains the ability to cast a 0-level spell from the druid spell list. This spell can be cast three times per day as a spell-like ability. The caster level for this ability is equal to the rogue’s level. The save DC for this spell is 10 + the rogue’s Wisdom modifier. The rogue must have a Wisdom score of at least 10 to select this talent.</p>"
    },
    "actions": [
      {
        "_id": "2iatg7ff6yje0kys",
        "name": "Use",
        "img": "systems/lf1/icons/items/weapons/dagger.PNG",
        "activation": {
          "type": "passive",
          "unchained": {
            "type": "passive"
          }
        },
        "actionType": ""
      }
    ],
    "uses": {
      "per": "day",
      "maxFormula": "3"
    },
    "tag": "classFeat_wildMagic",
    "useCustomTag": true,
    "subType": "classFeat",
    "associations": {
      "classes": ["Rogue", "Rogue (Unchained)"]
    },
    "abilityType": "sp"
  }
}
