{
  "_id": "j6wj000Qb9tymMe4",
  "name": "Will of the Dead",
  "type": "feat",
  "img": "systems/lf1/icons/spells/shielding-spirit-2.jpg",
  "system": {
    "description": {
      "value": "<p>Even undead creatures can be affected by the psychic’s mind-affecting spells. The psychic can spend 2 points from her phrenic pool to overcome an undead creature’s immunity to mind-affecting effects for the purposes of the linked spell. This ability functions even on mindless undead, but has no effect on creatures that aren’t undead.</p>\n<p>This amplification can be linked only to spells that have the mind-affecting descriptor.</p>"
    },
    "actions": [
      {
        "_id": "jpj5k5osyfrk18qk",
        "name": "Use",
        "img": "systems/lf1/icons/spells/shielding-spirit-2.jpg",
        "activation": {
          "type": "free",
          "unchained": {
            "type": "free"
          }
        },
        "uses": {
          "autoDeductChargesCost": "2"
        },
        "actionType": ""
      }
    ],
    "tag": "classFeat_willOfTheDead",
    "useCustomTag": true,
    "subType": "classFeat",
    "associations": {
      "classes": ["Psychic"]
    },
    "abilityType": "su"
  }
}
