{
  "_id": "lqWarOs0RLAfT9tl",
  "name": "Wings (SOR)",
  "type": "feat",
  "img": "systems/lf1/icons/skills/blue_02.jpg",
  "system": {
    "description": {
      "value": "<p>At 15th level, leathery dragon wings grow from your back as a standard action, giving you a fly speed of 60 feet with average maneuverability. You can dismiss the wings as a free action.</p>"
    },
    "actions": [
      {
        "_id": "60xq645s4qrlg1ou",
        "name": "Use",
        "img": "systems/lf1/icons/skills/blue_02.jpg",
        "activation": {
          "type": "standard",
          "unchained": {
            "cost": 2,
            "type": "action"
          }
        },
        "duration": {
          "units": "seeText"
        },
        "target": {
          "value": "Self"
        },
        "range": {
          "units": "personal"
        },
        "actionType": ""
      }
    ],
    "changes": [
      {
        "_id": "pibjfd0o",
        "formula": "60",
        "subTarget": "flySpeed",
        "modifier": "base"
      }
    ],
    "tag": "classFeat_wingsSor",
    "useCustomTag": true,
    "subType": "classFeat",
    "associations": {
      "classes": ["Sorcerer"]
    },
    "abilityType": "su"
  }
}
