{
  "_id": "lV9zpEnZrArmfEFZ",
  "name": "Bear's Endurance",
  "type": "buff",
  "img": "systems/lf1/icons/spells/runes-orange-1.jpg",
  "system": {
    "description": {
      "value": "<p>The subject has a +4 enhancement bonus to Constitution.</p>"
    },
    "changes": [
      {
        "_id": "wp3yjxvr",
        "formula": "4",
        "subTarget": "con",
        "modifier": "enh"
      }
    ],
    "level": "3",
    "duration": {
      "value": "@item.level",
      "units": "minute"
    }
  }
}
