{
  "name": "Dire Prophecy",
  "type": "buff",
  "img": "systems/lf1/icons/skills/violet_02.jpg",
  "system": {
    "description": {
      "value": "<p>You suffer -4 penalty to AC, attack rolls, saves, ability checks and skill checks.</p>"
    },
    "changes": [
      {
        "_id": "HdEg80hS",
        "formula": "-4",
        "subTarget": "ac",
        "modifier": "untyped"
      },
      {
        "_id": "zX6iAVSv",
        "formula": "-4",
        "subTarget": "allChecks",
        "modifier": "untyped"
      },
      {
        "_id": "RsGfKJG1",
        "formula": "-4",
        "subTarget": "skills",
        "modifier": "untyped"
      },
      {
        "_id": "l5VTFVHe",
        "formula": "-4",
        "subTarget": "attack",
        "modifier": "untyped"
      },
      {
        "_id": "jLX7bMhM",
        "formula": "-4",
        "subTarget": "allSavingThrows",
        "modifier": "untyped"
      }
    ],
    "level": null,
    "duration": {
      "value": ""
    }
  },
  "_id": "B1lq0g41olpQMfzK"
}
