{
  "_id": "DvcRWaWndZ1s2tB4",
  "name": "Total Defense",
  "type": "buff",
  "img": "icons/svg/combat.svg",
  "system": {
    "changes": [
      {
        "_id": "bhjbvsog",
        "formula": "@skills.acr.rank>=3?6:4",
        "subTarget": "ac",
        "modifier": "dodge"
      }
    ],
    "tag": "totalDefense",
    "level": "",
    "duration": {
      "value": "1",
      "units": "round"
    }
  }
}
