{
  "Actor": {
    "types": ["character", "npc", "vehicle", "haunt", "trap", "basic"],
    "templates": {
      "common": {
        "abilities": {
          "str": {
            "value": 10,
            "damage": 0,
            "drain": 0,
            "userPenalty": 0
          },
          "dex": {
            "value": 10,
            "damage": 0,
            "drain": 0,
            "userPenalty": 0
          },
          "con": {
            "value": 10,
            "damage": 0,
            "drain": 0,
            "userPenalty": 0
          },
          "int": {
            "value": 10,
            "damage": 0,
            "drain": 0,
            "userPenalty": 0
          },
          "wis": {
            "value": 10,
            "damage": 0,
            "drain": 0,
            "userPenalty": 0
          },
          "cha": {
            "value": 10,
            "damage": 0,
            "drain": 0,
            "userPenalty": 0
          }
        },
        "attributes": {
          "hpAbility": "con",
          "cmbAbility": "str",
          "naturalAC": 0,
          "ac": {
            "normal": {
              "ability": "dex"
            },
            "touch": {
              "ability": "dex"
            },
            "flatFooted": {}
          },
          "cmd": {
            "strAbility": "str",
            "dexAbility": "dex"
          },
          "sr": {
            "formula": ""
          },
          "clCheck": false,
          "saveNotes": "",
          "acNotes": "",
          "cmdNotes": "",
          "srNotes": "",
          "attack": {
            "meleeAbility": "str",
            "rangedAbility": "dex"
          },
          "energyDrain": 0,
          "quadruped": false,
          "savingThrows": {
            "fort": {
              "base": 0,
              "ability": "con"
            },
            "ref": {
              "base": 0,
              "ability": "dex"
            },
            "will": {
              "base": 0,
              "ability": "wis"
            }
          },
          "hp": {
            "value": 0,
            "base": 0,
            "temp": 0,
            "nonlethal": 0,
            "max": 0,
            "offset": 0
          },
          "wounds": {
            "min": 0,
            "base": 0,
            "value": 0,
            "max": 0,
            "offset": 0
          },
          "vigor": {
            "min": 0,
            "value": 0,
            "temp": 0,
            "base": 0,
            "max": 0,
            "offset": 0
          },
          "init": {
            "value": 0,
            "ability": "dex"
          },
          "speed": {
            "land": {
              "base": 30
            },
            "climb": {
              "base": 0
            },
            "swim": {
              "base": 0
            },
            "burrow": {
              "base": 0
            },
            "fly": {
              "base": 0,
              "maneuverability": "average"
            }
          },
          "conditions": {},
          "spells": {
            "spellbooks": {
              "primary": {
                "name": "",
                "castPerDayAllOffsetFormula": "",
                "preparedAllOffsetFormula": "",
                "casterType": "high",
                "class": "",
                "cl": {
                  "formula": ""
                },
                "concentrationFormula": "",
                "concentrationNotes": "",
                "clNotes": "",
                "ability": "int",
                "autoSpellLevelCalculation": true,
                "autoSpellLevels": true,
                "psychic": false,
                "arcaneSpellFailure": true,
                "hasCantrips": true,
                "spellPreparationMode": "spontaneous",
                "baseDCFormula": "10 + @sl + @ablMod",
                "spontaneous": false,
                "spellPoints": {
                  "useSystem": false,
                  "value": 0,
                  "maxFormula": "",
                  "restoreFormula": ""
                },
                "spells": {
                  "spell0": {
                    "castPerDayOffsetFormula": "",
                    "preparedOffsetFormula": ""
                  },
                  "spell1": {
                    "castPerDayOffsetFormula": "",
                    "preparedOffsetFormula": ""
                  },
                  "spell2": {
                    "castPerDayOffsetFormula": "",
                    "preparedOffsetFormula": ""
                  },
                  "spell3": {
                    "castPerDayOffsetFormula": "",
                    "preparedOffsetFormula": ""
                  },
                  "spell4": {
                    "castPerDayOffsetFormula": "",
                    "preparedOffsetFormula": ""
                  },
                  "spell5": {
                    "castPerDayOffsetFormula": "",
                    "preparedOffsetFormula": ""
                  },
                  "spell6": {
                    "castPerDayOffsetFormula": "",
                    "preparedOffsetFormula": ""
                  },
                  "spell7": {
                    "castPerDayOffsetFormula": "",
                    "preparedOffsetFormula": ""
                  },
                  "spell8": {
                    "castPerDayOffsetFormula": "",
                    "preparedOffsetFormula": ""
                  },
                  "spell9": {
                    "castPerDayOffsetFormula": "",
                    "preparedOffsetFormula": ""
                  }
                },
                "spellSlotAbilityBonusFormula": "",
                "domainSlotValue": 1
              },
              "secondary": {
                "name": "",
                "castPerDayAllOffsetFormula": "",
                "preparedAllOffsetFormula": "",
                "casterType": "high",
                "class": "",
                "cl": {
                  "formula": ""
                },
                "concentrationFormula": "",
                "concentrationNotes": "",
                "clNotes": "",
                "ability": "int",
                "autoSpellLevelCalculation": true,
                "autoSpellLevels": true,
                "psychic": false,
                "arcaneSpellFailure": true,
                "hasCantrips": true,
                "spellPreparationMode": "spontaneous",
                "baseDCFormula": "10 + @sl + @ablMod",
                "spontaneous": false,
                "spellPoints": {
                  "useSystem": false,
                  "value": 0,
                  "maxFormula": "",
                  "restoreFormula": ""
                },
                "spells": {
                  "spell0": {
                    "castPerDayOffsetFormula": "",
                    "preparedOffsetFormula": ""
                  },
                  "spell1": {
                    "castPerDayOffsetFormula": "",
                    "preparedOffsetFormula": ""
                  },
                  "spell2": {
                    "castPerDayOffsetFormula": "",
                    "preparedOffsetFormula": ""
                  },
                  "spell3": {
                    "castPerDayOffsetFormula": "",
                    "preparedOffsetFormula": ""
                  },
                  "spell4": {
                    "castPerDayOffsetFormula": "",
                    "preparedOffsetFormula": ""
                  },
                  "spell5": {
                    "castPerDayOffsetFormula": "",
                    "preparedOffsetFormula": ""
                  },
                  "spell6": {
                    "castPerDayOffsetFormula": "",
                    "preparedOffsetFormula": ""
                  },
                  "spell7": {
                    "castPerDayOffsetFormula": "",
                    "preparedOffsetFormula": ""
                  },
                  "spell8": {
                    "castPerDayOffsetFormula": "",
                    "preparedOffsetFormula": ""
                  },
                  "spell9": {
                    "castPerDayOffsetFormula": "",
                    "preparedOffsetFormula": ""
                  }
                },
                "spellSlotAbilityBonusFormula": "",
                "domainSlotValue": 1
              },
              "tertiary": {
                "name": "",
                "castPerDayAllOffsetFormula": "",
                "preparedAllOffsetFormula": "",
                "casterType": "high",
                "class": "",
                "cl": {
                  "formula": ""
                },
                "concentrationFormula": "",
                "concentrationNotes": "",
                "clNotes": "",
                "ability": "int",
                "autoSpellLevelCalculation": true,
                "autoSpellLevels": true,
                "psychic": false,
                "arcaneSpellFailure": true,
                "hasCantrips": true,
                "spellPreparationMode": "spontaneous",
                "baseDCFormula": "10 + @sl + @ablMod",
                "spontaneous": false,
                "spellPoints": {
                  "useSystem": false,
                  "value": 0,
                  "maxFormula": "",
                  "restoreFormula": ""
                },
                "spells": {
                  "spell0": {
                    "castPerDayOffsetFormula": "",
                    "preparedOffsetFormula": ""
                  },
                  "spell1": {
                    "castPerDayOffsetFormula": "",
                    "preparedOffsetFormula": ""
                  },
                  "spell2": {
                    "castPerDayOffsetFormula": "",
                    "preparedOffsetFormula": ""
                  },
                  "spell3": {
                    "castPerDayOffsetFormula": "",
                    "preparedOffsetFormula": ""
                  },
                  "spell4": {
                    "castPerDayOffsetFormula": "",
                    "preparedOffsetFormula": ""
                  },
                  "spell5": {
                    "castPerDayOffsetFormula": "",
                    "preparedOffsetFormula": ""
                  },
                  "spell6": {
                    "castPerDayOffsetFormula": "",
                    "preparedOffsetFormula": ""
                  },
                  "spell7": {
                    "castPerDayOffsetFormula": "",
                    "preparedOffsetFormula": ""
                  },
                  "spell8": {
                    "castPerDayOffsetFormula": "",
                    "preparedOffsetFormula": ""
                  },
                  "spell9": {
                    "castPerDayOffsetFormula": "",
                    "preparedOffsetFormula": ""
                  }
                },
                "spellSlotAbilityBonusFormula": "",
                "domainSlotValue": 1
              },
              "spelllike": {
                "name": "",
                "castPerDayAllOffsetFormula": "",
                "preparedAllOffsetFormula": "",
                "casterType": "high",
                "class": "_hd",
                "cl": {
                  "formula": ""
                },
                "concentrationFormula": "",
                "concentrationNotes": "",
                "clNotes": "",
                "ability": "cha",
                "autoSpellLevelCalculation": true,
                "autoSpellLevels": true,
                "psychic": false,
                "arcaneSpellFailure": true,
                "hasCantrips": true,
                "spellPreparationMode": "spontaneous",
                "baseDCFormula": "10 + @sl + @ablMod",
                "spontaneous": false,
                "spellPoints": {
                  "useSystem": false,
                  "value": 0,
                  "maxFormula": "",
                  "restoreFormula": ""
                },
                "spells": {
                  "spell0": {
                    "castPerDayOffsetFormula": "",
                    "preparedOffsetFormula": ""
                  },
                  "spell1": {
                    "castPerDayOffsetFormula": "",
                    "preparedOffsetFormula": ""
                  },
                  "spell2": {
                    "castPerDayOffsetFormula": "",
                    "preparedOffsetFormula": ""
                  },
                  "spell3": {
                    "castPerDayOffsetFormula": "",
                    "preparedOffsetFormula": ""
                  },
                  "spell4": {
                    "castPerDayOffsetFormula": "",
                    "preparedOffsetFormula": ""
                  },
                  "spell5": {
                    "castPerDayOffsetFormula": "",
                    "preparedOffsetFormula": ""
                  },
                  "spell6": {
                    "castPerDayOffsetFormula": "",
                    "preparedOffsetFormula": ""
                  },
                  "spell7": {
                    "castPerDayOffsetFormula": "",
                    "preparedOffsetFormula": ""
                  },
                  "spell8": {
                    "castPerDayOffsetFormula": "",
                    "preparedOffsetFormula": ""
                  },
                  "spell9": {
                    "castPerDayOffsetFormula": "",
                    "preparedOffsetFormula": ""
                  }
                },
                "spellSlotAbilityBonusFormula": "",
                "domainSlotValue": 1
              }
            }
          }
        },
        "details": {
          "level": {
            "value": 0
          },
          "bonusFeatFormula": "",
          "alignment": "tn",
          "biography": {
            "value": ""
          },
          "notes": {
            "value": ""
          },
          "bonusSkillRankFormula": "",
          "tooltip": {
            "name": "",
            "hideHeld": false,
            "hideArmor": false,
            "hideBuffs": false,
            "hideConditions": false,
            "hideClothing": false,
            "hideName": false
          },
          "carryCapacity": {
            "bonus": {
              "user": 0
            },
            "multiplier": {
              "base": 1,
              "user": 0
            }
          }
        },
        "skills": {
          "acr": {
            "ability": "dex",
            "rt": false,
            "acp": true,
            "rank": 0
          },
          "apr": {
            "ability": "int",
            "rt": false,
            "acp": false,
            "rank": 0
          },
          "art": {
            "ability": "int",
            "rt": false,
            "acp": false,
            "rank": 0
          },
          "blf": {
            "ability": "cha",
            "rt": false,
            "acp": false,
            "rank": 0
          },
          "clm": {
            "ability": "str",
            "rt": false,
            "acp": true,
            "rank": 0
          },
          "crf": {
            "ability": "int",
            "rt": false,
            "acp": false,
            "rank": 0
          },
          "dip": {
            "ability": "cha",
            "rt": false,
            "acp": false,
            "rank": 0
          },
          "dev": {
            "ability": "dex",
            "rt": true,
            "acp": true,
            "rank": 0
          },
          "dis": {
            "ability": "cha",
            "rt": false,
            "acp": false,
            "rank": 0
          },
          "esc": {
            "ability": "dex",
            "rt": false,
            "acp": true,
            "rank": 0
          },
          "fly": {
            "ability": "dex",
            "rt": false,
            "acp": true,
            "rank": 0
          },
          "han": {
            "ability": "cha",
            "rt": true,
            "acp": false,
            "rank": 0
          },
          "hea": {
            "ability": "wis",
            "rt": false,
            "acp": false,
            "rank": 0
          },
          "int": {
            "ability": "cha",
            "rt": false,
            "acp": false,
            "rank": 0
          },
          "kar": {
            "ability": "int",
            "rt": true,
            "acp": false,
            "rank": 0
          },
          "kdu": {
            "ability": "int",
            "rt": true,
            "acp": false,
            "rank": 0
          },
          "ken": {
            "ability": "int",
            "rt": true,
            "acp": false,
            "rank": 0
          },
          "kge": {
            "ability": "int",
            "rt": true,
            "acp": false,
            "rank": 0
          },
          "khi": {
            "ability": "int",
            "rt": true,
            "acp": false,
            "rank": 0
          },
          "klo": {
            "ability": "int",
            "rt": true,
            "acp": false,
            "rank": 0
          },
          "kna": {
            "ability": "int",
            "rt": true,
            "acp": false,
            "rank": 0
          },
          "kno": {
            "ability": "int",
            "rt": true,
            "acp": false,
            "rank": 0
          },
          "kpl": {
            "ability": "int",
            "rt": true,
            "acp": false,
            "rank": 0
          },
          "kre": {
            "ability": "int",
            "rt": true,
            "acp": false,
            "rank": 0
          },
          "lin": {
            "ability": "int",
            "rt": true,
            "acp": false,
            "rank": 0
          },
          "lor": {
            "ability": "int",
            "rt": true,
            "acp": false,
            "rank": 0
          },
          "per": {
            "ability": "wis",
            "rt": false,
            "acp": false,
            "rank": 0
          },
          "prf": {
            "ability": "cha",
            "rt": false,
            "acp": false,
            "rank": 0
          },
          "pro": {
            "ability": "wis",
            "rt": true,
            "acp": false,
            "rank": 0
          },
          "rid": {
            "ability": "dex",
            "rt": false,
            "acp": true,
            "rank": 0
          },
          "sen": {
            "ability": "wis",
            "rt": false,
            "acp": false,
            "rank": 0
          },
          "slt": {
            "ability": "dex",
            "rt": true,
            "acp": true,
            "rank": 0
          },
          "spl": {
            "ability": "int",
            "rt": true,
            "acp": false,
            "rank": 0
          },
          "ste": {
            "ability": "dex",
            "rt": false,
            "acp": true,
            "rank": 0
          },
          "sur": {
            "ability": "wis",
            "rt": false,
            "acp": false,
            "rank": 0
          },
          "swm": {
            "ability": "str",
            "rt": false,
            "acp": true,
            "rank": 0
          },
          "umd": {
            "ability": "cha",
            "rt": true,
            "acp": false,
            "rank": 0
          }
        },
        "traits": {
          "size": "med",
          "senses": {
            "dv": 0,
            "ts": 0,
            "bs": 0,
            "bse": 0,
            "ll": {
              "enabled": false,
              "multiplier": {
                "dim": 2,
                "bright": 2
              }
            },
            "sid": false,
            "tr": false,
            "si": false,
            "sc": false,
            "custom": ""
          },
          "dr": {
            "value": [],
            "custom": ""
          },
          "eres": {
            "value": [],
            "custom": ""
          },
          "cres": "",
          "regen": "",
          "fastHealing": "",
          "languages": {
            "value": [],
            "custom": ""
          },
          "di": {
            "value": [],
            "custom": ""
          },
          "dv": {
            "value": [],
            "custom": ""
          },
          "ci": {
            "value": [],
            "custom": ""
          },
          "stature": "tall"
        },
        "currency": {
          "pp": 0,
          "gp": 0,
          "sp": 0,
          "cp": 0
        },
        "altCurrency": {
          "pp": 0,
          "gp": 0,
          "sp": 0,
          "cp": 0
        }
      }
    },
    "character": {
      "templates": ["common"],
      "details": {
        "xp": {
          "value": 0
        },
        "height": "",
        "weight": "",
        "gender": "",
        "deity": "",
        "age": ""
      },
      "traits": {
        "weaponProf": {
          "value": [],
          "custom": ""
        },
        "armorProf": {
          "value": [],
          "custom": ""
        }
      }
    },
    "npc": {
      "templates": ["common"],
      "details": {
        "cr": {
          "base": 1
        }
      }
    },
    "vehicle": {
      "abilities": {
        "str": {
          "value": 10
        }
      },
      "attributes": {
        "hp": {
          "value": 0,
          "max": 0
        },
        "init": {
          "value": 0
        },
        "savingThrows": {
          "save": {
            "base": 0
          }
        },
        "ac": {
          "normal": {
            "base": 0
          }
        },
        "cmd": {
          "value": 0
        }
      },
      "details": {
        "vehicle": {
          "acceleration": 0,
          "cost": 0,
          "crew": 0,
          "decks": 1,
          "description": "",
          "drivingCheck": "",
          "drivingDevice": "",
          "drivingSpace": "",
          "forwardFacing": "",
          "hardness": 0,
          "maxSpeed": 0,
          "notes": {
            "value": ""
          },
          "propulsion": ""
        }
      },
      "traits": {
        "size": "lg",
        "type": "land"
      }
    },
    "haunt": {
      "attributes": {
        "hp": {
          "value": 0,
          "max": 0
        },
        "init": {
          "value": 10
        }
      },
      "traits": {
        "size": "med"
      },
      "details": {
        "cr": {
          "base": 0
        },
        "notes": {
          "value": ""
        },
        "haunt": {
          "alignment": "",
          "area": "",
          "aura": "",
          "cl": 0,
          "notice": "",
          "weakness": "",
          "reset": "",
          "trigger": "",
          "effect": "",
          "destruction": ""
        }
      }
    },
    "trap": {
      "details": {
        "cr": {
          "base": 0
        },
        "notes": {
          "value": ""
        },
        "trap": {
          "type": "",
          "perception": 0,
          "disarm": 0,
          "trigger": "",
          "duration": "",
          "reset": "",
          "effect": ""
        }
      }
    }
  },
  "Item": {
    "types": [
      "weapon",
      "equipment",
      "consumable",
      "loot",
      "class",
      "spell",
      "feat",
      "buff",
      "attack",
      "race",
      "container"
    ],
    "templates": {
      "changes": {
        "changes": [],
        "changeFlags": {
          "loseDexToAC": false,
          "noEncumbrance": false,
          "mediumArmorFullSpeed": false,
          "heavyArmorFullSpeed": false
        }
      },
      "scriptCalls": {
        "scriptCalls": []
      },
      "contextNotes": {
        "contextNotes": []
      },
      "itemDescription": {
        "description": {
          "value": "",
          "unidentified": ""
        },
        "tags": []
      },
      "physicalItem": {
        "quantity": 1,
        "weight": {
          "value": 0
        },
        "price": 0,
        "size": "med",
        "equipped": true,
        "resizing": false,
        "identified": true,
        "hp": {
          "max": 10,
          "value": 10
        },
        "broken": false,
        "hardness": 0,
        "carried": true,
        "unidentified": {
          "price": 0,
          "name": ""
        },
        "cl": 0,
        "aura": {
          "custom": false,
          "school": ""
        }
      },
      "action": {
        "actions": [],
        "uses": {
          "per": "",
          "value": 0,
          "maxFormula": ""
        },
        "attackNotes": [],
        "effectNotes": []
      },
      "links": {
        "links": {
          "children": []
        }
      },
      "inventory": {
        "inventoryItems": [],
        "maxWeight": null,
        "weightReduction": 0,
        "weight": {
          "value": 0
        },
        "sellMultiplier": 0.5,
        "currency": {
          "pp": 0,
          "gp": 0,
          "sp": 0,
          "cp": 0
        }
      },
      "tagged": {
        "tag": "",
        "useCustomTag": false
      },
      "proficiencies": {
        "armorProf": {
          "value": [],
          "custom": ""
        },
        "weaponProf": {
          "value": [],
          "custom": ""
        },
        "languages": {
          "value": [],
          "custom": ""
        }
      },
      "flags": {
        "flags": {
          "boolean": {},
          "dictionary": {}
        }
      },
      "enhancable": {
        "masterwork": false,
        "enh": null
      },
      "hasAttack": {
        "proficient": true,
        "held": "normal"
      }
    },
    "class": {
      "templates": ["itemDescription", "changes", "links", "tagged", "proficiencies", "flags", "scriptCalls"],
      "subType": "base",
      "level": 1,
      "hd": 8,
      "hp": 8,
      "bab": "low",
      "skillsPerLevel": 0,
      "savingThrows": {
        "fort": { "value": "low" },
        "ref": { "value": "low" },
        "will": { "value": "low" }
      },
      "fc": {
        "hp": { "value": 0 },
        "skill": { "value": 0 },
        "alt": { "value": 0, "notes": "" }
      },
      "classSkills": {},
      "links": {
        "classAssociations": []
      }
    },
    "buff": {
      "templates": ["itemDescription", "changes", "contextNotes", "links", "tagged", "flags", "scriptCalls"],
      "subType": "temp",
      "active": false,
      "level": 0,
      "duration": {
        "value": null,
        "units": ""
      },
      "hideFromToken": false
    },
    "consumable": {
      "templates": ["itemDescription", "physicalItem", "action", "links", "tagged", "flags", "scriptCalls"],
      "subType": "potion",
      "uses": {
        "value": 0,
        "maxFormula": "",
        "per": null,
        "pricePerUse": 0
      },
      "links": {
        "charges": []
      },
      "showInQuickbar": false
    },
    "equipment": {
      "templates": [
        "itemDescription",
        "physicalItem",
        "changes",
        "contextNotes",
        "action",
        "links",
        "tagged",
        "flags",
        "scriptCalls",
        "enhancable",
        "hasAttack"
      ],
      "equipped": true,
      "subType": "armor",
      "baseTypes": [],
      "equipmentSubtype": "lightArmor",
      "armor": {
        "value": 0,
        "dex": null,
        "acp": 0,
        "enh": 0
      },
      "spellFailure": 0,
      "slot": "slotless",
      "links": {
        "charges": []
      },
      "showInQuickbar": false
    },
    "feat": {
      "templates": [
        "itemDescription",
        "action",
        "changes",
        "contextNotes",
        "links",
        "tagged",
        "proficiencies",
        "flags",
        "scriptCalls"
      ],
      "subType": "feat",
      "associations": {
        "classes": []
      },
      "showInQuickbar": false,
      "abilityType": "none",
      "crOffset": "",
      "links": {
        "charges": []
      },
      "disabled": false,
      "classSkills": {}
    },
    "loot": {
      "templates": [
        "itemDescription",
        "physicalItem",
        "changes",
        "contextNotes",
        "links",
        "tagged",
        "flags",
        "scriptCalls"
      ],
      "subType": "misc",
      "extraType": ""
    },
    "spell": {
      "templates": ["itemDescription", "action", "links", "flags", "scriptCalls"],
      "learnedAt": {
        "class": {},
        "domain": {},
        "subDomain": {},
        "elementalSchool": {},
        "bloodline": {}
      },
      "level": 1,
      "clOffset": 0,
      "slOffset": 0,
      "school": "",
      "subschool": "",
      "types": "",
      "components": {
        "value": "",
        "verbal": false,
        "somatic": false,
        "thought": false,
        "emotion": false,
        "material": false,
        "focus": false,
        "divineFocus": 0
      },
      "castTime": "",
      "materials": {
        "value": "",
        "focus": "",
        "gpValue": 0
      },
      "spellbook": "primary",
      "preparation": {
        "preparedAmount": 0,
        "maxAmount": 0,
        "spontaneousPrepared": true
      },
      "atWill": false,
      "sr": true,
      "shortDescription": "",
      "showInQuickbar": false,
      "domain": false,
      "slotCost": 1
    },
    "weapon": {
      "templates": [
        "itemDescription",
        "physicalItem",
        "changes",
        "action",
        "contextNotes",
        "links",
        "tagged",
        "flags",
        "scriptCalls",
        "enhancable",
        "hasAttack"
      ],
      "baseTypes": [],
      "weaponGroups": {
        "value": [],
        "custom": ""
      },
      "subType": "simple",
      "weaponSubtype": "light",
      "properties": {},
      "showInQuickbar": true,
      "ammoType": ""
    },
    "attack": {
      "templates": ["itemDescription", "action", "links", "tagged", "flags", "scriptCalls", "enhancable", "hasAttack"],
      "showInQuickbar": true,
      "broken": false,
      "links": {
        "charges": []
      },
      "ammoType": "",
      "subType": "",
      "baseTypes": [],
      "weaponGroups": {
        "value": [],
        "custom": ""
      }
    },
    "race": {
      "templates": ["itemDescription", "changes", "contextNotes", "links", "proficiencies", "flags", "scriptCalls"],
      "creatureType": "humanoid",
      "size": "med",
      "subTypes": []
    },
    "container": {
      "templates": ["itemDescription", "physicalItem", "inventory", "flags"],
      "price": 0,
      "unidentified": {
        "price": 0
      }
    }
  }
}
