{
  "_id": "14he8rp5zehzk7tx",
  "name": "Abstemiousness",
  "type": "spell",
  "img": "systems/lf1/icons/misc/magic-swirl.png",
  "system": {
    "actions": [
      {
        "_id": "h3ymkb4ngtad2eht",
        "name": "Use",
        "img": "systems/lf1/icons/misc/magic-swirl.png",
        "activation": {
          "type": "standard",
          "unchained": {
            "cost": 2,
            "type": "action"
          }
        },
        "duration": {
          "value": "1 hour"
        },
        "target": {
          "value": "a handful of berries, grains, nuts, or rice"
        },
        "range": {
          "units": "touch"
        },
        "actionType": "spellsave",
        "save": {
          "type": "fort",
          "description": "Fortitude negates (harmless)"
        }
      }
    ],
    "learnedAt": {
      "class": {
        "cleric": 1,
        "oracle": 1,
        "druid": 1,
        "bard": 1,
        "witch": 1,
        "hunter": 1
      }
    },
    "school": "trs",
    "components": {
      "verbal": true
    },
    "shortDescription": "<p>Sometimes Irori smiles on his worshipers, granting them a reprieve from physical hunger. This spell magically enhances a handful of simple food, imbuing it with enough nutrition to satisfy a Medium or smaller creature for a full day. The spell does not create food, and thus will not alone prevent someone from starving, but it can extend even limited reserves for lengthy periods.</p>"
  }
}
