{
  "_id": "pxxf3q4p6kbqqw2q",
  "name": "Aerial Tracks",
  "type": "spell",
  "img": "systems/lf1/icons/misc/magic-swirl.png",
  "system": {
    "actions": [
      {
        "_id": "c9aqv72zokffbv1j",
        "name": "Use",
        "img": "systems/lf1/icons/misc/magic-swirl.png",
        "activation": {
          "type": "standard",
          "unchained": {
            "cost": 2,
            "type": "action"
          }
        },
        "duration": {
          "value": "1 hour/level"
        },
        "range": {
          "units": "medium"
        },
        "actionType": "",
        "spellArea": "circle centered on you, with a radius of 100 feet + 10 feet per level",
        "measureTemplate": {
          "type": "circle",
          "size": "100 + (10 * @cl)"
        }
      }
    ],
    "learnedAt": {
      "class": {
        "druid": 4,
        "ranger": 3,
        "inquisitor": 4,
        "shaman": 4,
        "hunter": 3
      }
    },
    "level": 4,
    "school": "div",
    "types": "air",
    "components": {
      "verbal": true,
      "somatic": true
    },
    "sr": false,
    "shortDescription": "<p>You cause the air in the area to ripple where creatures have flown through it up to 1 day ago per caster level. These aerial ripples are tinged by glowing wisps, providing enough illumination to follow the tracks without penalties due to poor lighting. The area moves with you, allowing you to follow the tracks through the air over long distances provided you can fly or follow the route along the ground within range to read the aerial tracks. Other creatures can also follow the trail as long as they move with you. The base DC of Survival checks to track creatures through the air with this spell is the same as tracking creatures across soft ground.</p>"
  }
}
