{
  "_id": "eqrqv2ofspk574d3",
  "name": "Age Resistance, Greater",
  "type": "spell",
  "img": "systems/lf1/icons/misc/magic-swirl.png",
  "system": {
    "actions": [
      {
        "_id": "g75tzlkkge42jeyx",
        "name": "Use",
        "img": "systems/lf1/icons/misc/magic-swirl.png",
        "activation": {
          "type": "standard",
          "unchained": {
            "cost": 2,
            "type": "action"
          }
        },
        "duration": {
          "value": "24 hours"
        },
        "target": {
          "value": "you"
        },
        "range": {
          "units": "personal"
        },
        "actionType": ""
      }
    ],
    "learnedAt": {
      "class": {
        "sorcerer": 7,
        "wizard": 7,
        "druid": 7,
        "alchemist": 5,
        "witch": 7,
        "psychic": 7,
        "occultist": 5
      },
      "bloodline": {
        "Imperious": 7
      }
    },
    "level": 7,
    "school": "trs",
    "components": {
      "verbal": true,
      "somatic": true
    },
    "spellbook": "",
    "sr": false,
    "shortDescription": "<p>This spell functions as @Compendium[lf1.spells.w8v617tw8wjlcl53]{lesser age resistance}, except you ignore all Strength, Dexterity, and Constitution penalties gained from middle age, old age, and venerable age.</p>"
  }
}
