{
  "_id": "vhsqhjpwv7i6rjno",
  "name": "Aggravate Affliction",
  "type": "spell",
  "img": "systems/lf1/icons/misc/magic-swirl.png",
  "system": {
    "actions": [
      {
        "_id": "832ptb9kabks4r9a",
        "name": "Use",
        "img": "systems/lf1/icons/misc/magic-swirl.png",
        "activation": {
          "type": "standard",
          "unchained": {
            "cost": 2,
            "type": "action"
          }
        },
        "duration": {
          "value": "instantaneous"
        },
        "target": {
          "value": "one creature"
        },
        "range": {
          "units": "close"
        },
        "actionType": "spellsave",
        "save": {
          "description": "see text"
        }
      }
    ],
    "learnedAt": {
      "class": {
        "sorcerer": 4,
        "wizard": 4,
        "cleric": 3,
        "oracle": 3,
        "druid": 3,
        "witch": 3,
        "hunter": 3
      }
    },
    "level": 4,
    "school": "nec",
    "components": {
      "verbal": true,
      "somatic": true
    },
    "shortDescription": "<p>All recurring afflictions (those with a frequency,including curses, diseases, and poison) possessed by the targeted creature immediately trigger, requiring an immediate saving throw (as described in the affliction) to avoid suffering their effects. A successful saving throw does not count toward ending the affliction, and this extra save does not change the timing of the next save against the affliction. Afflictions without a frequency are unaffected by this spell.</p>"
  }
}
