{
  "_id": "p76d7elycoau7edn",
  "name": "Alaznist's Jinx",
  "type": "spell",
  "img": "systems/lf1/icons/misc/magic-swirl.png",
  "system": {
    "actions": [
      {
        "_id": "n568ej10j19x5ntm",
        "name": "Use",
        "img": "systems/lf1/icons/misc/magic-swirl.png",
        "activation": {
          "type": "standard",
          "unchained": {
            "cost": 2,
            "type": "action"
          }
        },
        "duration": {
          "value": "permanent"
        },
        "target": {
          "value": "creature touched"
        },
        "range": {
          "units": "touch"
        },
        "actionType": "spellsave",
        "save": {
          "type": "will",
          "description": "Will negates"
        }
      }
    ],
    "learnedAt": {
      "class": {
        "sorcerer": 6,
        "wizard": 6,
        "cleric": 6,
        "oracle": 6,
        "bard": 4,
        "witch": 5,
        "inquisitor": 5,
        "antipaladin": 4,
        "shaman": 5,
        "psychic": 6,
        "occultist": 5
      }
    },
    "level": 6,
    "school": "evo",
    "types": "curse",
    "components": {
      "verbal": true,
      "somatic": true
    },
    "shortDescription": "<p>You inflict a curse similar to the spell burn spellblight (<i>Pathfinder RPG Ultimate Magic</i> 97) on a creature. Each time a spellcaster who is afflicted with this curse casts a spell or uses a spell-like ability, her skin seems to burn as though she were on fire. With a successful concentration check (DC = 15 + double the spell level of the spell cast or spell-like ability used), the spellcaster can ignore the pain of the effect, but if she fails, she loses the spell or spell slot and is staggered for a round.  Unlike with the spell burn spellblight, the burning sensation is a tangible effect, visible during the act of spellcasting as an incorporeal, violet flame surrounding the caster.</p>"
  }
}
