{
  "_id": "bnwg0hvmdhpj891n",
  "name": "Alleviate Addiction",
  "type": "spell",
  "img": "systems/lf1/icons/misc/magic-swirl.png",
  "system": {
    "actions": [
      {
        "_id": "3h2pqbpt52zlr8fa",
        "name": "Use",
        "img": "systems/lf1/icons/misc/magic-swirl.png",
        "activation": {
          "type": "standard",
          "unchained": {
            "cost": 2,
            "type": "action"
          }
        },
        "duration": {
          "value": "1 hour/level"
        },
        "target": {
          "value": "creature touched"
        },
        "range": {
          "units": "touch"
        },
        "actionType": "heal",
        "save": {
          "type": "fort",
          "description": "Fortitude negates (harmless)"
        }
      }
    ],
    "learnedAt": {
      "class": {
        "cleric": 1,
        "oracle": 1,
        "druid": 1,
        "ranger": 1,
        "paladin": 1,
        "alchemist": 1,
        "witch": 1,
        "shaman": 1,
        "hunter": 1
      }
    },
    "school": "con",
    "subschool": "healing",
    "components": {
      "verbal": true,
      "somatic": true,
      "divineFocus": 1
    },
    "shortDescription": "<p>The subject ignores the effects of addictions. The subject can naturally recover from damage dealt by the drug if she is under the effects of this spell for the entire duration of her rest.</p>"
  }
}
