{
  "_id": "ujykn701inq3hm2n",
  "name": "Angelic Aspect, Greater",
  "type": "spell",
  "img": "systems/lf1/icons/misc/magic-swirl.png",
  "system": {
    "actions": [
      {
        "_id": "ba2my1pydmtef7eg",
        "name": "Use",
        "img": "systems/lf1/icons/misc/magic-swirl.png",
        "activation": {
          "type": "standard",
          "unchained": {
            "cost": 2,
            "type": "action"
          }
        },
        "duration": {
          "value": "1 minute/level (D)"
        },
        "target": {
          "value": "you"
        },
        "range": {
          "units": "personal"
        },
        "actionType": ""
      }
    ],
    "learnedAt": {
      "class": {
        "sorcerer": 8,
        "wizard": 8,
        "cleric": 8,
        "oracle": 8,
        "paladin": 4
      }
    },
    "level": 8,
    "school": "trs",
    "types": "good",
    "components": {
      "verbal": true,
      "somatic": true
    },
    "spellbook": "",
    "sr": false,
    "shortDescription": "<p>This spell functions like @Compendium[lf1.spells.4ratngmltr3z4om5]{lesser angelic aspect}, except you gain low-light vision; darkvision 60 feet; DR 10/evil; immunity to acid, cold, and petrification; resistance to electricity 10 and fire 10; a +4 racial bonus on saves against poison; and protective aura and truespeech as supernatural abilities for the duration of the spell. Also, your wings give you a fly speed of 60 feet with good maneuverability. Protective aura provides a +4 deflection bonus to AC and a +4 resistance bonus on saving throws against attacks made or effects created by evil creatures to anyone within 20 feet. Otherwise, it functions as a @Compendium[lf1.spells.1i8b1v3dngkxj6jp]{magic circle against evil} and a @Compendium[lf1.spells.exwa9xra4u82j0sx]{lesser globe of invulnerability}, both with a radius of 20 feet. Truespeech allows you to speak with any creature that has a language, as though using the @Compendium[lf1.spells.m1rmcpcaixcpz9ib]{tongues} spell.</p>"
  }
}
