{
  "_id": "4ratngmltr3z4om5",
  "name": "Angelic Aspect, Lesser",
  "type": "spell",
  "img": "systems/lf1/icons/misc/magic-swirl.png",
  "system": {
    "actions": [
      {
        "_id": "7vtd9uvh2320274c",
        "name": "Use",
        "img": "systems/lf1/icons/misc/magic-swirl.png",
        "activation": {
          "type": "standard",
          "unchained": {
            "cost": 2,
            "type": "action"
          }
        },
        "duration": {
          "value": "1 minute/level (D)"
        },
        "target": {
          "value": "you"
        },
        "range": {
          "units": "personal"
        },
        "actionType": ""
      }
    ],
    "learnedAt": {
      "class": {
        "sorcerer": 2,
        "wizard": 2,
        "cleric": 2,
        "oracle": 2,
        "paladin": 2
      }
    },
    "level": 2,
    "school": "trs",
    "types": "good",
    "components": {
      "verbal": true,
      "somatic": true
    },
    "sr": false,
    "shortDescription": "<p>You take on an aspect of an angelic being, including some of its physical characteristics. You gain low-light vision, resistance to acid 5, resistance to cold 5, and the benefits of <i>Protection from Evil</i>.</p>"
  }
}
