{
  "_id": "vphjuk9z5iofueuu",
  "name": "Anywhere but Here",
  "type": "spell",
  "img": "systems/lf1/icons/misc/magic-swirl.png",
  "system": {
    "actions": [
      {
        "_id": "9mzx37blrimwc1hv",
        "name": "Use",
        "img": "systems/lf1/icons/misc/magic-swirl.png",
        "activation": {
          "type": "standard",
          "unchained": {
            "cost": 2,
            "type": "action"
          }
        },
        "duration": {
          "value": "instantaneous"
        },
        "target": {
          "value": "you and up to four willing creatures, none of whom can be on their home plane"
        },
        "range": {
          "units": "touch"
        },
        "actionType": "spellsave",
        "save": {
          "type": "will",
          "description": "Will negates (harmless)"
        }
      }
    ],
    "learnedAt": {
      "class": {
        "sorcerer": 4,
        "wizard": 4,
        "summoner": 4,
        "witch": 4,
        "magus": 4,
        "psychic": 4
      }
    },
    "level": 4,
    "school": "con",
    "subschool": "teleportation",
    "components": {
      "verbal": true
    },
    "sr": false,
    "shortDescription": "<p>This spell functions similarly to <i>plane shift</i>, but instead of transporting the targets to a destination near an intended location on a specific plane, <i>Anywhere but Here</i> transports affected creatures to a random plane. A creature can be affected by <i>Anywhere but Here</i> only if it is currently not on its home plane (although targets can, by chance, end up traveling to their home plane as a result of this spell). Subjects always appear in a location that is not inherently harmful, but the exact destination is otherwise random. The specific plane is determined by the table below; the location on the destination plane where the transported creatures arrive is completely subject to the GM's whim. <table border ='1'><tr><th>d%</th><th>Planar Destination</th></tr><tr><td>1-7</td><td>Abyss</td></tr><tr><td>8-14</td><td>Abaddon</td></tr><tr><td>15-20</td><td>Hell</td></tr><tr><td>21-24</td><td>Shadow Plane</td></tr><tr><td>25-28</td><td>First World</td></tr><tr><td>29-35</td><td>Maelstrom</td></tr><tr><td>36-42</td><td>Boneyard</td></tr><tr><td>43-49</td><td>Axis</td></tr><tr><td>50-56</td><td>Ethereal Plane</td></tr><tr><td>57-63</td><td>Elysium</td></tr><tr><td>64-70</td><td>Nirvana</td></tr><tr><td>71-77</td><td>Heaven</td></tr><tr><td>78-84</td><td>Astral Plane</td></tr><tr><td>85-90</td><td>Random demiplane</td></tr><tr><td>91-95</td><td>Material Plane (random world)</td></tr><tr><td>96-100</td><td>GM's choice</td></tr></table> A creature that is transported by <i>Anywhere but Here</i> cannot be affected by a subsequent casting of <i>Anywhere but Here</i> for 24 hours afterward (but can be affected normally by other forms of planar travel).</p>"
  }
}
