{
  "_id": "tggz3ytqn6k2jcxh",
  "name": "Aroden's Magic Army",
  "type": "spell",
  "img": "systems/lf1/icons/misc/magic-swirl.png",
  "system": {
    "actions": [
      {
        "_id": "2crn9yu7s27wgu14",
        "name": "Use",
        "img": "systems/lf1/icons/misc/magic-swirl.png",
        "activation": {
          "type": "standard",
          "unchained": {
            "cost": 2,
            "type": "action"
          }
        },
        "duration": {
          "value": "1 hour/level"
        },
        "target": {
          "value": "weapons carried by allies"
        },
        "range": {
          "units": "long"
        },
        "actionType": "spellsave",
        "save": {
          "type": "will",
          "description": "Will negates (harmless, object)"
        }
      }
    ],
    "learnedAt": {
      "class": {
        "sorcerer": 7,
        "wizard": 7,
        "shaman": 8
      }
    },
    "level": 7,
    "school": "trs",
    "components": {
      "verbal": true,
      "somatic": true,
      "divineFocus": 1
    },
    "shortDescription": "<p>You imbue all manufactured weapons carried by allies within range with magic, granting each weapon a +1 enhancement bonus on attack rolls and damage rolls per 5 caster levels (maximum +4).</p>"
  }
}
