{
  "_id": "gygtx59c2tj4ybsb",
  "name": "Atavism",
  "type": "spell",
  "img": "systems/lf1/icons/misc/magic-swirl.png",
  "system": {
    "actions": [
      {
        "_id": "2zsrsd838e32wbrl",
        "name": "Use",
        "img": "systems/lf1/icons/misc/magic-swirl.png",
        "activation": {
          "type": "standard",
          "unchained": {
            "cost": 2,
            "type": "action"
          }
        },
        "duration": {
          "value": "1 minute/level"
        },
        "target": {
          "value": "one animal"
        },
        "range": {
          "units": "close"
        },
        "actionType": "spellsave",
        "save": {
          "type": "fort",
          "description": "Fortitude negates"
        }
      }
    ],
    "learnedAt": {
      "class": {
        "druid": 4,
        "hunter": 4
      }
    },
    "level": 4,
    "school": "trs",
    "components": {
      "verbal": true,
      "somatic": true
    },
    "shortDescription": "<p>By bringing forth the primeval ancestry of the target animal, you awaken a savage engine of destruction. The animal immediately gains the advanced creature simple template.</p><p>It gains a +2 bonus on all rolls, including damage rolls and special ability DCs, a +4 bonus to AC and CMD, and +2 hit points per HD. The animal's primal instincts take hold for the duration of this spell-if the animal knows tricks granted by the Handle Animal skill, it loses access to all of those tricks save for \"attack.\" This spell has no effect on animals that already have the advanced creature template.</p>"
  }
}
