{
  "_id": "4rjud9uoofhbwhht",
  "name": "Badger's Ferocity",
  "type": "spell",
  "img": "systems/lf1/icons/misc/magic-swirl.png",
  "system": {
    "actions": [
      {
        "_id": "cri980zlf0jwmg7y",
        "name": "Use",
        "img": "systems/lf1/icons/misc/magic-swirl.png",
        "activation": {
          "type": "standard",
          "unchained": {
            "cost": 2,
            "type": "action"
          }
        },
        "duration": {
          "value": "concentration"
        },
        "target": {
          "value": "one weapon/3 levels"
        },
        "range": {
          "units": "close"
        },
        "actionType": "spellsave",
        "save": {
          "type": "will",
          "description": "Will negates (harmless)"
        }
      }
    ],
    "learnedAt": {
      "class": {
        "sorcerer": 2,
        "wizard": 2,
        "cleric": 3,
        "oracle": 3,
        "druid": 3,
        "ranger": 2,
        "occultist": 2,
        "hunter": 2
      }
    },
    "level": 2,
    "school": "trs",
    "components": {
      "verbal": true,
      "somatic": true
    },
    "shortDescription": "<p>This functions like <i>keen edge</i>, except it affects multiple weapons and requires your concentration. You select the weapons to be affected, and can only affect one weapon per creature. If a creature's weapon exceeds the spell's range, the spell ends for that weapon.</p>"
  }
}
