{
  "_id": "5brzibsbbixku992",
  "name": "Black Mark",
  "type": "spell",
  "img": "systems/lf1/icons/misc/magic-swirl.png",
  "system": {
    "actions": [
      {
        "_id": "yisqbxegul4h2nyd",
        "name": "Use",
        "img": "systems/lf1/icons/misc/magic-swirl.png",
        "activation": {
          "type": "standard",
          "unchained": {
            "cost": 2,
            "type": "action"
          }
        },
        "duration": {
          "value": "permanent"
        },
        "target": {
          "value": "one creature"
        },
        "range": {
          "units": "touch"
        },
        "actionType": "spellsave",
        "save": {
          "type": "will",
          "description": "Will negates"
        }
      }
    ],
    "learnedAt": {
      "class": {
        "druid": 7,
        "witch": 7
      }
    },
    "level": 7,
    "school": "nec",
    "types": "curse, fear",
    "components": {
      "verbal": true,
      "somatic": true,
      "material": true
    },
    "materials": {
      "value": "a flask of seawater"
    },
    "shortDescription": "<p>You mark the target with a <i>black mark</i>ing on its skin; the mark's exact appearance determined by you, but can be no larger than your hand. The <i>black mark</i> functions as a <i>mark of justice</i>, and when the mark is activated, the target becomes shaken anytime it is on or in the water more than a 5 feet from shore. In addition, as long as the <i>black mark</i> is active, the target is affected as if subject to nature's exile (Advanced Player's Guide 233), but all creatures with the aquatic or water subtype or with a swim speed are made hostile, even those not of the animal type, though non-aquatic animals are not.</p>"
  }
}
