{
  "_id": "cl4hqv2rghoj7xm6",
  "name": "Black Sword of War",
  "type": "spell",
  "img": "systems/lf1/icons/misc/magic-swirl.png",
  "system": {
    "actions": [
      {
        "_id": "3b10s11llugy9syi",
        "name": "Use",
        "img": "systems/lf1/icons/misc/magic-swirl.png",
        "activation": {
          "type": "standard",
          "unchained": {
            "cost": 2,
            "type": "action"
          }
        },
        "duration": {
          "value": "1 minute/level (D)"
        },
        "target": {
          "value": "piercing or slashing manufactured weapon touched"
        },
        "range": {
          "units": "touch"
        },
        "actionType": "spellsave",
        "save": {
          "type": "will",
          "description": "Will negates (harmless, object)"
        }
      }
    ],
    "learnedAt": {
      "class": {
        "sorcerer": 3,
        "wizard": 3,
        "cleric": 3,
        "oracle": 3,
        "ranger": 3,
        "antipaladin": 3,
        "hunter": 3
      }
    },
    "level": 3,
    "school": "nec",
    "components": {
      "verbal": true,
      "somatic": true
    },
    "shortDescription": "<p>The target weapon turns a glossy black color and deals bleed damage if it deals hit point damage to a creature. The amount of bleed damage is equal to 1/2 your caster level (maximum bleed 5).</p>"
  }
}
