{
  "_id": "4y42ffrppap34t4i",
  "name": "Blade of Light",
  "type": "spell",
  "img": "systems/lf1/icons/misc/magic-swirl.png",
  "system": {
    "actions": [
      {
        "_id": "ro2ga23karhgdmo0",
        "name": "Use",
        "img": "systems/lf1/icons/misc/magic-swirl.png",
        "activation": {
          "type": "standard",
          "unchained": {
            "cost": 2,
            "type": "action"
          }
        },
        "duration": {
          "value": "1 round/level"
        },
        "target": {
          "value": "one melee weapon"
        },
        "range": {
          "units": "touch"
        },
        "actionType": ""
      }
    ],
    "learnedAt": {
      "class": {
        "cleric": 4,
        "oracle": 4,
        "paladin": 4,
        "inquisitor": 4
      }
    },
    "level": 4,
    "school": "trs",
    "types": "good",
    "components": {
      "verbal": true,
      "somatic": true
    },
    "sr": false,
    "shortDescription": "<p>This spell infuses a weapon with pure sunlight (the weapon need not be a bladed weapon). A weapon enhanced by this spell sheds light as if <i>daylight</i> had been cast on it. It functions as a magic and good weapon for the purposes of overcoming damage reduction. The weapon grants a +2 sacred bonus on attack rolls against undead and deals +1d6 points of damage on a successful hit against such foes; against incorporeal undead, it functions as if it had the <i>ghost touch</i> weapon special ability. The weapon automatically confirms critical hits against foes that are vulnerable to sunlight.</p>"
  }
}
