{
  "_id": "zqs71gxt1hxstebf",
  "name": "Bleed Glory",
  "type": "spell",
  "img": "systems/lf1/icons/misc/magic-swirl.png",
  "system": {
    "actions": [
      {
        "_id": "hga9ott1h0o950b2",
        "name": "Use",
        "img": "systems/lf1/icons/misc/magic-swirl.png",
        "activation": {
          "type": "standard",
          "unchained": {
            "cost": 2,
            "type": "action"
          }
        },
        "duration": {
          "value": "1 minute/level"
        },
        "target": {
          "value": "one mythic creature"
        },
        "range": {
          "units": "close"
        },
        "actionType": "spellsave",
        "save": {
          "type": "will",
          "description": "Will negates"
        }
      }
    ],
    "learnedAt": {
      "class": {
        "sorcerer": 3,
        "wizard": 3,
        "cleric": 3,
        "oracle": 3,
        "witch": 3,
        "psychic": 3,
        "medium": 1,
        "mesmerist": 3
      }
    },
    "level": 3,
    "school": "nec",
    "types": "curse",
    "components": {
      "verbal": true,
      "somatic": true
    },
    "shortDescription": "<p>The mythic power cost for all path abilities, feats, spells, and other effects used by the target increases by 1.</p>"
  }
}
