{
  "_id": "yr2qm9a7k91k7xi8",
  "name": "Blend",
  "type": "spell",
  "img": "systems/lf1/icons/misc/magic-swirl.png",
  "system": {
    "actions": [
      {
        "_id": "tzk2vf4a5caxz5nq",
        "name": "Use",
        "img": "systems/lf1/icons/misc/magic-swirl.png",
        "activation": {
          "type": "standard",
          "unchained": {
            "cost": 2,
            "type": "action"
          }
        },
        "duration": {
          "value": "10 minutes/level"
        },
        "target": {
          "value": "you"
        },
        "range": {
          "units": "personal"
        },
        "actionType": ""
      }
    ],
    "learnedAt": {
      "class": {
        "sorcerer": 1,
        "wizard": 1,
        "druid": 1,
        "ranger": 1,
        "alchemist": 1,
        "witch": 1,
        "magus": 1,
        "shaman": 1,
        "psychic": 1,
        "mesmerist": 1,
        "hunter": 1
      }
    },
    "school": "ill",
    "subschool": "glamer",
    "components": {
      "somatic": true
    },
    "sr": false,
    "shortDescription": "<p>You draw upon your elven link to the wilderness to change the coloration of yourself and your equipment to match that of your surroundings. This grants you a +4 circumstance bonus on Stealth checks and allows you to make Stealth checks without cover or concealment, but only while you move no more than half your base speed or less. If you move more than half your base speed on your turn, you gain no benefit from this spell until the start of your next turn. If you make an attack, this spell ends (as invisibility).</p>"
  }
}
