{
  "_id": "723f51pesdjauhyy",
  "name": "Blessing of Liberty",
  "type": "spell",
  "img": "systems/lf1/icons/misc/magic-swirl.png",
  "system": {
    "actions": [
      {
        "_id": "q7zpwiydqoxkerov",
        "name": "Use",
        "img": "systems/lf1/icons/misc/magic-swirl.png",
        "activation": {
          "type": "standard",
          "unchained": {
            "cost": 2,
            "type": "action"
          }
        },
        "duration": {
          "value": "1 minute/level"
        },
        "target": {
          "value": "you"
        },
        "range": {
          "units": "personal"
        },
        "actionType": ""
      }
    ],
    "learnedAt": {
      "class": {
        "bard": 2,
        "shaman": 2
      }
    },
    "level": 2,
    "school": "abj",
    "components": {
      "verbal": true,
      "somatic": true,
      "material": true
    },
    "materials": {
      "value": "a feather or small object that symbolizes good fortune"
    },
    "sr": false,
    "shortDescription": "<p>You imbue yourself with the blessings of liberty. You gain a +1 luck bonus per 6 caster levels (minimum +1, maximum +3) to  your CMD and on saving throws against spells and traps that would move you or impede your movement. You can end the spell's effects as a swift action to gain a +20 foot enhancement bonus to your base speed for 1 round per whole minute of duration remaining.</p>"
  }
}
