{
  "_id": "mnsqk035k4hr8vjs",
  "name": "Blessing of the Mole",
  "type": "spell",
  "img": "systems/lf1/icons/misc/magic-swirl.png",
  "system": {
    "actions": [
      {
        "_id": "7k4cvb5rjx9bnmgo",
        "name": "Use",
        "img": "systems/lf1/icons/misc/magic-swirl.png",
        "activation": {
          "type": "round",
          "unchained": {
            "cost": 3,
            "type": "action"
          }
        },
        "duration": {
          "value": "1 minute/level"
        },
        "range": {
          "units": "close"
        },
        "actionType": "spellsave",
        "save": {
          "description": "none (harmless)"
        },
        "spellArea": "1 creature/level"
      }
    ],
    "learnedAt": {
      "class": {
        "cleric": 3,
        "oracle": 3,
        "ranger": 3,
        "paladin": 3,
        "inquisitor": 3,
        "hunter": 3
      }
    },
    "level": 3,
    "school": "trs",
    "components": {
      "verbal": true,
      "somatic": true
    },
    "shortDescription": "<p>The targets gain darkvision 30 feet and a +2 competence bonus on Stealth checks.</p>"
  }
}
