{
  "_id": "yi4y3gf5wo7xsz81",
  "name": "Bloody Tears and Jagged Smile",
  "type": "spell",
  "img": "systems/lf1/icons/misc/magic-swirl.png",
  "system": {
    "actions": [
      {
        "_id": "8ax99teto2dtpoxb",
        "name": "Use",
        "img": "systems/lf1/icons/misc/magic-swirl.png",
        "activation": {
          "type": "standard",
          "unchained": {
            "cost": 2,
            "type": "action"
          }
        },
        "duration": {
          "value": "10 minutes/level"
        },
        "target": {
          "value": "you and see text"
        },
        "range": {
          "units": "personal"
        },
        "actionType": ""
      }
    ],
    "learnedAt": {
      "class": {
        "sorcerer": 2,
        "wizard": 2,
        "cleric": 2,
        "oracle": 2
      }
    },
    "level": 2,
    "school": "nec",
    "components": {
      "verbal": true,
      "somatic": true
    },
    "shortDescription": "<p>Your eyes turn black and weep blood, and your teeth become jagged fangs. You gain a bite attack (1d3 points of damage if you are Small, 1d4 points of damage if you are Medium). You gain a +4 profane bonus on Intimidate checks and on your spell DCs for spells with the fear descriptor. You perceive creatures as if using <i>deathwatch</i>.</p>"
  }
}
