{
  "_id": "h7ktzr7anfh382xu",
  "name": "Brand",
  "type": "spell",
  "img": "systems/lf1/icons/misc/magic-swirl.png",
  "system": {
    "actions": [
      {
        "_id": "vde3x1uq4ziowo9f",
        "name": "Use",
        "img": "systems/lf1/icons/misc/magic-swirl.png",
        "activation": {
          "type": "standard",
          "unchained": {
            "cost": 2,
            "type": "action"
          }
        },
        "duration": {
          "value": "1 day/level"
        },
        "target": {
          "value": "creature touched"
        },
        "range": {
          "units": "touch"
        },
        "actionType": "spellsave",
        "save": {
          "type": "fort",
          "description": "Fortitude negates"
        }
      }
    ],
    "uses": {
      "autoDeductChargesCost": "0"
    },
    "learnedAt": {
      "class": {
        "inquisitor": 0
      }
    },
    "level": 0,
    "school": "trs",
    "types": "curse",
    "components": {
      "verbal": true,
      "somatic": true,
      "divineFocus": 1
    },
    "shortDescription": "<p><i>Brand</i> etches an indelible rune or mark of no more than 6 characters onto a creature, inflicting 1 point of damage. The mark may be placed on any exposed portion of the creature, typically the head or forearm. A <i>brand</i> can be hidden by clothing or removed by scraping it away (causing 1d6 points of damage), though the <i>brand</i> returns if the damage is healed.</p>"
  }
}
