{
  "_id": "qiiis9ekgy3syu7j",
  "name": "Breath of Life",
  "type": "spell",
  "img": "systems/lf1/icons/misc/magic-swirl.png",
  "system": {
    "actions": [
      {
        "_id": "47cv8dkaram3gyl3",
        "name": "Use",
        "img": "systems/lf1/icons/misc/magic-swirl.png",
        "activation": {
          "type": "standard",
          "unchained": {
            "cost": 2,
            "type": "action"
          }
        },
        "duration": {
          "value": "instantaneous"
        },
        "target": {
          "value": "creature touched"
        },
        "range": {
          "units": "touch"
        },
        "actionType": "heal",
        "damage": {
          "parts": [
            {
              "formula": "5d8 + min(25, @cl)",
              "type": {
                "values": ["untyped"],
                "custom": ""
              }
            }
          ]
        },
        "save": {
          "type": "will",
          "description": "Will negates (harmless) or Will half, see text"
        }
      }
    ],
    "learnedAt": {
      "class": {
        "cleric": 5,
        "oracle": 5,
        "shaman": 5,
        "spiritualist": 5
      },
      "domain": {
        "Healing": 5
      }
    },
    "level": 5,
    "school": "con",
    "subschool": "healing",
    "components": {
      "verbal": true,
      "somatic": true
    },
    "shortDescription": "<p>This spell cures 5d8 points of damage + 1 point per caster level (maximum +25).</p><p>Unlike other spells that heal damage, <i>Breath of Life</i> can bring recently slain creatures back to life. If cast upon a creature that has died within 1 round, apply the healing from this spell to the creature. If the healed creature's hit point total is at a negative amount less than its Constitution score, it comes back to life and stabilizes at its new hit point total. If the creature's hit point total is at a negative amount equal to or greater than its Constitution score, the creature remains dead. Creatures brought back to life through <i>Breath of Life</i> gain a temporary negative level that lasts for 1 day.</p><p>Creatures slain by death effects cannot be saved by <i>Breath of Life</i>.</p><p>Like cure spells, <i>Breath of Life</i> deals damage to undead creatures rather than curing them, and cannot bring them back to life.</p>"
  }
}
