{
  "_id": "iLB3TnXzJBzQzSZn",
  "name": "Brightest Night",
  "type": "spell",
  "img": "icons/magic/light/orb-shadow-blue.webp",
  "system": {
    "actions": [
      {
        "_id": "1xhzht3lulclj2tv",
        "name": "Use",
        "img": "icons/magic/light/orb-shadow-blue.webp",
        "activation": {
          "type": "standard"
        },
        "duration": {
          "value": "1 hour/level"
        },
        "target": {
          "value": "one willing creature plus one additional willing creature per 3 levels, no two of which can be more than 30 ft. apart"
        },
        "range": {
          "units": "close"
        },
        "uses": {
          "autoDeductChargesCost": "1 + @sl"
        },
        "actionType": "spellsave"
      }
    ],
    "learnedAt": {
      "class": {
        "arcanist": 1,
        "bard": 1,
        "cleric": 1,
        "oracle": 1,
        "druid": 1,
        "hunter": 1,
        "paladin": 1,
        "skald": 1,
        "sorcerer": 1,
        "wizard": 1,
        "warpriest": 1,
        "witch": 1
      }
    },
    "school": "trs",
    "components": {
      "verbal": true,
      "somatic": true
    },
    "spellbook": "",
    "sr": false,
    "shortDescription": "<p>You grant low-light vision to the affected creatures. Creatures that already have low-light vision have their existing lowlight vision enhanced so that they can see four times as far in conditions of dim light. Creatures within 10 feet of someone under the effects of brightest night do not gain concealment from dim light.</p>"
  }
}
