{
  "_id": "8xjcrqg79ugxu5qu",
  "name": "Bull's Strength, Mass",
  "type": "spell",
  "img": "systems/lf1/icons/misc/magic-swirl.png",
  "system": {
    "actions": [
      {
        "_id": "49aks2s6jd181lp5",
        "name": "Use",
        "img": "systems/lf1/icons/misc/magic-swirl.png",
        "activation": {
          "type": "standard",
          "unchained": {
            "cost": 2,
            "type": "action"
          }
        },
        "duration": {
          "value": "1 min./level"
        },
        "target": {
          "value": "one creature/level, no two of which can be more than 30 ft. apart"
        },
        "range": {
          "units": "close"
        },
        "measureTemplate": {
          "type": "circle",
          "size": "15"
        },
        "actionType": "spellsave",
        "save": {
          "type": "will",
          "description": "Will negates (harmless)"
        }
      }
    ],
    "learnedAt": {
      "class": {
        "sorcerer": 6,
        "wizard": 6,
        "cleric": 6,
        "oracle": 6,
        "druid": 6,
        "summoner": 4,
        "magus": 6,
        "shaman": 6,
        "psychic": 6,
        "hunter": 6,
        "summonerUnchained": 6
      },
      "subDomain": {
        "Ferocity": 6
      }
    },
    "level": 6,
    "school": "trs",
    "components": {
      "verbal": true,
      "somatic": true,
      "material": true,
      "divineFocus": 2
    },
    "materials": {
      "value": "a few hairs, or a pinch of dung, from a bull"
    },
    "shortDescription": "<p>This spell functions like <i>bull's strength</i>, except that it affects multiple creatures.</p>"
  }
}
