{
  "_id": "5rwjrf2ojhc9b0sx",
  "name": "Bullet Ward",
  "type": "spell",
  "img": "systems/lf1/icons/misc/magic-swirl.png",
  "system": {
    "actions": [
      {
        "_id": "g5xejkz1kjkzowky",
        "name": "Use",
        "img": "systems/lf1/icons/misc/magic-swirl.png",
        "activation": {
          "type": "standard",
          "unchained": {
            "cost": 2,
            "type": "action"
          }
        },
        "duration": {
          "value": "10 minutes/level or until discharged"
        },
        "target": {
          "value": "you"
        },
        "range": {
          "units": "personal"
        },
        "actionType": ""
      }
    ],
    "learnedAt": {
      "class": {
        "sorcerer": 2,
        "wizard": 2,
        "ranger": 2,
        "bard": 2,
        "paladin": 2,
        "witch": 2,
        "inquisitor": 2,
        "antipaladin": 2,
        "psychic": 2,
        "hunter": 2
      }
    },
    "level": 2,
    "school": "abj",
    "components": {
      "verbal": true,
      "somatic": true,
      "focus": true
    },
    "materials": {
      "focus": "one to four adamantine bullets, each worth 61 gp"
    },
    "sr": false,
    "shortDescription": "<p>You toss several adamantine bullets into the air, which then hover protectively nearby and intercept firearm attacks targeting you. The number of bullets protecting you is equal to half your caster level (maximum 4). When an opponent takes a shot at you with a firearm, as an immediate action you can designate a hovering bullet to attempt to block the attack, increasing your AC against that attack by 10. Doing this destroys the adamantine bullet whether or not the attack hits. The spell is discharged when all affected adamantine bullets are destroyed or taken from you. Each adamantine bullet has AC 24, 20 hit points, and hardness 20.</p>"
  }
}
