{
  "_id": "v7xh0s4illphwdo3",
  "name": "Buoyancy",
  "type": "spell",
  "img": "systems/lf1/icons/misc/magic-swirl.png",
  "system": {
    "actions": [
      {
        "_id": "gb7a5a0sxse4cvkj",
        "name": "Use",
        "img": "systems/lf1/icons/misc/magic-swirl.png",
        "activation": {
          "type": "immediate",
          "unchained": {
            "type": "reaction"
          }
        },
        "duration": {
          "value": "up to 1 round/level (see text)"
        },
        "target": {
          "value": "one Medium or smaller object or creature/level, no two of which can be more than 20 ft. apart"
        },
        "range": {
          "units": "close"
        },
        "actionType": "spellsave",
        "save": {
          "type": "will",
          "description": "Will negates (harmless) or Will negates (object)"
        }
      }
    ],
    "learnedAt": {
      "class": {
        "sorcerer": 2,
        "wizard": 2,
        "bard": 2,
        "witch": 2,
        "shaman": 2,
        "psychic": 2
      }
    },
    "level": 2,
    "school": "trs",
    "components": {
      "verbal": true
    },
    "shortDescription": "<p>The affected targets become incredibly buoyant, floating naturally on any water at least 1 foot deep.</p><p>An affected creature that deliberately tries to submerge must succeed at a DC 20 Swim check every round to stay underwater. If a target spends at least 1 round on dry land, the spell ends for that creature only.</p>"
  }
}
