{
  "_id": "8wspht4k8tiugz6u",
  "name": "Burst of Glory",
  "type": "spell",
  "img": "systems/lf1/icons/misc/magic-swirl.png",
  "system": {
    "actions": [
      {
        "_id": "kyecst2y41hiqppi",
        "name": "Use",
        "img": "systems/lf1/icons/misc/magic-swirl.png",
        "activation": {
          "type": "standard",
          "unchained": {
            "cost": 2,
            "type": "action"
          }
        },
        "duration": {
          "value": "1 round/level (D; see text)"
        },
        "actionType": "spellsave",
        "save": {
          "type": "will",
          "description": "Will negates (harmless)"
        },
        "spellArea": "10-ft.-radius burst, centered on you",
        "range": {
          "value": "10",
          "units": "ft"
        },
        "measureTemplate": {
          "type": "circle",
          "size": "10"
        }
      }
    ],
    "uses": {
      "autoDeductChargesCost": ""
    },
    "learnedAt": {
      "class": {
        "cleric": 5,
        "oracle": 5,
        "paladin": 4,
        "inquisitor": 4
      }
    },
    "level": 5,
    "school": "enc",
    "subschool": "compulsion",
    "types": "mind-affecting",
    "components": {
      "verbal": true,
      "somatic": true,
      "divineFocus": 1
    },
    "spellbook": "",
    "shortDescription": "<p>Allies in the area of this spell at the time of casting gain a +1 sacred bonus on attack rolls and saves against fear effects, plus 1 temporary hit point per caster level (maximum 20). You shine with a white or golden radiance equal to a torch for the spell's duration, though you can dismiss the glow effect as a free action.</p>"
  }
}
