{
  "_id": "wvpa1pt2gyh75g3x",
  "name": "Calcific Touch",
  "type": "spell",
  "img": "systems/lf1/icons/misc/magic-swirl.png",
  "system": {
    "actions": [
      {
        "_id": "af49ge3v5pshg8he",
        "name": "Use",
        "img": "systems/lf1/icons/misc/magic-swirl.png",
        "activation": {
          "type": "standard",
          "unchained": {
            "cost": 2,
            "type": "action"
          }
        },
        "duration": {
          "value": "1 round/level"
        },
        "target": {
          "value": "creature or creatures touched (up to one per level)"
        },
        "range": {
          "units": "touch"
        },
        "actionType": "spellsave",
        "save": {
          "type": "fort",
          "description": "Fortitude partial"
        }
      }
    ],
    "learnedAt": {
      "class": {
        "sorcerer": 4,
        "wizard": 4,
        "bloodrager": 4,
        "psychic": 4
      }
    },
    "level": 4,
    "school": "trs",
    "types": "earth",
    "components": {
      "verbal": true,
      "somatic": true
    },
    "shortDescription": "<p>Your touch progressively transmutes the substance of creatures you touch into stone. Once per round, you may deliver a touch attack that inflicts 1d4 points of Dexterity damage and slows the target (as the spell) for 1 round. A successful Fortitude save negates the slow effect but not the ability damage. A target reduced to 0 Dexterity is petrified permanently. <i>Break enchantment</i>, <i>restoration</i>, <i>or stone to flesh</i> can reverse the effects of <i>calcific touch</i>.</p>"
  }
}
