{
  "_id": "klfx6jehu3vhie33",
  "name": "Cape of Wasps",
  "type": "spell",
  "img": "systems/lf1/icons/misc/magic-swirl.png",
  "system": {
    "actions": [
      {
        "_id": "52jwt91v2wxqhbse",
        "name": "Use",
        "img": "systems/lf1/icons/misc/magic-swirl.png",
        "activation": {
          "type": "standard",
          "unchained": {
            "cost": 2,
            "type": "action"
          }
        },
        "duration": {
          "value": "1 round/level (D)"
        },
        "target": {
          "value": "you"
        },
        "range": {
          "units": "personal"
        },
        "actionType": ""
      }
    ],
    "learnedAt": {
      "class": {
        "druid": 4,
        "witch": 4,
        "hunter": 4
      }
    },
    "level": 4,
    "school": "con",
    "subschool": "summoning",
    "components": {
      "verbal": true,
      "somatic": true
    },
    "sr": false,
    "shortDescription": "<p>You summon a wasp swarm (<i>Bestiary</i> 275), which fills your space (up to 5 feet by 5 feet) but does not attack you. The dense cloud of vermin gives you partial concealment against ranged attacks. Any creature that makes a successful melee attack against you takes 2d6 points of swarm damage and poison from the wasp swarm, but is not affected by the swarm's distraction ability. As a free action on your turn, you may have the swarm cling to you tightly, giving you a fly speed of 20 feet (poor maneuverability); when using the swarm to fly, it does not provide concealment or harm creatures that strike you. You can return the swarm to its protective shape as a free action on your turn.</p>"
  }
}
