{
  "_id": "6d6bgiakwmwiu7qv",
  "name": "Celestial Healing",
  "type": "spell",
  "img": "systems/lf1/icons/misc/magic-swirl.png",
  "system": {
    "actions": [
      {
        "_id": "uxsdffkgnbn6cfd0",
        "name": "Use",
        "img": "systems/lf1/icons/misc/magic-swirl.png",
        "activation": {
          "type": "round",
          "unchained": {
            "cost": 3,
            "type": "action"
          }
        },
        "duration": {
          "value": "1 round/2 levels"
        },
        "target": {
          "value": "creature touched"
        },
        "range": {
          "units": "touch"
        },
        "actionType": "heal",
        "save": {
          "type": "will",
          "description": "Will negates (harmless)"
        }
      }
    ],
    "learnedAt": {
      "class": {
        "sorcerer": 1,
        "wizard": 1,
        "cleric": 1,
        "oracle": 1,
        "summoner": 1,
        "witch": 1,
        "magus": 1,
        "bloodrager": 1,
        "summonerUnchained": 1
      }
    },
    "school": "con",
    "subschool": "healing",
    "types": "good",
    "components": {
      "verbal": true,
      "somatic": true,
      "material": true
    },
    "materials": {
      "value": "1 drop of blood from a good outsider or 1 dose of holy water"
    },
    "shortDescription": "<p>You anoint a wounded creature with the blood of an outsider with the good subtype (such as an angel) or holy water, giving it fast healing 1. The target radiates the aura of a good creature for the duration of the spell and can sense the righteousness of the magic, though this has no long-term effect on the target's alignment. If the target has its own evil aura, this is not suppressed by celestial healing, and can also be detected normally.</p>"
  }
}
