{
  "_id": "pv6jcelxrxjqn8ab",
  "name": "Chameleon Scales",
  "type": "spell",
  "img": "systems/lf1/icons/misc/magic-swirl.png",
  "system": {
    "actions": [
      {
        "_id": "5f0q4yah9a21eb8k",
        "name": "Use",
        "img": "systems/lf1/icons/misc/magic-swirl.png",
        "activation": {
          "type": "standard",
          "unchained": {
            "cost": 2,
            "type": "action"
          }
        },
        "duration": {
          "value": "10 minutes/level (D)"
        },
        "target": {
          "value": "you"
        },
        "range": {
          "units": "personal"
        },
        "actionType": ""
      }
    ],
    "uses": {
      "autoDeductChargesCost": "0"
    },
    "learnedAt": {
      "class": {
        "sorcerer": 0,
        "wizard": 0,
        "druid": 0,
        "ranger": 1,
        "alchemist": 1,
        "hunter": 0
      }
    },
    "level": 0,
    "school": "trs",
    "components": {
      "verbal": true,
      "somatic": true,
      "divineFocus": 1
    },
    "sr": false,
    "shortDescription": "<p>You temporarily alter the color of your skin, hide, or scales to another option legal for your race. You take no penalty for using Disguise to appear as a member of a different race as long as that race has the same type and color of skin, hide, or scales as you.</p>"
  }
}
