{
  "_id": "xxodhj1jhv51njjq",
  "name": "Channel the Gift",
  "type": "spell",
  "img": "systems/lf1/icons/misc/magic-swirl.png",
  "system": {
    "actions": [
      {
        "_id": "m3g82tviv2f2rptz",
        "name": "Use",
        "img": "systems/lf1/icons/misc/magic-swirl.png",
        "activation": {
          "type": "standard",
          "unchained": {
            "cost": 2,
            "type": "action"
          }
        },
        "duration": {
          "value": "1 round or see text"
        },
        "target": {
          "value": "ally spellcaster touched"
        },
        "range": {
          "units": "touch"
        },
        "actionType": "spellsave",
        "save": {
          "type": "will",
          "description": "Will negates (harmless) or none"
        }
      }
    ],
    "learnedAt": {
      "class": {
        "sorcerer": 3,
        "wizard": 3,
        "cleric": 3,
        "oracle": 3,
        "druid": 3,
        "ranger": 3,
        "bard": 3,
        "witch": 3,
        "hunter": 3
      }
    },
    "level": 3,
    "school": "evo",
    "components": {
      "verbal": true,
      "somatic": true,
      "divineFocus": 1
    },
    "shortDescription": "<p>You channel your magical power to fuel the target's spellcasting.</p><p>The next spell the target casts of 3rd level or lower does not expend a spell slot; in effect, you are using your spell slot to power the target's spell. The target must start casting this spell before your next turn, and the spell cannot have a casting time longer than 1 full round. Your alignment, prohibited wizard school, and other restrictions on your own spellcasting do not affect the target, nor do you suffer any backlash from the target's choice of spell.</p><p>If you target yourself with this spell, you may spontaneously cast any prepared spell of 3rd level or lower without expending its spell slot on your next turn (this aspect of the spell has no effect if you are a spontaneous caster). The spell that's cast after <i>Channel the Gift</i> cannot have a casting time longer than 1 full round.</p>"
  }
}
