{
  "_id": "o0s3eo85npgigh3w",
  "name": "Cloak of Chaos",
  "type": "spell",
  "img": "systems/lf1/icons/misc/magic-swirl.png",
  "system": {
    "actions": [
      {
        "_id": "i04d0zqxk508cu4f",
        "name": "Use",
        "img": "systems/lf1/icons/misc/magic-swirl.png",
        "activation": {
          "type": "standard",
          "unchained": {
            "cost": 2,
            "type": "action"
          }
        },
        "duration": {
          "value": "1 round/level"
        },
        "target": {
          "value": "one creature/level in a 20-ft.-radius burst centered on you"
        },
        "range": {
          "value": "20",
          "units": "ft"
        },
        "actionType": "spellsave",
        "save": {
          "description": "see text"
        }
      }
    ],
    "learnedAt": {
      "class": {
        "cleric": 8,
        "oracle": 8
      },
      "domain": {
        "Chaos": 8
      }
    },
    "level": 8,
    "school": "abj",
    "types": "chaotic",
    "components": {
      "verbal": true,
      "somatic": true,
      "focus": true
    },
    "materials": {
      "focus": "a tiny reliquary worth 500 gp"
    },
    "shortDescription": "<p>A random pattern of color surrounds the subjects, protecting them from attacks, granting them resistance to spells cast by lawful creatures, and causing lawful creatures that strike the subjects to become confused. This abjuration has four effects.</p><p>First, each warded creature gains a +4 deflection bonus to AC and a +4 resistance bonus on saves. Unlike <i>Protection from Law</i>, the benefit of this spell applies against all attacks, not just against attacks by lawful creatures.</p><p>Second, each warded creature gains spell resistance 25 against lawful spells and spells cast by lawful creatures.</p><p>Third, the abjuration protects from possession and mental influence, just as <i>Protection from Law</i> does.</p><p>Finally, if a lawful creature succeeds on a melee attack against a warded creature, the offending attacker is confused for 1 round (Will save negates, as with the <i>confusion spell</i>, but against the save DC of <i>cloak of chaos</i>).</p>"
  }
}
