{
  "_id": "8j5qgnd7wtnmj3fu",
  "name": "Concealed Breath",
  "type": "spell",
  "img": "systems/lf1/icons/misc/magic-swirl.png",
  "system": {
    "actions": [
      {
        "_id": "3op2jxv1eb1ciqct",
        "name": "Use",
        "img": "systems/lf1/icons/misc/magic-swirl.png",
        "activation": {
          "type": "standard",
          "unchained": {
            "cost": 2,
            "type": "action"
          }
        },
        "duration": {
          "value": "1 hour/level; see text"
        },
        "target": {
          "value": "living creatures touched"
        },
        "range": {
          "units": "touch"
        },
        "actionType": "spellsave",
        "save": {
          "type": "will",
          "description": "Will negates (harmless)"
        }
      }
    ],
    "learnedAt": {
      "class": {
        "sorcerer": 4,
        "wizard": 4,
        "cleric": 4,
        "oracle": 4,
        "druid": 4,
        "alchemist": 4,
        "summoner": 4,
        "shaman": 4,
        "hunter": 4,
        "summonerUnchained": 4
      }
    },
    "level": 4,
    "school": "trs",
    "components": {
      "somatic": true,
      "material": true,
      "divineFocus": 2
    },
    "materials": {
      "value": "a palm-sized stone"
    },
    "shortDescription": "<p>This spell allows affected creatures to hold their breath freely without negative effects or risk of suffocation. Divide the duration evenly among all creatures touched. A creature that doesn't need to breathe because of this spell is not at risk of drowning and is immune to effects that require breathing, such as inhaled poisons. This does not grant immunity to cloud or gas attacks that don't require breathing. While a creature is holding its breath, it can't speak or cast spells with a verbal component (unless it's using Silent Spell). This spell does not prevent a creature from breathing normally; it just removes the need for the creature to breathe.</p>"
  }
}
