{
  "_id": "ppeb97nxg1rmdpme",
  "name": "Contagion",
  "type": "spell",
  "img": "systems/lf1/icons/misc/magic-swirl.png",
  "system": {
    "actions": [
      {
        "_id": "te503izcvyy57baz",
        "name": "Use",
        "img": "systems/lf1/icons/misc/magic-swirl.png",
        "activation": {
          "type": "standard",
          "unchained": {
            "cost": 2,
            "type": "action"
          }
        },
        "duration": {
          "value": "instantaneous"
        },
        "target": {
          "value": "living creature touched"
        },
        "range": {
          "units": "touch"
        },
        "actionType": "spellsave",
        "save": {
          "type": "fort",
          "description": "Fortitude negates"
        }
      }
    ],
    "learnedAt": {
      "class": {
        "sorcerer": 4,
        "wizard": 4,
        "cleric": 3,
        "oracle": 3,
        "druid": 3,
        "antipaladin": 3,
        "adept": 3,
        "bloodrager": 4,
        "hunter": 3
      },
      "subDomain": {
        "Decay": 3,
        "Plague": 3
      },
      "bloodline": {
        "Pestilence": 3,
        "Daemon": 4
      }
    },
    "level": 4,
    "school": "nec",
    "types": "evil",
    "components": {
      "verbal": true,
      "somatic": true
    },
    "shortDescription": "<p>The subject contracts one of the following diseases: blinding sickness, bubonic plague, cackle fever, filth fever, leprosy, mindfire, red ache, shakes, or slimy doom. The disease is contracted immediately (the onset period does not apply). Use the disease's listed frequency and save DC to determine further effects. For more information on these diseases, see page 557.</p>"
  }
}
