{
  "_id": "rfp8y4lq5bdzriyp",
  "name": "Cosmic Ray",
  "type": "spell",
  "img": "systems/lf1/icons/misc/magic-swirl.png",
  "system": {
    "actions": [
      {
        "_id": "wl1jhocnangkzcqc",
        "name": "Use",
        "img": "systems/lf1/icons/misc/magic-swirl.png",
        "activation": {
          "type": "standard",
          "unchained": {
            "cost": 2,
            "type": "action"
          }
        },
        "duration": {
          "value": "instantaneous and 1 round/level (see text)"
        },
        "range": {
          "units": "close"
        },
        "actionType": "rsak",
        "ability": {
          "attack": "dex"
        },
        "save": {
          "type": "fort",
          "description": "Fortitude partial"
        },
        "spellEffect": "ray"
      }
    ],
    "learnedAt": {
      "class": {
        "sorcerer": 6,
        "wizard": 6,
        "magus": 5
      }
    },
    "level": 6,
    "school": "evo",
    "components": {
      "verbal": true,
      "somatic": true,
      "material": true
    },
    "materials": {
      "value": "a piece of meteorite"
    },
    "shortDescription": "<p>You fling a ray of deadly cosmic energy at the target creature. If you succeed at a ranged touch attack with the ray, the target takes 1d6 points of damage per caster level (maximum 20d6) and must make a Fortitude save. On a failed save, the target becomes sickened for 1 round per caster level and emits toxic cosmic energy for as long as it is sickened; any creature that comes within 5 feet of the affected target must succeed at a Fortitude save (DC = spell's DC) or become sickened for 1 round per 2 caster levels.</p>"
  }
}
