{
  "_id": "j209j280fyqccq61",
  "name": "Create Greater Undead",
  "type": "spell",
  "img": "systems/lf1/icons/misc/magic-swirl.png",
  "system": {
    "actions": [
      {
        "_id": "mbk37ksa6hrr4k4b",
        "name": "Use",
        "img": "systems/lf1/icons/misc/magic-swirl.png",
        "activation": {
          "type": "hour",
          "unchained": {
            "type": "hour"
          }
        },
        "duration": {
          "value": "instantaneous"
        },
        "target": {
          "value": "one corpse"
        },
        "range": {
          "units": "close"
        },
        "actionType": ""
      }
    ],
    "learnedAt": {
      "class": {
        "sorcerer": 8,
        "wizard": 8,
        "cleric": 8,
        "oracle": 8,
        "shaman": 8
      },
      "domain": {
        "Death": 8
      }
    },
    "level": 8,
    "school": "nec",
    "types": "evil",
    "components": {
      "verbal": true,
      "somatic": true,
      "material": true
    },
    "materials": {
      "value": "a clay pot filled with grave dirt and an onyx gem worth at least 50 gp per HD of the undead to be created"
    },
    "spellbook": "",
    "sr": false,
    "shortDescription": "<p>This spell functions like @Compendium[lf1.spells.c1e7f0ct04k270wy]{create undead}, except that you can create more powerful and intelligent sorts of undead: shadows, wraiths, spectres, and devourers. The type or types of undead created is based on caster level, as shown below.</p>\n<table>\n<tbody>\n<tr>\n<th>Caster Level</th>\n<th>Undead Created</th>\n</tr>\n<tr>\n<td>15th or lower</td>\n<td>Shadow</td>\n</tr>\n<tr>\n<td>16th-17th</td>\n<td>Wraith</td>\n</tr>\n<tr>\n<td>18th-19th</td>\n<td>Spectre</td>\n</tr>\n<tr>\n<td>20th or higher</td>\n<td>Devourer</td>\n</tr>\n</tbody>\n</table>"
  }
}
