{
  "_id": "q986nbkaq8kwbcy2",
  "name": "Crime of Opportunity",
  "type": "spell",
  "img": "systems/lf1/icons/misc/magic-swirl.png",
  "system": {
    "actions": [
      {
        "_id": "bpm0zr48nth0g5nc",
        "name": "Use",
        "img": "systems/lf1/icons/misc/magic-swirl.png",
        "activation": {
          "type": "standard",
          "unchained": {
            "cost": 2,
            "type": "action"
          }
        },
        "duration": {
          "value": "1 round"
        },
        "target": {
          "value": "one creature"
        },
        "range": {
          "units": "close"
        },
        "actionType": "spellsave",
        "save": {
          "type": "will",
          "description": "Will negates"
        }
      }
    ],
    "learnedAt": {
      "class": {
        "antipaladin": 1,
        "mesmerist": 1
      }
    },
    "school": "enc",
    "subschool": "compulsion",
    "types": "mind-affecting",
    "components": {
      "verbal": true,
      "somatic": true,
      "material": true
    },
    "materials": {
      "value": "a slit purse"
    },
    "shortDescription": "<p>You awaken a sudden criminal impulse in the target, compelling it to commit a criminal act as if affected by the <i>crime wave</i> spell.</p>"
  }
}
