{
  "_id": "lbwaw6pjcdnfp58p",
  "name": "Cultural Adaptation",
  "type": "spell",
  "img": "systems/lf1/icons/misc/magic-swirl.png",
  "system": {
    "actions": [
      {
        "_id": "kklxduch04w527fh",
        "name": "Use",
        "img": "systems/lf1/icons/misc/magic-swirl.png",
        "activation": {
          "type": "standard",
          "unchained": {
            "cost": 2,
            "type": "action"
          }
        },
        "duration": {
          "value": "10 minutes/level"
        },
        "target": {
          "value": "you"
        },
        "range": {
          "units": "personal"
        },
        "actionType": ""
      }
    ],
    "learnedAt": {
      "class": {
        "sorcerer": 1,
        "wizard": 1,
        "cleric": 1,
        "oracle": 1,
        "bard": 1,
        "psychic": 1,
        "medium": 1,
        "occultist": 1
      }
    },
    "school": "div",
    "components": {
      "verbal": true,
      "somatic": true,
      "material": true,
      "divineFocus": 2
    },
    "materials": {
      "value": "a document written in the language of the culture to be emulated"
    },
    "sr": false,
    "shortDescription": "<p>When casting this spell, you must concentrate on a culture or subculture to which you wish to adapt. If you speak the native language of the culture in question, then for the duration of this spell, you speak the language with a native accent. The  spell doesn't teach you the language in question, but can be combined with <i>tongues</i> or a similar spell. Your body language and gestures mark you as a native of the culture, and you unconsciously make small decisions that help you blend in. Combined, these grant you a +2 circumstance bonus on Diplomacy checks to influence members of the culture to which you have adapted, which doesn't stack with other circumstance bonuses you might possess by virtue of being a member of the chosen culture. You also gain a +2 circumstance bonus on Disguise checks to pass yourself off as if you were a member of the culture, if you are not.  This doesn't provide benefits when disguising yourself as a specific member of the culture, though it negates any circumstance penalties you might otherwise have taken due to not acting appropriately for that person's culture. Finally, the DCs of enchantment (charm) spells you cast against natives of the culture to which you are attuned increase by 1.</p>"
  }
}
