{
  "_id": "norn02g8zdsspf2j",
  "name": "Cure Serious Wounds",
  "type": "spell",
  "img": "systems/lf1/icons/spells/heal-sky-2.jpg",
  "system": {
    "actions": [
      {
        "_id": "rghj55zutpc5i7hy",
        "name": "Use",
        "img": "systems/lf1/icons/spells/heal-sky-2.jpg",
        "activation": {
          "type": "standard",
          "unchained": {
            "cost": 2,
            "type": "action"
          }
        },
        "duration": {
          "value": "instantaneous"
        },
        "target": {
          "value": "creature touched"
        },
        "range": {
          "units": "touch"
        },
        "actionType": "heal",
        "damage": {
          "parts": [
            {
              "formula": "3d8 + min(15, @cl)",
              "type": {
                "values": ["positive"],
                "custom": ""
              }
            }
          ]
        },
        "save": {
          "type": "will",
          "description": "Will half (harmless); see text"
        }
      }
    ],
    "learnedAt": {
      "class": {
        "cleric": 3,
        "oracle": 3,
        "druid": 4,
        "ranger": 4,
        "bard": 3,
        "paladin": 4,
        "alchemist": 3,
        "witch": 4,
        "inquisitor": 3,
        "adept": 3,
        "shaman": 3,
        "occultist": 3,
        "spiritualist": 3,
        "hunter": 4
      },
      "domain": {
        "Healing": 3
      }
    },
    "level": 3,
    "school": "con",
    "subschool": "healing",
    "components": {
      "verbal": true,
      "somatic": true
    },
    "spellbook": "",
    "shortDescription": "<p>This spell functions like <i>cure light wounds</i>, except that it cures 3d8 points of damage + 1 point per caster level (maximum +15).</p>"
  }
}
