{
  "_id": "bLOXAvcgrCd2cIty",
  "name": "Curse of Dragonflies",
  "type": "spell",
  "img": "icons/creatures/invertebrates/dragonfly-teal.webp",
  "system": {
    "actions": [
      {
        "_id": "5objqdlcl1tumf8g",
        "name": "Use",
        "img": "icons/creatures/invertebrates/dragonfly-teal.webp",
        "activation": {
          "type": "standard"
        },
        "duration": {
          "value": "permanent (D)"
        },
        "target": {
          "value": "one creature"
        },
        "range": {
          "units": "medium"
        },
        "uses": {
          "autoDeductChargesCost": "1 + @sl"
        },
        "actionType": "spellsave",
        "save": {
          "type": "will",
          "description": "Will negates"
        }
      }
    ],
    "learnedAt": {
      "class": {
        "arcanist": 4,
        "druid": 3,
        "hunter": 3,
        "magus": 3,
        "shaman": 4,
        "sorcerer": 4,
        "wizard": 4,
        "summoner": 4,
        "witch": 3
      }
    },
    "level": 4,
    "school": "con",
    "types": "air, curse",
    "components": {
      "verbal": true,
      "somatic": true,
      "material": true
    },
    "materials": {
      "value": "a paper insect"
    },
    "spellbook": "",
    "shortDescription": "<p>You invest a target with cursed elemental energy, making the open skies anathema to it. If the affected creature ever tries to fly more than 5 feet above the ground, paper insects erupt from the air around the creature to interfere with its movement. The affected creature's flight maneuverability decreases by one step for every 3 caster levels you have. A creature whose maneuverability would be brought below clumsy must land at the end of its turn each round or fall.</p>\n<p>This spell does not affect incorporeal creatures or creatures that are otherwise intangible (such as a wizard using @Compendium[lf1.spells.mqdoexj35atgqafn]{Gaseous Form} to fly).</p>"
  }
}
