{
  "_id": "njd4stcb9xbhlivb",
  "name": "Curse Terrain, Supreme",
  "type": "spell",
  "img": "systems/lf1/icons/misc/magic-swirl.png",
  "system": {
    "actions": [
      {
        "_id": "5y9acz2yssawkcii",
        "name": "Use",
        "img": "systems/lf1/icons/misc/magic-swirl.png",
        "activation": {
          "cost": 10,
          "type": "minute",
          "unchained": {
            "cost": 10,
            "type": "minute"
          }
        },
        "duration": {
          "value": "1 day (D)"
        },
        "range": {
          "units": "touch"
        },
        "actionType": "",
        "spellArea": "5-mile radius emanating from the touched point"
      }
    ],
    "learnedAt": {
      "class": {
        "sorcerer": 8,
        "wizard": 8,
        "cleric": 8,
        "oracle": 8,
        "druid": 8,
        "witch": 8,
        "shaman": 8
      }
    },
    "level": 8,
    "school": "nec",
    "types": "curse, evil",
    "components": {
      "verbal": true,
      "somatic": true,
      "material": true
    },
    "materials": {
      "value": "the heart of a creature that dwelled in the area and powdered onyx worth 4,000 gp",
      "gpValue": 4000
    },
    "spellbook": "",
    "preparation": {
      "spontaneousPrepared": false
    },
    "sr": false,
    "shortDescription": "<p>By touching the ground, you curse the land with seven unnatural hazards. This functions as <i>lesser curse terrain</i>, but with the effects of the grand perilous demesne curse (see page 144).</p>"
  }
}
