{
  "_id": "1sqn0o52wldmsv3b",
  "name": "Death Knell Aura, Greater",
  "type": "spell",
  "img": "systems/lf1/icons/misc/magic-swirl.png",
  "system": {
    "actions": [
      {
        "_id": "3qep9dbgzohxjrr7",
        "name": "Use",
        "img": "systems/lf1/icons/misc/magic-swirl.png",
        "activation": {
          "type": "standard",
          "unchained": {
            "cost": 2,
            "type": "action"
          }
        },
        "duration": {
          "value": "1 round/level (D)"
        },
        "range": {
          "value": "20",
          "units": "ft"
        },
        "actionType": "spellsave",
        "save": {
          "type": "will",
          "description": "Will negates"
        },
        "spellArea": "20-ft.-radius emanation, centered on you",
        "measureTemplate": {
          "type": "circle",
          "size": "20"
        }
      }
    ],
    "uses": {
      "autoDeductChargesCost": ""
    },
    "learnedAt": {
      "class": {
        "sorcerer": 6,
        "wizard": 6,
        "cleric": 6,
        "oracle": 6,
        "witch": 6,
        "inquisitor": 6
      }
    },
    "level": 6,
    "school": "nec",
    "types": "death, evil",
    "components": {
      "verbal": true,
      "somatic": true
    },
    "spellbook": "",
    "shortDescription": "<p>This spell functions as @Compendium[lf1.spells.fmk73r47lhjvordp]{death knell aura}, except a dying creature in the area cannot stabilize on its own and automatically takes 1 point of bleed damage on its turn each round. An incorporeal undead or living spirit traveling outside the body (such as a person using @Compendium[lf1.spells.lnahlmp5mih2ongh]{astral projection} or @Compendium[lf1.spells.8ai7fslz4zu8xe9s]{magic jar}) within the aura at the start of its turn takes 1d8 points of damage.</p>"
  }
}
