{
  "_id": "iHZBsGfMXQj74Wud",
  "name": "Debilitating Speech",
  "type": "spell",
  "img": "icons/skills/social/intimidation-impressing.webp",
  "system": {
    "actions": [
      {
        "_id": "tfrzzfnlgin52afh",
        "name": "Use",
        "img": "icons/skills/social/intimidation-impressing.webp",
        "activation": {
          "type": "standard"
        },
        "duration": {
          "value": "1 round/level"
        },
        "target": {
          "value": "1 or more living creatures/level, no two of which may be more than 30 feet apart"
        },
        "range": {
          "units": "close"
        },
        "uses": {
          "autoDeductChargesCost": "1 + @sl"
        },
        "actionType": "spellsave",
        "save": {
          "type": "will",
          "description": "Will negates"
        }
      }
    ],
    "uses": {
      "autoDeductChargesCost": ""
    },
    "learnedAt": {
      "class": {
        "arcanist": 4,
        "sorcerer": 4,
        "wizard": 4
      }
    },
    "level": 4,
    "school": "enc",
    "types": "language-dependent, mind-affecting",
    "components": {
      "verbal": true,
      "somatic": true
    },
    "spellbook": "",
    "shortDescription": "<p>By speaking eloquently on the subject of your opponents’ ineptitude in combat, past failures, personal hygiene, or other faults, you sap their will to fight.</p><p>This spell can be cast as a standard action or as a full-round action. If cast as a standard action, it takes effect in 1d4 rounds following the spell’s casting. If cast as a full-round action, it takes effect 1 round after its casting. Enemies with 4 Hit Dice or fewer are @UUID[Compendium.lf1.lf1-rules.NSqfXaj4MevUR2uJ.JournalEntryPage.nGTsTfpWcJTTU3rk]{panicked}, enemies with 5–8 Hit Dice are @UUID[Compendium.lf1.lf1-rules.NSqfXaj4MevUR2uJ.JournalEntryPage.eNW5geiJqrnAjjNu]{cowering}, and enemies with more than 8 Hit Dice are @UUID[Compendium.lf1.lf1-rules.NSqfXaj4MevUR2uJ.JournalEntryPage.XxLUswkCuXnXmA5T]{shaken}.</p>"
  }
}
