{
  "_id": "gquzbutzeh5ezxap",
  "name": "Debilitating Pain",
  "type": "spell",
  "img": "systems/lf1/icons/misc/magic-swirl.png",
  "system": {
    "actions": [
      {
        "_id": "avzbjpc1uxupsjda",
        "name": "Use",
        "img": "systems/lf1/icons/misc/magic-swirl.png",
        "activation": {
          "type": "standard",
          "unchained": {
            "cost": 2,
            "type": "action"
          }
        },
        "duration": {
          "value": "1 round/3 levels"
        },
        "target": {
          "value": "one creature"
        },
        "range": {
          "units": "close"
        },
        "actionType": "spellsave",
        "save": {
          "type": "will",
          "description": "Will partial (see text)"
        }
      }
    ],
    "learnedAt": {
      "class": {
        "witch": 3,
        "psychic": 3
      }
    },
    "level": 3,
    "school": "enc",
    "subschool": "compulsion",
    "types": "mind-affecting, pain",
    "components": {
      "verbal": true,
      "somatic": true
    },
    "shortDescription": "<p>The target is overcome with intense pain, causing it to be stunned on a failed save or dazed for 1 round on a successful save.</p>"
  }
}
