{
  "_id": "ALOcJC0msKPAs0pq",
  "name": "Defensive Grace",
  "type": "spell",
  "img": "icons/magic/defensive/barrier-shield-dome-deflect-blue.webp",
  "system": {
    "actions": [
      {
        "_id": "9oc4cw505idwq74a",
        "name": "Use",
        "img": "icons/magic/defensive/barrier-shield-dome-deflect-blue.webp",
        "activation": {
          "type": "standard"
        },
        "duration": {
          "value": "1 round/level (D; see below)"
        },
        "target": {
          "value": "you"
        },
        "range": {
          "units": "personal"
        },
        "uses": {
          "autoDeductChargesCost": "1 + @sl"
        },
        "actionType": ""
      }
    ],
    "learnedAt": {
      "class": {
        "investigator": 5
      }
    },
    "level": 5,
    "school": "trs",
    "components": {
      "verbal": true,
      "somatic": true,
      "material": true
    },
    "materials": {
      "value": "a living fly"
    },
    "spellbook": "",
    "sr": false,
    "shortDescription": "<p>Each round you can roll an inspiration die without expending a use of inspiration and gain the result as a dodge bonus to AC for that round. You are immune to precision damage (including the extra damage from the precise strike deed, sneak attack, studied combat, and studied strike).</p>\n<p> If a critical hit is confirmed against you, you can dismiss this spell as an immediate action to negate the critical and make the attack instead deal normal damage.</p>"
  }
}
