{
  "_id": "viq93vkjaungdbul",
  "name": "Detect Scrying",
  "type": "spell",
  "img": "systems/lf1/icons/misc/magic-swirl.png",
  "system": {
    "actions": [
      {
        "_id": "kazlmhuj3yl18xrn",
        "name": "Use",
        "img": "systems/lf1/icons/misc/magic-swirl.png",
        "activation": {
          "type": "standard",
          "unchained": {
            "cost": 2,
            "type": "action"
          }
        },
        "duration": {
          "value": "24 hours"
        },
        "range": {
          "value": "40",
          "units": "ft"
        },
        "actionType": "",
        "spellArea": "40-ft.-radius emanation centered on you",
        "measureTemplate": {
          "type": "circle",
          "size": "40"
        }
      }
    ],
    "learnedAt": {
      "class": {
        "sorcerer": 4,
        "wizard": 4,
        "bard": 4,
        "witch": 4,
        "inquisitor": 4,
        "shaman": 4,
        "psychic": 4,
        "medium": 3,
        "mesmerist": 4,
        "occultist": 4,
        "spiritualist": 4
      },
      "subDomain": {
        "Solitude": 4
      },
      "bloodline": {
        "Rakshasa": 4
      }
    },
    "level": 4,
    "school": "div",
    "components": {
      "verbal": true,
      "somatic": true,
      "material": true
    },
    "materials": {
      "value": "a piece of mirror and a miniature brass hearing trumpet"
    },
    "sr": false,
    "shortDescription": "<p>You immediately become aware of any attempt to observe you by means of a divination (scrying) spell or effect. The spell's area radiates from you and moves as you move. You know the location of every magical sensor within the spell's area.</p><p>If the scrying attempt originates within the area, you also know its location; otherwise, you and the scrier immediately make opposed caster level checks (1d20 + caster level). If you at least match the scrier's result, you get a visual image of the scrier and an accurate sense of his direction and distance from you.</p>"
  }
}
