{
  "_id": "jo67xdocgdmk5hhh",
  "name": "Detect Law",
  "type": "spell",
  "img": "systems/lf1/icons/misc/magic-swirl.png",
  "system": {
    "actions": [
      {
        "_id": "6077tlsscn70rluw",
        "name": "Use",
        "img": "systems/lf1/icons/misc/magic-swirl.png",
        "activation": {
          "type": "standard",
          "unchained": {
            "cost": 2,
            "type": "action"
          }
        },
        "duration": {
          "value": "concentration, up to 10 min./level"
        },
        "range": {
          "value": "60",
          "units": "ft"
        },
        "actionType": "",
        "spellArea": "cone-shaped emanation",
        "measureTemplate": {
          "type": "cone",
          "size": "60"
        }
      }
    ],
    "uses": {
      "autoDeductChargesCost": ""
    },
    "learnedAt": {
      "class": {
        "cleric": 1,
        "oracle": 1,
        "inquisitor": 1,
        "adept": 1,
        "shaman": 1,
        "spiritualist": 1
      }
    },
    "school": "div",
    "components": {
      "verbal": true,
      "somatic": true,
      "divineFocus": 1
    },
    "spellbook": "",
    "sr": false,
    "shortDescription": "<p>This spell functions like <i>detect evil</i>, except that it detects the auras of lawful creatures, clerics of lawful deities, lawful spells, and lawful magic items, and you are vulnerable to an overwhelming lawful aura if you are chaotic.</p>"
  }
}
