{
  "_id": "jnk5sfl5thmgdb3a",
  "name": "Diminish Resistance",
  "type": "spell",
  "img": "systems/lf1/icons/misc/magic-swirl.png",
  "system": {
    "actions": [
      {
        "_id": "z517zh33jw7bn5mp",
        "name": "Use",
        "img": "systems/lf1/icons/misc/magic-swirl.png",
        "activation": {
          "type": "standard",
          "unchained": {
            "cost": 2,
            "type": "action"
          }
        },
        "duration": {
          "value": "1 round/level (D)"
        },
        "target": {
          "value": "one creature"
        },
        "range": {
          "units": "medium"
        },
        "actionType": "spellsave",
        "save": {
          "type": "fort",
          "description": "Fortitude negates"
        }
      }
    ],
    "learnedAt": {
      "class": {
        "sorcerer": 2,
        "wizard": 2,
        "cleric": 2,
        "oracle": 2,
        "bard": 2,
        "witch": 2,
        "inquisitor": 2,
        "magus": 2,
        "psychic": 2,
        "mesmerist": 2
      }
    },
    "level": 2,
    "school": "trs",
    "components": {
      "verbal": true,
      "somatic": true,
      "material": true,
      "divineFocus": 2
    },
    "materials": {
      "value": "a pinch of coarse sand"
    },
    "shortDescription": "<p>You weaken a creature's resistance against one energy type you select: acid, cold, electricity, fire, or sonic. The creature's resistance to that energy type decreases by 5 (minimum 0), plus an additional 5 for every 5 caster levels beyond 3rd (to a maximum of 20 at 18th level).</p>"
  }
}
