{
  "_id": "7wt5a8gn5wbfplyl",
  "name": "Disrupt Silence",
  "type": "spell",
  "img": "systems/lf1/icons/misc/magic-swirl.png",
  "system": {
    "actions": [
      {
        "_id": "z57zm5f91axxm7nh",
        "name": "Use",
        "img": "systems/lf1/icons/misc/magic-swirl.png",
        "activation": {
          "type": "standard",
          "unchained": {
            "cost": 2,
            "type": "action"
          }
        },
        "duration": {
          "value": "1 round/level (D)"
        },
        "range": {
          "units": "touch"
        },
        "actionType": "spellsave",
        "save": {
          "type": "will",
          "description": "Will negates"
        },
        "spellArea": "10-ft.-radius emanation centered on a creature, object, or point in space",
        "measureTemplate": {
          "type": "circle",
          "size": "10"
        }
      }
    ],
    "uses": {
      "autoDeductChargesCost": ""
    },
    "learnedAt": {
      "class": {
        "cleric": 3,
        "oracle": 3,
        "bard": 2,
        "inquisitor": 3,
        "psychic": 3
      }
    },
    "level": 3,
    "school": "abj",
    "components": {
      "somatic": true,
      "material": true
    },
    "materials": {
      "value": "tiny silver bell, chime, or gong"
    },
    "spellbook": "",
    "shortDescription": "<p>You suppress magical sound-dampening effects within the area. <i>Disrupt <i>silence</i></i> temporarily negates magical <i>silence</i> within its area, so that normal sounds can be heard within the overlapping areas of effect. Additionally, <i>disrupt <i>silence</i></i> can automatically counter or dispel any magical <i>silence</i> effect of equal or lower level cast upon the same target, such as <i>silence</i>. If you cast <i>disrupt <i>silence</i></i> on the target of a higher-level <i>silence</i> effect, it functions as <i>dispel magic</i> instead of its normal function.</p>"
  }
}
