{
  "_id": "exe45ci6j1nh9j3l",
  "name": "Distracting Cacophony",
  "type": "spell",
  "img": "systems/lf1/icons/misc/magic-swirl.png",
  "system": {
    "actions": [
      {
        "_id": "20rj4k7u2od43b91",
        "name": "Use",
        "img": "systems/lf1/icons/misc/magic-swirl.png",
        "activation": {
          "type": "standard",
          "unchained": {
            "cost": 2,
            "type": "action"
          }
        },
        "duration": {
          "value": "1 round/level (D)"
        },
        "range": {
          "units": "medium"
        },
        "actionType": "",
        "spellArea": "20-ft. spread",
        "measureTemplate": {
          "type": "circle",
          "size": "20"
        }
      }
    ],
    "learnedAt": {
      "class": {
        "sorcerer": 3,
        "wizard": 3,
        "bard": 2,
        "psychic": 3
      }
    },
    "level": 3,
    "school": "evo",
    "types": "sonic",
    "components": {
      "verbal": true,
      "somatic": true
    },
    "shortDescription": "<p>The air fills with loud and discordant noise, making concentration difficult. Casting a spell in this area of cacophony requires a concentration check (DC 15 + the level of the spell being cast). Any other concentration checks in the area have their DCs increased by 5. The DC of Perception checks involving hearing is likewise increased by 5.</p>"
  }
}
