{
  "_id": "h5ysr008zwoz16gu",
  "name": "Dongun Shaper's Touch",
  "type": "spell",
  "img": "systems/lf1/icons/misc/magic-swirl.png",
  "system": {
    "actions": [
      {
        "_id": "1chb9mseb8tkya06",
        "name": "Use",
        "img": "systems/lf1/icons/misc/magic-swirl.png",
        "activation": {
          "type": "standard",
          "unchained": {
            "cost": 2,
            "type": "action"
          }
        },
        "duration": {
          "value": "concentration, up to 1 round/level"
        },
        "target": {
          "value": "object touched"
        },
        "range": {
          "units": "touch"
        },
        "actionType": ""
      }
    ],
    "learnedAt": {
      "class": {
        "sorcerer": 3,
        "wizard": 3,
        "alchemist": 2,
        "occultist": 3
      }
    },
    "level": 3,
    "school": "trs",
    "components": {
      "verbal": true,
      "somatic": true
    },
    "sr": false,
    "shortDescription": "<p>You create an alchemical residue on your hands that allows you to reshape any nonmagical, unattended object with  hardness 19 or less as though it were clay. Objects with hardness 9 or less are like soft clay, allowing you to reshape up to 1 cubic foot per round of effort. Objects with hardness 10 or higher are harder to mold, allowing you to reshape up to 1/4 cubic foot per round. The object retains its new shape for 24 hours before returning to its original shape. This spell does not allow you to reshape a portion of a large object, such as a wall; you must be able to reshape the entire target within the spell's duration or the spell fizzles and has no effect.</p>"
  }
}
