{
  "_id": "ilp0pudgby1drbtp",
  "name": "Dream Reality",
  "type": "spell",
  "img": "systems/lf1/icons/misc/magic-swirl.png",
  "system": {
    "actions": [
      {
        "_id": "vyk3uqw3ouc0ozdw",
        "name": "Use",
        "img": "systems/lf1/icons/misc/magic-swirl.png",
        "activation": {
          "type": "standard",
          "unchained": {
            "cost": 2,
            "type": "action"
          }
        },
        "duration": {
          "value": "1 minute/level (D)"
        },
        "target": {
          "value": "one creature"
        },
        "range": {
          "units": "close"
        },
        "actionType": "spellsave",
        "save": {
          "type": "will",
          "description": "Will disbelief"
        }
      }
    ],
    "learnedAt": {
      "class": {
        "sorcerer": 6,
        "wizard": 6,
        "cleric": 6,
        "oracle": 6,
        "bard": 5,
        "alchemist": 5,
        "psychic": 6,
        "mesmerist": 5,
        "occultist": 5
      }
    },
    "level": 6,
    "school": "ill",
    "subschool": "compulsion",
    "types": "mind-affecting",
    "components": {
      "verbal": true
    },
    "shortDescription": "<p>You cause the target to perceive the world as if in a dream. When the spell ends, the target forgets all identifying details of events that transpired while the spell lasted. The memories were not taken from it; rather, its mind never recorded the memories as real in the first place. If <i>modify memory</i> is cast upon it before the spell ends, the target remembers these events. A target under the effect of <i>lullaby</i> before this spell is cast applies its penalty to the saving throw against this spell.</p>"
  }
}
