{
  "_id": "47ekxyrhvrxbsoia",
  "name": "Egorian Diplomacy",
  "type": "spell",
  "img": "systems/lf1/icons/misc/magic-swirl.png",
  "system": {
    "actions": [
      {
        "_id": "xsnfbnmcp2ihsuwr",
        "name": "Use",
        "img": "systems/lf1/icons/misc/magic-swirl.png",
        "activation": {
          "type": "standard",
          "unchained": {
            "cost": 2,
            "type": "action"
          }
        },
        "duration": {
          "value": "instantaneous; see text"
        },
        "target": {
          "value": "one creature"
        },
        "range": {
          "units": "close"
        },
        "actionType": "spellsave",
        "save": {
          "type": "will",
          "description": "Will negates"
        }
      }
    ],
    "learnedAt": {
      "class": {
        "cleric": 1,
        "oracle": 1,
        "bard": 1,
        "inquisitor": 1,
        "magus": 1,
        "psychic": 1,
        "mesmerist": 1
      }
    },
    "school": "enc",
    "subschool": "compulsion",
    "types": "mind-affecting",
    "components": {
      "verbal": true,
      "somatic": true,
      "material": true
    },
    "materials": {
      "value": "a bent coin"
    },
    "shortDescription": "<p>As part of casting this spell, you can attempt a single Intimidate skill check to make a target act friendly toward you. If you succeed, the target assists you normally, but <i>Egorian diplomacy</i> clouds the memory of any threats or pressure you applied. The target remembers assisting you, but can't remember why, and its attitude toward you doesn't worsen as a result of being intimidated.  Whether a creature fails or succeeds at its saving throw, it becomes immune to further castings of <i>Egorian diplomacy</i> for 24 hours.</p>"
  }
}
