{
  "_id": "ba8ur1roqmqxn0j5",
  "name": "Elemental Speech",
  "type": "spell",
  "img": "systems/lf1/icons/misc/magic-swirl.png",
  "system": {
    "actions": [
      {
        "_id": "a2v0yrv5w49kus8z",
        "name": "Use",
        "img": "systems/lf1/icons/misc/magic-swirl.png",
        "activation": {
          "type": "standard",
          "unchained": {
            "cost": 2,
            "type": "action"
          }
        },
        "duration": {
          "value": "1 minute/level"
        },
        "target": {
          "value": "you"
        },
        "range": {
          "units": "personal"
        },
        "actionType": ""
      }
    ],
    "learnedAt": {
      "class": {
        "sorcerer": 2,
        "wizard": 2,
        "cleric": 3,
        "oracle": 3,
        "druid": 2,
        "bard": 3,
        "mesmerist": 3,
        "hunter": 2
      }
    },
    "level": 2,
    "school": "div",
    "types": "air, earth, fire, or water",
    "components": {
      "verbal": true,
      "somatic": true,
      "material": true
    },
    "materials": {
      "value": "iron filings"
    },
    "sr": false,
    "shortDescription": "<p>This spell enables you to converse with creatures associated with a chosen element, including but not limited to true elemental creatures. This spell gains the elemental subtype based on the version of the spell you cast. <i>Elemental speech</i> does not guarantee a friendly reaction; it merely enables communication. You may converse with all creatures of the selected type with an Intelligence score of 1 or greater, even if they do not understand one another.</p><p>When cast as an air spell, you can converse in Auran and with any creature that has the air subtype or a fly speed.</p><p>When cast as an earth spell, you can converse in Terran and with any creature that has the earth subtype or a burrow speed.</p><p>When cast as a fire spell, you can converse in Ignan and with any creature that has the fire subtype.</p><p>When cast as a water spell, you can converse in Aquan and with any creature that has the water subtype or a swim speed.</p>"
  }
}
