{
  "_id": "wmcrke29frt5k3di",
  "name": "Enemy's Heart",
  "type": "spell",
  "img": "systems/lf1/icons/misc/magic-swirl.png",
  "system": {
    "actions": [
      {
        "_id": "b6kby9gfe6lz2tjh",
        "name": "Use",
        "img": "systems/lf1/icons/misc/magic-swirl.png",
        "activation": {
          "type": "full",
          "unchained": {
            "cost": 3,
            "type": "action"
          }
        },
        "duration": {
          "value": "concentration/1 minute per HD of the subject; see text"
        },
        "target": {
          "value": "living creature touched"
        },
        "range": {
          "units": "touch"
        },
        "actionType": ""
      }
    ],
    "learnedAt": {
      "class": {
        "cleric": 2,
        "oracle": 2,
        "witch": 2,
        "antipaladin": 2
      },
      "subDomain": {
        "Cannibalism": 2
      }
    },
    "level": 2,
    "school": "nec",
    "types": "death, evil",
    "components": {
      "verbal": true,
      "somatic": true,
      "material": true
    },
    "materials": {
      "value": "target creature's heart"
    },
    "shortDescription": "<p>You cut out an enemy's heart and consume it, absorbing that enemy's power as your own. As part of casting this spell, you perform a coup de grace with a slashing weapon on a helpless, living adjacent target. If the target dies, you eat its heart to gain the spell's benefits. If the target survives, the spell is not wasted and you can try again as long as you continue concentrating on the spell. When you consume the heart, you gain the benefits of a <i>death knell</i> spell, except you gain 1d8 temporary hit points +1 per Hit Die of the target, and the bonus to Strength is a profane bonus.</p>"
  }
}
