{
  "_id": "khfprkujokr9uigq",
  "name": "Energy Drain",
  "type": "spell",
  "img": "systems/lf1/icons/misc/magic-swirl.png",
  "system": {
    "actions": [
      {
        "_id": "c3y1st9brss18uwd",
        "name": "Use",
        "img": "systems/lf1/icons/misc/magic-swirl.png",
        "activation": {
          "type": "standard",
          "unchained": {
            "cost": 2,
            "type": "action"
          }
        },
        "duration": {
          "value": "instantaneous"
        },
        "range": {
          "units": "close"
        },
        "actionType": "spellsave",
        "save": {
          "type": "fort",
          "description": "Fortitude partial; see text for enervation"
        },
        "spellEffect": "ray of negative energy"
      }
    ],
    "learnedAt": {
      "class": {
        "sorcerer": 9,
        "wizard": 9,
        "cleric": 9,
        "oracle": 9,
        "shaman": 9
      },
      "subDomain": {
        "Loss": 9,
        "Undead": 9
      },
      "bloodline": {
        "Accursed": 9,
        "Undead": 9
      }
    },
    "level": 9,
    "school": "nec",
    "components": {
      "verbal": true,
      "somatic": true
    },
    "shortDescription": "<p>This spell functions like <i>enervation</i>, except that the creature struck gains 2d4 temporary negative levels. Twenty-four hours after gaining them, the subject must make a Fortitude saving throw (DC = <i>energy drain</i> spell's save DC) for each negative level. If the save succeeds, that negative level is removed. If it fails, that negative level becomes permanent.</p><p>An undead creature struck by the ray gains 2d4x5 temporary hit points for 1 hour.</p>"
  }
}
