{
  "_id": "banonti7druh3cxn",
  "name": "Enhance Water",
  "type": "spell",
  "img": "systems/lf1/icons/misc/magic-swirl.png",
  "system": {
    "actions": [
      {
        "_id": "zj4d12d7u7kbqr6k",
        "name": "Use",
        "img": "systems/lf1/icons/misc/magic-swirl.png",
        "activation": {
          "type": "round",
          "unchained": {
            "cost": 3,
            "type": "action"
          }
        },
        "duration": {
          "value": "instantaneous"
        },
        "target": {
          "value": "1 pint of water/level"
        },
        "range": {
          "units": "touch"
        },
        "actionType": "spellsave",
        "save": {
          "type": "fort",
          "description": "Fortitude negates (harmless, object)"
        }
      }
    ],
    "learnedAt": {
      "class": {
        "cleric": 1,
        "oracle": 1,
        "bard": 1,
        "paladin": 1
      }
    },
    "school": "trs",
    "components": {
      "verbal": true,
      "somatic": true
    },
    "shortDescription": "<p>This spell transforms water into an alcoholic beverage, typically ale, beer, mead, or wine. The alcohol is of middling quality but perfectly drinkable. The spell also serves to remove poisons, diseases, minerals, and other toxins from the water as it transforms. The more contaminants that exist in the water, the darker the ale or the more full-bodied the wine becomes. The beverage's alcohol content is not affected by the presence or absence of contaminants.</p><p>This spell does not work on unholy water, potions, or other liquids with magical power.</p>"
  }
}
