{
  "_id": "mvgg3g6zs5iutjj9",
  "name": "Envious Urge",
  "type": "spell",
  "img": "systems/lf1/icons/misc/magic-swirl.png",
  "system": {
    "actions": [
      {
        "_id": "bubkjwrq6bgbz0jv",
        "name": "Use",
        "img": "systems/lf1/icons/misc/magic-swirl.png",
        "activation": {
          "type": "standard",
          "unchained": {
            "cost": 2,
            "type": "action"
          }
        },
        "duration": {
          "value": "1 round/level"
        },
        "target": {
          "value": "one creature/level, no two of which can be more than 30 ft. apart"
        },
        "range": {
          "units": "medium"
        },
        "measureTemplate": {
          "type": "circle",
          "size": "15"
        },
        "actionType": "spellsave",
        "save": {
          "type": "will",
          "description": "Will negates"
        }
      }
    ],
    "learnedAt": {
      "class": {
        "sorcerer": 6,
        "wizard": 6,
        "bard": 4,
        "psychic": 6,
        "mesmerist": 4
      }
    },
    "level": 6,
    "school": "enc",
    "subschool": "compulsion",
    "types": "emotion, mind-affecting",
    "components": {
      "verbal": true,
      "somatic": true
    },
    "shortDescription": "<p>You fill creatures with feelings of seething envy. Affected targets turn upon the nearest creature (whether an ally or enemy) and attempt to disarm it of a valuable weapon, steal something it is holding, or grapple it and strip it of something it prizes (your choice). Affected targets can attempt a new Will save each round as a free action to end this effect.</p>"
  }
}
