{
  "_id": "k14bhox27hf8abwy",
  "name": "Erode Defenses",
  "type": "spell",
  "img": "systems/lf1/icons/misc/magic-swirl.png",
  "system": {
    "actions": [
      {
        "_id": "jl5vykxj2litsqnl",
        "name": "Use",
        "img": "systems/lf1/icons/misc/magic-swirl.png",
        "activation": {
          "type": "standard",
          "unchained": {
            "cost": 2,
            "type": "action"
          }
        },
        "duration": {
          "value": "1 round/level"
        },
        "target": {
          "value": "one creature"
        },
        "range": {
          "units": "close"
        },
        "actionType": "spellsave",
        "save": {
          "type": "fort",
          "description": "Fortitude negates (see below)"
        }
      }
    ],
    "learnedAt": {
      "class": {
        "sorcerer": 3,
        "wizard": 3,
        "witch": 3,
        "magus": 2
      }
    },
    "level": 3,
    "school": "trs",
    "components": {
      "verbal": true,
      "somatic": true
    },
    "shortDescription": "<p>Your spell slowly begins to eat away at the defenses of your target. If the target fails its saving throw, it loses 1 point from any damage reduction and natural armor bonus it may have. If the initial save was not successful, the target may attempt a new saving throw each round for the duration of the spell or continue to suffer cumulative losses. If the first save fails but a subsequent save succeeds, the eroding effects stop at that point, though any of the penalties already accrued remain until the spell expires. At the end of the spell's duration, the target's damage reduction and natural armor bonus immediately return to normal.  Only one <i>erode defenses</i> spell can affect a particular target at any one time.</p>"
  }
}
