{
  "_id": "78imi9hy7dpy7y3c",
  "name": "Evolution Surge, Greater",
  "type": "spell",
  "img": "systems/lf1/icons/misc/magic-swirl.png",
  "system": {
    "actions": [
      {
        "_id": "f51mz71hugj01h33",
        "name": "Use",
        "img": "systems/lf1/icons/misc/magic-swirl.png",
        "activation": {
          "type": "standard",
          "unchained": {
            "cost": 2,
            "type": "action"
          }
        },
        "duration": {
          "value": "1 minute/level"
        },
        "target": {
          "value": "your eidolon"
        },
        "range": {
          "units": "touch"
        },
        "actionType": "spellsave",
        "save": {
          "type": "will",
          "description": "Will negates (harmless)"
        }
      }
    ],
    "learnedAt": {
      "class": {
        "summoner": 4,
        "summonerUnchained": 4
      }
    },
    "level": 4,
    "school": "trs",
    "components": {
      "verbal": true,
      "somatic": true,
      "material": true
    },
    "materials": {
      "value": "a chameleon scale"
    },
    "spellbook": "",
    "sr": false,
    "shortDescription": "<p>This spell functions as @Compendium[lf1.spells.c5ipv2mivkdb03sb]{lesser evolution surge}, except that you can grant any two evolutions whose total cost does not exceed 6 evolution points.</p>"
  }
}
