{
  "_id": "61pYmOmQJ2nMk2vL",
  "name": "Fair is Foul",
  "type": "spell",
  "img": "icons/magic/acid/dissolve-arm-flesh.webp",
  "system": {
    "actions": [
      {
        "_id": "ucues44pc5tpithr",
        "name": "Use",
        "img": "icons/magic/acid/dissolve-arm-flesh.webp",
        "activation": {
          "type": "standard"
        },
        "duration": {
          "value": "permanent (D)"
        },
        "target": {
          "value": "creature touched"
        },
        "range": {
          "units": "touch"
        },
        "uses": {
          "autoDeductChargesCost": "1 + @sl"
        },
        "actionType": "spellsave",
        "save": {
          "type": "fort",
          "description": "Fortitude negates"
        }
      }
    ],
    "learnedAt": {
      "class": {
        "antipaladin": 2,
        "arcanist": 4,
        "cleric": 3,
        "oracle": 3,
        "shaman": 3,
        "sorcerer": 4,
        "wizard": 4,
        "spiritualist": 3,
        "warpriest": 3,
        "witch": 3
      }
    },
    "level": 4,
    "school": "abj",
    "types": "curse",
    "components": {
      "verbal": true,
      "somatic": true,
      "material": true
    },
    "materials": {
      "value": "a newt eye"
    },
    "spellbook": "",
    "shortDescription": "<p>You curse the target with a disfiguring or painful mutation. The target gains one random deformity from the @Compendium[lf1.roll-tables.Vm8ccE6qchTx2Trn]{Arcane Malignancies} table. The curse bestowed by this spell cannot be dispelled but can be removed with a @Compendium[lf1.spells.myg2b9ww43nnlbr2]{Break Enchantment}, @Compendium[lf1.spells.s2p7a4biy7bl4ks2]{Limited Wish}, @Compendium[lf1.spells.suel7sgnztenv551]{Miracle}, @Compendium[lf1.spells.o87h8gjxevcbztgd]{Remove Curse}, or @Compendium[lf1.spells.nnj51dwfkwd15ngj]{Wish} spell.</p>"
  }
}
