{
  "_id": "swkw2yoee6d9ldcd",
  "name": "False Belief",
  "type": "spell",
  "img": "systems/lf1/icons/misc/magic-swirl.png",
  "system": {
    "actions": [
      {
        "_id": "rohy674t1297vgpz",
        "name": "Use",
        "img": "systems/lf1/icons/misc/magic-swirl.png",
        "activation": {
          "cost": 10,
          "type": "minute",
          "unchained": {
            "cost": 10,
            "type": "minute"
          }
        },
        "duration": {
          "value": "1 hour/level"
        },
        "target": {
          "value": "willing creature touched"
        },
        "range": {
          "units": "touch"
        },
        "actionType": ""
      }
    ],
    "learnedAt": {
      "class": {
        "bard": 2,
        "psychic": 2,
        "mesmerist": 2
      }
    },
    "level": 2,
    "school": "enc",
    "subschool": "compulsion",
    "types": "mind-affecting",
    "components": {
      "verbal": true,
      "somatic": true,
      "material": true
    },
    "materials": {
      "value": "lemon juice and a scrap of parchment"
    },
    "shortDescription": "<p>You temporarily alter the target's memory (similar to <i>modify</i> memory) to eliminate, change, or implant a memory of up to 1 hour in length. When the duration of this expires, the target's real memory returns, and the false memory fades to little more than a vague outline, like a dream. This false memory seems true to the target, so effects that detect lies or force the target to speak the truth (as the subject understands it) don't detect the falsehood.</p>"
  }
}
