{
  "_id": "be88e90guqbi1q1z",
  "name": "Fear",
  "type": "spell",
  "img": "systems/lf1/icons/misc/magic-swirl.png",
  "system": {
    "actions": [
      {
        "_id": "ig2u4ucczk8wfg5b",
        "name": "Use",
        "img": "systems/lf1/icons/misc/magic-swirl.png",
        "activation": {
          "type": "standard",
          "unchained": {
            "cost": 2,
            "type": "action"
          }
        },
        "duration": {
          "value": "1 round/level or 1 round; see text"
        },
        "range": {
          "value": "30",
          "units": "ft"
        },
        "actionType": "spellsave",
        "save": {
          "type": "will",
          "description": "Will partial"
        },
        "spellArea": "cone-shaped burst",
        "measureTemplate": {
          "type": "cone",
          "size": "30"
        }
      }
    ],
    "learnedAt": {
      "class": {
        "sorcerer": 4,
        "wizard": 4,
        "bard": 3,
        "witch": 4,
        "inquisitor": 4,
        "antipaladin": 4,
        "bloodrager": 4,
        "shaman": 4,
        "psychic": 4,
        "medium": 4,
        "mesmerist": 3,
        "occultist": 4,
        "spiritualist": 4
      },
      "subDomain": {
        "Fear": 4
      },
      "bloodline": {
        "Draconic": 4,
        "Ghoul": 4
      }
    },
    "level": 4,
    "school": "nec",
    "types": "fear, mind-affecting, emotion",
    "components": {
      "verbal": true,
      "somatic": true,
      "material": true
    },
    "materials": {
      "value": "the heart of a hen or a white feather"
    },
    "shortDescription": "<p>An invisible cone of terror causes each living creature in the area to become panicked unless it succeeds on a Will save. If cornered, a panicked creature begins cowering. If the Will save succeeds, the creature is shaken for 1 round.</p>"
  }
}
