{
  "_id": "23pgt0f34obki95q",
  "name": "Feast of Ashes",
  "type": "spell",
  "img": "systems/lf1/icons/misc/magic-swirl.png",
  "system": {
    "actions": [
      {
        "_id": "9l73ag9ik21hn0ti",
        "name": "Use",
        "img": "systems/lf1/icons/misc/magic-swirl.png",
        "activation": {
          "type": "standard",
          "unchained": {
            "cost": 2,
            "type": "action"
          }
        },
        "duration": {
          "value": "2 days/level (D)"
        },
        "target": {
          "value": "one creature"
        },
        "range": {
          "units": "close"
        },
        "actionType": "spellsave",
        "save": {
          "type": "fort",
          "description": "Fortitude negates"
        }
      }
    ],
    "learnedAt": {
      "class": {
        "druid": 2,
        "witch": 2,
        "psychic": 2,
        "occultist": 2,
        "hunter": 2
      },
      "bloodline": {
        "Ghoul": 2
      }
    },
    "level": 2,
    "school": "trs",
    "components": {
      "verbal": true,
      "somatic": true,
      "material": true
    },
    "materials": {
      "value": "a pinch of ash"
    },
    "shortDescription": "<p>You curse the target with a hunger no food can assuage. On a failed saving throw, the target begins to starve (see page 444 of the <i>Core</i> Rulebook). The effects of this spell cannot inflict more nonlethal damage than the target has hit points. No amount of eating can counter the effect and, further, even attempting to eat causes the target to become nauseated for 1 round unless they make a DC 12 Fortitude save. The target still experiences the other normal effects of anything consumed (such as poisons or potions).</p><p><i>Feast of Ashes</i> can be removed with a <i>break enchantment</i>, <i>limited <i>wish</i></i>, <i>miracle</i>, <i>remove curse</i>, or <i>wish</i> spell, but effects suffered as a result of starvation must be healed by normal means.</p>"
  }
}
