{
  "_id": "w24m5lf68tmllnrp",
  "name": "Find Traps",
  "type": "spell",
  "img": "systems/lf1/icons/misc/magic-swirl.png",
  "system": {
    "actions": [
      {
        "_id": "yflt72axqqkj0vt3",
        "name": "Use",
        "img": "systems/lf1/icons/misc/magic-swirl.png",
        "activation": {
          "type": "standard",
          "unchained": {
            "cost": 2,
            "type": "action"
          }
        },
        "duration": {
          "value": "1 min./level"
        },
        "target": {
          "value": "you"
        },
        "range": {
          "units": "personal"
        },
        "actionType": ""
      }
    ],
    "learnedAt": {
      "class": {
        "cleric": 2,
        "oracle": 2,
        "witch": 2,
        "inquisitor": 2,
        "psychic": 2,
        "medium": 2,
        "occultist": 2
      }
    },
    "level": 2,
    "school": "div",
    "components": {
      "verbal": true,
      "somatic": true
    },
    "sr": false,
    "shortDescription": "<p>You gain intuitive insight into the workings of traps. You gain an insight bonus equal to 1/2 your caster level (maximum +10) on Perception checks made to <i>find traps</i> while the spell is in effect. You receive a check to notice traps within 10 feet of you, even if you are not actively searching for them. Note that <i>find traps</i> grants no ability to disable the traps that you may find.</p>"
  }
}
