{
  "_id": "7toeli7vcq5a7tv1",
  "name": "Finger of Death",
  "type": "spell",
  "img": "systems/lf1/icons/misc/magic-swirl.png",
  "system": {
    "actions": [
      {
        "_id": "9aqorbzsatuk98m4",
        "name": "Use",
        "img": "systems/lf1/icons/misc/magic-swirl.png",
        "activation": {
          "type": "standard",
          "unchained": {
            "cost": 2,
            "type": "action"
          }
        },
        "duration": {
          "value": "instantaneous"
        },
        "target": {
          "value": "one creature"
        },
        "range": {
          "units": "close"
        },
        "actionType": "spellsave",
        "save": {
          "type": "fort",
          "description": "Fortitude partial"
        }
      }
    ],
    "learnedAt": {
      "class": {
        "sorcerer": 7,
        "wizard": 7,
        "druid": 8,
        "psychic": 7
      },
      "bloodline": {
        "Undead": 7
      }
    },
    "level": 7,
    "school": "nec",
    "types": "death",
    "components": {
      "verbal": true,
      "somatic": true
    },
    "shortDescription": "<p>This spell instantly delivers 10 points of damage per caster level. If the target's Fortitude saving throw succeeds, it instead takes 3d6 points of damage + 1 point per caster level. The subject might die from damage even if it succeeds on its saving throw.</p>"
  }
}
