{
  "_id": "d3a93wcwatqhywqy",
  "name": "Fire Snake",
  "type": "spell",
  "img": "systems/lf1/icons/spells/shielding-fire-2.jpg",
  "system": {
    "actions": [
      {
        "_id": "5kbqucow7c39kavt",
        "name": "Use",
        "img": "systems/lf1/icons/spells/shielding-fire-2.jpg",
        "activation": {
          "type": "standard",
          "unchained": {
            "cost": 2,
            "type": "action"
          }
        },
        "duration": {
          "value": "instantaneous"
        },
        "range": {
          "value": "60",
          "units": "ft",
          "maxIncrements": "1"
        },
        "actionType": "spellsave",
        "damage": {
          "parts": [
            {
              "formula": "(min(15, @cl))d6",
              "type": {
                "values": ["fire"],
                "custom": ""
              }
            }
          ]
        },
        "save": {
          "type": "ref",
          "description": "Reflex half"
        },
        "spellArea": "see text"
      }
    ],
    "learnedAt": {
      "class": {
        "sorcerer": 5,
        "wizard": 5,
        "druid": 5,
        "magus": 5,
        "occultist": 5,
        "hunter": 5
      }
    },
    "level": 5,
    "school": "evo",
    "types": "fire",
    "components": {
      "verbal": true,
      "somatic": true,
      "material": true
    },
    "materials": {
      "value": "a snake scale"
    },
    "shortDescription": "<p>You create a sinuous line of flames that you may shape as desired. The <i>fire snake</i> affects one 5-foot square per caster level, and each square must be adjacent to the previous square, starting with you. The <i>fire snake</i> may not extend beyond its maximum range. Creatures in the path of the <i>fire snake</i> take 1d6 points of fire damage per caster level (maximum 15d6).</p>"
  }
}
