{
  "_id": "yF0wlmP7n6QHPKe7",
  "name": "Flame Steed",
  "type": "spell",
  "img": "icons/magic/fire/elemental-creature-horse.webp",
  "system": {
    "actions": [
      {
        "_id": "vstuz3mmfigp498v",
        "name": "Use",
        "img": "icons/magic/fire/elemental-creature-horse.webp",
        "activation": {
          "cost": 10,
          "type": "minute"
        },
        "duration": {
          "value": "1 hour/level (D)"
        },
        "range": {
          "value": "0",
          "units": "ft"
        },
        "uses": {
          "autoDeductChargesCost": "1 + @sl"
        },
        "actionType": "spellsave",
        "save": {
          "description": "none, see text"
        },
        "spellEffect": "one quasi-real creature suitable for a mount"
      }
    ],
    "learnedAt": {
      "class": {
        "bloodrager": 3,
        "cleric": 4,
        "oracle": 4,
        "druid": 4,
        "hunter": 4,
        "paladin": 4,
        "shaman": 4,
        "warpriest": 4,
        "witch": 4
      }
    },
    "level": 4,
    "school": "con",
    "subschool": "creation",
    "components": {
      "verbal": true,
      "somatic": true
    },
    "spellbook": "",
    "sr": false,
    "shortDescription": "<p>You conjure a Large, quasi-real creature made of flame. It functions like @Compendium[lf1.spells.zpwd0f19q1lm04p3]{Phantom Steed}, except as follows.</p>\n<p>The flame steed is immune to fire and has acid, cold, and electricity resistance 10. If it or its rider is attacked, it automatically exhales a 15-foot cone of smoke and ash on your turn as a free action. Anyone in the cone must succeed at a Fortitude save (DC equal to the spell DC) or become sickened for 1d6 rounds after leaving the area. This smoke acts as @Compendium[lf1.spells.tuh5vc2bojaws3ig]{Obscuring Mist} for the purpose of concealment. The smoke persists for 1 round.</p>"
  }
}
