{
  "_id": "dqj6m4atpnp7dd9k",
  "name": "Flame Blade",
  "type": "spell",
  "img": "systems/lf1/icons/misc/magic-swirl.png",
  "system": {
    "actions": [
      {
        "_id": "c2f60q0o7ubcxiz3",
        "name": "Use",
        "img": "systems/lf1/icons/misc/magic-swirl.png",
        "activation": {
          "type": "standard",
          "unchained": {
            "cost": 2,
            "type": "action"
          }
        },
        "duration": {
          "value": "1 min./level (D)"
        },
        "range": {
          "value": "0",
          "units": "ft"
        },
        "actionType": "other",
        "spellEffect": "sword-like beam"
      }
    ],
    "learnedAt": {
      "class": {
        "druid": 2,
        "shaman": 2,
        "hunter": 2
      }
    },
    "level": 2,
    "school": "evo",
    "types": "fire",
    "components": {
      "verbal": true,
      "somatic": true,
      "divineFocus": 1
    },
    "shortDescription": "<p>A 3-foot-long, blazing beam of red-hot fire springs forth from your hand. You wield this blade-like beam as if it were a scimitar. Attacks with the <i>flame blade</i> are melee touch attacks.</p><p>The blade deals 1d8 points of fire damage + 1 point per two caster levels (maximum +10). Since the blade is immaterial, your Strength modifier does not apply to the damage. A <i>flame blade</i> can ignite combustible materials such as parchment, straw, dry sticks, and cloth.</p>"
  }
}
