{
  "_id": "eg67vvykmv9c6j7h",
  "name": "Flare",
  "type": "spell",
  "img": "systems/lf1/icons/misc/magic-swirl.png",
  "system": {
    "actions": [
      {
        "_id": "0vecyskxe8y0agil",
        "name": "Use",
        "img": "systems/lf1/icons/misc/magic-swirl.png",
        "activation": {
          "type": "standard",
          "unchained": {
            "cost": 2,
            "type": "action"
          }
        },
        "duration": {
          "value": "instantaneous"
        },
        "range": {
          "units": "close"
        },
        "actionType": "spellsave",
        "save": {
          "type": "fort",
          "description": "Fortitude negates"
        },
        "spellEffect": "burst of light"
      }
    ],
    "uses": {
      "autoDeductChargesCost": "0"
    },
    "learnedAt": {
      "class": {
        "sorcerer": 0,
        "wizard": 0,
        "druid": 0,
        "bard": 0,
        "magus": 0,
        "psychic": 0,
        "medium": 0,
        "mesmerist": 0,
        "occultist": 0,
        "hunter": 0
      }
    },
    "level": 0,
    "school": "evo",
    "types": "light",
    "components": {
      "verbal": true
    },
    "shortDescription": "<p>This cantrip creates a burst of light. If you cause the light to burst in front of a single creature, that creature is dazzled for 1 minute unless it makes a successful Fortitude save. Sightless creatures, as well as creatures already dazzled, are not affected by flare.</p>"
  }
}
