{
  "_id": "xskplzbnmivk1nnl",
  "name": "Follow Aura",
  "type": "spell",
  "img": "systems/lf1/icons/misc/magic-swirl.png",
  "system": {
    "actions": [
      {
        "_id": "1nqaa5lf4bu58ynz",
        "name": "Use",
        "img": "systems/lf1/icons/misc/magic-swirl.png",
        "activation": {
          "type": "standard",
          "unchained": {
            "cost": 2,
            "type": "action"
          }
        },
        "duration": {
          "value": "10 minutes/level (D)"
        },
        "target": {
          "value": "you"
        },
        "range": {
          "units": "personal"
        },
        "actionType": ""
      }
    ],
    "learnedAt": {
      "class": {
        "inquisitor": 2,
        "occultist": 3
      }
    },
    "level": 2,
    "school": "div",
    "types": "chaotic, evil, good, or lawful",
    "components": {
      "verbal": true,
      "somatic": true,
      "divineFocus": 1
    },
    "sr": false,
    "shortDescription": "<p>Choose one alignment type: chaotic, evil, good, or lawful. You gain the ability to follow the trail of a strong or overwhelming aura of that alignment (see <i>detect evil</i>, <i>Core Rulebook</i> 266). This is treated as tracking using the scent special quality, except you are following the traces of their aura upon the ground rather than their scent, and you receive no bonus on Perception checks. At 10th level, you can track the trail of creatures with a moderate alignment aura as well.</p><p>When you use this spell to track a given alignment, it gains the descriptor of the opposite alignment. For example, when <i>follow aura</i> is used to track evil, it gains the good descriptor.</p>"
  }
}
