{
  "_id": "elsmcz3jzrj1h1ev",
  "name": "Fool's Forbiddance",
  "type": "spell",
  "img": "systems/lf1/icons/misc/magic-swirl.png",
  "system": {
    "actions": [
      {
        "_id": "ueenl3zylnabr50p",
        "name": "Use",
        "img": "systems/lf1/icons/misc/magic-swirl.png",
        "activation": {
          "type": "standard",
          "unchained": {
            "cost": 2,
            "type": "action"
          }
        },
        "duration": {
          "value": "concentration"
        },
        "range": {
          "value": "10",
          "units": "ft"
        },
        "actionType": "spellsave",
        "save": {
          "type": "will",
          "description": "Will partial"
        },
        "spellArea": "10-ft.-radius spherical emanation centered on you",
        "measureTemplate": {
          "type": "circle",
          "size": "10"
        }
      }
    ],
    "learnedAt": {
      "class": {
        "bard": 6,
        "psychic": 8
      }
    },
    "level": 6,
    "school": "abj",
    "types": "mind-affecting",
    "components": {
      "verbal": true,
      "somatic": true,
      "material": true
    },
    "materials": {
      "value": "a ring of keys"
    },
    "shortDescription": "<p>Through your antics and performance, you create an area of warding that adversely affects all enemies that dare enter it. When an enemy creature enters the area it must make an immediate Will saving throw. If it fails, the creature is confused as long as it is in the area and for 1 round after it leaves. If it succeeds on the saving throw, the creature is staggered as long as it is in the area and for 1 round after it leaves.</p>"
  }
}
