{
  "_id": "ue0h9b1fl21m8lzy",
  "name": "Frost Fall",
  "type": "spell",
  "img": "systems/lf1/icons/misc/magic-swirl.png",
  "system": {
    "actions": [
      {
        "_id": "3ij8owzu8ldybalr",
        "name": "Use",
        "img": "systems/lf1/icons/misc/magic-swirl.png",
        "activation": {
          "type": "standard",
          "unchained": {
            "cost": 2,
            "type": "action"
          }
        },
        "duration": {
          "value": "1 round/2 levels"
        },
        "range": {
          "units": "close"
        },
        "actionType": "spellsave",
        "save": {
          "type": "fort",
          "description": "Fortitude partial"
        },
        "spellArea": "5-foot radius burst",
        "measureTemplate": {
          "type": "circle",
          "size": "5"
        }
      }
    ],
    "learnedAt": {
      "class": {
        "sorcerer": 2,
        "wizard": 2,
        "druid": 2,
        "witch": 2,
        "occultist": 2,
        "hunter": 2
      }
    },
    "level": 2,
    "school": "evo",
    "types": "cold",
    "components": {
      "verbal": true,
      "somatic": true
    },
    "shortDescription": "<p>The area of this spell is covered in chilling frost, dealing 2d6 points of cold damage to all creatures within it. Creatures that the spell initially damages must succeed at a Fortitude save or become staggered for 1 round. The area remains chilled for the spell's duration. Any creature that starts your turn within the spell's area takes 1d6 points of cold damage (Fortitude saving throw for half) but does not become staggered even on a failed saving throw.</p>"
  }
}
