{
  "_id": "26d575hwkhmftrbw",
  "name": "Fungal Infestation",
  "type": "spell",
  "img": "systems/lf1/icons/misc/magic-swirl.png",
  "system": {
    "actions": [
      {
        "_id": "7cd2w0h5mzsh8ym6",
        "name": "Use",
        "img": "systems/lf1/icons/misc/magic-swirl.png",
        "activation": {
          "type": "standard",
          "unchained": {
            "cost": 2,
            "type": "action"
          }
        },
        "duration": {
          "value": "1d3 days"
        },
        "target": {
          "value": "creature touched"
        },
        "range": {
          "units": "touch"
        },
        "actionType": "spellsave",
        "save": {
          "type": "fort",
          "description": "Fortitude negates"
        }
      }
    ],
    "learnedAt": {
      "class": {
        "druid": 3,
        "hunter": 3
      }
    },
    "level": 3,
    "school": "nec",
    "types": "disease",
    "components": {
      "verbal": true,
      "somatic": true
    },
    "shortDescription": "<p>You coat the target in necrotic fungus that makes its flesh soft and fragile. Toadstools, ringworm, and other disgusting fungal growths sprout from its skin. The target takes 1d3 points of Charisma damage. Any physical attack against the target automatically adds 1d6 points of bleed damage.</p>"
  }
}
