{
  "_id": "tyhxeck30qtsp35q",
  "name": "Ghostbane Dirge",
  "type": "spell",
  "img": "systems/lf1/icons/misc/magic-swirl.png",
  "system": {
    "actions": [
      {
        "_id": "3w7poheozqzwwsne",
        "name": "Use",
        "img": "systems/lf1/icons/misc/magic-swirl.png",
        "activation": {
          "type": "standard",
          "unchained": {
            "cost": 2,
            "type": "action"
          }
        },
        "duration": {
          "value": "1 round/level"
        },
        "target": {
          "value": "one incorporeal creature"
        },
        "range": {
          "units": "close"
        },
        "actionType": "spellsave",
        "save": {
          "type": "will",
          "description": "Will negates"
        }
      }
    ],
    "learnedAt": {
      "class": {
        "cleric": 2,
        "oracle": 2,
        "bard": 2,
        "paladin": 1,
        "inquisitor": 2,
        "shaman": 2,
        "occultist": 2
      }
    },
    "level": 2,
    "school": "trs",
    "components": {
      "verbal": true,
      "somatic": true,
      "material": true,
      "divineFocus": 2
    },
    "materials": {
      "value": "an old reed from a wind instrument"
    },
    "shortDescription": "<p>The target coalesces into a semi-physical form for a short period of time. While subject to the spell, the incorporeal creature takes half damage (50%) from nonmagical attack forms, and full damage from magic weapons, spells, spell-like effects, and supernatural effects.</p>"
  }
}
