{
  "_id": "9vld5joaodkatmj3",
  "name": "Gird Ally",
  "type": "spell",
  "img": "systems/lf1/icons/misc/magic-swirl.png",
  "system": {
    "actions": [
      {
        "_id": "qgdtqlm3y1s70pzc",
        "name": "Use",
        "img": "systems/lf1/icons/misc/magic-swirl.png",
        "activation": {
          "type": "standard",
          "unchained": {
            "cost": 2,
            "type": "action"
          }
        },
        "duration": {
          "value": "1 round/level (D)"
        },
        "target": {
          "value": "one summoned creature you control/level, no two of which can be more than 30 ft. apart"
        },
        "range": {
          "units": "close"
        },
        "actionType": ""
      }
    ],
    "learnedAt": {
      "class": {
        "sorcerer": 2,
        "wizard": 2,
        "cleric": 2,
        "oracle": 2,
        "druid": 2,
        "summoner": 2,
        "witch": 2,
        "hunter": 2,
        "summonerUnchained": 2
      }
    },
    "level": 2,
    "school": "abj",
    "components": {
      "verbal": true,
      "somatic": true
    },
    "sr": false,
    "shortDescription": "<p>You create a magical field around summoned creatures you control that deflects attacks made against them. The targets gain a deflection bonus to their AC equal to 1 + 1 for every 6 caster levels you possess (maximum +4 deflection bonus at 18th level). A summoner can target his eidolon with this spell.</p>"
  }
}
