{
  "_id": "9ee6iippv1m5sagv",
  "name": "Globe of Tranquil Water",
  "type": "spell",
  "img": "systems/lf1/icons/misc/magic-swirl.png",
  "system": {
    "actions": [
      {
        "_id": "a3jikx51ijdk2pez",
        "name": "Use",
        "img": "systems/lf1/icons/misc/magic-swirl.png",
        "activation": {
          "type": "standard",
          "unchained": {
            "cost": 2,
            "type": "action"
          }
        },
        "duration": {
          "value": "1 minute/level (D)"
        },
        "range": {
          "value": "20",
          "units": "ft"
        },
        "actionType": "",
        "spellArea": "20-ft.-radius emanation, centered on you",
        "measureTemplate": {
          "type": "circle",
          "size": "20"
        }
      }
    ],
    "learnedAt": {
      "class": {
        "sorcerer": 5,
        "wizard": 5,
        "cleric": 4,
        "oracle": 4,
        "druid": 4,
        "witch": 4,
        "shaman": 4,
        "hunter": 4
      }
    },
    "level": 5,
    "school": "abj",
    "components": {
      "verbal": true,
      "somatic": true,
      "material": true,
      "divineFocus": 2
    },
    "materials": {
      "value": "a glass globe"
    },
    "sr": false,
    "shortDescription": "<p>Upon casting this spell, a rippling bubble of calm water extends outward from you to a radius of 20 feet and remains centered on you when you move. The bubble blocks all natural and magical precipitation such as rain, snow, and hail (including spells such as <i>ice</i> storm). This bubble also pushes out any fog or mist within the area, though it does not affect temperature and can't block natural or magical lightning.  All water in this radius counts as calm water for the purposes of Swim checks, and the bubble prevents sprays and blasts of mundane and magic water from striking with enough force to deal damage, move creatures or halt their movement, or perform any action that requires an attack roll or combat maneuver check.  Water elementals are affected by a <i>Globe of Tranquil Water</i> the same way creatures of the plant type are affected by an <i>antiplant shell</i>.</p>"
  }
}
