{
  "_id": "yvloisj9jz3sdf9b",
  "name": "Grace",
  "type": "spell",
  "img": "systems/lf1/icons/misc/magic-swirl.png",
  "system": {
    "actions": [
      {
        "_id": "mv9lysue6h8j00sb",
        "name": "Use",
        "img": "systems/lf1/icons/misc/magic-swirl.png",
        "activation": {
          "type": "swift",
          "unchained": {
            "type": "action"
          }
        },
        "duration": {
          "value": "see text"
        },
        "target": {
          "value": "you"
        },
        "range": {
          "units": "personal"
        },
        "actionType": ""
      }
    ],
    "learnedAt": {
      "class": {
        "cleric": 2,
        "oracle": 2,
        "paladin": 1
      }
    },
    "level": 2,
    "school": "abj",
    "components": {
      "verbal": true
    },
    "sr": false,
    "shortDescription": "<p>Until the end of your turn, your movement does not provoke attacks of opportunity.</p>"
  }
}
