{
  "_id": "lviqtqs3y2ebkinr",
  "name": "Greensight",
  "type": "spell",
  "img": "systems/lf1/icons/misc/magic-swirl.png",
  "system": {
    "actions": [
      {
        "_id": "2ztzkvjqjoymq38a",
        "name": "Use",
        "img": "systems/lf1/icons/misc/magic-swirl.png",
        "activation": {
          "type": "standard",
          "unchained": {
            "cost": 2,
            "type": "action"
          }
        },
        "duration": {
          "value": "10 minutes/level"
        },
        "target": {
          "value": "creature touched"
        },
        "range": {
          "units": "touch"
        },
        "actionType": "spellsave",
        "save": {
          "type": "will",
          "description": "Will negates (harmless)"
        }
      }
    ],
    "learnedAt": {
      "class": {
        "sorcerer": 2,
        "wizard": 2,
        "druid": 2,
        "ranger": 2,
        "shaman": 2,
        "hunter": 2
      }
    },
    "level": 2,
    "school": "trs",
    "components": {
      "verbal": true,
      "somatic": true,
      "material": true
    },
    "materials": {
      "value": "a leaf"
    },
    "sr": false,
    "shortDescription": "<p>The target of this spell gains the ability to see up to 60 feet through thick plant matter as though it were transparent. Greenery, leaves, and vines-even lichen, moss, and slime-offer no concealment to the recipient's sight, though her vision still can be blocked by solid wood, such as trees or wooden structures. Undergrowth does not grant concealment to a creature against a target of the effects of <i>greensight</i>.</p>"
  }
}
