{
  "_id": "mqx3hkg8nzkk4d3u",
  "name": "Gullibility",
  "type": "spell",
  "img": "systems/lf1/icons/misc/magic-swirl.png",
  "system": {
    "actions": [
      {
        "_id": "btrwi5jzndhwnce9",
        "name": "Use",
        "img": "systems/lf1/icons/misc/magic-swirl.png",
        "activation": {
          "type": "standard",
          "unchained": {
            "cost": 2,
            "type": "action"
          }
        },
        "duration": {
          "value": "10 minutes/level (D)"
        },
        "target": {
          "value": "one creature"
        },
        "range": {
          "units": "close"
        },
        "actionType": "spellsave",
        "save": {
          "type": "will",
          "description": "Will negates"
        }
      }
    ],
    "learnedAt": {
      "class": {
        "sorcerer": 3,
        "wizard": 3,
        "bard": 3,
        "witch": 3,
        "inquisitor": 3,
        "antipaladin": 3,
        "psychic": 3,
        "mesmerist": 3
      }
    },
    "level": 3,
    "school": "enc",
    "subschool": "charm",
    "types": "mind-affecting",
    "components": {
      "verbal": true,
      "somatic": true
    },
    "shortDescription": "<p>You befuddle the target's mind, making it more willing to believe even the most outlandish tales. The target takes a -10 penalty on Sense Motive checks for the spell's duration. In addition, creatures that attempt to lie to or deceive the target gain a +10 bonus on their Bluff checks, as if the target wanted to believe them and was drunk or impaired simultaneously. Furthermore, the believability of any lie told to a creature under the effects of <i>gullibility</i> increases by one step; an impossible lie seems far-fetched, a far-fetched lie seems unlikely, and an unlikely lie seems believable.  A creature gains no benefits from <i>glibness</i> on B luff checks to lie to or deceive a creature that is under the effects of <i>gullibility</i>; in effect, <i>gullibility</i> r enders a t arget s o w illing t o believe what others say that <i>glibness</i> cannot make their words any more believable.</p>"
  }
}
