{
  "_id": "4spxwz9fa4yy6lee",
  "name": "Haunting Reminder",
  "type": "spell",
  "img": "systems/lf1/icons/misc/magic-swirl.png",
  "system": {
    "actions": [
      {
        "_id": "tenf09qj6ck02v3i",
        "name": "Use",
        "img": "systems/lf1/icons/misc/magic-swirl.png",
        "activation": {
          "type": "standard",
          "unchained": {
            "cost": 2,
            "type": "action"
          }
        },
        "duration": {
          "value": "12 hours + 2 hours/level or until triggered, then 1 day/level"
        },
        "target": {
          "value": "one creature"
        },
        "range": {
          "units": "close"
        },
        "actionType": "spellsave",
        "save": {
          "type": "will",
          "description": "Will negates"
        }
      }
    ],
    "learnedAt": {
      "class": {
        "sorcerer": 2,
        "wizard": 2,
        "bard": 2,
        "inquisitor": 2,
        "antipaladin": 1,
        "psychic": 2,
        "mesmerist": 2
      }
    },
    "level": 2,
    "school": "enc",
    "types": "fear, mind-affecting",
    "components": {
      "verbal": true,
      "somatic": true
    },
    "shortDescription": "<p>As part of casting this spell, you can attempt a single Intimidate check to make the target act friendly to you. If you succeed, the target assists you normally, but it remains fearful of your retribution even after its attitude shifts to unfriendly. If the creature reports your coercion to authorities, attacks you, or otherwise acts in a purposeful way that threatens you or your objectives (at the GM's discretion), the spell triggers, inflicting the creature with the unshakable certainty that you will find and punish it. This imposes the shaken condition on the creature for 1 day per caster level; during this time, the creature takes a -2 penalty on saving throws against spells you cast with the fear descriptor.</p>"
  }
}
