{
  "_id": "181gol7xz8quxfks",
  "name": "Haze of Dreams",
  "type": "spell",
  "img": "systems/lf1/icons/misc/magic-swirl.png",
  "system": {
    "actions": [
      {
        "_id": "fv0hvahjrn7f0suy",
        "name": "Use",
        "img": "systems/lf1/icons/misc/magic-swirl.png",
        "activation": {
          "type": "standard",
          "unchained": {
            "cost": 2,
            "type": "action"
          }
        },
        "duration": {
          "value": "1 round/level"
        },
        "target": {
          "value": "one creature"
        },
        "range": {
          "units": "close"
        },
        "actionType": "spellsave",
        "save": {
          "type": "will",
          "description": "Will negates"
        }
      }
    ],
    "learnedAt": {
      "class": {
        "cleric": 1,
        "oracle": 1,
        "bard": 1,
        "paladin": 1,
        "witch": 1,
        "inquisitor": 1
      }
    },
    "school": "enc",
    "subschool": "charm",
    "types": "emotion, mind-affecting",
    "components": {
      "verbal": true,
      "material": true
    },
    "materials": {
      "value": "pinch of sand"
    },
    "shortDescription": "<p>You fill an enemy's head with waking dreams, a reminder of the pleasures, delights, and terrors to be found in the dream world. While in this strange dream state, the target moves at half its normal speed (round down to the next 5-foot increment), which affects the creature's jumping distance as normal for decreased speed.</p><p>Multiple <i>Haze of Dreams</i> effects do not stack, nor does this spell's effect stack with <i>slow</i>.</p>"
  }
}
