{
  "_id": "z0duc2v2n3ioynta",
  "name": "Heroism, Greater",
  "type": "spell",
  "img": "systems/lf1/icons/misc/magic-swirl.png",
  "system": {
    "actions": [
      {
        "_id": "7sczi7u0wbiinij9",
        "name": "Use",
        "img": "systems/lf1/icons/misc/magic-swirl.png",
        "activation": {
          "type": "standard",
          "unchained": {
            "cost": 2,
            "type": "action"
          }
        },
        "duration": {
          "value": "1 min./level"
        },
        "target": {
          "value": "creature touched"
        },
        "range": {
          "units": "touch"
        },
        "actionType": "spellsave",
        "save": {
          "type": "will",
          "description": "Will negates (harmless)"
        }
      }
    ],
    "learnedAt": {
      "class": {
        "sorcerer": 6,
        "wizard": 6,
        "bard": 5,
        "summoner": 5,
        "witch": 6,
        "psychic": 6,
        "spiritualist": 6,
        "summonerUnchained": 6
      },
      "subDomain": {
        "Heroism": 6,
        "Competition": 6
      },
      "bloodline": {
        "Martyred": 6
      }
    },
    "level": 6,
    "school": "enc",
    "subschool": "compulsion",
    "types": "mind-affecting",
    "components": {
      "verbal": true,
      "somatic": true
    },
    "spellbook": "",
    "shortDescription": "<p>This spell functions like @Compendium[lf1.spells.vqfrp8t0c1lw1jna]{Heroism}<em>,</em> except the creature gains a +4 morale bonus on attack rolls, saves, and skill checks, immunity to fear effects, and temporary hit points equal to your caster level (maximum 20).</p>"
  }
}
