{
  "_id": "b8h35mj2mzvhbqux",
  "name": "Heroic Fortune",
  "type": "spell",
  "img": "systems/lf1/icons/misc/magic-swirl.png",
  "system": {
    "actions": [
      {
        "_id": "xa6mi2gonlgi6hjs",
        "name": "Use",
        "img": "systems/lf1/icons/misc/magic-swirl.png",
        "activation": {
          "type": "standard",
          "unchained": {
            "cost": 2,
            "type": "action"
          }
        },
        "duration": {
          "value": "1 round/level"
        },
        "target": {
          "value": "creature touched"
        },
        "range": {
          "units": "touch"
        },
        "actionType": "spellsave",
        "save": {
          "type": "will",
          "description": "Will negates (harmless)"
        }
      }
    ],
    "learnedAt": {
      "class": {
        "cleric": 2,
        "oracle": 2,
        "bard": 2,
        "paladin": 3,
        "alchemist": 2
      }
    },
    "level": 2,
    "school": "evo",
    "components": {
      "verbal": true,
      "somatic": true,
      "material": true,
      "divineFocus": 1
    },
    "materials": {
      "value": "diamond dust worth 100 gp",
      "gpValue": 100
    },
    "spellbook": "",
    "preparation": {
      "spontaneousPrepared": false
    },
    "sr": false,
    "shortDescription": "<p>This spell grants 1 hero point to the target. This hero point must be spent before the duration expires, or it is lost. The bonus hero point is spent before any other hero points the target might possess.</p>"
  }
}
