{
  "_id": "yuftnxwtc9du93ho",
  "name": "Hex Glyph",
  "type": "spell",
  "img": "systems/lf1/icons/misc/magic-swirl.png",
  "system": {
    "actions": [
      {
        "_id": "iklatiu77un9tl7c",
        "name": "Object touched",
        "img": "systems/lf1/icons/misc/magic-swirl.png",
        "activation": {
          "cost": 10,
          "type": "minute",
          "unchained": {
            "cost": 10,
            "type": "minute"
          }
        },
        "duration": {
          "value": "permanent until discharged (D)"
        },
        "target": {
          "value": "object touched or up to 5 sq. ft./level"
        },
        "range": {
          "units": "touch"
        },
        "actionType": "spellsave",
        "save": {
          "description": "see text",
          "type": "ref"
        },
        "spellArea": "object touched or up to 5 sq. ft./level"
      },
      {
        "_id": "tvXpSLRJwAUP5m8O",
        "name": "Square",
        "img": "systems/lf1/icons/misc/magic-swirl.png",
        "activation": {
          "cost": 10,
          "type": "minute",
          "unchained": {
            "cost": 10,
            "type": "minute"
          }
        },
        "duration": {
          "value": "permanent until discharged (D)"
        },
        "target": {
          "value": "object touched or up to 5 sq. ft./level"
        },
        "range": {
          "units": "touch"
        },
        "measureTemplate": {
          "type": "rect",
          "size": "5 * @cl"
        },
        "actionType": "spellsave",
        "save": {
          "type": "ref",
          "description": "see text"
        },
        "spellArea": "object touched or up to 5 sq. ft./level"
      }
    ],
    "uses": {
      "autoDeductChargesCost": ""
    },
    "learnedAt": {
      "class": {
        "witch": 3,
        "shaman": 3
      }
    },
    "level": 3,
    "school": "abj",
    "components": {
      "verbal": true,
      "somatic": true,
      "material": true
    },
    "materials": {
      "value": "powdered diamond worth 200 gp",
      "gpValue": 200
    },
    "spellbook": "",
    "preparation": {
      "spontaneousPrepared": false
    },
    "sr": false,
    "shortDescription": "<p>This spell functions like the spell glyph version of <i>Glyph of Warding</i>, except you can store a hex you know (but not a major hex or a grand hex) instead of a spell. If the hex has a target, it targets the intruder. If the hex has an area or an amorphous effect, the area or effect is centered on the intruder. The triggered hex uses this spell's caster level and DC.</p><p><i>Read magic</i> allows its caster to identify a <i>hex glyph</i> with a successful DC 13 Knowledge (arcana) check. Identifying the glyph does not discharge it and indicates that it stores a hex, but does not indicate the effect of that hex.</p>"
  }
}
