{
  "_id": "4fm4md4eux7sw6o0",
  "name": "Hex Glyph, Greater",
  "type": "spell",
  "img": "systems/lf1/icons/misc/magic-swirl.png",
  "system": {
    "actions": [
      {
        "_id": "ox1b4y3hidr4cdh8",
        "name": "Object touched",
        "img": "systems/lf1/icons/misc/magic-swirl.png",
        "activation": {
          "cost": 10,
          "type": "minute",
          "unchained": {
            "cost": 10,
            "type": "minute"
          }
        },
        "duration": {
          "value": "permanent until discharged (D)"
        },
        "target": {
          "value": "object touched or up to 5 sq. ft./level"
        },
        "range": {
          "units": "touch"
        },
        "actionType": "spellsave",
        "save": {
          "description": "see text",
          "type": "ref"
        },
        "spellArea": "object touched or up to 5 sq. ft./level"
      },
      {
        "_id": "DZjoYKmb47KDUjtq",
        "name": "Square",
        "img": "systems/lf1/icons/misc/magic-swirl.png",
        "activation": {
          "cost": 10,
          "type": "minute",
          "unchained": {
            "cost": 10,
            "type": "minute"
          }
        },
        "duration": {
          "value": "permanent until discharged (D)"
        },
        "target": {
          "value": "object touched or up to 5 sq. ft./level"
        },
        "range": {
          "units": "touch"
        },
        "measureTemplate": {
          "type": "rect",
          "size": "5 * @cl"
        },
        "actionType": "spellsave",
        "save": {
          "type": "ref",
          "description": "see text"
        },
        "spellArea": "object touched or up to 5 sq. ft./level"
      }
    ],
    "uses": {
      "autoDeductChargesCost": ""
    },
    "learnedAt": {
      "class": {
        "witch": 5,
        "shaman": 5
      }
    },
    "level": 5,
    "school": "abj",
    "components": {
      "verbal": true,
      "somatic": true,
      "material": true
    },
    "materials": {
      "value": "powdered diamond worth 400 gp",
      "gpValue": 400
    },
    "spellbook": "",
    "preparation": {
      "spontaneousPrepared": false
    },
    "sr": false,
    "shortDescription": "<p>This spell functions as @Compendium[lf1.spells.yuftnxwtc9du93ho]{Hex Glyph}, except you can store a hex or a major hex (but not a grand hex). You trace the glyph with incense, which must first be sprinkled with powdered diamond (as noted in the material line).</p>\n<p>@Compendium[lf1.spells.j0bc0iii8zp1jiwr]{Read Magic} allows its caster to identify a greater <em>hex glyph</em> with a DC 16 @UUID[Compendium.lf1.lf1-rules.x175kVqUfLGPt8tC.JournalEntryPage.VRD7jxiIAxKPt6EF]{Spellcraft} check.</p>"
  }
}
