{
  "_id": "spni4gy84sp8ftkv",
  "name": "Hide Campsite",
  "type": "spell",
  "img": "systems/lf1/icons/misc/magic-swirl.png",
  "system": {
    "actions": [
      {
        "_id": "c4uvwy4buadkdv42",
        "name": "Use",
        "img": "systems/lf1/icons/misc/magic-swirl.png",
        "activation": {
          "cost": 10,
          "type": "minute",
          "unchained": {
            "cost": 10,
            "type": "minute"
          }
        },
        "duration": {
          "value": "2 hours/level (D)"
        },
        "range": {
          "units": "close"
        },
        "actionType": "spellsave",
        "save": {
          "type": "will",
          "description": "Will disbelief (if interacted with)"
        },
        "spellArea": "one 20-ft. cube",
        "measureTemplate": {
          "type": "rect",
          "size": "20"
        }
      }
    ],
    "uses": {
      "autoDeductChargesCost": ""
    },
    "learnedAt": {
      "class": {
        "druid": 3,
        "ranger": 2,
        "hunter": 2
      }
    },
    "level": 3,
    "school": "ill",
    "subschool": "glamer",
    "components": {
      "verbal": true,
      "somatic": true,
      "material": true
    },
    "materials": {
      "value": "a sprig of mistletoe, and a vial of quicksilver"
    },
    "spellbook": "",
    "sr": false,
    "shortDescription": "<p>You make the area around a campsite appear to be a thicket of untouched and forbidding foliage, or some other unwelcoming feature matching the surrounding terrain. Creatures outside the area cannot sense any activity going on inside the area- they cannot smell campfires or cooking food, they cannot hear conversation, loud noises, or spells being cast, and they cannot even feel heat or a rush of wind coming from the area. Those inside the area can see out normally. Once a creature steps into the area of the spell, it can see everything in and around the area normally.</p>"
  }
}
