{
  "_id": "osi62mwn6rpkwlm6",
  "name": "Holy Sword",
  "type": "spell",
  "img": "systems/lf1/icons/misc/magic-swirl.png",
  "system": {
    "actions": [
      {
        "_id": "oehki8swe5xvpe6j",
        "name": "Use",
        "img": "systems/lf1/icons/misc/magic-swirl.png",
        "activation": {
          "type": "standard",
          "unchained": {
            "cost": 2,
            "type": "action"
          }
        },
        "duration": {
          "value": "1 round/level"
        },
        "target": {
          "value": "melee weapon touched"
        },
        "range": {
          "units": "touch"
        },
        "actionType": ""
      }
    ],
    "learnedAt": {
      "class": {
        "paladin": 4
      },
      "domain": {
        "Glory": 7
      }
    },
    "level": 4,
    "school": "evo",
    "types": "good",
    "components": {
      "verbal": true,
      "somatic": true
    },
    "sr": false,
    "shortDescription": "<p>This spell allows you to channel holy power into your sword, or any other melee weapon you choose. The weapon acts as a <i>+5 holy weapon</i> (+5 enhancement bonus on attack and damage rolls, extra 2d6 damage against evil opponents). It also emits a <i><i>magic circle</i> against evil</i> effect (as the spell). If the <i>magic circle</i> ends, the sword creates a new one on your turn as a free action. The spell is automatically canceled 1 round after the weapon leaves your hand.</p><p>You cannot have more than one <i>holy sword</i> at a time.</p><p>If this spell is cast on a magic weapon, the powers of the spell supercede any that the weapon normally has, rendering the normal enhancement bonus and powers of the weapon inoperative for the duration of the spell. This spell is not cumulative with <i>bless weapon</i> or any other spell that might modify the weapon in any way. This spell does not work on artifacts. A masterwork weapon's bonus to attack does not stack with an enhancement bonus to attack.</p>"
  }
}
