{
  "_id": "abdap816xisu362w",
  "name": "Honeyed Tongue",
  "type": "spell",
  "img": "systems/lf1/icons/misc/magic-swirl.png",
  "system": {
    "actions": [
      {
        "_id": "yl69i9tzcgdp1ip6",
        "name": "Use",
        "img": "systems/lf1/icons/misc/magic-swirl.png",
        "activation": {
          "type": "standard",
          "unchained": {
            "cost": 2,
            "type": "action"
          }
        },
        "duration": {
          "value": "10 minutes/level"
        },
        "target": {
          "value": "you"
        },
        "range": {
          "units": "personal"
        },
        "actionType": ""
      }
    ],
    "learnedAt": {
      "class": {
        "bard": 2,
        "paladin": 1,
        "inquisitor": 2,
        "mesmerist": 2
      }
    },
    "level": 2,
    "school": "trs",
    "components": {
      "verbal": true,
      "material": true,
      "divineFocus": 2
    },
    "materials": {
      "value": "a drop of honey"
    },
    "sr": false,
    "shortDescription": "<p>This spell augments your diplomacies. While under the effects of spell, you roll two dice each time you make a Diplomacy check to change a creature's attitude, taking the highest roll.</p><p>If this results in a roll low enough to reduce the creature's attitude by a step, that creature gets some clue that you are manipulating it with a spell. Alternatively you can cast this spell before making a Diplomacy check to gather information, gaining a +5 competence bonus on the check.</p>"
  }
}
