{
  "_id": "sn3mvplvwktbc9hl",
  "name": "Inflict Moderate Wounds, Mass",
  "type": "spell",
  "img": "systems/lf1/icons/misc/magic-swirl.png",
  "system": {
    "actions": [
      {
        "_id": "9hyeaj5w9njb2bhf",
        "name": "Use",
        "img": "systems/lf1/icons/misc/magic-swirl.png",
        "activation": {
          "type": "standard",
          "unchained": {
            "cost": 2,
            "type": "action"
          }
        },
        "duration": {
          "value": "instantaneous"
        },
        "target": {
          "value": "one creature/level, no two of which can be more than 30 ft. apart"
        },
        "range": {
          "units": "close"
        },
        "measureTemplate": {
          "type": "circle",
          "size": "15"
        },
        "actionType": "spellsave",
        "damage": {
          "parts": [
            {
              "formula": "2d8 + min(@cl, 30)",
              "type": {
                "values": ["negative"],
                "custom": ""
              }
            }
          ]
        },
        "save": {
          "type": "will",
          "description": "Will half"
        }
      }
    ],
    "learnedAt": {
      "class": {
        "cleric": 6,
        "oracle": 6,
        "witch": 7,
        "inquisitor": 6,
        "shaman": 6,
        "occultist": 6
      }
    },
    "level": 6,
    "school": "nec",
    "components": {
      "verbal": true,
      "somatic": true
    },
    "spellbook": "",
    "shortDescription": "<p>This spell functions like <i>mass inflict light wounds</i>, except that it deals 2d8 points of damage + 1 point per caster level (maximum +30).</p>"
  }
}
