{
  "_id": "vd4xn8jmxica85ez",
  "name": "Inflict Serious Wounds",
  "type": "spell",
  "img": "systems/lf1/icons/misc/magic-swirl.png",
  "system": {
    "actions": [
      {
        "_id": "vjwt4u9y7smmcdha",
        "name": "Use",
        "img": "systems/lf1/icons/misc/magic-swirl.png",
        "activation": {
          "type": "standard",
          "unchained": {
            "cost": 2,
            "type": "action"
          }
        },
        "duration": {
          "value": "instantaneous"
        },
        "target": {
          "value": "creature touched"
        },
        "range": {
          "units": "touch"
        },
        "actionType": "spellsave",
        "damage": {
          "parts": [
            {
              "formula": "3d8 + min(@cl, 15)",
              "type": {
                "values": ["negative"],
                "custom": ""
              }
            }
          ]
        },
        "save": {
          "type": "will",
          "description": "Will half"
        }
      }
    ],
    "learnedAt": {
      "class": {
        "cleric": 3,
        "oracle": 3,
        "witch": 4,
        "inquisitor": 3,
        "antipaladin": 4,
        "shaman": 3,
        "occultist": 3,
        "spiritualist": 3
      }
    },
    "level": 3,
    "school": "nec",
    "components": {
      "verbal": true,
      "somatic": true
    },
    "spellbook": "",
    "shortDescription": "<p>This spell functions like <i>inflict light wounds</i>, except that you deal 3d8 points of damage + 1 point per caster level (maximum +15).</p>"
  }
}
