{
  "_id": "tkmpjwwijmlyb06k",
  "name": "Inhibiting Patterns",
  "type": "spell",
  "img": "systems/lf1/icons/misc/magic-swirl.png",
  "system": {
    "actions": [
      {
        "_id": "0xul4usi0pa5a976",
        "name": "Use",
        "img": "systems/lf1/icons/misc/magic-swirl.png",
        "activation": {
          "type": "standard",
          "unchained": {
            "cost": 2,
            "type": "action"
          }
        },
        "duration": {
          "value": "concentration + 1 round/level (D)"
        },
        "range": {
          "units": "medium"
        },
        "actionType": "spellsave",
        "save": {
          "type": "will",
          "description": "Will negates"
        },
        "spellEffect": "one cylinder (10-ft. radius, 40-ft. high)/3 levels"
      }
    ],
    "learnedAt": {
      "class": {
        "sorcerer": 4,
        "wizard": 4,
        "bard": 3,
        "psychic": 4
      }
    },
    "level": 4,
    "school": "ill",
    "subschool": "pattern",
    "types": "mind-affecting",
    "components": {
      "verbal": true,
      "somatic": true,
      "material": true
    },
    "materials": {
      "value": "a sprinkle of ground glass"
    },
    "shortDescription": "<p>You create one or more vibrant pillars of kaleidoscopic color that rise out from the ground. A creature attempting to move through one of the pillars must attempt a Will save. Failure means the creature can't move through the pillar and can't take any other actions for the duration of its turn that round, but it can attempt to pass through the pillar again in subsequent rounds (attempting another save against the effect). A creature need only succeed at one saving throw to move through all pillars created by this spell.  A creature standing within the area of a pillar is dazzled (no save), while a creature making a ranged attack that passes through one or more of the illusory pillars takes a 50% miss chance. A creature can make a melee attack against a target within a pillar at no penalty.</p>"
  }
}
