{
  "_id": "krgcstszyvso1zuj",
  "name": "Intensify Psyche",
  "type": "spell",
  "img": "systems/lf1/icons/misc/magic-swirl.png",
  "system": {
    "actions": [
      {
        "_id": "56hnwp8b5mqox23k",
        "name": "Use",
        "img": "systems/lf1/icons/misc/magic-swirl.png",
        "activation": {
          "type": "standard",
          "unchained": {
            "cost": 2,
            "type": "action"
          }
        },
        "duration": {
          "value": "1 minute/level"
        },
        "range": {
          "units": "medium"
        },
        "actionType": "spellsave",
        "save": {
          "type": "will",
          "description": "Will negates"
        },
        "spellEffect": "one creature"
      }
    ],
    "learnedAt": {
      "class": {
        "sorcerer": 2,
        "wizard": 2,
        "cleric": 2,
        "oracle": 2,
        "bard": 1,
        "witch": 2,
        "psychic": 2,
        "medium": 2,
        "mesmerist": 1,
        "spiritualist": 2
      }
    },
    "level": 2,
    "school": "enc",
    "types": "emotion, mind-affecting",
    "components": {
      "verbal": true,
      "somatic": true
    },
    "shortDescription": "<p>A sense of euphoria suffuses the target, amplifying all sensations, good or bad. The target creature gains a +2 competence bonus on Diplomacy, Handle Animal, Perform, and Sense Motive checks. In addition, the DC for any spells or effects with the emotion or pain descriptors cast or caused by the target increases by 1 while the target is under the effects of the spell. However, increased sensitivity causes the target to take a -2 penalty on saving throws against spells and effects with the emotion or pain descriptor.</p>"
  }
}
