{
  "_id": "eb1hp9kwcz8r8btk",
  "name": "Invisibility Bubble, Mass",
  "type": "spell",
  "img": "systems/lf1/icons/misc/magic-swirl.png",
  "system": {
    "actions": [
      {
        "_id": "nq6m4p8r7a8x13gv",
        "name": "Use",
        "img": "systems/lf1/icons/misc/magic-swirl.png",
        "activation": {
          "type": "standard",
          "unchained": {
            "cost": 2,
            "type": "action"
          }
        },
        "duration": {
          "value": "1 minute/level (D)"
        },
        "target": {
          "value": "any number of creatures, no two of which can be more than 180 ft. apart"
        },
        "range": {
          "units": "long"
        },
        "actionType": "spellsave",
        "save": {
          "type": "will",
          "description": "Will negates (harmless)"
        },
        "spellArea": "10-ft.-radius emanation centered on the touched creature's space",
        "measureTemplate": {
          "type": "circle",
          "size": "90"
        }
      }
    ],
    "uses": {
      "autoDeductChargesCost": ""
    },
    "learnedAt": {
      "class": {
        "sorcerer": 7,
        "wizard": 7,
        "summoner": 6,
        "psychic": 7,
        "mesmerist": 6,
        "summonerUnchained": 6
      }
    },
    "level": 7,
    "school": "ill",
    "subschool": "glamer",
    "components": {
      "verbal": true,
      "somatic": true,
      "material": true
    },
    "materials": {
      "value": "a needle from a sea urchin"
    },
    "spellbook": "",
    "shortDescription": "<p>This functions as per <i>invisibility bubble</i>, but the spell affects the areas of each target creature, regardless of the creature's size. The effect moves with the group and is broken when anyone in the group attacks. Individuals in separate bubbles can't see each other. The spell is broken for any individual who moves more than 180 feet from the nearest member of the group. If only two individuals are affected, the one moving away from the other one loses its invisibility. If both are moving away from each other simultaneously, they both become visible when the distance between them exceeds 180 feet.</p>"
  }
}
