{
  "name": "Invigorating Repose",
  "type": "spell",
  "img": "systems/lf1/icons/misc/magic-swirl.png",
  "system": {
    "actions": [
      {
        "_id": "JQSz4IO6GPILXwzG",
        "name": "Use",
        "img": "systems/lf1/icons/misc/magic-swirl.png",
        "activation": {
          "type": "standard",
          "unchained": {
            "cost": 2,
            "type": "action"
          }
        },
        "duration": {
          "value": "1 hour or until discharged"
        },
        "target": {
          "value": "you"
        },
        "range": {
          "units": "personal"
        },
        "actionType": ""
      }
    ],
    "uses": {
      "autoDeductChargesCost": ""
    },
    "learnedAt": {
      "class": {
        "cleric": 5,
        "oracle": 5,
        "warpriest": 5
      }
    },
    "level": 5,
    "school": "con",
    "subschool": "healing",
    "components": {
      "verbal": true,
      "somatic": true,
      "divineFocus": 1
    },
    "spellbook": "",
    "sr": false,
    "shortDescription": "<p><em>Editor's Note:</em> In order to prepare this spell, the caster must spend an hour performing a ritual in which he beseeches <b>Magrim</b>. Further details can be found in <em>Pathfinder Companion: Dwarves of Golarion.</em></p><p>This spell enhances your spells that bring the dead back to life. If you cast @Compendium[lf1.spells.c5anior2ysy6s2xy]{raise dead}, the target creature is restored to full hit points. If you cast @Compendium[lf1.spells.qiiis9ekgy3syu7j]{breath of life}, that spell can revive a dead target as long as you cast it within a number of rounds equal to half your caster level, and the healing effect is treated as if the spell were empowered with the @Compendium[lf1.feats.77gXSucrxfrE9yWk]{Empower Spell} feat. Casting any of these spells discharges the <em>invigorating repose</em> spell.</p>"
  },
  "_id": "YX53WUresLyCwO0I"
}
