{
  "_id": "4hztew00f84p470e",
  "name": "Ironbloom Sprouts",
  "type": "spell",
  "img": "systems/lf1/icons/misc/magic-swirl.png",
  "system": {
    "actions": [
      {
        "_id": "rrlmklajkshh7p8u",
        "name": "Use",
        "img": "systems/lf1/icons/misc/magic-swirl.png",
        "activation": {
          "type": "standard",
          "unchained": {
            "cost": 2,
            "type": "action"
          }
        },
        "duration": {
          "value": "1 day/level"
        },
        "target": {
          "value": "2d4 fresh mushrooms touched"
        },
        "range": {
          "units": "touch"
        },
        "actionType": ""
      }
    ],
    "learnedAt": {
      "class": {
        "cleric": 1,
        "oracle": 1,
        "druid": 1,
        "hunter": 1
      }
    },
    "school": "trs",
    "components": {
      "verbal": true,
      "somatic": true,
      "material": true,
      "divineFocus": 1
    },
    "materials": {
      "value": "1 gp worth of powdered iron",
      "gpValue": 1
    },
    "spellbook": "",
    "preparation": {
      "spontaneousPrepared": false
    },
    "shortDescription": "<p>This spell functions like <i>goodberry</i>, except as noted above and that it transforms 2d4 mushrooms into magical ironbloom mushrooms rather than transforming common berries into magical berries. Alternatively, you may create twice as many mushrooms, but each only has the nourishment ability of a <i>goodberry</i> and not the healing properties.</p>"
  }
}
