{
  "_id": "ow2bsd2aeqaxm5go",
  "name": "Iron Spine",
  "type": "spell",
  "img": "systems/lf1/icons/misc/magic-swirl.png",
  "system": {
    "actions": [
      {
        "_id": "jqra98c52f3pye54",
        "name": "Use",
        "img": "systems/lf1/icons/misc/magic-swirl.png",
        "activation": {
          "type": "standard",
          "unchained": {
            "cost": 2,
            "type": "action"
          }
        },
        "duration": {
          "value": "1 round/level"
        },
        "target": {
          "value": "one living creature"
        },
        "range": {
          "units": "medium"
        },
        "actionType": "spellsave",
        "save": {
          "description": "no"
        }
      }
    ],
    "learnedAt": {
      "class": {
        "sorcerer": 3,
        "wizard": 3,
        "cleric": 4,
        "oracle": 4,
        "witch": 3,
        "magus": 3
      }
    },
    "level": 3,
    "school": "trs",
    "components": {
      "verbal": true,
      "somatic": true,
      "material": true,
      "divineFocus": 2
    },
    "materials": {
      "value": "cold iron ingot"
    },
    "shortDescription": "<p>You launch an ingot of iron at the target. If you succeed at a ranged touch attack, the target's skeleton or exoskeleton turns into jagged shards of cold iron. Whenever the target moves, it takes 1d6 points of piercing damage and is sickened for 1 round as metal spines stab into its flesh. This damage is subject to damage reduction, but it overcomes damage reduction as though it were a weapon of cold iron and magic. A creature affected by this spell can choose to remain motionless to avoid taking damage. Creatures with DR/cold iron or DR/cold iron and magic affected by this spell are nauseated instead of sickened. This spell has no effect on a creature that has neither a skeleton nor a hard carapace.</p>"
  }
}
