{
  "_id": "99ihqk5u93smyy9x",
  "name": "Jester's Jaunt",
  "type": "spell",
  "img": "systems/lf1/icons/misc/magic-swirl.png",
  "system": {
    "actions": [
      {
        "_id": "x1xzeh1pmqifhlfe",
        "name": "Use",
        "img": "systems/lf1/icons/misc/magic-swirl.png",
        "activation": {
          "type": "standard",
          "unchained": {
            "cost": 2,
            "type": "action"
          }
        },
        "duration": {
          "value": "instantaneous"
        },
        "target": {
          "value": "one living creature"
        },
        "range": {
          "units": "touch"
        },
        "actionType": "spellsave",
        "save": {
          "type": "will",
          "description": "Will negates"
        }
      }
    ],
    "learnedAt": {
      "class": {
        "bard": 3,
        "mesmerist": 3
      }
    },
    "level": 3,
    "school": "con",
    "subschool": "teleportation",
    "components": {
      "verbal": true,
      "somatic": true
    },
    "shortDescription": "<p>You teleport the target to a space you can see within 30 feet of the target. The destination must be on solid ground, and the teleportation cannot end in a space that is by nature hazardous to the creature you are teleporting.</p>"
  }
}
