{
  "_id": "ns2zo6qgd9co02uf",
  "name": "Jump",
  "type": "spell",
  "img": "systems/lf1/icons/misc/magic-swirl.png",
  "system": {
    "actions": [
      {
        "_id": "cgdnz57phn91uadx",
        "name": "Use",
        "img": "systems/lf1/icons/misc/magic-swirl.png",
        "activation": {
          "type": "standard",
          "unchained": {
            "cost": 2,
            "type": "action"
          }
        },
        "duration": {
          "value": "1 min./level"
        },
        "target": {
          "value": "creature touched"
        },
        "range": {
          "units": "touch"
        },
        "actionType": "spellsave",
        "save": {
          "type": "will",
          "description": "Will negates (harmless)"
        }
      }
    ],
    "learnedAt": {
      "class": {
        "sorcerer": 1,
        "wizard": 1,
        "druid": 1,
        "ranger": 1,
        "alchemist": 1,
        "summoner": 1,
        "magus": 1,
        "bloodrager": 1,
        "psychic": 1,
        "hunter": 1,
        "summonerUnchained": 1
      },
      "domain": {
        "Vermin": 1
      },
      "subDomain": {
        "Competition": 1
      }
    },
    "school": "trs",
    "components": {
      "verbal": true,
      "somatic": true,
      "material": true
    },
    "materials": {
      "value": "a grasshopper's hind leg"
    },
    "shortDescription": "<p>The subject gets a +10 enhancement bonus on Acrobatics checks made to attempt high jumps or long jumps. The enhancement bonus increases to +20 at caster level 5th, and to +30 (the maximum) at caster level 9th.</p>"
  }
}
