{
  "_id": "wqpl7isf6ejukk7k",
  "name": "Keep Watch",
  "type": "spell",
  "img": "systems/lf1/icons/misc/magic-swirl.png",
  "system": {
    "actions": [
      {
        "_id": "ux88hhu1odt8kxer",
        "name": "Use",
        "img": "systems/lf1/icons/misc/magic-swirl.png",
        "activation": {
          "type": "standard",
          "unchained": {
            "cost": 2,
            "type": "action"
          }
        },
        "duration": {
          "value": "8 hours or less; see text"
        },
        "target": {
          "value": "one creature touched/2 levels"
        },
        "range": {
          "units": "touch"
        },
        "actionType": "spellsave",
        "save": {
          "type": "will",
          "description": "Will negates (harmless)"
        }
      }
    ],
    "learnedAt": {
      "class": {
        "sorcerer": 1,
        "wizard": 1,
        "ranger": 1,
        "paladin": 1,
        "inquisitor": 1,
        "magus": 1,
        "hunter": 1
      }
    },
    "school": "enc",
    "components": {
      "verbal": true,
      "somatic": true
    },
    "shortDescription": "<p>This spell enables the subjects to stand watch or keep vigil throughout the night without any ill effects. The subjects suffer no fatigue and gain all the usual benefits of a full night's rest. The subjects gain hit points as though from resting, wizards may prepare their spells as though they had slept for 8 hours, and so on. Effects that rely on actual <i>sleep</i> or dreaming are ineffective, though the subjects are still susceptible to effects that would put them to <i>sleep</i>, such as <i>sleep</i> or <i>deep slumber</i>. Any vigorous activity, including fighting, immediately ends the effect, and the affected creatures must either have the spell cast on them again or <i>sleep</i> for the remaining hours to avoid fatigue and gain the benefits of a full night's rest.</p>"
  }
}
