{
  "_id": "0j54rd8ne58l7xqs",
  "name": "Life Channel",
  "type": "spell",
  "img": "systems/lf1/icons/misc/magic-swirl.png",
  "system": {
    "actions": [
      {
        "_id": "nbkv9ocamhainj9z",
        "name": "Use",
        "img": "systems/lf1/icons/misc/magic-swirl.png",
        "activation": {
          "type": "standard",
          "unchained": {
            "cost": 2,
            "type": "action"
          }
        },
        "duration": {
          "value": "1 minute/level"
        },
        "target": {
          "value": "one touched creature with negative energy affinity"
        },
        "range": {
          "units": "touch"
        },
        "actionType": "spellsave",
        "save": {
          "type": "fort",
          "description": "Fortitude negates (harmless)"
        }
      }
    ],
    "learnedAt": {
      "class": {
        "cleric": 2,
        "oracle": 2
      }
    },
    "level": 2,
    "school": "trs",
    "components": {
      "verbal": true,
      "somatic": true
    },
    "shortDescription": "<p>When cast on a creature with negative energy affinity, the target is able to convert channeled positive energy into temporary hit points. When subject to an effect that heals hit points only to living creatures (such as <i>cure light wounds</i> or channel positive energy), the target gains a number of temporary hit points equal to half the number of hit points that the positive energy would normally heal. These temporary hit points go away at the end of this spell's duration.</p>"
  }
}
