{
  "_id": "zrwk56c6gl27zwfx",
  "name": "Life Pact",
  "type": "spell",
  "img": "systems/lf1/icons/misc/magic-swirl.png",
  "system": {
    "actions": [
      {
        "_id": "pz2cb4u65ae2l3bm",
        "name": "Use",
        "img": "systems/lf1/icons/misc/magic-swirl.png",
        "activation": {
          "type": "standard",
          "unchained": {
            "cost": 2,
            "type": "action"
          }
        },
        "duration": {
          "value": "1 minute/level"
        },
        "target": {
          "value": "one willing living creature/level, no two of which can be more than 30 ft. apart"
        },
        "range": {
          "units": "close"
        },
        "actionType": "spellsave",
        "save": {
          "type": "will",
          "description": "Will negates (harmless)"
        }
      }
    ],
    "learnedAt": {
      "class": {
        "sorcerer": 2,
        "wizard": 2,
        "cleric": 2,
        "oracle": 2,
        "witch": 2,
        "shaman": 2,
        "psychic": 2,
        "spiritualist": 2
      }
    },
    "level": 2,
    "school": "nec",
    "components": {
      "verbal": true,
      "somatic": true,
      "material": true,
      "divineFocus": 2
    },
    "materials": {
      "value": "a drop of blood from each target"
    },
    "shortDescription": "<p>You bind the life forces of the targets into a mystical pact. If any target is reduced to fewer than 0 hit points, that target automatically triggers the power of the pact. The triggering target drains 1 hit point from all other targets that have at least 1 hit point and are within 30 feet of the triggering target; these hit points are applied to the triggering target as magical healing. This healing can prevent the triggering creature from dying, if the attack would cause the target to have a number of negative hit points equal to its Constitution score. This healing cannot raise the triggering creature above 1 hit point; any excess hit points drained from other targets are wasted.  The pact can be triggered once per round. It's not triggered by death effects or effects that do not deal hit point damage.</p>"
  }
}
