{
  "_id": "d4mp0m5xfnu9hbhn",
  "name": "Mad Hallucination",
  "type": "spell",
  "img": "systems/lf1/icons/misc/magic-swirl.png",
  "system": {
    "actions": [
      {
        "_id": "7yf72aa0cw5xoeyu",
        "name": "Use",
        "img": "systems/lf1/icons/misc/magic-swirl.png",
        "activation": {
          "type": "standard",
          "unchained": {
            "cost": 2,
            "type": "action"
          }
        },
        "duration": {
          "value": "5 minute/level (maximum 1 hour)"
        },
        "target": {
          "value": "one humanoid creature"
        },
        "range": {
          "units": "close"
        },
        "actionType": "spellsave",
        "save": {
          "type": "will",
          "description": "Will negates"
        }
      }
    ],
    "learnedAt": {
      "class": {
        "sorcerer": 2,
        "wizard": 2,
        "bard": 2,
        "witch": 2,
        "psychic": 2,
        "mesmerist": 2
      }
    },
    "level": 2,
    "school": "ill",
    "subschool": "phantasm",
    "components": {
      "verbal": true,
      "somatic": true
    },
    "shortDescription": "<p>This spell induces a hallucinogenic reality in the mind of your target. Surfaces seem to swim, and movement constantly distracts the eye. The target takes a -2 penalty on Will saving throws, caster level checks, Intelligence-based skill checks, and Wisdom-based skill checks.</p>"
  }
}
