{
  "_id": "rd0wjks55wmzw8jx",
  "name": "Magic Circle Against Technology",
  "type": "spell",
  "img": "systems/lf1/icons/misc/magic-swirl.png",
  "system": {
    "actions": [
      {
        "_id": "b2vcm5n059h7t5yq",
        "name": "Use",
        "img": "systems/lf1/icons/misc/magic-swirl.png",
        "activation": {
          "type": "standard",
          "unchained": {
            "cost": 2,
            "type": "action"
          }
        },
        "duration": {
          "value": "10 minute/level"
        },
        "range": {
          "units": "touch"
        },
        "measureTemplate": {
          "type": "circle",
          "size": "10"
        },
        "actionType": "spellsave",
        "save": {
          "type": "will",
          "description": "Will negates (harmless), see text"
        },
        "spellArea": "10-ft.-radius emanation from touched creature"
      }
    ],
    "learnedAt": {
      "class": {
        "sorcerer": 4,
        "wizard": 4,
        "cleric": 4,
        "oracle": 4
      }
    },
    "level": 4,
    "school": "abj",
    "components": {
      "verbal": true,
      "somatic": true,
      "material": true,
      "divineFocus": 2
    },
    "materials": {
      "value": "a 3-ft.-diameter circle of powdered copper"
    },
    "sr": false,
    "shortDescription": "<p>All creatures within the area gain the effects of a <i>Protection from Technology</i> spell. Creatures in the area, or that later enter the area, receive only one attempt to suppress technological effects that are controlling them. If a creature succeed at this save, such effects are suppressed as long as the creature remains in the area. Creatures that leave the area and then return are not protected. Robots receive a saving throw and spell resistance to avoid being kept at bay, but the deflection and resistance bonuses and the protection from mental control apply to non-technological creatures in the area even if a robot succeeds at its saving throw and is thus able to enter the area.</p><p>This spell is not cumulative with <i>Protection from Technology</i> and vice versa.</p>"
  }
}
