{
  "_id": "yi7c4f12ctmth1x7",
  "name": "Marching Chant",
  "type": "spell",
  "img": "systems/lf1/icons/misc/magic-swirl.png",
  "system": {
    "actions": [
      {
        "_id": "rp1w5n9ip8cj8wz8",
        "name": "Use",
        "img": "systems/lf1/icons/misc/magic-swirl.png",
        "activation": {
          "type": "minute",
          "unchained": {
            "type": "minute"
          }
        },
        "duration": {
          "value": "concentration"
        },
        "target": {
          "value": "one creature/level"
        },
        "range": {
          "units": "close"
        },
        "actionType": "spellsave",
        "save": {
          "type": "will",
          "description": "Will negates (harmless)"
        }
      }
    ],
    "learnedAt": {
      "class": {
        "cleric": 2,
        "oracle": 2,
        "bard": 2
      }
    },
    "level": 2,
    "school": "trs",
    "components": {
      "verbal": true,
      "somatic": true
    },
    "shortDescription": "<p>You invigorate your allies, who can hustle (<i>Core Rulebook</i> 170) as long as you continue to sing or chant (which requires your concentration). This movement counts as a walk (not a hustle) for the purpose of accruing nonlethal damage and fatigue. You can concentrate on this spell and hustle at the same time.</p>"
  }
}
