{
  "_id": "d6kyeq5prkpj6540",
  "name": "Martial Telekinesis",
  "type": "spell",
  "img": "systems/lf1/icons/misc/magic-swirl.png",
  "system": {
    "actions": [
      {
        "_id": "havjgag1npay9bht",
        "name": "Use",
        "img": "systems/lf1/icons/misc/magic-swirl.png",
        "activation": {
          "type": "standard",
          "unchained": {
            "cost": 2,
            "type": "action"
          }
        },
        "duration": {
          "value": "instantaneous"
        },
        "target": {
          "value": "see text"
        },
        "range": {
          "units": "long"
        },
        "actionType": "spellsave",
        "save": {
          "type": "will",
          "description": "Will none; see text"
        }
      }
    ],
    "learnedAt": {
      "class": {
        "sorcerer": 4,
        "wizard": 4,
        "magus": 4,
        "psychic": 3,
        "occultist": 4,
        "spiritualist": 4
      }
    },
    "level": 4,
    "school": "evo",
    "components": {
      "verbal": true,
      "somatic": true
    },
    "shortDescription": "<p>You mingle the power of your mind and body to exert force beyond your reach. This spell functions as the combat maneuver version of <i>telekinesis</i>, except as noted above. Alternatively, you can inflict a telekinetic unarmed strike with this spell, using your own unarmed strike damage and applying your primary spellcasting ability score modifier to the damage in place of your Strength modifier.</p>"
  }
}
