{
  "_id": "miovzgsaegc12hck",
  "name": "Master's Escape",
  "type": "spell",
  "img": "systems/lf1/icons/misc/magic-swirl.png",
  "system": {
    "actions": [
      {
        "_id": "hxbe263ekemz0oft",
        "name": "Use",
        "img": "systems/lf1/icons/misc/magic-swirl.png",
        "activation": {
          "type": "standard",
          "unchained": {
            "cost": 2,
            "type": "action"
          }
        },
        "duration": {
          "value": "1 round/level (D)"
        },
        "target": {
          "value": "you and one summoned creature you control"
        },
        "range": {
          "units": "close"
        },
        "actionType": ""
      }
    ],
    "learnedAt": {
      "class": {
        "sorcerer": 4,
        "wizard": 4,
        "cleric": 4,
        "oracle": 4,
        "druid": 4,
        "summoner": 3,
        "witch": 4,
        "hunter": 4,
        "summonerUnchained": 3
      }
    },
    "level": 4,
    "school": "con",
    "subschool": "teleportation",
    "components": {
      "verbal": true,
      "somatic": true
    },
    "sr": false,
    "shortDescription": "<p>You create an extradimensional link between yourself and one summoned creature you control that allows you to switch places. After casting master's escape, you can teleport to your summoned creature's space as a swift action, causing your summoned creature to teleport to your former space. If your summoned creature is reduced to 0 or fewer hit points before you can use this spell's effect, you can teleport to a space that you can see within 30 feet as an immediate action. After using either of these effects, the spell ends. A summoner can target his eidolon with this spell.</p>"
  }
}
