{
  "_id": "afixpamfqfc8yx7b",
  "name": "Master's Mutation",
  "type": "spell",
  "img": "systems/lf1/icons/misc/magic-swirl.png",
  "system": {
    "actions": [
      {
        "_id": "rqd7kduz1fwrvq5e",
        "name": "Use",
        "img": "systems/lf1/icons/misc/magic-swirl.png",
        "activation": {
          "type": "standard",
          "unchained": {
            "cost": 2,
            "type": "action"
          }
        },
        "duration": {
          "value": "1 round/level (D)"
        },
        "target": {
          "value": "you and one summoned creature you control"
        },
        "range": {
          "units": "close"
        },
        "actionType": ""
      }
    ],
    "learnedAt": {
      "class": {
        "sorcerer": 5,
        "wizard": 5,
        "druid": 5,
        "summoner": 5,
        "witch": 5,
        "hunter": 5,
        "summonerUnchained": 5
      }
    },
    "level": 5,
    "school": "trs",
    "subschool": "polymorph",
    "components": {
      "verbal": true,
      "somatic": true
    },
    "sr": false,
    "shortDescription": "<p>You can mold the ephemeral substance of the Outer Planes, mutating one summoned creature that you control to better suit your needs. Select up to two of the following abilities and grant them to the target for the spell's duration: burrow 30 feet, climb 40 feet, constrict, darkvision 90 feet, ferocity, fly 60 feet (average maneuverability), grab, jet, low-light vision, poison, rake, scent, swim 60 feet, trample, trip, or water breathing. Additionally, instead of selecting an ability, you can replace one of the target's primary natural attacks with another natural attack that deals the same amount of damage, such as replacing a Medium target's bite attack (1d6) with a gore attack (1d6). If you choose to alter a creature's natural attacks, all attacks of the chosen type are altered. A summoner can target his eidolon with this spell.</p>"
  }
}
