{
  "_id": "722g8ssc6f2rm3r8",
  "name": "Memorize Page",
  "type": "spell",
  "img": "systems/lf1/icons/misc/magic-swirl.png",
  "system": {
    "actions": [
      {
        "_id": "4umo9xf7jtm34ne5",
        "name": "Use",
        "img": "systems/lf1/icons/misc/magic-swirl.png",
        "activation": {
          "cost": 10,
          "type": "minute",
          "unchained": {
            "cost": 10,
            "type": "minute"
          }
        },
        "duration": {
          "value": "instantaneous"
        },
        "target": {
          "value": "one living creature"
        },
        "range": {
          "units": "touch"
        },
        "actionType": "spellsave",
        "save": {
          "type": "will",
          "description": "Will negates (harmless)"
        }
      }
    ],
    "learnedAt": {
      "class": {
        "sorcerer": 1,
        "wizard": 1,
        "bard": 1,
        "witch": 1,
        "psychic": 1,
        "mesmerist": 1,
        "occultist": 1
      }
    },
    "school": "enc",
    "types": "mind-affecting",
    "components": {
      "verbal": true,
      "somatic": true,
      "focus": true
    },
    "materials": {
      "focus": "the page to be memorized"
    },
    "shortDescription": "<p>The target gains a perfect memory of the page you used as a focus component. The target can visualize this page as easily as looking at it in person, including minute details visible to close scrutiny by the naked eye. The memory of the page includes text and images, such as a drawing or a map. Someone unfamiliar with the language on the page (or even an illiterate person) could relay what is written simply by copying the shapes of the letters so another person can read them.</p><p>The maximum number of pages that a particular target can memorize through repeated castings of this spell is equal to the target's Intelligence modifier (minimum 1); any attempts beyond this limit have no effect, although the target's memory of a page could be erased (using <i>modify memory</i> or a similar effect) to effectively make room for a different one.</p><p>A creature that memorizes magical writing (such as a scroll or a page from a spellbook) cannot borrow, duplicate, or retain any of the magic in the writing. However, this would allow a wizard to copy a spell into his spellbook so he could prepare the spell from his book (assuming the spell takes up only one page in a spellbook).</p>"
  }
}
