{
  "_id": "9jcelzrc91kpr5ew",
  "name": "Miasmal Dread",
  "type": "spell",
  "img": "systems/lf1/icons/misc/magic-swirl.png",
  "system": {
    "actions": [
      {
        "_id": "8atixyzn2dyabyfy",
        "name": "Use",
        "img": "systems/lf1/icons/misc/magic-swirl.png",
        "activation": {
          "type": "standard",
          "unchained": {
            "cost": 2,
            "type": "action"
          }
        },
        "duration": {
          "value": "instantaneous"
        },
        "range": {
          "value": "30",
          "units": "ft"
        },
        "actionType": "",
        "spellArea": "cone-shaped burst",
        "measureTemplate": {
          "type": "cone",
          "size": "30"
        }
      }
    ],
    "learnedAt": {
      "class": {
        "bard": 2,
        "inquisitor": 3,
        "antipaladin": 2,
        "bloodrager": 2,
        "mesmerist": 3
      }
    },
    "level": 2,
    "school": "enc",
    "subschool": "compulsion",
    "types": "fear, mind-affecting",
    "components": {
      "verbal": true,
      "somatic": true
    },
    "sr": false,
    "shortDescription": "<p>A cloud of sickly green mist pours from your mouth and coalesces around creatures in the cone. Attempt a single Intimidate check to demoralize as part of casting the spell, comparing the result against the DC to Intimidate each foe within the area. You demoralize all foes whose DC you meet or exceed.</p>"
  }
}
