{
  "_id": "fz4uvu2ajibbzx10",
  "name": "Mirage",
  "type": "spell",
  "img": "systems/lf1/icons/misc/magic-swirl.png",
  "system": {
    "actions": [
      {
        "_id": "ac4u7yiwgqvamo45",
        "name": "Use",
        "img": "systems/lf1/icons/misc/magic-swirl.png",
        "activation": {
          "cost": 10,
          "type": "minute",
          "unchained": {
            "cost": 10,
            "type": "minute"
          }
        },
        "duration": {
          "value": "2 hours/level (D)"
        },
        "range": {
          "units": "long"
        },
        "actionType": "spellsave",
        "save": {
          "type": "will",
          "description": "Will disbelief (see below)"
        },
        "spellArea": "one 40-ft. cube/level (S)"
      }
    ],
    "learnedAt": {
      "class": {
        "druid": 3,
        "ranger": 3,
        "bard": 3,
        "psychic": 3,
        "mesmerist": 3,
        "occultist": 3,
        "hunter": 3
      }
    },
    "level": 3,
    "school": "ill",
    "subschool": "figment",
    "components": {
      "verbal": true,
      "somatic": true,
      "material": true
    },
    "materials": {
      "value": "a pinch of sand and a drop of water"
    },
    "shortDescription": "<p>You create an image of a pool of water, a group of standing stones, a cove, an island, or another simple land formation over a stretch of flat land or water. The image is purely visual, and structures, equipment, and creatures within the area are not hidden or changed in appearance.</p><p>Anyone interacting with the illusion can attempt to disbelieve it, and a creature trained in Survival can make a special attempt to disbelieve the illusion. The creature must be within 120 feet of the illusion's area and can attempt a Survival check instead of a Will saving throw. If the result is equal to or greater than the spell's save DC, the creature realizes the mirage is an illusion as if it disbelieved the spell.</p>"
  }
}
