{
  "_id": "vr8djfl48ihympri",
  "name": "Mydriatic Spontaneity, Mass",
  "type": "spell",
  "img": "systems/lf1/icons/misc/magic-swirl.png",
  "system": {
    "actions": [
      {
        "_id": "dv0z0c0ga7d3hmx6",
        "name": "Use",
        "img": "systems/lf1/icons/misc/magic-swirl.png",
        "activation": {
          "type": "standard",
          "unchained": {
            "cost": 2,
            "type": "action"
          }
        },
        "duration": {
          "value": "1 round/level"
        },
        "target": {
          "value": "one or more living creatures, no two of which can be more than 30 ft. apart"
        },
        "range": {
          "units": "close"
        },
        "actionType": "spellsave",
        "save": {
          "type": "will",
          "description": "Will negates"
        }
      }
    ],
    "learnedAt": {
      "class": {
        "sorcerer": 7,
        "wizard": 7,
        "bard": 5,
        "witch": 7,
        "psychic": 6,
        "mesmerist": 5
      }
    },
    "level": 7,
    "school": "evo",
    "types": "darkness, light",
    "components": {
      "verbal": true,
      "somatic": true
    },
    "shortDescription": "<p>This spell functions as <i>mydriatic spontaneity</i>, except it can affect multiple creatures.</p>"
  }
}
