{
  "_id": "m1huu174stgdj3tb",
  "name": "Naga Shape II",
  "type": "spell",
  "img": "systems/lf1/icons/misc/magic-swirl.png",
  "system": {
    "actions": [
      {
        "_id": "mhn54i3pe0suu8co",
        "name": "Use",
        "img": "systems/lf1/icons/misc/magic-swirl.png",
        "activation": {
          "type": "standard",
          "unchained": {
            "cost": 2,
            "type": "action"
          }
        },
        "duration": {
          "value": "1 minute/level (D)"
        },
        "target": {
          "value": "you"
        },
        "range": {
          "units": "personal"
        },
        "actionType": ""
      }
    ],
    "learnedAt": {
      "class": {
        "sorcerer": 5,
        "wizard": 5,
        "alchemist": 5,
        "magus": 5,
        "bloodrager": 5
      }
    },
    "level": 5,
    "school": "trs",
    "subschool": "polymorph",
    "components": {
      "verbal": true,
      "somatic": true,
      "material": true
    },
    "materials": {
      "value": "a piece of the creature whose form you want to assume"
    },
    "sr": false,
    "shortDescription": "<p>This spell functions as <i>naga shape I</i>. Additionally, if the form you assume has any of the following abilities, you gain the listed ability: burrow 30 feet, climb 90 feet, fly 90 feet (good maneuverability), swim 90 feet, blindsense 30 feet, darkvision 60 feet, low-light vision, compression, constrict, detect thoughts, dreamsight, grab, hypnosis, poison, sneak attack +2d6, and spit.</p>"
  }
}
