{
  "_id": "q374x5w6dmsttxre",
  "name": "Nauseating Dart",
  "type": "spell",
  "img": "systems/lf1/icons/misc/magic-swirl.png",
  "system": {
    "actions": [
      {
        "_id": "98jr3j8mbnlve7w6",
        "name": "Use",
        "img": "systems/lf1/icons/misc/magic-swirl.png",
        "activation": {
          "type": "standard",
          "unchained": {
            "cost": 2,
            "type": "action"
          }
        },
        "duration": {
          "value": "instantaneous"
        },
        "range": {
          "units": "close"
        },
        "actionType": "spellsave",
        "save": {
          "type": "fort",
          "description": "Fortitude partial (see text)"
        },
        "spellEffect": "one poisonous stinger"
      }
    ],
    "learnedAt": {
      "class": {
        "druid": 1,
        "witch": 1,
        "hunter": 1
      }
    },
    "school": "con",
    "subschool": "creation",
    "types": "poison",
    "components": {
      "somatic": true,
      "divineFocus": 1
    },
    "sr": false,
    "shortDescription": "<p>You spit a poisonous stinger around the size of a quill at a creature within range, as though you had fired a dart from a blowgun. You must succeed at a ranged attack to hit your target. The stinger deals 1d2 points of piercing damage and poisons the target, causing it to become nauseated for 1 round unless it succeeds at a Fortitude save.</p>"
  }
}
