{
  "_id": "fj9kpo98f1wkivmo",
  "name": "Pale Flame",
  "type": "spell",
  "img": "systems/lf1/icons/misc/magic-swirl.png",
  "system": {
    "actions": [
      {
        "_id": "beyr2xj3ajdf1ete",
        "name": "Use",
        "img": "systems/lf1/icons/misc/magic-swirl.png",
        "activation": {
          "type": "standard",
          "unchained": {
            "cost": 2,
            "type": "action"
          }
        },
        "duration": {
          "value": "1 minute/level (D)"
        },
        "range": {
          "value": "0",
          "units": "ft"
        },
        "actionType": "other",
        "spellEffect": "flame in your palm"
      }
    ],
    "learnedAt": {
      "class": {
        "druid": 2,
        "shaman": 2,
        "hunter": 2
      }
    },
    "level": 2,
    "school": "evo",
    "types": "fire",
    "components": {
      "verbal": true,
      "somatic": true,
      "material": true
    },
    "materials": {
      "value": "caphorite shard"
    },
    "shortDescription": "<p>This spell functions as per <i>produce flame</i>, except that the  flames never glow brighter than dim light, including any fires started by this spell. These flames cast light only half the distance of a torch and cannot be seen from more than 100 feet away. The flames deal 2d6 points of fire damage + 1 point per caster level (maximum +5). Against plants, this damage increases to 2d6 points + 2 points per caster level (maximum +10).</p>"
  }
}
