{
  "_id": "nv0sl4zhusr0knmj",
  "name": "Passing Fancy, Mass",
  "type": "spell",
  "img": "systems/lf1/icons/misc/magic-swirl.png",
  "system": {
    "actions": [
      {
        "_id": "dy580y1etph25h02",
        "name": "Use",
        "img": "systems/lf1/icons/misc/magic-swirl.png",
        "activation": {
          "type": "standard",
          "unchained": {
            "cost": 2,
            "type": "action"
          }
        },
        "duration": {
          "value": "4d4 rounds (D)"
        },
        "target": {
          "value": "one living creature/level, no two of which can be more than 30 ft. apart"
        },
        "range": {
          "units": "close"
        },
        "actionType": "spellsave",
        "save": {
          "type": "will",
          "description": "Will negates"
        }
      }
    ],
    "learnedAt": {
      "class": {
        "sorcerer": 5,
        "wizard": 5,
        "bard": 4,
        "witch": 5,
        "psychic": 5,
        "mesmerist": 4
      }
    },
    "level": 5,
    "school": "enc",
    "subschool": "compulsion",
    "types": "mind-affecting",
    "components": {
      "verbal": true,
      "somatic": true
    },
    "shortDescription": "<p>This spell functions as per <i>passing fancy</i> except as noted above.</p>"
  }
}
