{
  "_id": "kvt3s374lja3fav6",
  "name": "Peace Bond",
  "type": "spell",
  "img": "systems/lf1/icons/misc/magic-swirl.png",
  "system": {
    "actions": [
      {
        "_id": "d04ao16uor9w97o2",
        "name": "Use",
        "img": "systems/lf1/icons/misc/magic-swirl.png",
        "activation": {
          "type": "standard",
          "unchained": {
            "cost": 2,
            "type": "action"
          }
        },
        "duration": {
          "value": "1 minute/level"
        },
        "range": {
          "units": "close"
        },
        "actionType": "",
        "spellArea": "one or more 5-ft. cubes, no two of which can be more than 30 ft. apart",
        "measureTemplate": {
          "type": "circle",
          "size": "15"
        }
      }
    ],
    "uses": {
      "autoDeductChargesCost": ""
    },
    "learnedAt": {
      "class": {
        "sorcerer": 1,
        "wizard": 1,
        "cleric": 1,
        "oracle": 1,
        "druid": 1,
        "bard": 1,
        "paladin": 1,
        "witch": 1,
        "inquisitor": 1,
        "shaman": 1,
        "hunter": 1
      }
    },
    "school": "abj",
    "components": {
      "verbal": true,
      "somatic": true,
      "material": true,
      "divineFocus": 2
    },
    "materials": {
      "value": "a glass cube"
    },
    "spellbook": "",
    "sr": false,
    "shortDescription": "<p>This spell creates one glowing rune of <i>peace</i>, plus one per 2 caster levels above 1st (to a maximum of five runes at 9th level). An identical symbol appears on your forehead  for the duration of the spell and cannot be disguised (though it is visible only if you are visible). Each rune illuminates a 5-foot cube, preventing any spell you cast of up to 3rd level and that has a defined area (as opposed to targets or an effect) from entering or affecting the 5-foot cube. For example, creatures and items within any square affected by <i><i>peace</i> bond</i> take no damage from a <i>fireball</i> you cast. However, if you cast <i>stinking cloud</i>, the noxious vapors are an effect and enter such cubes normally. This spell does not break line of effect within any other spells you cast; it simply negates all effects of your 1st-, 2nd- and 3rd-level area spells within the <i><i>peace</i> bond</i>'s area. <i>Peace bond</i> offers no protection against your spell-like abilities or supernatural area effects.</p>"
  }
}
