{
  "_id": "ncijcs7iaf9apm69",
  "name": "Perfect Placement",
  "type": "spell",
  "img": "systems/lf1/icons/misc/magic-swirl.png",
  "system": {
    "actions": [
      {
        "_id": "kbalzzv82dpx4973",
        "name": "Use",
        "img": "systems/lf1/icons/misc/magic-swirl.png",
        "activation": {
          "type": "standard",
          "unchained": {
            "cost": 2,
            "type": "action"
          }
        },
        "duration": {
          "value": "1 round/level"
        },
        "target": {
          "value": "one creature/level, no two of which can be more than 30 ft. apart"
        },
        "range": {
          "units": "close"
        },
        "measureTemplate": {
          "type": "circle",
          "size": "15"
        },
        "actionType": "spellsave",
        "save": {
          "type": "will",
          "description": "Will negates (harmless)"
        }
      }
    ],
    "learnedAt": {
      "class": {
        "sorcerer": 3,
        "wizard": 3,
        "bard": 2,
        "witch": 3,
        "magus": 3,
        "bloodrager": 2,
        "psychic": 3
      }
    },
    "level": 3,
    "school": "div",
    "components": {
      "verbal": true,
      "somatic": true,
      "material": true
    },
    "materials": {
      "value": "a chess piece"
    },
    "shortDescription": "<p>Affected creatures gain tactical knowledge and maximize their efficiency on the field of battle. Each gains a +1 insight bonus to AC and Reflex saves. Against attacks of opportunity, the insight bonus to AC increases to +3.</p>"
  }
}
