{
  "_id": "zd8nh365xvrebioj",
  "name": "Phantasmal Web",
  "type": "spell",
  "img": "systems/lf1/icons/misc/magic-swirl.png",
  "system": {
    "actions": [
      {
        "_id": "5larwotg9zo25iat",
        "name": "Use",
        "img": "systems/lf1/icons/misc/magic-swirl.png",
        "activation": {
          "type": "standard",
          "unchained": {
            "cost": 2,
            "type": "action"
          }
        },
        "duration": {
          "value": "1 round/level (D)"
        },
        "target": {
          "value": "one creature/level, no two of which may be more than 30 ft. apart"
        },
        "range": {
          "units": "medium"
        },
        "actionType": "spellsave",
        "save": {
          "type": "fort",
          "description": "Will disbelief, then Fortitude partial; see text"
        }
      }
    ],
    "learnedAt": {
      "class": {
        "sorcerer": 5,
        "wizard": 5,
        "bard": 5,
        "psychic": 5,
        "mesmerist": 5,
        "spiritualist": 5
      },
      "subDomain": {
        "Insanity": 6
      }
    },
    "level": 5,
    "school": "ill",
    "subschool": "phantasm",
    "types": "mind-affecting",
    "components": {
      "verbal": true,
      "somatic": true
    },
    "shortDescription": "<p>You implant within the minds of your targets the illusion that they are engulfed in tangled <i>web</i>s teeming with swarms of tiny spiders. Those who fail to disbelieve the <i>phantasmal <i>web</i></i> are treated as if in a <i>web</i> spell, but must also make a Fortitude save at the beginning of each turn or become nauseated for that round by the phantasmal spiders.</p><p>As the <i>phantasmal <i>web</i></i> exists only in the minds of the targets, it cannot be burned or destroyed, and it provides no cover (though it does provide concealment) against attacks made by the targets. <b>Target</b>s cannot escape the <i>phantasmal <i>web</i></i> by moving, even by teleportation. Freedom of movement allows unobstructed movement but does not negate the concealment or nausea effects.</p><p><b>Target</b>s of the spell perceive everyone else around them to be engulfed in <i>web</i>s and swarming spiders, but the spell has no visible effect to other creatures (who may assist allies to disbelieve the effect).</p>"
  }
}
