{
  "_id": "nckt6q58mhaav0uf",
  "name": "Phantom Steed, Communal",
  "type": "spell",
  "img": "systems/lf1/icons/misc/magic-swirl.png",
  "system": {
    "actions": [
      {
        "_id": "nmb7odgcut3oz0fi",
        "name": "Use",
        "img": "systems/lf1/icons/misc/magic-swirl.png",
        "activation": {
          "cost": 10,
          "type": "minute",
          "unchained": {
            "cost": 10,
            "type": "minute"
          }
        },
        "duration": {
          "value": "1 hour/level (D)"
        },
        "range": {
          "units": "close"
        },
        "actionType": "other",
        "spellEffect": "up to six quasi-real, horselike creatures"
      }
    ],
    "learnedAt": {
      "class": {
        "sorcerer": 4,
        "wizard": 4,
        "bard": 4,
        "summoner": 3,
        "occultist": 4,
        "spiritualist": 4,
        "summonerUnchained": 3
      }
    },
    "level": 4,
    "school": "con",
    "subschool": "creation",
    "components": {
      "verbal": true,
      "somatic": true
    },
    "sr": false,
    "shortDescription": "<p>This spell functions like <i>phantom steed</i>, except you can summon up to six steeds, and you divide the duration in 1-hour intervals among the steeds summoned.</p>"
  }
}
