{
  "_id": "yeji3fheh82jb67e",
  "name": "Prehensile Pilfer",
  "type": "spell",
  "img": "systems/lf1/icons/misc/magic-swirl.png",
  "system": {
    "actions": [
      {
        "_id": "ejzkti5srdktpqna",
        "name": "Use",
        "img": "systems/lf1/icons/misc/magic-swirl.png",
        "activation": {
          "type": "standard",
          "unchained": {
            "cost": 2,
            "type": "action"
          }
        },
        "duration": {
          "value": "1 round/level (D)"
        },
        "target": {
          "value": "creature touched"
        },
        "range": {
          "units": "touch"
        },
        "actionType": "spellsave",
        "save": {
          "type": "fort",
          "description": "Fortitude negates (harmless)"
        }
      }
    ],
    "learnedAt": {
      "class": {
        "sorcerer": 3,
        "wizard": 3,
        "bard": 3,
        "alchemist": 3,
        "magus": 3
      }
    },
    "level": 3,
    "school": "trs",
    "components": {
      "verbal": true,
      "somatic": true
    },
    "shortDescription": "<p>The target's tail moves and acts more quickly, almost with a mind of its own. When making a full-attack action, the target may use its tail to make a dirty trick or steal combat maneuver as a swift action. For the purpose of this attack, the target's tail is a natural weapon with a reach of 5 feet. This spell has no effect on creatures lacking a prehensile tail. If the target already has an extra attack from <i>haste</i> or a similar effect, this spell only allows the tail to make dirty trick and steal combat maneuvers, but does not grant an extra attack.</p>"
  }
}
