{
  "_id": "hs8rdv5g0dr92bv0",
  "name": "Preserve Grace",
  "type": "spell",
  "img": "systems/lf1/icons/misc/magic-swirl.png",
  "system": {
    "actions": [
      {
        "_id": "vga7az7pobonhghy",
        "name": "Use",
        "img": "systems/lf1/icons/misc/magic-swirl.png",
        "activation": {
          "type": "minute",
          "unchained": {
            "type": "minute"
          }
        },
        "duration": {
          "value": "1 day"
        },
        "target": {
          "value": "one good-aligned creature"
        },
        "range": {
          "units": "touch"
        },
        "actionType": "spellsave",
        "save": {
          "type": "will",
          "description": "Will negates (harmless)"
        }
      }
    ],
    "learnedAt": {
      "class": {
        "cleric": 2,
        "oracle": 2,
        "paladin": 1,
        "inquisitor": 1
      }
    },
    "level": 2,
    "school": "div",
    "types": "good",
    "components": {
      "verbal": true,
      "somatic": true,
      "focus": true
    },
    "materials": {
      "focus": "a silver hand mirror worth 50 gp"
    },
    "sr": false,
    "shortDescription": "<p>The Lantern Bearers must often make difficult decisions during their missions, such as determining what to do with captured enemies-should they be executed, imprisoned, set free, or given a chance to mend their ways? With this spell, you grant a creature the ability to foresee moral consequences, as if the creature were wearing a <i>phylactery of faithfulness</i>. The spell's guidance focuses on the protection of beauty and encourages peaceful resolution and mercy.</p>"
  }
}
