{
  "_id": "g5hinokex8k0eg76",
  "name": "Prognostication",
  "type": "spell",
  "img": "systems/lf1/icons/misc/magic-swirl.png",
  "system": {
    "actions": [
      {
        "_id": "lsyr38wcykg4xeqf",
        "name": "Use",
        "img": "systems/lf1/icons/misc/magic-swirl.png",
        "activation": {
          "cost": 8,
          "type": "hour",
          "unchained": {
            "cost": 8,
            "type": "hour"
          }
        },
        "duration": {
          "value": "instantaneous"
        },
        "target": {
          "value": "you"
        },
        "range": {
          "units": "personal"
        },
        "actionType": ""
      }
    ],
    "uses": {
      "autoDeductChargesCost": ""
    },
    "learnedAt": {
      "class": {
        "cleric": 6,
        "oracle": 6,
        "witch": 6,
        "inquisitor": 6,
        "shaman": 6,
        "psychic": 6,
        "medium": 4,
        "spiritualist": 6
      }
    },
    "level": 6,
    "school": "div",
    "components": {
      "verbal": true,
      "somatic": true,
      "material": true
    },
    "materials": {
      "value": "rare incense and tonics worth 250 gp",
      "gpValue": 250
    },
    "spellbook": "",
    "preparation": {
      "spontaneousPrepared": false
    },
    "sr": false,
    "shortDescription": "<p>You glimpse the future. <i>Prognostication</i> functions as <i>divination</i> except that the spell can see up to a year and a day into the future. Because of the increased unpredictability of the distant future, <i>prognostication</i> is significantly more cryptic than the already-cryptic <i>divination</i> spell.</p>"
  }
}
