{
  "_id": "y7i8c7lsu6pt8j4h",
  "name": "Raging Rubble",
  "type": "spell",
  "img": "systems/lf1/icons/misc/magic-swirl.png",
  "system": {
    "actions": [
      {
        "_id": "eceog3xfzj5po1tq",
        "name": "Use",
        "img": "systems/lf1/icons/misc/magic-swirl.png",
        "activation": {
          "type": "round",
          "unchained": {
            "cost": 3,
            "type": "action"
          }
        },
        "duration": {
          "value": "concentration + 2 rounds"
        },
        "range": {
          "units": "close"
        },
        "actionType": "other",
        "spellEffect": "one swarm of stones"
      }
    ],
    "learnedAt": {
      "class": {
        "sorcerer": 3,
        "wizard": 3,
        "cleric": 3,
        "oracle": 3,
        "druid": 3,
        "bard": 3,
        "witch": 3,
        "bloodrager": 3,
        "hunter": 3
      }
    },
    "level": 3,
    "school": "trs",
    "types": "earth",
    "components": {
      "verbal": true,
      "somatic": true,
      "divineFocus": 1
    },
    "shortDescription": "<p>You animate an area of rubble, gravel, or other small stones, creating a dangerous, rolling area of debris. The animated rubble has a space of 10 feet and acts like a swarm, damaging (1d6 hit points) and distracting (DC 12) anything within it. As a move action, you can direct the rubble to move up to 10 feet. If the rubble is attacked, treat it as a Medium animated object with the young creature simple template and the swarm subtype.</p>"
  }
}
