{
  "_id": "8nnswcde15poheci",
  "name": "Rampart",
  "type": "spell",
  "img": "systems/lf1/icons/misc/magic-swirl.png",
  "system": {
    "actions": [
      {
        "_id": "e10c1yt28lmzvilt",
        "name": "Use",
        "img": "systems/lf1/icons/misc/magic-swirl.png",
        "activation": {
          "type": "standard",
          "unchained": {
            "cost": 2,
            "type": "action"
          }
        },
        "duration": {
          "value": "instantaneous"
        },
        "range": {
          "units": "medium"
        },
        "actionType": "other",
        "spellEffect": "10-ft.-high earthen wall, in a line up to 10 ft. long/2 levels, or a circle with radius of up to 3 ft. + 1 ft./level"
      }
    ],
    "learnedAt": {
      "class": {
        "sorcerer": 7,
        "wizard": 7,
        "druid": 7
      }
    },
    "level": 7,
    "school": "con",
    "subschool": "creation",
    "types": "earth",
    "components": {
      "verbal": true,
      "somatic": true,
      "material": true
    },
    "materials": {
      "value": "a handful of earth"
    },
    "sr": false,
    "shortDescription": "<p>You create a massive <i>rampart</i> of hard-packed earth and stone 5 feet thick. The <i>rampart</i> cannot be conjured so that it occupies the same space as another creature or object. Each 5-foot-wide section of the <i>rampart</i> has hardness 0 and 180 hit points. A section of the <i>rampart</i> whose hit points drop to 0 is breached. If a creature tries to break through the <i>rampart</i> with a single attack, the DC for the Strength check is 60. A creature can climb over the <i>rampart</i> with a DC 20 Climb check.</p>"
  }
}
