{
  "_id": "usp5ng1rziq9o6jo",
  "name": "Raven's Flight",
  "type": "spell",
  "img": "systems/lf1/icons/misc/magic-swirl.png",
  "system": {
    "actions": [
      {
        "_id": "w0w43zbpvoqb1ikx",
        "name": "Use",
        "img": "systems/lf1/icons/misc/magic-swirl.png",
        "activation": {
          "type": "swift",
          "unchained": {
            "type": "action"
          }
        },
        "duration": {
          "value": "1 round"
        },
        "target": {
          "value": "you"
        },
        "range": {
          "units": "personal"
        },
        "actionType": ""
      }
    ],
    "learnedAt": {
      "class": {
        "sorcerer": 2,
        "wizard": 2,
        "druid": 3,
        "ranger": 2,
        "bard": 3,
        "witch": 2,
        "inquisitor": 3,
        "magus": 2,
        "shaman": 2,
        "hunter": 2
      }
    },
    "level": 2,
    "school": "trs",
    "components": {
      "verbal": true
    },
    "sr": false,
    "shortDescription": "<p>You can cast this spell only if it is the first action you take on your turn. In a burst of shadowy feathers, you turn into a Tiny blurred shape reminiscent of a black raven until the beginning of your next turn. You gain a fly speed of 50 feet with good maneuverability, and apply appropriate size modifiers (though your ability scores don't change). Until the beginning of your next turn, you can take only the 5-foot step, move, run, or withdraw actions. If the spell is dispelled while you are still aloft, the power of flight dissipates slowly; you float downward 60 feet on your next turn, then fall any remaining distance.</p>"
  }
}
