{
  "_id": "c3iz720zjv922b6j",
  "name": "Ray of Sickening",
  "type": "spell",
  "img": "systems/lf1/icons/misc/magic-swirl.png",
  "system": {
    "actions": [
      {
        "_id": "mrrbckfz3o1c4g3b",
        "name": "Use",
        "img": "systems/lf1/icons/misc/magic-swirl.png",
        "activation": {
          "type": "standard",
          "unchained": {
            "cost": 2,
            "type": "action"
          }
        },
        "duration": {
          "value": "1 min./level"
        },
        "range": {
          "units": "close"
        },
        "actionType": "rsak",
        "ability": {
          "attack": "dex"
        },
        "save": {
          "type": "fort",
          "description": "Fortitude partial; see text"
        },
        "spellEffect": "ray"
      }
    ],
    "learnedAt": {
      "class": {
        "sorcerer": 1,
        "wizard": 1,
        "cleric": 1,
        "oracle": 1,
        "druid": 1,
        "summoner": 1,
        "witch": 1,
        "bloodrager": 1,
        "mesmerist": 1,
        "hunter": 1,
        "summonerUnchained": 1
      },
      "subDomain": {
        "Plague": 1
      }
    },
    "school": "nec",
    "components": {
      "verbal": true,
      "somatic": true,
      "material": true
    },
    "materials": {
      "value": "a drop of sweat"
    },
    "shortDescription": "<p>This spell functions as <i>ray of exhaustion</i>, except the target is sickened if it fails its save and unaffected if it makes its save.</p>"
  }
}
