{
  "_id": "3t0fqhbt4qsy7wfx",
  "name": "Reaper's Coterie",
  "type": "spell",
  "img": "systems/lf1/icons/misc/magic-swirl.png",
  "system": {
    "actions": [
      {
        "_id": "gmfwthu94k97xc6c",
        "name": "Use",
        "img": "systems/lf1/icons/misc/magic-swirl.png",
        "activation": {
          "type": "standard",
          "unchained": {
            "cost": 2,
            "type": "action"
          }
        },
        "duration": {
          "value": "1 round/level"
        },
        "target": {
          "value": "weapon touched"
        },
        "range": {
          "units": "touch"
        },
        "actionType": ""
      }
    ],
    "learnedAt": {
      "class": {
        "cleric": 3,
        "oracle": 3,
        "witch": 3,
        "inquisitor": 3,
        "antipaladin": 2,
        "bloodrager": 2
      }
    },
    "level": 3,
    "school": "nec",
    "types": "evil",
    "components": {
      "verbal": true,
      "somatic": true,
      "divineFocus": 1
    },
    "sr": false,
    "shortDescription": "<p>The target weapon becomes a reservoir of spiritual energy, fueling its destructive power by drawing in a tiny fragment of the essence of each creature it is used to defeat. When the targeted weapon is used to reduce a living creature to 0 or fewer hit points, it gains a +1 profane bonus on damage rolls. This bonus increases by 1 for each creature reduced to 0 hit points or fewer with that weapon, up to a maximum bonus equal to 1/2 your caster level.</p>"
  }
}
