{
  "_id": "a3yc6tgu9zjx7el9",
  "name": "Rebuke Technology",
  "type": "spell",
  "img": "systems/lf1/icons/misc/magic-swirl.png",
  "system": {
    "actions": [
      {
        "_id": "zh1c4eq3q8oyaie1",
        "name": "Use",
        "img": "systems/lf1/icons/misc/magic-swirl.png",
        "activation": {
          "type": "standard",
          "unchained": {
            "cost": 2,
            "type": "action"
          }
        },
        "duration": {
          "value": "1 round/level"
        },
        "target": {
          "value": "one technological object or creature"
        },
        "range": {
          "units": "medium"
        },
        "actionType": "spellsave",
        "save": {
          "type": "fort",
          "description": "Fortitude negates (object)"
        }
      }
    ],
    "learnedAt": {
      "class": {
        "sorcerer": 4,
        "wizard": 4,
        "druid": 4,
        "hunter": 4
      }
    },
    "level": 4,
    "school": "abj",
    "components": {
      "verbal": true,
      "somatic": true,
      "focus": true,
      "divineFocus": 3
    },
    "materials": {
      "focus": "powdered fragments of technology"
    },
    "shortDescription": "<p>You shroud the targeted technological object or creature (such as a robot or a nanotech swarm) with magical energy.</p><p>If the targeted creature fails to resist the spell, it is rendered inert and unusable (or unconscious in the case of creatures) for the spell's duration. A creature can attempt a new Fortitude saving throw to end the effect early at the end of its turn after the first full round it is affected by this spell.</p>"
  }
}
