{
  "_id": "6xqpa5cmpj9pt8ln",
  "name": "Reincarnate Spy",
  "type": "spell",
  "img": "systems/lf1/icons/misc/magic-swirl.png",
  "system": {
    "actions": [
      {
        "_id": "zr8poqsom0ddgwt0",
        "name": "Use",
        "img": "systems/lf1/icons/misc/magic-swirl.png",
        "activation": {
          "cost": 10,
          "type": "minute",
          "unchained": {
            "cost": 10,
            "type": "minute"
          }
        },
        "duration": {
          "value": "instantaneous"
        },
        "target": {
          "value": "dead creature touched"
        },
        "range": {
          "units": "touch"
        },
        "actionType": "heal",
        "save": {
          "description": "none (see text)"
        }
      }
    ],
    "learnedAt": {
      "class": {
        "druid": 6,
        "witch": 7,
        "shaman": 6,
        "hunter": 6
      }
    },
    "level": 6,
    "school": "con",
    "subschool": "healing",
    "components": {
      "verbal": true,
      "somatic": true,
      "material": true,
      "divineFocus": 1
    },
    "materials": {
      "value": "oils worth 2,500 gp and a possession or piece of the body of the creature to resemble",
      "gpValue": 2500
    },
    "spellbook": "",
    "preparation": {
      "spontaneousPrepared": false
    },
    "shortDescription": "<p>This spell functions as <i>reincarnate</i> except that you can cause the new body to resemble a particular creature, matching its age  category and sex and rerolling any race result that would be the wrong size category. The subject further gains a +5 bonus on Disguise checks to impersonate the chosen creature due to similar features, although it might take a penalty for being the wrong race.  The spell automatically leaves you with a small piece of the creature's new body, typically a lock of hair (useful for <i>scrying</i> and other such spells).</p>"
  }
}
