{
  "_id": "eu4u4mr1naoiqohz",
  "name": "Remove Fear",
  "type": "spell",
  "img": "systems/lf1/icons/misc/magic-swirl.png",
  "system": {
    "actions": [
      {
        "_id": "evp975olxxiuexpk",
        "name": "Use",
        "img": "systems/lf1/icons/misc/magic-swirl.png",
        "activation": {
          "type": "standard",
          "unchained": {
            "cost": 2,
            "type": "action"
          }
        },
        "duration": {
          "value": "10 minutes; see text"
        },
        "target": {
          "value": "one creature plus one additional creature per four levels, no two of which can be more than 30 ft. apart"
        },
        "range": {
          "units": "close"
        },
        "actionType": "spellsave",
        "save": {
          "type": "will",
          "description": "Will negates (harmless)"
        }
      }
    ],
    "learnedAt": {
      "class": {
        "cleric": 1,
        "oracle": 1,
        "bard": 1,
        "inquisitor": 1,
        "shaman": 1,
        "psychic": 1,
        "medium": 1,
        "mesmerist": 1,
        "spiritualist": 1
      },
      "domain": {
        "Liberation": 1
      },
      "subDomain": {
        "Loyalty": 1
      }
    },
    "school": "abj",
    "components": {
      "verbal": true,
      "somatic": true
    },
    "shortDescription": "<p>You instill courage in the subject, granting it a +4 morale bonus against fear effects for 10 minutes. If the subject is under the influence of a fear effect when receiving the spell, that effect is suppressed for the duration of the spell.</p><p><i>Remove fear</i> counters and dispels cause fear.</p>"
  }
}
