{
  "_id": "6kzn5xnks6n3z3o3",
  "name": "Rend Body IV",
  "type": "spell",
  "img": "systems/lf1/icons/misc/magic-swirl.png",
  "system": {
    "actions": [
      {
        "_id": "5196q148gsdxbnjq",
        "name": "Use",
        "img": "systems/lf1/icons/misc/magic-swirl.png",
        "activation": {
          "type": "full",
          "unchained": {
            "cost": 3,
            "type": "action"
          }
        },
        "duration": {
          "value": "instantaneous"
        },
        "target": {
          "value": "one creature"
        },
        "range": {
          "units": "close"
        },
        "actionType": "spellsave",
        "save": {
          "type": "fort",
          "description": "Fortitude partial (see text)"
        }
      }
    ],
    "learnedAt": {
      "class": {
        "psychic": 8
      }
    },
    "level": 8,
    "school": "evo",
    "components": {
      "somatic": true
    },
    "shortDescription": "<p>This functions as per <i>rend body III</i>, but the target takes 1d8 points of damage per caster level (maximum 20d8), and one of the target's limbs is ripped off if the amount of damage dealt is greater than 1/4 of its maximum hit point total. This spell can be undercast.</p>"
  }
}
