{
  "_id": "7kure93zue8n5mp3",
  "name": "Rend Body III",
  "type": "spell",
  "img": "systems/lf1/icons/misc/magic-swirl.png",
  "system": {
    "actions": [
      {
        "_id": "supjzv9m9ha0j0gz",
        "name": "Use",
        "img": "systems/lf1/icons/misc/magic-swirl.png",
        "activation": {
          "type": "full",
          "unchained": {
            "cost": 3,
            "type": "action"
          }
        },
        "duration": {
          "value": "instantaneous"
        },
        "target": {
          "value": "one creature"
        },
        "range": {
          "units": "close"
        },
        "actionType": "spellsave",
        "save": {
          "type": "fort",
          "description": "Fortitude partial (see text)"
        }
      }
    ],
    "learnedAt": {
      "class": {
        "psychic": 7
      }
    },
    "level": 7,
    "school": "evo",
    "components": {
      "somatic": true
    },
    "shortDescription": "<p>This spell functions as per <i>rend body I</i>, but the target takes 1d8 points of damage per caster level you have (maximum 15d8), and if a limb is ripped from its body, the target is sickened for as long as the bleed damage persists. This spell can be undercast.</p>"
  }
}
