{
  "_id": "jjsqzp8kfjl1mxvd",
  "name": "Resist Starvation",
  "type": "spell",
  "img": "systems/lf1/icons/misc/magic-swirl.png",
  "system": {
    "actions": [
      {
        "_id": "stwp1m98z5ck08u1",
        "name": "Use",
        "img": "systems/lf1/icons/misc/magic-swirl.png",
        "activation": {
          "type": "standard",
          "unchained": {
            "cost": 2,
            "type": "action"
          }
        },
        "duration": {
          "value": "1 day/level"
        },
        "target": {
          "value": "one living creature touched"
        },
        "range": {
          "units": "touch"
        },
        "actionType": "spellsave",
        "save": {
          "type": "will",
          "description": "Will negates (harmless)"
        }
      }
    ],
    "learnedAt": {
      "class": {
        "cleric": 1,
        "oracle": 1,
        "antipaladin": 1,
        "shaman": 1
      }
    },
    "school": "trs",
    "components": {
      "verbal": true,
      "somatic": true,
      "material": true
    },
    "materials": {
      "value": "crumb of food"
    },
    "shortDescription": "<p>If the target doesn't eat on the day this spell is cast on it, the DC to avoid taking nonlethal damage from starvation on the following day doesn't increase by 1. This spell fails if the target hasn't already attempted at least one Constitution check to avoid starvation.</p>"
  }
}
