{
  "_id": "68yoc59d7jtfepw6",
  "name": "Respectful Quiet",
  "type": "spell",
  "img": "systems/lf1/icons/misc/magic-swirl.png",
  "system": {
    "actions": [
      {
        "_id": "gxgt7ard95oivnzd",
        "name": "Use",
        "img": "systems/lf1/icons/misc/magic-swirl.png",
        "activation": {
          "type": "standard",
          "unchained": {
            "cost": 2,
            "type": "action"
          }
        },
        "duration": {
          "value": "1 minute/level (D)"
        },
        "target": {
          "value": "any number of creatures in a 30-ft.-radius burst"
        },
        "range": {
          "units": "medium"
        },
        "actionType": "spellsave",
        "save": {
          "type": "will",
          "description": "Will negates"
        }
      }
    ],
    "learnedAt": {
      "class": {
        "cleric": 5,
        "oracle": 5,
        "bard": 3,
        "inquisitor": 3
      }
    },
    "level": 5,
    "school": "ill",
    "subschool": "glamer",
    "components": {
      "verbal": true,
      "somatic": true,
      "divineFocus": 1
    },
    "shortDescription": "<p>All targets are rendered silent, as per <i>silence</i>. The <i>silence</i> affects the entirety of each creature but does not extend beyond. However, the <i>silence</i> is one-way-sounds from outside the creatures' spaces can still enter. Quieted creatures gain a +10 circumstance bonus on Stealth checks.</p>"
  }
}
