{
  "_id": "3bdfw5f15hwcxlth",
  "name": "Reverse Gravity",
  "type": "spell",
  "img": "systems/lf1/icons/misc/magic-swirl.png",
  "system": {
    "actions": [
      {
        "_id": "qb74x33dr1oedzs4",
        "name": "Use",
        "img": "systems/lf1/icons/misc/magic-swirl.png",
        "activation": {
          "type": "standard",
          "unchained": {
            "cost": 2,
            "type": "action"
          }
        },
        "duration": {
          "value": "1 round/level (D)"
        },
        "range": {
          "units": "medium"
        },
        "actionType": "spellsave",
        "save": {
          "description": "none; see text"
        },
        "spellArea": "up to one 10-ft. cube/level (S)"
      }
    ],
    "uses": {
      "autoDeductChargesCost": ""
    },
    "learnedAt": {
      "class": {
        "sorcerer": 7,
        "wizard": 7,
        "druid": 8,
        "psychic": 7
      },
      "domain": {
        "Void": 7
      },
      "bloodline": {
        "Starsoul": 7
      }
    },
    "level": 7,
    "school": "trs",
    "components": {
      "verbal": true,
      "somatic": true,
      "material": true,
      "divineFocus": 2
    },
    "materials": {
      "value": "lodestone and iron filings"
    },
    "spellbook": "",
    "sr": false,
    "shortDescription": "<p>This spell reverses gravity in an area, causing unattached objects and creatures in the area to fall upward and reach the top of the area in 1 round. If a solid object (such as a ceiling) is encountered in this fall, falling objects and creatures strike it in the same manner as they would during a normal downward fall. If an object or creature reaches the top of the area without striking anything, it remains there, oscillating slightly, until the spell ends. At the end of the spell duration, affected objects and creatures fall downward.</p><p>Provided it has something to hold onto, a creature caught in the area can attempt a Reflex save to secure itself when the spell strikes.</p><p>Creatures who can fly or levitate can keep themselves from falling.</p>"
  }
}
