{
  "_id": "tkbdko8seua26109",
  "name": "Reveal Mirage",
  "type": "spell",
  "img": "systems/lf1/icons/misc/magic-swirl.png",
  "system": {
    "actions": [
      {
        "_id": "vnn9gkl6avdkras3",
        "name": "Use",
        "img": "systems/lf1/icons/misc/magic-swirl.png",
        "activation": {
          "type": "standard",
          "unchained": {
            "cost": 2,
            "type": "action"
          }
        },
        "duration": {
          "value": "1 round"
        },
        "target": {
          "value": "you"
        },
        "range": {
          "units": "personal"
        },
        "actionType": ""
      }
    ],
    "learnedAt": {
      "class": {
        "sorcerer": 3,
        "wizard": 3,
        "cleric": 3,
        "oracle": 3,
        "druid": 2,
        "ranger": 1,
        "witch": 3,
        "hunter": 1
      }
    },
    "level": 3,
    "school": "div",
    "components": {
      "verbal": true,
      "somatic": true,
      "focus": true
    },
    "materials": {
      "focus": "a small prism"
    },
    "sr": false,
    "shortDescription": "<p>You can focus upon a single point within line of sight and discern if the terrain or geographic features of that point are illusory. This ability allows you a Will save to disbelieve a terrain-affecting illusion (glamer) effect from range as though you had interacted with it. In addition to affecting such spells as <i>hallucinatory terrain</i> and <i>mirage arcana</i>, this spell also allows you to disbelieve naturally occurring mirages.</p>"
  }
}
