{
  "_id": "oall7obl22ds5rfg",
  "name": "Rune of Durability",
  "type": "spell",
  "img": "systems/lf1/icons/misc/magic-swirl.png",
  "system": {
    "actions": [
      {
        "_id": "5hthneo9pxj7cmsc",
        "name": "Use",
        "img": "systems/lf1/icons/misc/magic-swirl.png",
        "activation": {
          "type": "minute",
          "unchained": {
            "type": "minute"
          }
        },
        "duration": {
          "value": "permanent"
        },
        "target": {
          "value": "weapon touched"
        },
        "range": {
          "units": "touch"
        },
        "actionType": ""
      }
    ],
    "learnedAt": {
      "class": {
        "sorcerer": 3,
        "wizard": 3
      }
    },
    "level": 3,
    "school": "trs",
    "components": {
      "verbal": true,
      "somatic": true,
      "material": true
    },
    "materials": {
      "value": "iron filings"
    },
    "sr": false,
    "shortDescription": "<p>You inscribe an angular rune upon the surface of a weapon, increasing its hit points. A weapon that bears this rune multiplies its hit points by 2, as if it were one size category larger than it actually is. Placing more than one rune of this type on a weapon has no effect.</p>"
  }
}
