{
  "_id": "pto0ekyn6i9udbrj",
  "name": "Sacred Space",
  "type": "spell",
  "img": "systems/lf1/icons/misc/magic-swirl.png",
  "system": {
    "actions": [
      {
        "_id": "5a36kbroh7g77p1c",
        "name": "Use",
        "img": "systems/lf1/icons/misc/magic-swirl.png",
        "activation": {
          "type": "standard",
          "unchained": {
            "cost": 2,
            "type": "action"
          }
        },
        "duration": {
          "value": "2 hours/level"
        },
        "range": {
          "units": "close"
        },
        "actionType": "",
        "spellArea": "20-ft.-radius emanation",
        "measureTemplate": {
          "type": "circle",
          "size": "20"
        }
      }
    ],
    "learnedAt": {
      "class": {
        "cleric": 2,
        "oracle": 2,
        "paladin": 2
      }
    },
    "level": 2,
    "school": "evo",
    "types": "good",
    "components": {
      "verbal": true,
      "somatic": true,
      "material": true
    },
    "materials": {
      "value": "a vial of ambrosia"
    },
    "sr": false,
    "shortDescription": "<p>This spell sanctifies an area with heavenly power. The DC to resist spells or spell-like abilities with the good descriptor or channeled energy that damages evil outsiders (as when using Alignment Channel) increases by +2. In addition, evil outsiders take a -1 penalty on attack rolls, damage rolls, and saving throws, and they cannot be called or summoned into a <i>sacred space</i>. If the <i>sacred space</i> contains an altar, shrine, or other permanent fixture dedicated to your deity, pantheon, or good-aligned higher power, the modifiers given above are doubled. You cannot cast <i>sacred space</i> in an area with a permanent fixture dedicated to a deity other than yours.</p>"
  }
}
