{
  "_id": "pq9cw2n3i359oj1f",
  "name": "Scale Spikes",
  "type": "spell",
  "img": "systems/lf1/icons/misc/magic-swirl.png",
  "system": {
    "actions": [
      {
        "_id": "c7ten6owme5d3zkq",
        "name": "Use",
        "img": "systems/lf1/icons/misc/magic-swirl.png",
        "activation": {
          "type": "standard",
          "unchained": {
            "cost": 2,
            "type": "action"
          }
        },
        "duration": {
          "value": "1 minute/level"
        },
        "target": {
          "value": "one living creature/level that is a reptile, has the dragon type, or has the reptilian subtype, and that also has a natural armor bonus of at least +1"
        },
        "range": {
          "units": "close"
        },
        "actionType": "spellsave",
        "save": {
          "type": "fort",
          "description": "Fort negates (harmless)"
        }
      }
    ],
    "learnedAt": {
      "class": {
        "sorcerer": 2,
        "wizard": 2,
        "druid": 2,
        "ranger": 2,
        "alchemist": 2,
        "witch": 2,
        "bloodrager": 2,
        "shaman": 2,
        "hunter": 2
      }
    },
    "level": 2,
    "school": "trs",
    "components": {
      "verbal": true,
      "somatic": true,
      "material": true,
      "divineFocus": 2
    },
    "materials": {
      "value": "a small thorn"
    },
    "shortDescription": "<p>When the target is affected by this spell, its scales grow jagged spikes. These spikes act like <i>+1 armor spikes</i>. The subject is automatically considered proficient with these scale spikes.</p>"
  }
}
