{
  "_id": "7vw5g90efkd0zztz",
  "name": "Scarify",
  "type": "spell",
  "img": "systems/lf1/icons/misc/magic-swirl.png",
  "system": {
    "actions": [
      {
        "_id": "h5gxoszqioey3n87",
        "name": "Use",
        "img": "systems/lf1/icons/misc/magic-swirl.png",
        "activation": {
          "type": "standard",
          "unchained": {
            "cost": 2,
            "type": "action"
          }
        },
        "duration": {
          "value": "instantaneous"
        },
        "target": {
          "value": "creature touched"
        },
        "range": {
          "units": "touch"
        },
        "actionType": "spellsave",
        "save": {
          "type": "fort",
          "description": "Fortitude negates (harmless)"
        }
      }
    ],
    "learnedAt": {
      "class": {
        "cleric": 1,
        "oracle": 1,
        "druid": 1,
        "alchemist": 1,
        "witch": 1,
        "inquisitor": 1,
        "antipaladin": 1,
        "adept": 1,
        "shaman": 1,
        "spiritualist": 1,
        "hunter": 1
      }
    },
    "school": "nec",
    "components": {
      "verbal": true,
      "somatic": true
    },
    "shortDescription": "<p>Your touch causes a single creature's skin to produce fibrous tissue that sutures the creature's wounds, rapidly closing them and leaving jagged scars where the wounds were. The process is painful, and converts 2d6 points of damage + 1 point per caster level (maximum +5) into nonlethal damage. If the target creature is immune to nonlethal damage, the spell fails. Damage resistance against nonlethal damage reduces the amount of damage converted. This effect counts as healing for the purpose of stopping bleed damage. Kuthites are especially fond of this spell, as it gives them permanent physical reminders of the all too brief pain they endured.</p>"
  }
}
