{
  "_id": "dsondqy4ngf1yzf3",
  "name": "Screen",
  "type": "spell",
  "img": "systems/lf1/icons/misc/magic-swirl.png",
  "system": {
    "actions": [
      {
        "_id": "54ctw9qwzr38msen",
        "name": "Use",
        "img": "systems/lf1/icons/misc/magic-swirl.png",
        "activation": {
          "cost": 10,
          "type": "minute",
          "unchained": {
            "cost": 10,
            "type": "minute"
          }
        },
        "duration": {
          "value": "24 hours"
        },
        "range": {
          "units": "close"
        },
        "actionType": "spellsave",
        "save": {
          "type": "will",
          "description": "none or Will disbelief (if interacted with); see text"
        },
        "spellArea": "30-ft. cube/level"
      }
    ],
    "learnedAt": {
      "class": {
        "sorcerer": 8,
        "wizard": 8,
        "psychic": 8
      },
      "domain": {
        "Trickery": 7
      }
    },
    "level": 8,
    "school": "ill",
    "subschool": "glamer",
    "components": {
      "verbal": true,
      "somatic": true
    },
    "sr": false,
    "shortDescription": "<p>This spell creates a powerful protection from scrying and observation. When casting the spell, you dictate what will and will not be observed in the spell's area. The illusion created must be stated in general terms. Once the conditions are set, they cannot be changed. Attempts to scry the area automatically detect the image stated by you with no save allowed. Sight and sound are appropriate to the illusion created. Direct observation may allow a save (as per a normal illusion), if there is cause to disbelieve what is seen. Even entering the area does not cancel the illusion or necessarily allow a save, assuming that hidden beings take care to stay out of the way of those affected by the illusion.</p>"
  }
}
