{
  "_id": "glt6uk3n6g6l2p6l",
  "name": "Scrying, Greater",
  "type": "spell",
  "img": "systems/lf1/icons/misc/magic-swirl.png",
  "system": {
    "actions": [
      {
        "_id": "2w8h9m5e9wlqftq9",
        "name": "Use",
        "img": "systems/lf1/icons/misc/magic-swirl.png",
        "activation": {
          "type": "standard",
          "unchained": {
            "cost": 2,
            "type": "action"
          }
        },
        "duration": {
          "value": "1 hour/level"
        },
        "actionType": "spellsave",
        "save": {
          "type": "will",
          "description": "Will negates"
        },
        "spellEffect": "magical sensor",
        "range": {
          "units": "seeText"
        }
      }
    ],
    "learnedAt": {
      "class": {
        "sorcerer": 7,
        "wizard": 7,
        "cleric": 7,
        "oracle": 7,
        "druid": 7,
        "bard": 6,
        "witch": 7,
        "shaman": 7,
        "psychic": 7,
        "mesmerist": 6,
        "occultist": 6
      }
    },
    "level": 7,
    "school": "div",
    "subschool": "scrying",
    "components": {
      "verbal": true,
      "somatic": true
    },
    "shortDescription": "<p>This spell functions like <em>@UUID[Compendium.lf1.spells.g66w32kdup1f43bp]{scrying},</em> except as noted above.</p><p>Additionally, all of the following spells function reliably through the sensor: <em>detect chaos</em>, <em>detect evil</em>, <em>detect good</em>, <em>detect law</em>, <em>detect magic</em>, <em>message</em>, <em>read magic,</em> and <em>tongues</em>.</p>"
  }
}
