{
  "_id": "u77457vjbtst5637",
  "name": "See Beyond",
  "type": "spell",
  "img": "systems/lf1/icons/misc/magic-swirl.png",
  "system": {
    "actions": [
      {
        "_id": "20xph39ej2c0tzq2",
        "name": "Use",
        "img": "systems/lf1/icons/misc/magic-swirl.png",
        "activation": {
          "type": "hour",
          "unchained": {
            "type": "hour"
          }
        },
        "duration": {
          "value": "24 hours or until discharged"
        },
        "target": {
          "value": "you"
        },
        "range": {
          "units": "personal"
        },
        "actionType": ""
      }
    ],
    "learnedAt": {
      "class": {
        "cleric": 3,
        "oracle": 3,
        "witch": 3,
        "shaman": 3
      }
    },
    "level": 3,
    "school": "div",
    "types": "meditative",
    "components": {
      "verbal": true,
      "material": true
    },
    "materials": {
      "value": "soothing incense worth 300 gp",
      "gpValue": 300
    },
    "spellbook": "",
    "preparation": {
      "spontaneousPrepared": false
    },
    "sr": false,
    "shortDescription": "<p>You attune your mind and your sight to the hidden world of spirits. You gain a +5 circumstance bonus on Perception checks; this circumstance bonus increases to a +10 circumstance bonus  on Perception checks to find invisible creatures or objects, incorporeal creatures or objects, or things that exist only on the Ethereal Plane. Additionally, at any time during the spell's duration, you can push your ethereal vision even further as a swift action. When you do, you can see through solid objects (as if using a <i>ring of x-ray</i> vision) for 5 rounds. After this time, the spell ends.</p>"
  }
}
