{
  "_id": "1tpm2xczywufi3r8",
  "name": "Selective Invisibility",
  "type": "spell",
  "img": "systems/lf1/icons/misc/magic-swirl.png",
  "system": {
    "actions": [
      {
        "_id": "hclu6s3vsws9qmeb",
        "name": "Use",
        "img": "systems/lf1/icons/misc/magic-swirl.png",
        "activation": {
          "type": "standard",
          "unchained": {
            "cost": 2,
            "type": "action"
          }
        },
        "duration": {
          "value": "1 round/level (D)"
        },
        "target": {
          "value": "you and one other creature"
        },
        "range": {
          "units": "close"
        },
        "actionType": ""
      }
    ],
    "learnedAt": {
      "class": {
        "sorcerer": 3,
        "wizard": 3,
        "bard": 3,
        "alchemist": 3,
        "summoner": 3,
        "inquisitor": 3,
        "antipaladin": 3,
        "magus": 3,
        "summonerUnchained": 3
      }
    },
    "level": 3,
    "school": "ill",
    "subschool": "glamer",
    "components": {
      "verbal": true,
      "somatic": true,
      "material": true,
      "divineFocus": 2
    },
    "materials": {
      "value": "three translucent pebbles"
    },
    "shortDescription": "<p>Upon casting this spell, you turn invisible, as per the <i>invisibility</i> spell, and you choose a second target. That creature can still see you as though you were not invisible, and you can attack that creature without ending the <i>invisibility</i> effect on you. However, if you attack any other creature, this spell ends. If you cast this spell multiple times, you can attack any of the affected creatures without ending the spell.</p>"
  }
}
