{
  "_id": "1ctn7c2mxzb3ggwm",
  "name": "Selective Alarm",
  "type": "spell",
  "img": "systems/lf1/icons/misc/magic-swirl.png",
  "system": {
    "actions": [
      {
        "_id": "ffvbixqns4hx61ko",
        "name": "Use",
        "img": "systems/lf1/icons/misc/magic-swirl.png",
        "activation": {
          "type": "standard",
          "unchained": {
            "cost": 2,
            "type": "action"
          }
        },
        "duration": {
          "value": "2 hours/level (D)"
        },
        "range": {
          "units": "close"
        },
        "actionType": "",
        "spellArea": "up to 20-ft.-radius emanation centered on a point in space",
        "measureTemplate": {
          "type": "circle",
          "size": "20"
        }
      }
    ],
    "uses": {
      "autoDeductChargesCost": ""
    },
    "learnedAt": {
      "class": {
        "sorcerer": 3,
        "wizard": 3,
        "ranger": 2,
        "bard": 3,
        "summoner": 3,
        "inquisitor": 3,
        "psychic": 3,
        "occultist": 3,
        "spiritualist": 3,
        "hunter": 2,
        "summonerUnchained": 3
      }
    },
    "level": 3,
    "school": "abj",
    "components": {
      "verbal": true,
      "somatic": true,
      "focus": true,
      "divineFocus": 3
    },
    "materials": {
      "focus": "a slender iron rod 1 foot in length"
    },
    "spellbook": "",
    "sr": false,
    "shortDescription": "<p>This spell functions as <i>alarm</i>, except that you can tweak the spell to be more discerning in what types of creatures or objects trigger the <i>alarm</i>. Instead of being triggered whenever a creature of Tiny size or larger enters the warded area, you can set whatever triggering conditions you wish, as long as they are based on observable phenomenon. For example, you could cause the selective <i>alarm</i> to trigger when creatures of a certain race (such as orcs, bugbears, or kobolds) enter the area, or whenever a group of four or more creatures enters the area together, or when a metal object is brought into the area. You can't choose triggering conditions that rely on unobservable information, such as having it triggered when creatures of a certain alignment enter the area, nor could you have the <i>alarm</i> be triggered by \"something worth more than 5,000 gp\" entering the area, or even \"a weapon\" entering the area, because an item's value and classification as a weapon is subjective, and might vary from one person to the next.</p>"
  }
}
