{
  "_id": "c3qqu6l3vdcfaoh7",
  "name": "Sequester",
  "type": "spell",
  "img": "systems/lf1/icons/misc/magic-swirl.png",
  "system": {
    "actions": [
      {
        "_id": "ojd71s4jj2so6eyl",
        "name": "Use",
        "img": "systems/lf1/icons/misc/magic-swirl.png",
        "activation": {
          "type": "standard",
          "unchained": {
            "cost": 2,
            "type": "action"
          }
        },
        "duration": {
          "value": "1 day/level"
        },
        "target": {
          "value": "one willing creature or object (up to a 2-ft. cube/level) touched"
        },
        "range": {
          "units": "touch"
        },
        "actionType": "spellsave",
        "save": {
          "type": "will",
          "description": "none or Will negates (object)"
        }
      }
    ],
    "learnedAt": {
      "class": {
        "sorcerer": 7,
        "wizard": 7,
        "summoner": 5,
        "psychic": 7,
        "summonerUnchained": 6
      }
    },
    "level": 7,
    "school": "abj",
    "components": {
      "verbal": true,
      "somatic": true,
      "material": true
    },
    "materials": {
      "value": "a basilisk eyelash and gum arabic"
    },
    "sr": false,
    "shortDescription": "<p>When cast, this spell prevents divination spells from detecting or locating the target and also renders the affected target invisible (as the <i>invisibility</i> spell). The spell does not prevent the subject from being discovered through tactile means or through the use of devices. Creatures affected by <i>sequester</i> become comatose and are effectively in a state of suspended animation until the spell ends.</p><p><i>Note:</i> The Will save prevents an attended or magical object from being <i>sequester</i>ed. There is no save to see the <i>sequester</i>ed creature or object or to detect it with a divination spell.</p>"
  }
}
