{
  "_id": "967ur7a9xepd704y",
  "name": "Shadow Evocation, Greater",
  "type": "spell",
  "img": "systems/lf1/icons/misc/magic-swirl.png",
  "system": {
    "actions": [
      {
        "_id": "txl3t2qam9ndqrum",
        "name": "Use",
        "img": "systems/lf1/icons/misc/magic-swirl.png",
        "activation": {
          "type": "standard",
          "unchained": {
            "cost": 2,
            "type": "action"
          }
        },
        "duration": {
          "value": "see text"
        },
        "actionType": "spellsave",
        "save": {
          "type": "will",
          "description": "Will disbelief (if interacted with)"
        },
        "spellEffect": "see text",
        "range": {
          "units": "seeText"
        }
      }
    ],
    "uses": {
      "autoDeductChargesCost": ""
    },
    "learnedAt": {
      "class": {
        "sorcerer": 8,
        "wizard": 8
      },
      "domain": {
        "Darkness": 8
      },
      "bloodline": {
        "Shadow": 8
      }
    },
    "level": 8,
    "school": "ill",
    "subschool": "shadow",
    "types": "shadow",
    "components": {
      "verbal": true,
      "somatic": true
    },
    "spellbook": "",
    "shortDescription": "<p>This spell functions like <i>sh<i>a</i>dow evoc<i>a</i>tion,</i> except th<i>a</i>t it en<i>a</i>bles you to cre<i>a</i>te p<i>a</i>rti<i>a</i>lly re<i>a</i>l, illusory versions of sorcerer or wiz<i>a</i>rd evoc<i>a</i>tion spells of 7th level or lower. If recognized <i>a</i>s <i>a</i> gre<i>a</i>ter <i>sh<i>a</i>dow evoc<i>a</i>tion,</i> <i>a</i> d<i>a</i>m<i>a</i>ging spell de<i>a</i>ls only three-fifths (60%) d<i>a</i>m<i>a</i>ge.</p>"
  }
}
