{
  "_id": "gfyejhuqquzvrags",
  "name": "Shadowbard",
  "type": "spell",
  "img": "systems/lf1/icons/misc/magic-swirl.png",
  "system": {
    "actions": [
      {
        "_id": "xuynlddki8sh93hk",
        "name": "Use",
        "img": "systems/lf1/icons/misc/magic-swirl.png",
        "activation": {
          "type": "standard",
          "unchained": {
            "cost": 2,
            "type": "action"
          }
        },
        "duration": {
          "value": "1 round/level (D)"
        },
        "range": {
          "units": "close"
        },
        "actionType": "other",
        "spellEffect": "phantom singer"
      }
    ],
    "learnedAt": {
      "class": {
        "bard": 5
      }
    },
    "level": 5,
    "school": "ill",
    "subschool": "shadow",
    "types": "shadow",
    "components": {
      "verbal": true,
      "somatic": true
    },
    "sr": false,
    "shortDescription": "<p>You conjure up a quasi-real phantom singer that is visible as a shifting, shadowy duplicate of yourself. The singer follows you automatically, moving as you move even if you teleport.</p><p>The singer cannot be damaged, but can be dispelled. When a <i>shadowbard</i> comes into being, it immediately begins a bardic performance of your choice-it has access to all of the bardic performances that you do. It continues that bardic performance until you direct it as a move action to switch to a different performance. Rounds spent by a <i>shadowbard</i> creating a bardic performance do not decrease the number of rounds you can use your own bardic performance, nor can a <i>shadowbard</i>'s bardic performance be used to trigger spells that require you to begin or cease a bardic performance.</p>"
  }
}
