{
  "_id": "a6vrmpywwpg4dpwx",
  "name": "Shock Shield",
  "type": "spell",
  "img": "systems/lf1/icons/misc/magic-swirl.png",
  "system": {
    "actions": [
      {
        "_id": "f592vibhvi5mwdgc",
        "name": "Use",
        "img": "systems/lf1/icons/misc/magic-swirl.png",
        "activation": {
          "type": "standard",
          "unchained": {
            "cost": 2,
            "type": "action"
          }
        },
        "duration": {
          "value": "1 minutes/level (D)"
        },
        "target": {
          "value": "you"
        },
        "range": {
          "units": "personal"
        },
        "actionType": ""
      }
    ],
    "learnedAt": {
      "class": {
        "sorcerer": 1,
        "wizard": 1,
        "alchemist": 1,
        "magus": 1,
        "bloodrager": 1,
        "occultist": 1
      }
    },
    "school": "abj",
    "types": "electricity, force",
    "components": {
      "verbal": true,
      "somatic": true
    },
    "sr": false,
    "shortDescription": "<p>This spell creates an invisible <i>shield</i> similar to but not as strong as the <i>shield</i> spell. This <i>shield</i> hovers in front of you and negates <i>magic missile</i> attacks directed at you. The disk provides a +2 <i>shield</i> bonus to AC. This bonus applies against incorporeal touch attacks.  At any time, as a free action, you may dismiss your <i>shield</i>, at which point it deals 1d6 points of electrical damage to all creatures within a 5-foot burst, including you. A Reflex saving throw halves the damage.</p>"
  }
}
