{
  "_id": "zsgvcqslkbdtudpp",
  "name": "Signifer's Rally",
  "type": "spell",
  "img": "systems/lf1/icons/misc/magic-swirl.png",
  "system": {
    "actions": [
      {
        "_id": "r4lw728dwa5dh2c6",
        "name": "Use",
        "img": "systems/lf1/icons/misc/magic-swirl.png",
        "activation": {
          "type": "standard",
          "unchained": {
            "cost": 2,
            "type": "action"
          }
        },
        "duration": {
          "value": "instantaneous"
        },
        "target": {
          "value": "one willing ally/5 levels"
        },
        "range": {
          "units": "medium"
        },
        "actionType": "spellsave",
        "save": {
          "type": "will",
          "description": "Will negates (harmless)"
        }
      }
    ],
    "learnedAt": {
      "class": {
        "sorcerer": 7,
        "wizard": 7,
        "cleric": 7,
        "oracle": 7
      }
    },
    "level": 7,
    "school": "con",
    "subschool": "teleportation",
    "types": "evil",
    "components": {
      "verbal": true,
      "somatic": true,
      "material": true
    },
    "materials": {
      "value": "100 gp worth of bloodstone for every ally teleported"
    },
    "shortDescription": "<p>You <i>teleport</i> up to one ally per five caster levels to your location.</p><p>You determine which allies you want to <i>teleport</i> at the time of casting; these allies have 1 round to decide to allow or refuse your spell, and they <i>teleport</i> immediately upon accepting. Allies are <i>teleport</i>ed as if you had cast <i>teleport</i> on them (your current location is at least \"studied carefully\" for this purpose), appearing in a puff of brimstone in a space adjacent to you. If you are in combat and your allies were not, your allies may roll initiative upon arrival but are not considered flat-footed even though they have not taken any actions. The spell does not function in areas warded against intrusion by evil creatures (such as a <i>magic circle against evil</i> effect).</p>"
  }
}
