{
  "_id": "9smnjoxx4y6bb6iz",
  "name": "Silver Darts",
  "type": "spell",
  "img": "systems/lf1/icons/misc/magic-swirl.png",
  "system": {
    "actions": [
      {
        "_id": "jrnpv1uxnupl3m21",
        "name": "Use",
        "img": "systems/lf1/icons/misc/magic-swirl.png",
        "activation": {
          "type": "standard",
          "unchained": {
            "cost": 2,
            "type": "action"
          }
        },
        "duration": {
          "value": "instantaneous"
        },
        "range": {
          "value": "15",
          "units": "ft"
        },
        "actionType": "spellsave",
        "save": {
          "type": "ref",
          "description": "Reflex half"
        },
        "spellArea": "cone-shaped burst",
        "measureTemplate": {
          "type": "cone",
          "size": "15"
        }
      }
    ],
    "learnedAt": {
      "class": {
        "sorcerer": 3,
        "wizard": 3,
        "witch": 3,
        "magus": 3,
        "bloodrager": 3
      }
    },
    "level": 3,
    "school": "con",
    "subschool": "creation",
    "components": {
      "verbal": true,
      "somatic": true,
      "material": true
    },
    "materials": {
      "value": "a silver needle"
    },
    "shortDescription": "<p>A cone of silver darts springs from your hand. These darts act as a silver weapon that deals 1d6 points of piercing damage per caster level (maximum 10d6). Any creature with an armor bonus greater than +4 or a natural armor bonus greater than +4 takes 50% less damage.</p>"
  }
}
