{
  "_id": "dg3mrasygkm83c3e",
  "name": "Slay Living",
  "type": "spell",
  "img": "systems/lf1/icons/misc/magic-swirl.png",
  "system": {
    "actions": [
      {
        "_id": "g9muv57yfawuyadc",
        "name": "Use",
        "img": "systems/lf1/icons/misc/magic-swirl.png",
        "activation": {
          "type": "standard",
          "unchained": {
            "cost": 2,
            "type": "action"
          }
        },
        "duration": {
          "value": "instantaneous"
        },
        "target": {
          "value": "living creature touched"
        },
        "range": {
          "units": "touch"
        },
        "actionType": "spellsave",
        "save": {
          "type": "fort",
          "description": "Fortitude partial"
        }
      }
    ],
    "learnedAt": {
      "class": {
        "cleric": 5,
        "oracle": 5,
        "witch": 6,
        "antipaladin": 4,
        "shaman": 6,
        "spiritualist": 5
      },
      "domain": {
        "Death": 5,
        "Repose": 5
      }
    },
    "level": 5,
    "school": "nec",
    "types": "death",
    "components": {
      "verbal": true,
      "somatic": true
    },
    "shortDescription": "<p>You can attempt to slay any one living creature. When you cast this spell, your hand seethes with eerie dark fire. You must succeed on a melee touch attack to touch the target. The target takes 12d6 points of damage + 1 point per caster level. If the target's Fortitude saving throw succeeds, it instead takes 3d6 points of damage + 1 point per caster level. The subject might die from damage even if it succeeds on its saving throw.</p>"
  }
}
