{
  "_id": "7fvsn0gbv6ynlp63",
  "name": "Slipstream",
  "type": "spell",
  "img": "systems/lf1/icons/misc/magic-swirl.png",
  "system": {
    "actions": [
      {
        "_id": "ehgand8f0xyvymd9",
        "name": "Use",
        "img": "systems/lf1/icons/misc/magic-swirl.png",
        "activation": {
          "type": "standard",
          "unchained": {
            "cost": 2,
            "type": "action"
          }
        },
        "duration": {
          "value": "10 minutes/level (D)"
        },
        "target": {
          "value": "creature touched"
        },
        "range": {
          "units": "touch"
        },
        "actionType": "spellsave",
        "save": {
          "type": "ref",
          "description": "Reflex negates (harmless)"
        }
      }
    ],
    "learnedAt": {
      "class": {
        "sorcerer": 2,
        "wizard": 2,
        "druid": 2,
        "ranger": 2,
        "bloodrager": 2,
        "hunter": 2
      },
      "subDomain": {
        "Oceans": 2,
        "Rivers": 2
      },
      "bloodline": {
        "Aquatic": 2
      }
    },
    "level": 2,
    "school": "con",
    "subschool": "creation",
    "types": "water",
    "components": {
      "verbal": true,
      "somatic": true,
      "material": true,
      "divineFocus": 2
    },
    "materials": {
      "value": "a few drops of oil and water"
    },
    "sr": false,
    "shortDescription": "<p>You create a low-cresting wave of water that carries the target along the surface of water or the ground. When moving across level ground, the target's speed increases by 10 feet.</p><p>If going downhill, speed increases by 20 feet instead, but <i>slipstream</i> provides no movement bonus when going uphill.</p><p>While swimming, the <i>slipstream</i> increases the target's swim speed by 20 feet-if the target does not have a swim speed, this spell grants a swim speed of 20 ft.</p>"
  }
}
