{
  "_id": "ufy1poh64joesr9q",
  "name": "Slough",
  "type": "spell",
  "img": "systems/lf1/icons/misc/magic-swirl.png",
  "system": {
    "actions": [
      {
        "_id": "gj36a4uj9ypdwas2",
        "name": "Use",
        "img": "systems/lf1/icons/misc/magic-swirl.png",
        "activation": {
          "type": "standard",
          "unchained": {
            "cost": 2,
            "type": "action"
          }
        },
        "duration": {
          "value": "instantaneous"
        },
        "target": {
          "value": "one living creature"
        },
        "range": {
          "units": "medium"
        },
        "actionType": "spellsave",
        "save": {
          "type": "fort",
          "description": "Fortitude negates"
        }
      }
    ],
    "learnedAt": {
      "class": {
        "sorcerer": 5,
        "wizard": 5,
        "cleric": 5,
        "oracle": 5,
        "witch": 5,
        "psychic": 5,
        "occultist": 4,
        "spiritualist": 4
      }
    },
    "level": 5,
    "school": "trs",
    "types": "evil",
    "components": {
      "verbal": true,
      "somatic": true,
      "material": true,
      "divineFocus": 2
    },
    "materials": {
      "value": "a pinch of dried skin flakes"
    },
    "shortDescription": "<p>The target takes 1d4 points of Constitution damage each round as its skin loosens and splits. Once it has taken 5 or more points of Constitution damage in this way, its skin falls off to reveal its musculature. The creature ceases taking Constitution damage, but takes a -4 penalty on saving throws against disease, pain effects, or poison, and on Charisma-based skill checks with the exception of Intimidate and Use Magic Device. The creature's skin regrows rapidly-once its Constitution damage is fully healed, its skin becomes intact once again and the penalties end.</p>"
  }
}
