{
  "_id": "54xmgohtp85buj04",
  "name": "Songbird",
  "type": "spell",
  "img": "systems/lf1/icons/misc/magic-swirl.png",
  "system": {
    "actions": [
      {
        "_id": "txtx82oixasf3kjf",
        "name": "Use",
        "img": "systems/lf1/icons/misc/magic-swirl.png",
        "activation": {
          "type": "swift",
          "unchained": {
            "type": "action"
          }
        },
        "duration": {
          "value": "1 round"
        },
        "target": {
          "value": "you"
        },
        "range": {
          "units": "personal"
        },
        "actionType": ""
      }
    ],
    "learnedAt": {
      "class": {
        "sorcerer": 1,
        "wizard": 1,
        "cleric": 1,
        "oracle": 1,
        "bard": 1,
        "paladin": 1,
        "psychic": 1,
        "mesmerist": 1
      }
    },
    "school": "con",
    "types": "good",
    "components": {
      "somatic": true
    },
    "sr": false,
    "shortDescription": "<p>You conjure uplifting music from the wilds of Elysium, Heaven, or Nirvana to bolster other musical activities.  If you cast <i>songbird</i> during the same round in which you attempt a Perform check, <i>songbird</i> acts as accompaniment and grants a +3 bonus on that Perform check.  If you cast <i>songbird</i> in the same round in which you activate a bardic performance, that round of bardic performance does not count against your total rounds of bardic performance available for the day.  If you cast <i>songbird</i> in the same round in which you cast a spell with the sonic descriptor, that spell's save DC increases by 1.</p>"
  }
}
