{
  "_id": "kfn6zv75qwgc0cwy",
  "name": "Soul Vault",
  "type": "spell",
  "img": "systems/lf1/icons/misc/magic-swirl.png",
  "system": {
    "actions": [
      {
        "_id": "6i7o95721482xe6w",
        "name": "Use",
        "img": "systems/lf1/icons/misc/magic-swirl.png",
        "activation": {
          "type": "standard",
          "unchained": {
            "cost": 2,
            "type": "action"
          }
        },
        "duration": {
          "value": "10 minutes/level"
        },
        "target": {
          "value": "creature touched"
        },
        "range": {
          "units": "touch"
        },
        "actionType": "spellsave",
        "save": {
          "type": "will",
          "description": "Will negates (harmless)"
        }
      }
    ],
    "learnedAt": {
      "class": {
        "sorcerer": 4,
        "wizard": 4,
        "cleric": 3,
        "oracle": 3,
        "druid": 4,
        "witch": 4,
        "inquisitor": 3,
        "shaman": 3,
        "psychic": 5,
        "spiritualist": 2,
        "hunter": 4
      }
    },
    "level": 4,
    "school": "abj",
    "components": {
      "verbal": true,
      "somatic": true,
      "divineFocus": 1
    },
    "shortDescription": "<p>This spell protects the target's soul by briefly enveloping the target in an ethereal vault. The target gains a +4 bonus on saving throws against spells and effects that would trap or redirect its soul (such as <i>magic jar</i>, <i>soul bind</i>, and <i>trap the</i> soul) and effects that would transform the target into an undead creature. The target is granted a save to negate such effects even if one is not normally allowed. If it's cast on a living creature that then dies, the target's body and spirit are protected by the spell for its duration. If it's cast on a corpse within 1 round of death, the target's body and soul are both protected. Otherwise, only the body receives the protection.  Any spellcaster that worships Abadar may learn and cast <i>soul vault</i> as a 4th level spell, if it isn't normally on her class spell list. <i>Soul vault</i> can be made permanent with the <i>permanency</i> spell at a cost of 7,500 gp and a minimum caster level of 11th.</p>"
  }
}
