{
  "_id": "d7pa11ex8f58n8xb",
  "name": "Soulswitch",
  "type": "spell",
  "img": "systems/lf1/icons/misc/magic-swirl.png",
  "system": {
    "actions": [
      {
        "_id": "r9gfg41scawm1ghu",
        "name": "Use",
        "img": "systems/lf1/icons/misc/magic-swirl.png",
        "activation": {
          "type": "standard",
          "unchained": {
            "cost": 2,
            "type": "action"
          }
        },
        "duration": {
          "value": "10 minutes/level"
        },
        "target": {
          "value": "you and your familiar"
        },
        "range": {
          "units": "touch"
        },
        "actionType": "spellsave",
        "save": {
          "type": "will",
          "description": "Will negates (harmless)"
        }
      }
    ],
    "learnedAt": {
      "class": {
        "sorcerer": 5,
        "wizard": 5,
        "cleric": 5,
        "oracle": 5,
        "druid": 5,
        "bard": 5,
        "witch": 5,
        "inquisitor": 5,
        "magus": 5,
        "shaman": 5,
        "hunter": 5
      }
    },
    "level": 5,
    "school": "nec",
    "components": {
      "verbal": true,
      "somatic": true,
      "focus": true
    },
    "materials": {
      "focus": "two brass collars worth 50 gp each"
    },
    "shortDescription": "<p>You may only cast this spell if you currently have a familiar. You place your soul into the body of your familiar, and your familiar's soul is placed in your body. This functions as if you possessed your familiar using <i>magic jar</i>; your familiar simultaneously possesses your body in the same manner. You can't freely transfer your soul between your body and your familiar's-if you choose to return to your body as a standard action, the spell ends. If either body is killed, both spirits return to their original bodies, the spell ends, and the original owner of the slain body dies.</p>"
  }
}
