{
  "_id": "eg2gwmkpoaqljkzu",
  "name": "Spark",
  "type": "spell",
  "img": "systems/lf1/icons/misc/magic-swirl.png",
  "system": {
    "actions": [
      {
        "_id": "h40h8vx5cvm3azet",
        "name": "Use",
        "img": "systems/lf1/icons/misc/magic-swirl.png",
        "activation": {
          "type": "standard",
          "unchained": {
            "cost": 2,
            "type": "action"
          }
        },
        "duration": {
          "value": "instantaneous"
        },
        "target": {
          "value": "one Fine object"
        },
        "range": {
          "units": "close"
        },
        "actionType": "spellsave",
        "save": {
          "type": "fort",
          "description": "Fortitude negates (object)"
        }
      }
    ],
    "uses": {
      "autoDeductChargesCost": "0"
    },
    "learnedAt": {
      "class": {
        "sorcerer": 0,
        "wizard": 0,
        "cleric": 0,
        "oracle": 0,
        "druid": 0,
        "bard": 0,
        "witch": 0,
        "magus": 0,
        "occultist": 0,
        "hunter": 0
      }
    },
    "level": 0,
    "school": "evo",
    "types": "fire",
    "components": {
      "value": "V or S"
    },
    "shortDescription": "<p>You can make an unattended Fine flammable object catch on fire. This works as if you were using flint and steel except that you can use <i>spark</i> in any sort of weather and it takes much less time to actually ignite an object.</p>"
  }
}
