{
  "_id": "49p4v9az7rfzj5fw",
  "name": "Spellcasting Contract",
  "type": "spell",
  "img": "systems/lf1/icons/misc/magic-swirl.png",
  "system": {
    "actions": [
      {
        "_id": "724g6b8ossv8ahng",
        "name": "Use",
        "img": "systems/lf1/icons/misc/magic-swirl.png",
        "activation": {
          "cost": 10,
          "type": "minute",
          "unchained": {
            "cost": 10,
            "type": "minute"
          }
        },
        "duration": {
          "value": "permanent until contractually terminated"
        },
        "target": {
          "value": "willing creature touched"
        },
        "range": {
          "units": "touch"
        },
        "actionType": "spellsave",
        "save": {
          "type": "will",
          "description": "Will negates (harmless)"
        }
      }
    ],
    "learnedAt": {
      "class": {
        "cleric": 7,
        "oracle": 7
      }
    },
    "level": 7,
    "school": "evo",
    "components": {
      "verbal": true,
      "somatic": true,
      "focus": true
    },
    "materials": {
      "focus": "a written contract"
    },
    "shortDescription": "<p>This spell functions like <i>lesser spellcasting contract</i>, except if the target has 9 HD or more, you can imbue him with one or two 2ndlevel spells and one 3rd-level spell.</p>"
  }
}
