{
  "_id": "tbl88ce6qfvcemqz",
  "name": "Spell Absorption",
  "type": "spell",
  "img": "systems/lf1/icons/misc/magic-swirl.png",
  "system": {
    "actions": [
      {
        "_id": "hw4nfuw4rb4f82c9",
        "name": "Use",
        "img": "systems/lf1/icons/misc/magic-swirl.png",
        "activation": {
          "type": "round",
          "unchained": {
            "cost": 3,
            "type": "action"
          }
        },
        "duration": {
          "value": "1 round/level"
        },
        "target": {
          "value": "you"
        },
        "range": {
          "units": "personal"
        },
        "actionType": ""
      }
    ],
    "learnedAt": {
      "class": {
        "sorcerer": 5,
        "wizard": 5
      }
    },
    "level": 5,
    "school": "abj",
    "components": {
      "verbal": true,
      "somatic": true,
      "material": true
    },
    "materials": {
      "value": "a prism"
    },
    "sr": false,
    "shortDescription": "<p>If you successfully counterspell a 3rd-level or lower level spell (through either <i>dispel magic</i> or normal means) while <i>spell absorption</i> is in effect, you absorb the countered spell and use it to regain spells you have already cast. If you're a wizard, you regain the use of any single spell that you have cast since the last time you prepared spells. If you're a sorcerer, you regain a single spell slot. The spell recovered or spell slot regained must be of an equal level or lower than the spell you counterspelled.</p>"
  }
}
