{
  "_id": "jzs4f4ihaw9avmb2",
  "name": "Spherescry",
  "type": "spell",
  "img": "systems/lf1/icons/misc/magic-swirl.png",
  "system": {
    "actions": [
      {
        "_id": "it0rqi2vi6hdan3b",
        "name": "Use",
        "img": "systems/lf1/icons/misc/magic-swirl.png",
        "activation": {
          "type": "hour",
          "unchained": {
            "type": "hour"
          }
        },
        "duration": {
          "value": "1 minute/level"
        },
        "actionType": "",
        "range": {
          "units": "seeText"
        }
      }
    ],
    "uses": {
      "autoDeductChargesCost": ""
    },
    "learnedAt": {
      "class": {
        "sorcerer": 3,
        "wizard": 3
      }
    },
    "level": 3,
    "school": "div",
    "subschool": "scrying",
    "components": {
      "verbal": true,
      "somatic": true,
      "focus": true
    },
    "materials": {
      "focus": "onyx sphere worth at least 50 gp"
    },
    "spellbook": "",
    "sr": false,
    "shortDescription": "<p>This spell allows remote viewing through spheres that have previously consumed some portion of the spellcaster's body: a single digit of a finger or toe at a minimum. The caster can view and listen to events within a 20-foot radius of the associated sphere; this radius follows the sphere if the sphere moves. Unlike a true <i>scrying</i> spell, no other spells operate through the associated sphere, but <i>spherescry</i> produces no indication of its activity on the target and cannot be discovered by normal methods of magical detection.</p>"
  }
}
