{
  "_id": "5j7llv2nys5makeq",
  "name": "Steal Voice",
  "type": "spell",
  "img": "systems/lf1/icons/misc/magic-swirl.png",
  "system": {
    "actions": [
      {
        "_id": "r2c1nd4npnsd0z36",
        "name": "Use",
        "img": "systems/lf1/icons/misc/magic-swirl.png",
        "activation": {
          "type": "standard",
          "unchained": {
            "cost": 2,
            "type": "action"
          }
        },
        "duration": {
          "value": "permanent (D)"
        },
        "target": {
          "value": "one creature"
        },
        "range": {
          "units": "medium"
        },
        "actionType": "spellsave",
        "save": {
          "type": "fort",
          "description": "Fortitude negates"
        }
      }
    ],
    "learnedAt": {
      "class": {
        "sorcerer": 2,
        "wizard": 2,
        "bard": 2,
        "witch": 2,
        "psychic": 2,
        "medium": 2,
        "mesmerist": 2
      }
    },
    "level": 2,
    "school": "nec",
    "components": {
      "verbal": true
    },
    "shortDescription": "<p>The target's throat constricts, giving it the caster croak spellblight (see page 95).</p>"
  }
}
