{
  "_id": "qia86x10ecew51mc",
  "name": "Stricken Heart",
  "type": "spell",
  "img": "systems/lf1/icons/misc/magic-swirl.png",
  "system": {
    "actions": [
      {
        "_id": "sknt7mas8upbbe0d",
        "name": "Use",
        "img": "systems/lf1/icons/misc/magic-swirl.png",
        "activation": {
          "type": "standard",
          "unchained": {
            "cost": 2,
            "type": "action"
          }
        },
        "duration": {
          "value": "instantaneous"
        },
        "target": {
          "value": "creature touched"
        },
        "range": {
          "units": "touch"
        },
        "actionType": ""
      }
    ],
    "learnedAt": {
      "class": {
        "sorcerer": 2,
        "wizard": 2,
        "witch": 2,
        "inquisitor": 2,
        "shaman": 3,
        "psychic": 2,
        "mesmerist": 2,
        "spiritualist": 2
      }
    },
    "level": 2,
    "school": "nec",
    "types": "death",
    "components": {
      "verbal": true,
      "somatic": true
    },
    "shortDescription": "<p>This spell covers your hand with a writhing black aura. As part of casting the spell, you can make a melee touch attack that deals 2d6 points of negative energy damage and causes the target to be staggered for 1 round. If the attack is a critical hit, the target is staggered for 1 minute instead. Creatures immune to precision damage are immune to the staggered effect.</p>"
  }
}
