{
  "_id": "9ueps4vao672p3iu",
  "name": "Summon Genie, Lesser",
  "type": "spell",
  "img": "systems/lf1/icons/misc/magic-swirl.png",
  "system": {
    "actions": [
      {
        "_id": "c79gphgw0knuy76t",
        "name": "Use",
        "img": "systems/lf1/icons/misc/magic-swirl.png",
        "activation": {
          "type": "round",
          "unchained": {
            "cost": 3,
            "type": "action"
          }
        },
        "duration": {
          "value": "1 round/level (D)"
        },
        "range": {
          "units": "close"
        },
        "actionType": "other",
        "spellEffect": "one summoned genie"
      }
    ],
    "learnedAt": {
      "class": {
        "sorcerer": 4,
        "wizard": 4,
        "cleric": 4,
        "oracle": 4,
        "summoner": 3,
        "witch": 4,
        "summonerUnchained": 3
      }
    },
    "level": 4,
    "school": "con",
    "subschool": "summoning",
    "components": {
      "verbal": true,
      "somatic": true,
      "focus": true,
      "divineFocus": 3
    },
    "materials": {
      "focus": "an oil lamp worth at least 50 gp"
    },
    "sr": false,
    "shortDescription": "<p>This spell functions like <i>summon monster I</i>, except you can summon one janni.</p>"
  }
}
