{
  "_id": "mi52crelhwuy6bmp",
  "name": "Summon Monster IX",
  "type": "spell",
  "img": "systems/lf1/icons/misc/magic-swirl.png",
  "system": {
    "actions": [
      {
        "_id": "q71sv9zuxz8uxoyo",
        "name": "Use",
        "img": "systems/lf1/icons/misc/magic-swirl.png",
        "activation": {
          "type": "round",
          "unchained": {
            "cost": 3,
            "type": "action"
          }
        },
        "duration": {
          "value": "1 round/level"
        },
        "range": {
          "units": "close"
        },
        "actionType": "other",
        "spellEffect": "one summoned creature"
      }
    ],
    "learnedAt": {
      "class": {
        "sorcerer": 9,
        "wizard": 9,
        "cleric": 9,
        "oracle": 9,
        "witch": 9,
        "psychic": 9
      },
      "domain": {
        "Chaos": 9,
        "Evil": 9,
        "Good": 9,
        "Law": 9
      },
      "bloodline": {
        "Abyssal": 9
      }
    },
    "level": 9,
    "school": "con",
    "subschool": "summoning",
    "components": {
      "verbal": true,
      "somatic": true,
      "focus": true,
      "divineFocus": 3
    },
    "materials": {
      "focus": "a tiny bag and a small candle"
    },
    "sr": false,
    "shortDescription": "<p>This spell functions like <i>summon monster I,</i> except that you can summon one creature from the 9th-level list, 1d3 creatures of the same kind from the 8th-level list, or 1d4+1 creatures of the same kind from a lower-level list.</p>"
  }
}
