{
  "_id": "uf07uvi98lsd5v8d",
  "name": "Summon Infernal Host",
  "type": "spell",
  "img": "systems/lf1/icons/misc/magic-swirl.png",
  "system": {
    "actions": [
      {
        "_id": "qms7x7z76onm0se9",
        "name": "Use",
        "img": "systems/lf1/icons/misc/magic-swirl.png",
        "activation": {
          "type": "round",
          "unchained": {
            "cost": 3,
            "type": "action"
          }
        },
        "duration": {
          "value": "1 round/level"
        },
        "range": {
          "units": "close"
        },
        "actionType": "other",
        "spellEffect": "1d4+1 lesser host devils or 1 greater host devil"
      }
    ],
    "learnedAt": {
      "class": {
        "sorcerer": 5,
        "wizard": 5,
        "cleric": 5,
        "oracle": 5,
        "bard": 5,
        "summoner": 5,
        "witch": 5,
        "summonerUnchained": 5
      }
    },
    "level": 5,
    "school": "con",
    "subschool": "summoning",
    "types": "evil, lawful",
    "components": {
      "verbal": true,
      "somatic": true,
      "focus": true,
      "divineFocus": 3
    },
    "materials": {
      "focus": "strip of rune-inscribed parchment"
    },
    "sr": false,
    "shortDescription": "<p>This spell functions as <i>summon monster V</i>, save that it can only be used to summon host devils. These noxious flying devils, known also as gaavs and magaavs, are detailed on page 58 of <i>Pathfinder Campaign Setting: Princes of</i> <i>Darkness</i>, <i>Book of the</i> <i>Damned</i>, <i>Vol</i>. <i>1</i>.</p>"
  }
}
