{
  "_id": "ksuwipzgj5956b7p",
  "name": "Summon Flight of Eagles",
  "type": "spell",
  "img": "systems/lf1/icons/misc/magic-swirl.png",
  "system": {
    "actions": [
      {
        "_id": "fgkx6pmygmulum73",
        "name": "Use",
        "img": "systems/lf1/icons/misc/magic-swirl.png",
        "activation": {
          "type": "round",
          "unchained": {
            "cost": 3,
            "type": "action"
          }
        },
        "duration": {
          "value": "10 minutes/level"
        },
        "range": {
          "units": "close"
        },
        "actionType": "other",
        "spellEffect": "1d4+1 summoned creatures"
      }
    ],
    "learnedAt": {
      "class": {
        "sorcerer": 6,
        "wizard": 6,
        "druid": 6,
        "ranger": 4,
        "summoner": 6,
        "witch": 6,
        "bloodrager": 4,
        "shaman": 6,
        "hunter": 4,
        "summonerUnchained": 6
      }
    },
    "level": 6,
    "school": "con",
    "subschool": "summoning",
    "components": {
      "verbal": true,
      "somatic": true,
      "focus": true
    },
    "materials": {
      "focus": "a gold feather worth 100 gp"
    },
    "sr": false,
    "shortDescription": "<p>You summon 1d4+1 giant eagles to serve as you designate. The summoned birds can fight if you wish, but can also serve as mounts.</p>"
  }
}
