{
  "_id": "synnc5y9jy9ngn1h",
  "name": "Sun's Disdain",
  "type": "spell",
  "img": "systems/lf1/icons/misc/magic-swirl.png",
  "system": {
    "actions": [
      {
        "_id": "orfio30xutkgxqga",
        "name": "Use",
        "img": "systems/lf1/icons/misc/magic-swirl.png",
        "activation": {
          "type": "standard",
          "unchained": {
            "cost": 2,
            "type": "action"
          }
        },
        "duration": {
          "value": "permanent"
        },
        "target": {
          "value": "creature touched"
        },
        "range": {
          "units": "touch"
        },
        "actionType": "spellsave",
        "save": {
          "type": "will",
          "description": "Will negates"
        }
      }
    ],
    "learnedAt": {
      "class": {
        "sorcerer": 2,
        "wizard": 2,
        "cleric": 2,
        "oracle": 2,
        "witch": 2,
        "inquisitor": 2,
        "bloodrager": 2,
        "shaman": 2
      }
    },
    "level": 2,
    "school": "trs",
    "types": "curse",
    "components": {
      "verbal": true,
      "somatic": true,
      "material": true
    },
    "materials": {
      "value": "a piece of glass"
    },
    "shortDescription": "<p>You alter a creature so the touch of the sun is hostile to it. The cursed creature gains <i>light</i> blindness and is blinded for 1 round if exposed to bright <i>light</i>, such as sun<i>light</i> or the <i>day<i>light</i></i> spell. The cursed creature is dazzled as long as it remains in areas of bright <i>light</i>, and it is treated as being particularly susceptible to sun<i>light</i> for the purposes of resolving spells like searing <i>light</i>, <i>sunbeam</i>, and <i>sunburst</i>.</p>"
  }
}
