{
  "_id": "mfmo3q7h6kqr15fa",
  "name": "Symbol of Stunning",
  "type": "spell",
  "img": "systems/lf1/icons/misc/magic-swirl.png",
  "system": {
    "actions": [
      {
        "_id": "ddo4g34ixdphbe98",
        "name": "Use",
        "img": "systems/lf1/icons/misc/magic-swirl.png",
        "activation": {
          "cost": 10,
          "type": "minute",
          "unchained": {
            "cost": 10,
            "type": "minute"
          }
        },
        "duration": {
          "value": "see text"
        },
        "range": {
          "value": "0",
          "units": "ft"
        },
        "actionType": "spellsave",
        "save": {
          "type": "will",
          "description": "Will negates"
        },
        "spellEffect": "one symbol"
      }
    ],
    "learnedAt": {
      "class": {
        "sorcerer": 7,
        "wizard": 7,
        "cleric": 7,
        "oracle": 7,
        "witch": 7,
        "occultist": 5
      }
    },
    "level": 7,
    "school": "enc",
    "subschool": "compulsion",
    "types": "mind-affecting",
    "components": {
      "verbal": true,
      "somatic": true,
      "material": true
    },
    "materials": {
      "value": "mercury and phosphorus, plus powdered diamond and opal worth a total of 5,000 gp",
      "gpValue": 5000
    },
    "spellbook": "",
    "preparation": {
      "spontaneousPrepared": false
    },
    "shortDescription": "<p>This spell functions like <i><i>symbol of</i> death</i>, except that all creatures within 60 feet of a <i><i>symbol of</i> <i>stunning</i></i> instead become stunned for 1d6 rounds.</p><p><i>Note:</i> Magic traps such as <i><i>symbol of</i> <i>stunning</i></i> are hard to detect and disable. A rogue (only) can use the Perception skill to find a <i><i>symbol of</i> <i>stunning</i></i> and Disable Device to thwart it. The DC in each case is 25 + spell level, or 32 for <i><i>symbol of</i> <i>stunning</i></i>.</p>"
  }
}
