{
  "_id": "z7n412mo4qaxxb4h",
  "name": "Tectonic Communion",
  "type": "spell",
  "img": "systems/lf1/icons/misc/magic-swirl.png",
  "system": {
    "actions": [
      {
        "_id": "rh0jnsmwsrr22ilw",
        "name": "Use",
        "img": "systems/lf1/icons/misc/magic-swirl.png",
        "activation": {
          "type": "hour",
          "unchained": {
            "type": "hour"
          }
        },
        "duration": {
          "value": "instantaneous"
        },
        "target": {
          "value": "you"
        },
        "range": {
          "units": "personal"
        },
        "actionType": ""
      }
    ],
    "learnedAt": {
      "class": {
        "druid": 7
      }
    },
    "level": 7,
    "school": "div",
    "components": {
      "verbal": true,
      "somatic": true,
      "divineFocus": 1
    },
    "sr": false,
    "shortDescription": "<p><i>Tectonic communion</i> functions as <i>commune with nature</i> with an even greater range. In outdoor or natural underground settings, the spell operates on a radius of 100 miles per caster level, extending even underground without penalty.  For every 2 caster levels above 13th, you may glean an additional fact from the list presented in <i>commune with nature</i>. Communities, dungeons, and signs of civilization (such as roads, farms or other constructions and settlements) exist as dark and unknowable blots in your perception of the spell's area; you're aware of their location and existence, but can't discern any information regarding them.</p>"
  }
}
