{
  "_id": "3mrnqy6jbl4tnlhy",
  "name": "Telekinetic Maneuver",
  "type": "spell",
  "img": "systems/lf1/icons/misc/magic-swirl.png",
  "system": {
    "actions": [
      {
        "_id": "twxketn6g7lveh49",
        "name": "Use",
        "img": "systems/lf1/icons/misc/magic-swirl.png",
        "activation": {
          "type": "standard",
          "unchained": {
            "cost": 2,
            "type": "action"
          }
        },
        "duration": {
          "value": "concentration (up to 1 round/level)"
        },
        "target": {
          "value": "one creature"
        },
        "range": {
          "units": "close"
        },
        "actionType": ""
      }
    ],
    "learnedAt": {
      "class": {
        "sorcerer": 4,
        "wizard": 4,
        "magus": 4,
        "psychic": 3,
        "spiritualist": 4
      }
    },
    "level": 4,
    "school": "trs",
    "components": {
      "verbal": true,
      "somatic": true
    },
    "shortDescription": "<p>This spell functions as <i>telekinesis</i>, but it can be used only to perform a bull rush, disarm, drag, grapple (including pin), reposition, steal, or trip combat maneuver.</p>"
  }
}
