{
  "_id": "2p265l26tq5xh0f6",
  "name": "Thought Shield IV",
  "type": "spell",
  "img": "systems/lf1/icons/misc/magic-swirl.png",
  "system": {
    "actions": [
      {
        "_id": "2t2qn591zdmrmrj6",
        "name": "Use",
        "img": "systems/lf1/icons/misc/magic-swirl.png",
        "activation": {
          "type": "immediate",
          "unchained": {
            "type": "reaction"
          }
        },
        "duration": {
          "value": "1 round"
        },
        "target": {
          "value": "you"
        },
        "range": {
          "units": "personal"
        },
        "actionType": ""
      }
    ],
    "learnedAt": {
      "class": {
        "psychic": 5
      }
    },
    "level": 5,
    "school": "abj",
    "components": {
      "verbal": true
    },
    "sr": false,
    "shortDescription": "<p>This functions as <i>thought shield III</i>, but any creature that tries to read your thoughts while this spell lasts must succeed at a Will save or be stunned for 1d4 rounds. Additionally, if you succeed at your save against a <i>psychic crush</i> spell, you take no damage. This spell can be undercast.</p>"
  }
}
