{
  "_id": "8c326bzvz1dbe6q4",
  "name": "Thunderstomp",
  "type": "spell",
  "img": "systems/lf1/icons/spells/lightning-orange-1.jpg",
  "system": {
    "actions": [
      {
        "_id": "zij76efglsmeeqdy",
        "name": "Use",
        "img": "systems/lf1/icons/spells/lightning-orange-1.jpg",
        "activation": {
          "type": "standard",
          "unchained": {
            "cost": 2,
            "type": "action"
          }
        },
        "duration": {
          "value": "instantaneous"
        },
        "target": {
          "value": "one creature"
        },
        "range": {
          "units": "close"
        },
        "actionType": ""
      }
    ],
    "learnedAt": {
      "class": {
        "sorcerer": 1,
        "wizard": 1,
        "druid": 1,
        "ranger": 1,
        "magus": 1,
        "bloodrager": 1,
        "hunter": 1
      }
    },
    "school": "evo",
    "types": "earth",
    "components": {
      "verbal": true,
      "somatic": true
    },
    "spellbook": "",
    "shortDescription": "<p>You stomp your foot or strike your weapon against the ground or floor, creating a ripple of power that you can use to trip a creature. Attempt the combat maneuver check to trip the target, but instead of your base attack bonus you can use your caster level, and instead of your Strength modifier you can use your spellcasting ability score modifier (Intelligence for magi and wizards; Wisdom for druids and rangers; Charisma for bloodragers and sorcerers). This trip attempt does not provoke an attack of opportunity. This spell has no effect if you cannot reach the ground or floor, or if your target is not in contact with the ground or floor.</p>"
  }
}
