{
  "_id": "m1rmcpcaixcpz9ib",
  "name": "Tongues",
  "type": "spell",
  "img": "systems/lf1/icons/misc/magic-swirl.png",
  "system": {
    "actions": [
      {
        "_id": "rqmfprape2psyhtt",
        "name": "Use",
        "img": "systems/lf1/icons/misc/magic-swirl.png",
        "activation": {
          "type": "standard",
          "unchained": {
            "cost": 2,
            "type": "action"
          }
        },
        "duration": {
          "value": "10 min./level"
        },
        "target": {
          "value": "creature touched"
        },
        "range": {
          "units": "touch"
        },
        "actionType": "spellsave",
        "save": {
          "type": "will",
          "description": "Will negates (harmless)"
        }
      }
    ],
    "learnedAt": {
      "class": {
        "sorcerer": 3,
        "wizard": 3,
        "cleric": 4,
        "oracle": 4,
        "bard": 2,
        "alchemist": 3,
        "summoner": 3,
        "witch": 3,
        "inquisitor": 2,
        "adept": 3,
        "shaman": 4,
        "psychic": 3,
        "medium": 2,
        "mesmerist": 2,
        "spiritualist": 3,
        "summonerUnchained": 3
      },
      "subDomain": {
        "Agathion": 3,
        "Language": 3
      }
    },
    "level": 3,
    "school": "div",
    "components": {
      "verbal": true,
      "material": true,
      "divineFocus": 2
    },
    "materials": {
      "value": "a clay model of a ziggurat"
    },
    "sr": false,
    "shortDescription": "<p>This spell grants the creature touched the ability to speak and understand the language of any intelligent creature, whether it is a racial tongue or a regional dialect. The subject can speak only one language at a time, although it may be able to understand several languages. <i>Tongues</i> does not enable the subject to speak with creatures who don't speak. The subject can make itself understood as far as its voice carries. This spell does not predispose any creature addressed toward the subject in any way.</p><p><i>Tongues</i> can be made permanent with a <i>permanency</i> spell.</p>"
  }
}
