{
  "_id": "ts50hpvkdgerfp1a",
  "name": "Touch of the Sea",
  "type": "spell",
  "img": "systems/lf1/icons/misc/magic-swirl.png",
  "system": {
    "actions": [
      {
        "_id": "cusa9wigymg1rb0p",
        "name": "Use",
        "img": "systems/lf1/icons/misc/magic-swirl.png",
        "activation": {
          "type": "standard",
          "unchained": {
            "cost": 2,
            "type": "action"
          }
        },
        "duration": {
          "value": "1 minute/level"
        },
        "target": {
          "value": "creature touched"
        },
        "range": {
          "units": "touch"
        },
        "actionType": "spellsave",
        "save": {
          "type": "fort",
          "description": "Fortitude negates (harmless)"
        }
      }
    ],
    "learnedAt": {
      "class": {
        "sorcerer": 1,
        "wizard": 1,
        "druid": 1,
        "alchemist": 1,
        "bloodrager": 1,
        "hunter": 1
      }
    },
    "school": "trs",
    "components": {
      "verbal": true,
      "somatic": true,
      "material": true
    },
    "materials": {
      "value": "a fish scale"
    },
    "shortDescription": "<p>You cause webs to grow between the target's fingers and its feet to transform into flippers, granting a swim speed of 30 feet along with the standard +8 bonus on Swim checks and the ability to take 10 even if distracted or endangered. You can also use the run action while swimming, provided you swim in a straight line. This transformation causes any boots or gloves the target is wearing to meld into its form (although magic items with a continuous effect continue to function). This spell does not grant the target any ability to breathe water.</p>"
  }
}
