{
  "_id": "3yeijoqk79r64sp9",
  "name": "Trade Items",
  "type": "spell",
  "img": "systems/lf1/icons/misc/magic-swirl.png",
  "system": {
    "actions": [
      {
        "_id": "a82v2j1as4ci75hw",
        "name": "Use",
        "img": "systems/lf1/icons/misc/magic-swirl.png",
        "activation": {
          "type": "standard",
          "unchained": {
            "cost": 2,
            "type": "action"
          }
        },
        "duration": {
          "value": "instantaneous"
        },
        "target": {
          "value": "one object weighing no more than 5 lbs./level"
        },
        "range": {
          "units": "close"
        },
        "actionType": "spellsave",
        "save": {
          "type": "will",
          "description": "Will negates (object)"
        }
      }
    ],
    "learnedAt": {
      "class": {
        "sorcerer": 4,
        "wizard": 4,
        "bard": 3,
        "summoner": 3,
        "mesmerist": 3,
        "summonerUnchained": 3
      }
    },
    "level": 4,
    "school": "con",
    "subschool": "teleportation",
    "components": {
      "verbal": true,
      "somatic": true
    },
    "shortDescription": "<p>You cause the target object and the object used as a focus for the spell to immediately swap places. The target object appears in your hand (or falls to the ground in your square if you are unable to hold it). The stronger the connection between the two objects, the more difficult the spell is to resist, as indicated on the table below. The modifiers are cumulative. <b>Similarity</b> <b>DC</b> The two objects are the same type of object (such as +1 \"keys,\" \"swords,\" \"scrolls\")  The two objects are made of the same material +1  The two objects have the same weight +1 (accurate to the nearest ounce)  The two objects are part of the same set or made +2 in the exact same mold  The target object has a higher gp value than the focus item -2  The target object is tied its holder, such as a bonded item -2</p>"
  }
}
