{
  "_id": "3fravqa4vrm4ygkr",
  "name": "Transmute Metal to Wood",
  "type": "spell",
  "img": "systems/lf1/icons/misc/magic-swirl.png",
  "system": {
    "actions": [
      {
        "_id": "spyapwbruzlvid3o",
        "name": "Use",
        "img": "systems/lf1/icons/misc/magic-swirl.png",
        "activation": {
          "type": "standard",
          "unchained": {
            "cost": 2,
            "type": "action"
          }
        },
        "duration": {
          "value": "instantaneous"
        },
        "range": {
          "units": "long"
        },
        "actionType": "",
        "spellArea": "all metal objects within a 40-ft.-radius burst",
        "measureTemplate": {
          "type": "circle",
          "size": "40"
        }
      }
    ],
    "uses": {
      "autoDeductChargesCost": ""
    },
    "learnedAt": {
      "class": {
        "druid": 7
      }
    },
    "level": 7,
    "school": "trs",
    "components": {
      "verbal": true,
      "somatic": true,
      "divineFocus": 1
    },
    "spellbook": "",
    "shortDescription": "<p>This spell enables you to change all metal objects within its area to wood. Weapons, armor, and other metal objects carried by creatures are affected as well. A magic object made of metal effectively has spell resistance equal to 20 + its caster level against this spell. Artifacts cannot be transmuted. Weapons converted from metal to wood take a -2 penalty on attack and damage rolls.</p><p>The armor bonus of any armor converted from metal to wood is reduced by 2. Weapons changed by this spell splinter and break on any natural attack roll of 1 or 2, and armor changed by this spell loses an additional point of armor bonus every time it is struck with a natural attack roll of 19 or 20.</p><p>Only <i>limited wish, miracle, wish,</i> or similar magic can restore a transmuted object to its metallic state.</p>"
  }
}
