{
  "_id": "54nk5mvt5tcir34z",
  "name": "Transmute Wine to Blood",
  "type": "spell",
  "img": "systems/lf1/icons/misc/magic-swirl.png",
  "system": {
    "actions": [
      {
        "_id": "autjv0b1ydch4inh",
        "name": "Use",
        "img": "systems/lf1/icons/misc/magic-swirl.png",
        "activation": {
          "type": "standard",
          "unchained": {
            "cost": 2,
            "type": "action"
          }
        },
        "duration": {
          "value": "instantaneous"
        },
        "target": {
          "value": "bottle of wine worth at least 10 gp"
        },
        "range": {
          "units": "touch"
        },
        "actionType": "spellsave",
        "save": {
          "type": "fort",
          "description": "Fortitude negates (object)"
        }
      }
    ],
    "learnedAt": {
      "class": {
        "sorcerer": 2,
        "wizard": 2,
        "cleric": 2,
        "oracle": 2,
        "witch": 2
      }
    },
    "level": 2,
    "school": "trs",
    "components": {
      "verbal": true,
      "somatic": true,
      "material": true
    },
    "materials": {
      "value": "drop of animal blood"
    },
    "shortDescription": "<p>You transform one bottle of fine wine into 1 pint of animal blood, sufficient for a creature with the blood drain ability to feed upon as if it came from a Medium animal with 1 Hit Die. If you are using the optional hunger rules (see page 22), this blood satiates an undead creature's hunger, negating any withdrawal effects, but does not grant the creature a feeding bonus. The blood coagulates and spoils at the normal rate.</p>"
  }
}
