{
  "_id": "1i5uea24eq88q1kw",
  "name": "Transport via Plants",
  "type": "spell",
  "img": "systems/lf1/icons/misc/magic-swirl.png",
  "system": {
    "actions": [
      {
        "_id": "kbv613w0trkxjone",
        "name": "Use",
        "img": "systems/lf1/icons/misc/magic-swirl.png",
        "activation": {
          "type": "standard",
          "unchained": {
            "cost": 2,
            "type": "action"
          }
        },
        "duration": {
          "value": "1 round"
        },
        "target": {
          "value": "you and touched objects or other touched willing creatures"
        },
        "actionType": "",
        "range": {
          "units": "unlimited"
        }
      }
    ],
    "uses": {
      "autoDeductChargesCost": ""
    },
    "learnedAt": {
      "class": {
        "druid": 6,
        "shaman": 7,
        "hunter": 6
      },
      "bloodline": {
        "Verdant": 6
      }
    },
    "level": 6,
    "school": "con",
    "subschool": "teleportation",
    "components": {
      "verbal": true,
      "somatic": true
    },
    "spellbook": "",
    "sr": false,
    "shortDescription": "<p>You can enter any normal plant (equal to your size or larger) and pass any distance to a plant of the same kind in a single round, regardless of the distance separating the two. The plants must be alive. The destination plant need not be familiar to you. If you are uncertain of the location of a particular kind of destination plant, you need merely designate direction and distance and the <i>transport via plants</i> spell moves you as close as possible to the desired location. If a particular destination plant is desired but the plant is not living, the spell fails and you are ejected from the entry plant.</p><p>You can bring along objects as long as their weight doesn't exceed your maximum load. You may also bring one additional willing Medium or smaller creature (carrying gear or objects up to its maximum load) or its equivalent per three caster levels. Use the following equivalents to determine the maximum number of larger creatures you can bring along: a Large creature counts as two Medium creatures, a Huge creature counts as four Medium creatures, and so forth. All creatures to be transported by the spell must be in physical contact with one another, and at least one of those creatures must be in contact with you.</p><p>You can't use this spell to travel through plant creatures.</p><p>The destruction of an occupied plant slays you and any creatures you have brought along, and ejects the bodies and all carried objects from it.</p>"
  }
}
