{
  "_id": "w4cfg5650soihb0g",
  "name": "Triggered Suggestion",
  "type": "spell",
  "img": "systems/lf1/icons/misc/magic-swirl.png",
  "system": {
    "actions": [
      {
        "_id": "k7ih34oggilwfvdq",
        "name": "Use",
        "img": "systems/lf1/icons/misc/magic-swirl.png",
        "activation": {
          "type": "standard",
          "unchained": {
            "cost": 2,
            "type": "action"
          }
        },
        "duration": {
          "value": "1 day/level or until completed"
        },
        "target": {
          "value": "one living creature"
        },
        "range": {
          "units": "close"
        },
        "actionType": "spellsave",
        "save": {
          "type": "will",
          "description": "Will negates"
        }
      }
    ],
    "learnedAt": {
      "class": {
        "sorcerer": 4,
        "wizard": 4,
        "bard": 3,
        "witch": 4,
        "psychic": 4,
        "mesmerist": 3
      }
    },
    "level": 4,
    "school": "enc",
    "subschool": "compulsion",
    "types": "language-dependent, mind-affecting",
    "components": {
      "verbal": true,
      "material": true
    },
    "materials": {
      "value": "a snake's tongue and a honeycomb"
    },
    "shortDescription": "<p>This spell functions as <i>suggestion</i>, except you can use it only to specify a condition that triggers a special activity, and the subject does not remember that you made the <i>suggestion</i>.</p><p>For example, you could use triggered <i>suggestion</i> on a palace guard to make him attack the king the next time he and the king are alone, and the guard would not remember the <i>suggestion</i> to do so until the trigger occurred.</p>"
  }
}
