{
  "_id": "zlff9cmygw2tf3jo",
  "name": "True Prognostication",
  "type": "spell",
  "img": "systems/lf1/icons/misc/magic-swirl.png",
  "system": {
    "actions": [
      {
        "_id": "I5L85tP2j4GAQzpL",
        "name": "Use",
        "img": "systems/lf1/icons/misc/magic-swirl.png",
        "activation": {
          "type": "standard",
          "unchained": {
            "cost": 2,
            "type": "action"
          }
        },
        "duration": {
          "value": ""
        },
        "range": {
          "units": "personal"
        },
        "actionType": ""
      }
    ],
    "uses": {
      "autoDeductChargesCost": ""
    },
    "learnedAt": {
      "class": {
        "cleric": 8,
        "oracle": 8,
        "witch": 8,
        "shaman": 8,
        "psychic": 8
      }
    },
    "level": 8,
    "school": "div",
    "components": {
      "verbal": true,
      "somatic": true,
      "material": true
    },
    "materials": {
      "value": "rare incense and tonics worth 1,000 gp",
      "gpValue": 1000
    },
    "spellbook": "",
    "preparation": {
      "spontaneousPrepared": false
    },
    "sr": false,
    "shortDescription": "<p><i>True prognostication</i> functions as <i>divination</i> except that the spell can see up to 100 years into the future. Because of the extreme unpredictability of the far-distant future, <i>true prognostication</i> is incredibly cryptic when used to learn about events on such large a scale.</p>"
  }
}
