{
  "_id": "xy93xzhyd1ikts79",
  "name": "Unholy Ward",
  "type": "spell",
  "img": "systems/lf1/icons/misc/magic-swirl.png",
  "system": {
    "actions": [
      {
        "_id": "v0fxy3apzwimd2dl",
        "name": "Use",
        "img": "systems/lf1/icons/misc/magic-swirl.png",
        "activation": {
          "type": "standard",
          "unchained": {
            "cost": 2,
            "type": "action"
          }
        },
        "duration": {
          "value": "10 minutes/level (D)"
        },
        "target": {
          "value": "you"
        },
        "range": {
          "units": "personal"
        },
        "actionType": "spellsave",
        "save": {
          "type": "fort",
          "description": "Fort negates (harmless)"
        }
      }
    ],
    "learnedAt": {
      "class": {
        "sorcerer": 4,
        "wizard": 4,
        "cleric": 4,
        "oracle": 4,
        "inquisitor": 3,
        "antipaladin": 3
      }
    },
    "level": 4,
    "school": "abj",
    "types": "evil",
    "components": {
      "verbal": true,
      "somatic": true,
      "divineFocus": 1
    },
    "shortDescription": "<p>This spell grants you resistance to the holy powers of good-aligned deities and their servants. You resist 10 points of damage from holy sources (divine power damage from <i>flame strike</i>, additional damage from smite evil, channeled positive energy, etc.), provided they originate from a good-aligned source or a servant of a good-aligned god. You ignore a maximum of 10 points of damage per caster level, at which point the spell ends.</p>"
  }
}
