{
  "_id": "flrn1xmm2wfrxbkf",
  "name": "Unholy Aura",
  "type": "spell",
  "img": "systems/lf1/icons/misc/magic-swirl.png",
  "system": {
    "actions": [
      {
        "_id": "nti298uh6hiinyau",
        "name": "Use",
        "img": "systems/lf1/icons/misc/magic-swirl.png",
        "activation": {
          "type": "standard",
          "unchained": {
            "cost": 2,
            "type": "action"
          }
        },
        "duration": {
          "value": "1 round/level"
        },
        "target": {
          "value": "one creature/level in a 20-ft.-radius burst centered on you"
        },
        "range": {
          "value": "20",
          "units": "ft"
        },
        "actionType": "spellsave",
        "save": {
          "description": "see text"
        }
      }
    ],
    "learnedAt": {
      "class": {
        "cleric": 8,
        "oracle": 8
      },
      "domain": {
        "Evil": 8
      },
      "bloodline": {
        "Abyssal": 8,
        "Ghoul": 8
      }
    },
    "level": 8,
    "school": "abj",
    "types": "evil",
    "components": {
      "verbal": true,
      "somatic": true,
      "focus": true
    },
    "materials": {
      "focus": "a tiny reliquary worth 500 gp"
    },
    "shortDescription": "<p>A malevolent darkness surrounds the subjects, protecting them from attacks, granting them resistance to spells cast by good creatures, and weakening good creatures when they strike the subjects. This abjuration has four effects.</p><p>First, each warded creature gains a +4 deflection bonus to AC and a +4 resistance bonus on saves. Unlike the effect of <i>Protection from Good</i>, this benefit applies against all attacks, not just against attacks by good creatures.</p><p>Second, a warded creature gains SR 25 against good spells and spells cast by good creatures.</p><p>Third, the abjuration protects the subjects from possession and mental influence, just as <i>Protection from Good</i> does.</p><p>Finally, if a good creature succeeds on a melee attack against a warded creature, the offending attacker takes 1d6 points of Strength damage (Fortitude negates).</p>"
  }
}
