{
  "_id": "6eh8zc5ohjqt2n8y",
  "name": "Utter Contempt",
  "type": "spell",
  "img": "systems/lf1/icons/misc/magic-swirl.png",
  "system": {
    "actions": [
      {
        "_id": "pnvztetodikgi8rv",
        "name": "Use",
        "img": "systems/lf1/icons/misc/magic-swirl.png",
        "activation": {
          "type": "standard",
          "unchained": {
            "cost": 2,
            "type": "action"
          }
        },
        "duration": {
          "value": "1 minute/level"
        },
        "target": {
          "value": "one creature"
        },
        "range": {
          "units": "close"
        },
        "actionType": "spellsave",
        "save": {
          "type": "will",
          "description": "Will negates"
        }
      }
    ],
    "learnedAt": {
      "class": {
        "sorcerer": 6,
        "wizard": 6,
        "bard": 4,
        "antipaladin": 3,
        "psychic": 5,
        "mesmerist": 4
      }
    },
    "level": 6,
    "school": "enc",
    "types": "emotion",
    "components": {
      "verbal": true,
      "somatic": true,
      "material": true
    },
    "materials": {
      "value": "spittle"
    },
    "shortDescription": "<p>You fill the target's heart with malice for all other creatures.</p><p>The target's attitude toward all creatures other than itself worsens by two steps.</p>"
  }
}
