{
  "name": "Veil of Ash (3.5)",
  "type": "spell",
  "img": "icons/magic/air/fog-gas-smoke-gray.webp",
  "system": {
    "actions": [
      {
        "_id": "4wb1m25ofxRpbves",
        "name": "Use",
        "img": "icons/magic/air/fog-gas-smoke-gray.webp",
        "activation": {
          "type": "standard",
          "unchained": {
            "cost": 2,
            "type": "action"
          }
        },
        "duration": {
          "value": "1 round/level"
        },
        "target": {
          "value": "one creature"
        },
        "range": {
          "units": "close"
        },
        "actionType": "spellsave",
        "damage": {
          "parts": [
            {
              "formula": "1d6",
              "type": {
                "values": ["fire"],
                "custom": ""
              }
            }
          ]
        },
        "save": {
          "type": "fort",
          "description": "Fortitude negates"
        }
      }
    ],
    "uses": {
      "autoDeductChargesCost": ""
    },
    "learnedAt": {
      "class": {
        "arcanist": 2,
        "sorcerer": 2,
        "wizard": 2
      }
    },
    "level": 2,
    "school": "evo",
    "types": "fire",
    "components": {
      "verbal": true,
      "somatic": true,
      "material": true
    },
    "materials": {
      "value": "a pinch of ash"
    },
    "spellbook": "",
    "shortDescription": "<p>This spell causes a small cloud of searing, choking ash to appear around the face of the target. The creature must succeed at a Fortitude saving throw or take 1d6 points of fire damage and be @UUID[Compendium.lf1.lf1-rules.NSqfXaj4MevUR2uJ.JournalEntryPage.A9KUpd2bsdZZsQqj]{blinded}. The victim must make a new save against damage and blindness for each round the spell persists. The target must have a discernable anatomy and no more than one head in order to be blinded. Undead, constructs, and creatures without eyes or who don’t rely on sight to sense their surroundings can be damaged by this spell, but not blinded.</p><p>A moderate wind (11+ mph) disperses the ash cloud in 2 rounds; a strong wind (21+ mph) disperses the cloud in 1 round.</p><p>This spell does not function underwater.</p>"
  },
  "_id": "O8h91bExN8WP93WW"
}
