{
  "_id": "d6e08tsx2ptxx0xo",
  "name": "Vengeful Stinger",
  "type": "spell",
  "img": "systems/lf1/icons/misc/magic-swirl.png",
  "system": {
    "actions": [
      {
        "_id": "001ppzoar8dmc3v0",
        "name": "Use",
        "img": "systems/lf1/icons/misc/magic-swirl.png",
        "activation": {
          "type": "standard",
          "unchained": {
            "cost": 2,
            "type": "action"
          }
        },
        "duration": {
          "value": "1 round/level"
        },
        "target": {
          "value": "you"
        },
        "range": {
          "units": "personal"
        },
        "actionType": "spellsave",
        "save": {
          "type": "fort",
          "description": "Fortitude negates; see text"
        }
      }
    ],
    "learnedAt": {
      "class": {
        "sorcerer": 5,
        "wizard": 5,
        "cleric": 6,
        "oracle": 6,
        "summoner": 5,
        "witch": 5,
        "summonerUnchained": 5
      }
    },
    "level": 5,
    "school": "trs",
    "subschool": "polymorph",
    "types": "poison",
    "components": {
      "verbal": true,
      "somatic": true,
      "material": true,
      "divineFocus": 1
    },
    "materials": {
      "value": "a living wasp"
    },
    "sr": false,
    "shortDescription": "<p>You grow a long, wasp-like tail complete with stinger that can strike those who dare attack you. While you are under the effects of this spell, when a creature adjacent to you hits you with a melee attack, you can make an attack of opportunity with your stinging tail, even if your opponent's attack would not otherwise provoke an attack of opportunity. You must otherwise be eligible to make an attack of opportunity to use this ability. The attack is made with your full attack bonus, and with a +2 sacred bonus on the attack roll. The stinging tail is considered a light weapon with a critical range of 19-20/x2.</p><p>On a successful hit, the target takes 1d8 points of damage plus an amount of damage equal your Strength modifier and must succeed at a Fortitude save or it takes 1d4 points of Dexterity damage. This poison damage is also modified on a confirmed critical hit.</p>"
  }
}
