{
  "_id": "d8ok0wwf6twlqiho",
  "name": "Venomous Bolt",
  "type": "spell",
  "img": "systems/lf1/icons/misc/magic-swirl.png",
  "system": {
    "actions": [
      {
        "_id": "3l23nqc3htsrth2q",
        "name": "Use",
        "img": "systems/lf1/icons/misc/magic-swirl.png",
        "activation": {
          "type": "swift",
          "unchained": {
            "type": "action"
          }
        },
        "duration": {
          "value": "instantaneous"
        },
        "target": {
          "value": "one arrow or bolt"
        },
        "range": {
          "value": "0",
          "units": "ft"
        },
        "actionType": "spellsave",
        "save": {
          "type": "fort",
          "description": "Fortitude negates; see text"
        }
      }
    ],
    "learnedAt": {
      "class": {
        "ranger": 3,
        "hunter": 3
      }
    },
    "level": 3,
    "school": "nec",
    "types": "poison",
    "components": {
      "verbal": true,
      "somatic": true
    },
    "shortDescription": "<p>You infuse a single arrow or crossbow bolt with natural venom as you fire it. In addition to its normal damage, anyone struck by this arrow or bolt is affected as if by the <i>poison</i> spell. If the arrow is not fired immediately, the spell ends with no effect.</p>"
  }
}
