{
  "_id": "qjbs1htrf2de3kqd",
  "name": "Vexing Miscalculation",
  "type": "spell",
  "img": "systems/lf1/icons/misc/magic-swirl.png",
  "system": {
    "actions": [
      {
        "_id": "kyb0pcuxwymhhagx",
        "name": "Use",
        "img": "systems/lf1/icons/misc/magic-swirl.png",
        "activation": {
          "type": "standard",
          "unchained": {
            "cost": 2,
            "type": "action"
          }
        },
        "duration": {
          "value": "1 minute/level or until discharged"
        },
        "target": {
          "value": "one creature"
        },
        "range": {
          "units": "close"
        },
        "actionType": "spellsave",
        "save": {
          "type": "will",
          "description": "Will negates"
        }
      }
    ],
    "learnedAt": {
      "class": {
        "cleric": 2,
        "oracle": 2,
        "witch": 2,
        "inquisitor": 2
      }
    },
    "level": 2,
    "school": "enc",
    "subschool": "compulsion",
    "types": "mind-affecting",
    "components": {
      "verbal": true,
      "somatic": true
    },
    "shortDescription": "<p>You frustrate an opponent with ill fortune that leads even its most accurate attacks astray. The target is unable to score critical threats for the duration of this spell, even if the result of its roll would normally be a critical threat. If the creature rolls a natural 20, the attack still hits regardless of its opponent's AC, but the hit is not eligible for a critical confirmation roll. Once a critical threat has been foiled by <i>vexing miscalculation</i>, the spell is discharged.</p>"
  }
}
