{
  "_id": "kg0bw8dv660csdis",
  "name": "Wall of Blindness/Deafness",
  "type": "spell",
  "img": "systems/lf1/icons/misc/magic-swirl.png",
  "system": {
    "actions": [
      {
        "_id": "9f1k6i4u6aupb48v",
        "name": "Use",
        "img": "systems/lf1/icons/misc/magic-swirl.png",
        "activation": {
          "type": "standard",
          "unchained": {
            "cost": 2,
            "type": "action"
          }
        },
        "duration": {
          "value": "concentration + 1 round/level"
        },
        "range": {
          "units": "medium"
        },
        "actionType": "spellsave",
        "save": {
          "type": "fort",
          "description": "Fortitude negates"
        },
        "spellEffect": "translucent wall 20 ft. long/level or a translucent ring with a radius of up to 5 ft./two levels; either form 20 ft. high"
      }
    ],
    "learnedAt": {
      "class": {
        "sorcerer": 4,
        "wizard": 4,
        "cleric": 5,
        "oracle": 5,
        "bard": 4,
        "witch": 4,
        "psychic": 4
      }
    },
    "level": 4,
    "school": "nec",
    "components": {
      "verbal": true,
      "somatic": true
    },
    "shortDescription": "<p>You create a translucent wall of energy, within which can be seen indistinct images of faces with their eyes or ears sewn shut. When you create the wall, decide whether it blinds or deafens. Any creature that passes through the wall must save or become permanently blinded or deafened (as blindness/deafness).  The wall must be vertical and either rectangular or a ring. It need not touch the ground. The wall must be continuous and unbroken when formed. If its surface is broken by any object or creature when it is cast, the spell fails.</p>"
  }
}
