{
  "_id": "3wdx7fjulsohi1lk",
  "name": "Weird",
  "type": "spell",
  "img": "systems/lf1/icons/misc/magic-swirl.png",
  "system": {
    "actions": [
      {
        "_id": "d5qchgcly19gunjr",
        "name": "Use",
        "img": "systems/lf1/icons/misc/magic-swirl.png",
        "activation": {
          "type": "standard",
          "unchained": {
            "cost": 2,
            "type": "action"
          }
        },
        "duration": {
          "value": "instantaneous"
        },
        "target": {
          "value": "any number of creatures, no two of which can be more than 30 ft. apart"
        },
        "range": {
          "units": "medium"
        },
        "actionType": "spellsave",
        "save": {
          "type": "fort",
          "description": "Will disbelief, then Fortitude partial; see text"
        }
      }
    ],
    "learnedAt": {
      "class": {
        "sorcerer": 9,
        "wizard": 9,
        "psychic": 9
      },
      "domain": {
        "Madness": 9
      },
      "subDomain": {
        "Nightmare": 9
      },
      "bloodline": {
        "Harrow": 9
      }
    },
    "level": 9,
    "school": "ill",
    "subschool": "phantasm",
    "types": "fear, mind-affecting, emotion",
    "components": {
      "verbal": true,
      "somatic": true
    },
    "shortDescription": "<p>This spell functions like <i>phantasmal killer</i>, except it can affect more than one creature. Only the affected creatures see the phantasmal creatures attacking them, though you see the attackers as shadowy shapes.</p><p>If a subject's Fortitude save succeeds, it still takes 3d6 points of damage and is stunned for 1 round. The subject also takes 1d4 points of Strength damage.</p>"
  }
}
