{
  "_id": "9fd7mcoint902oyb",
  "name": "Wooden Phalanx",
  "type": "spell",
  "img": "systems/lf1/icons/misc/magic-swirl.png",
  "system": {
    "actions": [
      {
        "_id": "lczb28pt1gpiuvai",
        "name": "Use",
        "img": "systems/lf1/icons/misc/magic-swirl.png",
        "activation": {
          "type": "standard",
          "unchained": {
            "cost": 2,
            "type": "action"
          }
        },
        "duration": {
          "value": "1 hour/level (D)"
        },
        "range": {
          "units": "medium"
        },
        "actionType": "other",
        "spellEffect": "three or more wood golems, no two of which can be more than 30 ft. apart (see text)"
      }
    ],
    "learnedAt": {
      "class": {
        "sorcerer": 9,
        "wizard": 9,
        "cleric": 9,
        "oracle": 9
      },
      "subDomain": {
        "Industry": 9
      }
    },
    "level": 9,
    "school": "con",
    "subschool": "creation",
    "components": {
      "verbal": true,
      "somatic": true
    },
    "sr": false,
    "shortDescription": "<p>You create 1d4+2 wood golems with the advanced template (<i>Bestiary</i> 164, 294). The golems willingly aid you in combat or battle, perform a specific mission, or serve as bodyguards. You can only have one <i>wooden phalanx</i> spell in effect at one time.</p><p>If you cast this spell while another casting is still in effect, the previous casting is dispelled.</p>"
  }
}
