{
  "_id": "5nxfoXZ5KpOFYpLm",
  "name": "Adept",
  "type": "class",
  "img": "systems/lf1/icons/items/inventory/book-blue.jpg",
  "system": {
    "description": {
      "value": "<p><b>Alignment:</b> Any.</p>\n<p><b>Hit Die</b>: d6.</p>\n<h2>Class Skills</h2>\n<p>The adept’s class skills (and the key ability for each skill) are <em>Craft</em> (<em>Int</em>), <em>Handle Animal</em> (<em>Cha</em>), <em>Heal</em> (<em>Wis</em>), <em>Knowledge</em> (all skills taken individually) (<em>Int</em>), <em>Profession</em> (<em>Wis</em>), <em>Spellcraft</em> (<em>Int</em>), and <em>Survival</em> (<em>Wis</em>).</p>\n<p><b>Skill Ranks per Level</b>: 2 + <em>Int</em> modifier.</p>"
    },
    "tag": "adept",
    "useCustomTag": true,
    "weaponProf": {
      "value": ["sim"]
    },
    "subType": "npc",
    "hd": 6,
    "hp": 6,
    "skillsPerLevel": 2,
    "savingThrows": {
      "will": {
        "value": "high"
      }
    },
    "classSkills": {
      "crf": true,
      "art": true,
      "han": true,
      "hea": true,
      "kar": true,
      "kdu": true,
      "ken": true,
      "kge": true,
      "khi": true,
      "klo": true,
      "kna": true,
      "kno": true,
      "kpl": true,
      "kre": true,
      "lor": true,
      "pro": true,
      "spl": true,
      "sur": true
    }
  }
}
