{
  "_id": "jKH9m5QF1jCnU3s0",
  "name": "Commoner",
  "type": "class",
  "img": "systems/lf1/icons/items/inventory/ladle.jpg",
  "system": {
    "description": {
      "value": "<p><b>Alignment:</b> Any.</p>\n<p><b>Hit Die</b>: d6.</p>\n<h2>Class Skills</h2>\n<p>The commoner’s class skills (and the key ability for each skill) are <em>Climb</em> (<em>Str</em>), <em>Craft</em> (<em>Int</em>), <em>Handle Animal</em> (<em>Cha</em>), <em>Perception</em> (<em>Wis</em>), <em>Profession</em> (<em>Wis</em>), <em>Ride</em> (<em>Dex</em>), and <em>Swim</em> (<em>Str</em>).</p>\n<p><b>Skill Ranks per Level</b>: 2 + <em>Int</em> modifier.</p>"
    },
    "tag": "commoner",
    "useCustomTag": true,
    "weaponProf": {
      "custom": "1 simple weapon"
    },
    "subType": "npc",
    "hd": 6,
    "hp": 6,
    "skillsPerLevel": 2,
    "classSkills": {
      "clm": true,
      "art": true,
      "crf": true,
      "han": true,
      "lor": true,
      "per": true,
      "pro": true,
      "rid": true,
      "swm": true
    }
  }
}
