{
  "_id": "0c4lYDywj6bQ0i8r",
  "name": "Wizard",
  "type": "class",
  "img": "systems/lf1/icons/spells/beam-magenta-3.jpg",
  "system": {
    "description": {
      "value": "<p>Beyond the veil of the mundane hide the secrets of absolute power. The works of beings beyond mortals, the legends of realms where gods and spirits tread, the lore of creations both wondrous and terrible—such mysteries call to those with the ambition and the intellect to rise above the common folk to grasp true might. Such is the path of the wizard. These shrewd magic-users seek, collect, and covet esoteric knowledge, drawing on cultic arts to work wonders beyond the abilities of mere mortals. While some might choose a particular field of magical study and become masters of such powers, others embrace versatility, reveling in the unbounded wonders of all magic. In either case, wizards prove a cunning and potent lot, capable of smiting their foes, empowering their allies, and shaping the world to their every desire.</p>\n<p>Role: While universalist wizards might study to prepare themselves for any manner of danger, specialist wizards research schools of magic that make them exceptionally skilled within a specific focus. Yet no matter their specialty, all wizards are masters of the impossible and can aid their allies in overcoming any danger.</p>\n<p><b>Alignment</b>: Any</p>\n<p><b>Hit Die</b>: d6</p>\n<p><b>Starting Wealth</b>: 2d6 × 10 gp (average 70 gp.) In addition, each character begins play with an outfit worth 10 gp or less.</p>\n<h2>Class Skills</h2>\n<p>The wizard’s class skills are <em>Appraise</em> (<em>Int</em>), <em>Craft</em> (<em>Int</em>), <em>Fly</em> (<em>Dex</em>), <em>Knowledge</em> (all) (<em>Int</em>), <em>Linguistics</em> (<em>Int</em>), <em>Profession</em> (<em>Wis</em>), and <em>Spellcraft</em> (<em>Int</em>).</p>\n<p><b>Skill Ranks per Level</b>: 2 + <em>Int</em> modifier.</p>"
    },
    "links": {
      "classAssociations": [
        {
          "name": "Arcane Bond",
          "level": 1,
          "uuid": "Compendium.lf1.class-abilities.pW1PNlDcdGl7KuEa"
        },
        {
          "name": "Arcane School",
          "level": 1,
          "uuid": "Compendium.lf1.class-abilities.20JWTam2dn7jjZFV"
        },
        {
          "name": "Scribe Scroll",
          "level": 1,
          "uuid": "Compendium.lf1.class-abilities.BS9WDbCy2Up3QHw9"
        },
        {
          "name": "Bonus Feats (WIZ)",
          "level": 5,
          "uuid": "Compendium.lf1.class-abilities.2h3lI574tmVjOalQ"
        }
      ]
    },
    "tag": "wizard",
    "useCustomTag": true,
    "weaponProf": {
      "custom": "Club;Dagger;Heavy Crossbow;Light Crossbow;Quarterstaff"
    },
    "hd": 6,
    "hp": 6,
    "skillsPerLevel": 2,
    "savingThrows": {
      "will": {
        "value": "high"
      }
    },
    "classSkills": {
      "apr": true,
      "art": true,
      "crf": true,
      "fly": true,
      "kar": true,
      "kdu": true,
      "ken": true,
      "kge": true,
      "khi": true,
      "klo": true,
      "kna": true,
      "kno": true,
      "kpl": true,
      "kre": true,
      "lin": true,
      "lor": true,
      "pro": true,
      "spl": true
    },
    "casting": {
      "type": "prepared",
      "progression": "high",
      "ability": "int",
      "spells": "arcane",
      "domainSlots": 1
    }
  }
}
